length,160000.0,x_res:,128,y_res:,64,time in secs:,9.30571699142456
length,80000.0,x_res:,128,y_res:,64,time in secs:,10.39739179611206
length,40000.0,x_res:,128,y_res:,64,time in secs:,11.590511798858643
length,20000.0,x_res:,128,y_res:,64,time in secs:,13.158258438110352
length,10000.0,x_res:,128,y_res:,64,time in secs:,11.76408863067627
length,5000.0,x_res:,128,y_res:,64,time in secs:,12.154441118240356
