X,Y,surf vx,surf vy,tauxy integr. above,tauxy dir. above,secinvare integr. above,secinvar dir. above,tauxy integr. below,tauxy dir. below,secinvare integr. below,secinvar dir. below,P integr.,P dir.,
0.0,1000.0,20.9419329637,8.18010832323,58829.9759636,58722.9747509,71192.7658889,71044.6844971,-75525.7564505,-120142.496374,125317.21271,129268.901066,8434616.78352,8695528.52852
78.125,1024.53383716,20.7445606386,8.07545924062,58829.9759636,58940.9199215,71201.097075,71032.8857851,-75525.7564505,-33741.0957937,74785.8377292,46370.6666463,8434616.78352,8181300.19876
156.25,1049.00857016,20.5198755055,8.11518164631,58288.4221301,58270.13167,71186.4652467,71592.8448219,-323.951469331,39477.4873117,122155.011676,92942.0673138,8224511.94545,8254848.75856
234.375,1073.36523723,20.2828012926,7.95316462833,59142.7316781,59274.9190432,71132.0490938,71155.3911589,36024.7263589,74753.5764407,215624.991393,186224.15783,8018146.54454,7750906.57717
312.5,1097.54516101,20.0173852659,7.95124629843,58547.0296736,58548.9448699,71081.9457886,71666.6690695,107364.281276,143694.32176,313793.50397,292831.728426,7809452.0974,7818073.562
390.625,1121.49008995,19.7370778808,7.72915974526,59542.2270013,59685.1216097,70984.1210783,71226.0936525,140481.471248,174798.031457,410492.096197,384335.030896,7606053.42254,7327499.64627
468.75,1145.14233863,19.4301115195,7.68779618349,59002.8708238,59013.1786173,70889.5989973,71666.9420434,205600.04402,236781.377999,505133.560447,485953.316855,7401177.2644,7390226.69262
546.875,1168.4449267,19.1090101579,7.40480436423,60074.2107781,60224.9572376,70742.459457,71219.4959581,233147.832131,261807.256323,596317.222131,572417.349278,7202612.65168,6915071.58425
625.0,1191.34171618,18.7620235141,7.32505131084,59627.4214618,59636.401192,70606.2547181,71588.1522278,290795.05124,315658.162993,684043.121937,666697.011512,7003597.20661,6975464.89628
703.125,1213.77754672,18.4044491847,6.98426516791,59163.4583731,59417.0266118,70414.1766127,69452.3485122,311121.896573,332867.778527,767588.546617,746207.071326,6645751.76517,6516685.73827
781.25,1235.69836841,18.0234892603,6.86759059197,58885.4787923,58879.398764,70241.4471151,69811.5835104,359977.908846,377684.074753,847082.733107,832263.053171,6459113.8715,6574989.17029
859.375,1257.0513721,17.6354251595,6.47310579203,59913.8378405,60162.6522524,70015.1957816,69292.9989434,372332.026437,386414.471954,922028.209605,903992.159945,6280467.16631,6127827.70042
937.5,1277.78511651,17.228692971,6.3241590176,59729.4004798,59742.6039168,69810.2962556,69630.6792195,411594.051628,421485.114226,992623.229857,980958.829137,6103052.55981,6191991.87823
1015.625,1297.84965225,16.8208928367,5.88322051367,60778.1122729,61013.933985,69559.0332307,69080.3742427,482682.918121,499545.505989,1058554.52353,1040095.4937,5934720.6568,5760411.17697
1093.75,1317.19664208,16.3988420496,5.70600989679,60660.4436947,60688.0482079,69335.690683,69415.2582392,510360.914804,521738.808366,1120073.38032,1104947.15265,5768032.33793,5831407.74631
1171.875,1335.77947742,15.9840012556,5.23043663993,61732.8114806,61949.5648801,69065.9266861,68832.9325764,503225.649247,510862.172759,1176931.19208,1156775.30846,5611831.66561,5418674.1742
1250.0,1353.55339059,15.561014891,5.03085886935,61650.0423639,61686.7850634,68840.2721776,69175.2403998,520692.187778,522977.490297,1229443.22338,1211832.91111,5457280.68379,5496546.20846
1328.125,1370.47556268,15.1537431386,4.5341229165,62741.2013125,62935.9129121,68560.4456322,68580.585797,504777.42028,503263.088485,1277464.86073,1256103.23426,5314865.1389,5106532.58824
1406.25,1386.50522668,14.7455841243,4.31998396211,62672.9814125,62712.5376664,68345.2962971,68917.0414663,512513.392649,505931.074614,1321335.37202,1301723.63398,5173827.15654,5190670.25979
1484.375,1401.60376574,14.3625797879,3.81870537792,63752.4067625,63921.7439438,68064.9638151,68343.3297165,488550.714163,478307.68046,1360971.67706,1338887.59178,5046605.62337,4827422.80435
1562.5,1415.73480615,13.9861869827,3.5975672429,63699.4941899,63738.303051,67868.604314,68654.5385889,487322.487912,472388.121271,1396694.07451,1375601.73934,4920452.59817,4916897.16839
1640.625,1428.864305,13.6434673846,3.1097542565,64711.6722879,64845.6182664,67595.3048761,68125.3215115,456246.42983,437942.44837,1428504.9521,1406129.57804,4809571.84217,4584055.67319
1718.75,1440.96063217,13.3162757,2.89023484293,63136.3460776,63259.3592093,67419.3980075,66916.4745672,447021.948299,424545.239675,1456639.942,1434616.15727,4575042.61195,4678331.21497
1796.875,1451.99464656,13.0288015206,2.43179080204,63974.8945701,64106.999986,67158.9432903,66356.1347465,409944.857522,384465.247364,1481212.21872,1458946.83958,4484014.9075,4382781.63907
1875.0,1461.93976626,12.7655431409,2.22126850307,64013.1123665,64123.4357181,66995.7739919,66662.6263551,393797.202297,364800.07195,1502334.17587,1479907.78912,4393838.89436,4482601.48399
1953.125,1470.77203259,12.5462682074,1.80558894015,64677.4778708,64757.2036211,66752.2094053,66172.4012322,351955.155166,320402.815467,1520227.31749,1498435.47745,4320371.28064,4223638.68613
2031.25,1478.47016787,12.3584163035,1.60564086116,64722.9803411,64808.6747238,66595.7585832,66399.3647754,330036.635294,295690.826001,1534893.43461,1512545.83835,4248248.55989,4326327.44432
2109.375,1485.0156266,12.2139832026,1.23964951941,65180.3278155,65208.651332,66369.6574706,65966.7243253,284712.271722,248356.425381,1546615.93785,1525622.7208,4193064.70752,4104049.09051
2187.5,1490.3926402,12.1068306008,1.04502684469,65226.5847018,65288.0443067,66225.6920446,66129.6993763,258266.125865,219871.054572,1555347.97995,1533482.55736,4139836.02288,4211287.05894
2265.625,1494.58825498,12.0354162981,0.722648833599,65483.9875943,65470.8380112,66032.02347,65756.5826793,210763.576225,170961.088336,1561361.71675,1541468.52552,4103685.5283,4025655.72708
2343.75,1497.59236334,11.9958955579,0.523605471128,65532.6050488,65580.936321,65930.9938639,65888.0371978,181147.500605,140086.142104,1564600.59414,1543566.34917,4069955.97825,4138740.1792
2421.875,1499.3977281,11.9799331131,0.226095106227,65619.7411421,65587.4037775,65813.5758501,65614.5405435,132863.759475,91020.6699759,1565241.61485,1546764.80153,4053487.68641,3989765.82493
2500.0,1500.0,11.9718088218,0.0183224792278,65681.7081066,65723.8933808,65808.7419026,65759.686558,101600.897905,59273.1444926,1563162.45868,1543337.6285,4039469.91966,4109082.82352
2578.125,1499.3977281,11.9788838618,-0.268955119405,65608.1007076,65575.3300951,65814.1180081,65633.0576735,54002.0288709,11555.9248597,1558414.77155,1541710.0357,4042807.10298,3996612.34304
2656.25,1497.59236334,11.9903242392,-0.488955924365,65693.6291651,65728.5760316,65927.6135704,65820.7585292,22638.2146253,-19538.3761431,1550784.90206,1532557.77268,4048131.68748,4121555.80029
2734.375,1494.58825498,12.0333534945,-0.771723700171,65455.964415,65426.1193066,66039.0278627,65818.4708127,-23012.3093621,-64592.8563792,1540347.98915,1525693.91786,4070761.63693,4045255.27808
2812.5,1490.3926402,12.0938150248,-1.00300974146,65564.2017223,65589.6814967,66226.9070174,66024.0784068,-53191.462738,-93768.3185544,1526857.52985,1510530.81069,4094944.95152,4175293.07278
2890.625,1485.0156266,12.2062523431,-1.29830538221,65163.2050466,65121.6762907,66385.364333,66072.02585,-95840.9275231,-135096.765593,1510513.45713,1498071.83824,4136368.37538,4134955.22052
2968.75,1478.47016787,12.3439422815,-1.55176310868,65258.0183925,65266.0336429,66600.8841195,66256.5083093,-123649.969616,-161218.672406,1490985.31171,1476832.39659,4179308.07794,4270357.97361
3046.875,1470.77203259,12.5333122306,-1.8703639718,64694.0819679,64625.0953266,66774.7244899,66319.9487339,-162128.995464,-197707.392765,1468530.32073,1458459.35024,4239194.47146,4265513.03646
3125.0,1461.93976626,12.750182216,-2.15797110092,64735.8886005,64724.4232755,67002.0831582,66469.0824896,-186295.543943,-219561.892373,1442691.88665,1431006.90288,4300793.84122,4406984.9326
3203.125,1451.99464656,13.0124677731,-2.49991871295,64033.8561085,63936.6496478,67186.8831767,66549.6840417,-219316.406764,-250018.879458,1413765.99501,1406232.77095,4378624.61041,4436389.47023
3281.25,1440.96063217,13.3003470136,-2.8203575015,63999.3516026,63974.7276293,67425.3076474,66665.4482182,-238591.1512,-266414.471181,1381191.84685,1372266.75971,4458527.92928,4584840.75088
3359.375,1428.864305,13.6248064485,-3.17970257553,64775.3973275,64618.5878748,67627.5784831,68308.1920741,-264865.913581,-289657.808507,1345307.03573,1340467.11593,4678155.2569,4648021.56417
3437.5,1415.73480615,13.9706091171,-3.52303245477,64645.5780947,64529.7870298,67875.5383381,68386.3837324,-278085.210646,-299516.201995,1305487.3681,1299592.94383,4778471.79924,4804329.66808
3515.625,1401.60376574,14.3428293207,-3.89024656038,63849.9224116,63699.0226186,68099.7768513,68554.3216935,-296418.576061,-314457.258153,1262105.02589,1260093.28788,4892760.90516,4896877.55894
3593.75,1386.50522668,14.7305628239,-4.24256340501,63646.4731819,63522.6026335,68355.2083126,68624.1380973,-302526.825255,-316840.430002,1214526.99079,1211876.22012,5010302.43558,5059529.84344
3671.875,1370.47556268,15.1344669907,-4.60656067695,62865.7970931,62727.7335525,68596.3631086,68803.7384996,-311882.569246,-322552.050615,1163144.01393,1164056.45186,5140183.79422,5177870.10031
3750.0,1353.55339059,15.5465909661,-4.95349052796,62601.4808509,62480.3144364,68854.2048017,68875.3074005,-309955.637577,-316682.762644,1107377.3185,1108078.7933,5273797.6119,5347803.45765
3828.125,1335.77947742,15.9656344774,-5.30253894161,61870.9536528,61747.9128478,69101.5015622,69050.0789253,-309525.886342,-312480.549932,1047625.22368,1051473.15775,5418066.51847,5488420.92942
3906.25,1317.19664208,16.3850907618,-5.63125146879,61561.7991623,61451.2422003,69353.0597177,69124.5511317,-298826.221968,-297782.91278,983428.818954,987420.435203,5566396.19625,5666381.06096
3984.375,1297.84965225,16.8032210899,-5.95424646332,60904.8590925,60797.1045448,69593.4468227,69280.5663768,-288092.440627,-283288.027061,915203.67275,921811.301213,5723744.28788,5825965.36732
4062.5,1277.78511651,17.2148045142,-6.25377140515,60570.5361838,60474.1196966,69828.1484041,69352.2766917,-192439.882403,-170367.034075,842720.639318,872312.08186,5885266.45148,6012258.30592
4140.625,1257.0513721,17.6180400136,-6.54145427507,60000.0951584,59906.1323111,70048.8836211,69478.3114062,-169899.827508,-144341.612604,766515.856533,798058.066978,6054270.44979,6187765.06991
4218.75,1235.69836841,18.0089959635,-6.80306612223,59662.3692979,59580.2532951,70256.4680981,69539.4419915,-139511.461649,-110167.30082,686597.463125,719022.768209,6227329.45063,6382171.21523
4296.875,1213.77754672,18.386335821,-7.04823442753,59185.231896,59102.4073616,70446.736853,69628.2627313,-107419.386118,-75000.7926469,603721.418715,638712.343039,6406448.0953,6570804.10216
4375.0,1191.34171618,18.7470385147,-7.26591125037,60447.8659862,60332.3953116,70619.2235662,71392.0649482,-68600.82445,-32940.6976676,518590.168603,555786.486328,6754781.17005,6774337.10437
4453.125,1168.4449267,19.0904170805,-7.46367143646,60051.5262284,59945.9239522,70772.1096726,71452.3289616,-27678.0491373,10487.6100902,432923.790232,473647.785645,6947049.91646,6974881.00911
4531.25,1145.14233863,19.4145288412,-7.63366351825,59756.2556643,59662.8605091,70902.7085077,71471.1714673,18783.4064978,59497.6940075,349595.784379,394060.329152,7142581.82575,7186344.80767
4609.375,1121.49008995,19.7187592502,-7.78167314077,59455.589927,59370.7332249,71011.858351,71486.4816274,67325.5395061,109828.514028,274986.434344,323297.268583,7341724.2683,7394159.07923
4687.5,1097.54516101,20.002653832,-7.90213961718,59207.2584406,59132.6923165,71097.0140578,71470.6573581,120125.948235,164359.127217,222394.875305,271980.773757,7543450.29181,7611674.13365
4765.625,1073.36523723,20.26516155,-7.99999169649,59004.6964128,58940.1656058,71159.3118847,71444.8499351,174567.63083,219747.205458,213416.212812,254900.899991,7747587.47318,7824226.73905
4843.75,1049.00857016,20.5075758864,-8.07069706015,58814.7397293,58754.3656015,71197.460216,71388.928642,231870.516914,277865.084225,255796.055434,282044.251501,7953527.86682,8046009.3661
4921.875,1024.53383716,20.7278112371,-8.11951242713,58710.7834936,58664.0127063,71212.0315873,71322.6359601,289996.327084,336011.928535,331921.495333,342954.610814,8160717.49822,8260844.05765
5000.0,1000.0,20.9293479151,-8.14106269515,58586.541771,58537.6154009,71202.9718714,71230.2681281,349468.455141,395320.625237,424131.013414,425024.43571,8368869.68989,8485064.49963
5078.125,975.466162836,21.1086890433,-8.14303032529,58581.5520291,58546.1343737,71170.4299966,71118.2062917,408619.828677,453540.819534,523374.348506,516831.951409,8577124.59847,8699726.02663
5156.25,950.991429835,21.2711694766,-8.11680011211,58522.9483085,58484.153192,71115.1163096,70997.2623962,467524.947244,511289.933496,625489.424764,614363.301899,8785484.23096,8924533.80206
5234.375,926.634762772,21.4125514062,-8.07429112672,58619.2047135,58588.7039423,71037.0376831,70837.7012893,524711.190775,566623.120025,727927.320104,713208.230865,8992792.39219,9136613.98197
5312.5,902.454838992,21.5389287486,-8.00242472205,58618.0513742,58584.8482166,70937.3561044,70689.6530195,580059.059748,619876.454434,829095.958771,812349.805146,9199373.6777,9360143.12533
5390.625,878.509910048,21.6462533359,-7.91770948188,58817.7773442,58789.697218,70816.2282043,70489.9454765,632133.653267,669262.629455,927628.32913,909337.287106,9403718.95408,9567237.97287
5468.75,854.857661373,21.7404081172,-7.80285742625,58860.9206213,58825.4814485,70674.8866696,70311.7668547,680885.161555,715108.281146,1022479.87057,1003726.57534,9606574.11936,9787764.50833
5546.875,831.555073304,21.8181115006,-7.6779618319,59163.5827515,59136.5094237,70514.1593816,70080.110946,724772.695861,755619.999717,1112640.92922,1093792.28964,9805956.21122,9987314.2255
5625.0,808.658283817,21.8847375483,-7.52302763466,59234.5081729,59191.5145381,70334.897786,69875.0381848,764097.108597,791416.26108,1197295.37784,1179172.65559,10003194.4454,10203421.7769
5703.125,786.222453285,21.9373828032,-7.36004085894,59637.4481288,59606.5519886,70139.10527,69612.8843821,846213.913076,877630.251853,1275683.00009,1274799.75533,10195647.7027,10392663.0269
5781.25,764.301631587,21.9814749472,-7.16765506815,59715.2426002,59664.3500025,69927.0258276,69392.2459716,872171.812239,898875.65059,1347278.62575,1343434.83416,10385453.2194,10603249.3044
5859.375,742.948627903,22.0139632316,-6.96879123715,60214.9689252,60174.3092639,69702.2644682,69099.5997931,890499.546287,912572.671968,1411359.49331,1405388.1705,10569066.0237,10779294.5678
5937.5,722.21488349,22.0401836261,-6.74160914018,60275.5641839,60216.620945,69464.031777,68873.5681658,903290.923197,920556.475115,1467547.86768,1459819.92211,10749711.308,10983556.9745
6015.625,702.150347754,22.0573273791,-6.50854464685,61811.0390483,61904.2940173,69216.7455626,69886.507434,907372.703244,919964.382695,1515501.41707,1506630.6743,11167651.9525,11142735.5578
6093.75,682.803357918,22.0702355735,-6.24964507232,61823.2802536,61951.029839,68960.6577154,69661.5490134,906359.623555,914335.269755,1555127.83094,1545522.55075,11341217.4043,11338949.3015
6171.875,664.220522576,22.0790838858,-5.98566378187,62468.2464866,62557.1128707,68698.2254118,69276.9467946,895808.878249,899330.385249,1586327.0475,1576325.2327,11505414.7017,11478669.0472
6250.0,646.446609407,22.0862691795,-5.69753725052,62429.4972778,62555.9653556,68438.480203,69066.1338155,881367.904829,880732.513514,1609340.04799,1599447.77956,11666358.1034,11668062.7982
6328.125,629.524437323,22.0914367594,-5.40637966885,63139.0125794,63219.3044362,68170.7487792,68670.482779,856781.618174,852133.43277,1624286.47725,1614475.68502,11816241.6678,11785266.2838
6406.25,613.494773319,22.0951337266,-5.09312319271,63046.2699469,63167.9542034,67918.6835436,68480.116283,830271.004577,822142.217456,1631782.80644,1622750.93819,11963085.6506,11968377.0292
6484.375,598.39623426,22.0974428715,-4.7794938808,63792.1872166,63862.9006647,67654.986457,68092.3137751,793153.69583,781614.558531,1632104.65054,1623340.40698,12097167.2266,12059526.6827
6562.5,584.265193849,22.0988181302,-4.44479179393,63655.1487742,63767.3857748,67421.6759296,67921.1769949,756739.151068,742521.427655,1626277.95741,1618792.75541,12228528.4072,12236995.3755
6640.625,571.135695,22.099319656,-4.11199989255,64397.7471962,64460.3977582,67170.9608155,67561.8059573,709297.426523,692370.686965,1614628.31973,1607320.8319,12345508.2479,12298840.9405
6718.75,559.039367826,22.0994305313,-3.75909092256,64237.8922831,64336.7711687,66966.4672215,67410.8846701,703792.23635,684050.012958,1598612.45199,1612930.17534,12460101.8339,12471253.2088
6796.875,548.005353438,22.0987910738,-3.4103469262,64930.5006975,64986.2481417,66737.1515436,67092.6283183,646478.469192,624661.283781,1578516.97951,1593923.58626,12558885.3534,12500956.1762
6875.0,538.060233744,22.0985230449,-3.0421686889,64773.8640737,64858.1618138,66569.9048741,66969.2998211,595595.622252,571889.210841,1556062.92404,1570977.53885,12655543.1527,12668784.7032
6953.125,529.227967408,22.0974257697,-2.68116614302,65372.4128139,65421.4541227,66369.8032141,66698.7704844,532789.191726,507774.155585,1531440.7201,1547612.65297,12735240.0271,12663992.0844
7031.25,521.529832134,22.0970230306,-2.30093742535,65240.4028198,65309.8702634,66246.1354503,66608.840013,479592.879928,453449.1098,1506545.70307,1521769.43171,12812941.7802,12827534.1366
7109.375,514.984373403,22.0960167388,-1.93097188724,65710.8023496,65754.5907158,66082.3789251,66395.5550936,413523.7541,386660.208133,1481463.98954,1498000.11787,12872851.1193,12786478.6275
7187.5,509.607359798,22.0956080494,-1.54189066893,65616.5073667,65670.3276709,66006.4041188,66337.7155372,359997.457317,332612.117693,1458076.14046,1473090.18341,12930763.2773,12945790.7417
7265.625,505.411745018,22.0949095963,-1.16573905947,65935.8993742,65976.239185,65885.1337571,66193.052172,292336.092152,264662.614409,1436185.21735,1452502.12765,12970351.8217,12867319.7278
7343.75,502.407636664,22.0947980784,-0.770765450091,65884.9216776,65924.430174,65859.0022261,66165.2892195,239799.89719,212004.463137,1417615.96119,1431784.32321,13007864.7981,13022293.9123
7421.875,500.602271897,22.0945289182,-0.391332715776,66041.877909,66078.3259119,65784.8981565,66096.0326054,171548.364085,143808.110887,1401655.02565,1417154.27964,13026748.6132,12905714.2146
7500.0,500.0,22.094988452,0.00658013892665,66032.3632613,66060.772436,65809.0274287,66096.7310129,120722.644293,93065.4708317,1390082.8122,1402744.91101,13043499.1932,13056297.1283
7578.125,500.602271897,22.0951997561,0.386134321015,66025.8181312,66058.9271861,65784.9952739,66108.9976349,52308.4870532,25033.0550139,1381472.45172,1395725.00313,13041444.1836,12901175.0796
7656.25,502.407636664,22.0962095477,0.784055925097,66053.8841577,66072.6491996,65858.2043617,66133.0696911,3553.63271187,-23554.8570848,1377578.32487,1388178.78494,13037308.9499,13047521.5841
7734.375,505.411745018,22.0970040634,1.16057605866,65885.0097182,65916.9960157,65885.1854922,66229.9765032,-64899.5965533,-91262.0700447,1376194.02886,1389060.35018,13014257.1144,12853593.7666
7812.5,509.607359798,22.0983236639,1.55540088419,65952.8869877,65965.2957923,66004.7495686,66278.616906,-111241.038169,-137372.594557,1379047.13334,1387311.53867,12989321.1302,12996121.6502
7890.625,514.984373403,22.0996055305,1.92594386836,65622.0536087,65651.0110073,66081.810554,66448.6291278,-179543.491233,-204511.571735,1383249.18594,1394933.36405,12945430.1632,12763258.2781
7968.75,521.529832134,22.1010926743,2.31446474981,65733.5912898,65747.6259201,66243.2071957,66534.0567001,-222844.95404,-247454.997495,1390485.38278,1396565.43612,12899945.9051,12902647.4985
8046.875,529.227967408,22.1024222461,2.67607940064,65249.9108081,65272.1056128,66368.011783,66756.8398597,-290385.690082,-313368.112446,1397410.86332,1408439.66594,12835626.2843,12630934.4295
8125.0,538.060233744,22.1039040983,3.05535908027,65399.8008462,65421.5983663,66564.6999823,66889.5970796,-329555.692371,-351966.407144,1405644.64777,1410175.36156,12769980.4085,12767919.2439
8203.125,548.005353438,22.1050017275,3.40491452868,64788.6491481,64805.3522617,66733.5943458,67147.8366646,-395087.572991,-415380.597388,1411675.32847,1422841.5322,12685912.764,12457974.5083
8281.25,559.039367826,22.1061258968,3.77177395217,64957.9323388,64988.2822917,66957.8226379,67332.298196,-428562.342359,-448011.487194,1417029.52586,1421087.64458,12600615.4094,12592957.8103
8359.375,571.135695,22.1065699252,4.1058243178,64263.0506038,64280.5672451,67164.968165,67611.3091794,-459862.463335,-474022.680278,1418346.71657,1413159.71462,12497736.1891,12246285.0858
8437.5,584.265193849,22.1067138745,4.45711167087,64417.3536091,64452.5388501,67409.0195418,67846.5160024,-483050.792622,-495996.662237,1416965.1491,1404796.38613,12393443.2056,12379038.0371
8515.625,598.39623426,22.1058690052,4.77232463242,63696.8300022,63722.906578,67645.7492413,68132.0452739,-536516.214896,-545868.500751,1410016.38923,1406986.75226,12272892.2162,11998222.9714
8593.75,613.494773319,22.104125805,5.10497572062,63796.4068415,63835.9463963,67902.5761957,68419.975833,-550513.990982,-558087.600232,1398533.15572,1388189.8756,12150455.6762,12127834.5234
8671.875,629.524437323,22.1007963665,5.39822422037,63111.5250736,63146.0785214,68157.7085538,68690.046568,-595471.30534,-599201.851947,1380251.07996,1380429.10166,12013504.3098,11716330.8035
8750.0,646.446609407,22.0963821248,5.70902096201,63117.6370411,63165.4059316,68420.0089311,69032.0241642,-598474.747704,-600062.881185,1356083.40005,1348894.20437,11874028.245,11841634.8471
8828.125,664.220522576,22.0895181874,5.97582093735,62527.2804677,62571.8365731,68681.5113401,69274.688764,-632684.329398,-630255.374895,1324283.85069,1328777.25682,11722011.7012,11403229.1445
8906.25,682.803357918,22.0807513376,6.261298379,62413.9219683,62464.6800783,68941.7392589,69651.6307269,-623296.553732,-618614.438705,1285821.48455,1283026.78535,11566876.338,11523234.0412
8984.375,702.150347754,22.0684832659,6.49606335983,61954.6529366,62018.9046049,69196.2828568,69874.3592958,-645233.037704,-636499.221057,1239352.1577,1249186.8874,11401175.8136,11061761.6094
9062.5,722.21488349,22.048909382,6.75622719279,60723.0897875,60544.8231094,69446.7890338,68804.3964473,-622696.641817,-611800.628865,1186053.06758,1188734.31254,10985325.3595,11175404.1889
9140.625,742.948627903,22.0243074982,6.95259662992,60309.0425292,60246.2502469,69681.8232032,68940.9219842,-631723.838733,-616969.690379,1124845.09413,1140879.92646,10811215.5765,10695614.4622
9218.75,764.301631587,21.9895581829,7.18543277702,60047.7584396,59892.3422993,69911.8860008,69341.9299903,-596124.012549,-579433.068769,1057220.60537,1066183.31689,10633950.1895,10800832.562
9296.875,786.222453285,21.9478927559,7.34027734352,59766.1884497,59730.9818147,70122.2132249,69450.4131588,-592516.044438,-572401.868551,982231.643681,1005122.92342,10449367.5753,10307858.6851
9375.0,808.658283817,21.893061545,7.54406918652,59458.6751045,59323.1976483,70322.6416105,69838.5370091,-502745.429314,-471012.907556,901910.404472,908483.153618,10262080.1292,10405474.8045
9453.125,831.555073304,21.8294365242,7.65445225133,59295.5371663,59297.1299095,70503.0700753,69920.2544037,-486040.953727,-451036.734377,815187.015189,832482.719685,10068680.8416,9901779.57364
9531.25,854.857661373,21.7499987453,7.82736389522,58980.6032706,58865.3401456,70665.8110113,70297.1002285,-426271.157215,-389629.149836,724410.223553,731878.101568,9873273.32509,9993376.44805
9609.375,878.509910048,21.6585782329,7.88962225417,58934.0728268,58972.9699686,70811.0569946,70327.0317738,-400064.743643,-360824.991385,628460.101001,646795.237615,9672914.6944,9481502.04924
9687.5,902.454838992,21.5500294094,8.03169205459,58626.8191905,58536.2483411,70933.3735735,70710.442892,-332183.662621,-292057.670615,530067.905452,538150.378627,9471257.03335,9568484.34769
9765.625,926.634762772,21.4268425522,8.0412043045,58720.6722501,58793.0506476,71038.3501312,70663.3818974,-299183.875278,-257396.977761,428050.331612,447202.563071,9265949.44694,9051400.0209
9843.75,950.991429835,21.283940289,8.15112036395,58411.6171911,58353.3123086,71109.266551,71068.1586048,-225929.520857,-184174.629849,325914.863669,334060.91659,9059870.27356,9134743.3246
9921.875,975.466162836,21.1249754484,8.10381444537,58671.7825685,58763.3551689,71175.9023022,70890.3132773,-189035.402938,-146307.885579,222019.421562,239911.84723,8851766.91429,8616090.26379
10000.0,1000.0,20.9419329637,8.18010832323,58277.3243994,58240.5986073,71192.7658889,71386.0230847,-113320.910249,-71814.2993883,125317.21271,127126.051144,8642786.42196,8695528.52852
