X,Y,surf vx,surf vy,tau integr.,tau dir.,P,
0.0,1013.33333333,24.0620945685,3.32173756482,1169940.7503,1.58009917169,12716450.1569
800.0,1040.0,21.1596534625,2.85862446823,2329709.45387,3.07402914681,-15283365.9469
1600.0,1080.0,18.6067377239,2.62529135687,909993.49905,18554.6374838,9273075.7586
2400.0,1106.66666667,16.4033872717,2.47008627503,703771.419115,17116.8555857,9766689.04929
3200.0,1133.33333333,14.3922287042,1.98283206544,1871329.93973,15115.663817,11858060.9647
4000.0,1173.33333333,12.4354412388,1.59575519423,1541402.63576,15897.2006349,9643917.16632
4800.0,1200.0,10.7178702161,1.44867615168,892856.704985,15695.865227,7796911.07795
5600.0,1226.66666667,9.27877992427,1.21313550945,752768.748298,14983.3811604,8832824.62217
6400.0,1253.33333333,8.02145556538,1.03888229588,568366.861138,14542.5405911,7383607.59798
7200.0,1280.0,6.90735356999,0.867019150032,1648801.69835,14049.2373635,8245394.07234
8000.0,1306.66666667,5.9312722479,0.756439530662,566315.334593,13521.4338104,6856270.66203
8800.0,1333.33333333,5.11734315204,0.571807918966,497351.890906,12726.0271273,7787915.52176
9600.0,1360.0,4.39489666082,0.440750591456,1168926.15811,11307.1135198,5559301.94402
10400.0,1373.33333333,3.82264280336,0.402708250878,614831.864296,1.46046257627,-6887311.17611
11200.0,1400.0,3.35612840733,0.260997839815,1213595.25238,9592.31971208,7097387.62663
12000.0,1413.33333333,2.96582855971,0.235825076061,4190489.69488,1.62278177242,-5040956.79723
12800.0,1440.0,2.67217160232,0.173438127331,2232742.14911,14024.8807024,7864517.40235
13600.0,1453.33333333,2.42327103227,0.151550593529,110080.604014,13934.1229294,7386758.92526
14400.0,1466.66666667,2.21069654896,0.089852460211,32753.2121967,13481.1553594,7853225.07066
15200.0,1480.0,2.03913254004,0.13219836284,175957.864427,13468.1701172,6101212.88279
16000.0,1493.33333333,1.92023740468,0.0992267109104,335681.136834,16814.5877179,5288802.08138
16800.0,1493.33333333,1.78585700932,0.0283634243788,7834466.19545,4.22461931565,6946515.58642
17600.0,1506.66666667,1.67394415391,0.0736154388134,364390.196556,14651.2913702,4194950.98563
18400.0,1506.66666667,1.61568711734,0.0349115509583,3577756.43196,4.58133045383,3494785.33592
19200.0,1506.66666667,1.5728450922,0.0147895740253,1338384.69071,1.34055429355,4219674.24135
20000.0,1520.0,1.55194269153,-0.00510659124132,38333.9987046,39292.6394034,5174690.72836
20800.0,1506.66666667,1.54999293373,-0.0051749157741,2837321.42184,1.67625556522,4436297.93506
21600.0,1506.66666667,1.578474712,-0.0135490793316,148449.79563,5.93145008981,3430699.74809
22400.0,1506.66666667,1.63338404362,-0.0330102795826,24689.9871578,22.8050235522,4631109.78747
23200.0,1493.33333333,1.7091374002,-0.0694422359067,1071127.95508,2.48100685602,7258832.47421
24000.0,1493.33333333,1.81921841768,-0.067886267619,26290.2286681,10.9854030993,3292187.39653
24800.0,1480.0,1.97054050449,-0.110523197996,117699.598736,4.91646037051,5217566.46
25600.0,1466.66666667,2.15362219534,-0.148655965091,812186.80305,2.77938229436,6050026.49878
26400.0,1453.33333333,2.38815564069,-0.159925639718,99875.1954098,3.6965046861,7158111.08292
27200.0,1440.0,2.6660869115,-0.200056521798,128478.390316,5.15432115838,7123013.11336
28000.0,1413.33333333,3.00097734645,-0.239991435038,1672491.04089,1.01961277423,-5786399.8318
28800.0,1400.0,3.39125527052,-0.314092081242,27626.7719713,0.533054409062,759562.463142
29600.0,1373.33333333,3.852478247,-0.35442257075,4391620.79087,2.88036906544,-982676.555871
30400.0,1360.0,4.43189169466,-0.427726809243,83466.5350398,3.77667519461,-4290855.28794
31200.0,1333.33333333,5.1262320045,-0.583700342771,207360.615317,0.271018589375,8006292.46857
32000.0,1306.66666667,5.93475051104,-0.741841626273,624236.339625,1.18630360448,-2590691.34437
32800.0,1280.0,6.90407182039,-0.865758063206,101880.180045,0.0278244455982,7818972.4901
33600.0,1253.33333333,8.02045424143,-1.03255911973,941956.0603,0.864684839276,-1271345.05775
34400.0,1226.66666667,9.28989157967,-1.21426759909,171013.83138,0.349033935154,6639337.30336
35200.0,1200.0,10.7589324423,-1.42089394231,624614.735645,1.15876980292,400108.571806
36000.0,1173.33333333,12.4257318975,-1.7064445305,236589.082468,1.47512826132,5664957.74966
36800.0,1133.33333333,14.3473371653,-1.99278330508,151095.279387,0.300430065582,12721440.5778
37600.0,1106.66666667,16.4007514209,-2.41647085519,880047.822363,1.69909301644,-5433640.64056
38400.0,1080.0,18.7023504772,-2.60891903137,133784.698051,0.236431222146,11535971.6983
39200.0,1040.0,21.3458050247,-2.94441134668,3196980.14755,2.10338259422,32454177.3751
40000.0,1013.33333333,24.1794839735,-3.38770505732,111923.241036,0.14818010252,4846257.60013
40800.0,986.666666667,27.2235245247,-3.89362175213,1026785.64082,2.02183950073,2896647.74504
41600.0,946.666666667,30.4851122214,-4.31814716552,5151281.43613,32070460.0199,16565072.0728
42400.0,920.0,34.1384959779,-4.65301429942,511331.267433,1.10855527659,16127752.2451
43200.0,893.333333333,37.7949231484,-5.32444656245,3052485.23441,7.07563493203,-6395232.9997
44000.0,853.333333333,41.6293624462,-5.57278034692,5817302.03224,3.57417314975,4138475.42209
44800.0,826.666666667,45.8008148914,-5.88243885005,1503861.19415,0.918726762493,23921256.8574
45600.0,800.0,49.6446717869,-6.43212681605,6421980.9775,4.26961112645,-10196765.9972
46400.0,773.333333333,53.7144408967,-6.3143846652,545627.961607,1.08098045248,20493228.9596
47200.0,746.666666667,57.8348411022,-6.50503210911,1020854.76725,4.41423154119,-7818746.67346
48000.0,720.0,61.6866195502,-6.54366382041,603662.804186,1.21768711173,19483145.8336
48800.0,693.333333333,65.5065465706,-6.48119287607,1350840.54805,3.10655656873,-6985727.38214
49600.0,666.666666667,69.0813162707,-6.40113007083,3321886.30655,5.24568702164,21798797.6312
50400.0,653.333333333,72.632412438,-6.02163437887,2816979.3585,6.51253238944,1047470.3558
51200.0,626.666666667,75.9034979694,-5.94111020201,2965433.54838,6.6165990228,11669166.0793
52000.0,613.333333333,78.84856273,-5.66590689901,130871.324368,5.5372618862,-371748.779701
52800.0,586.666666667,81.5256405141,-5.43634168221,9215384.09162,5.9705718924,10643960.5531
53600.0,573.333333333,83.7444868014,-5.08857487047,2338570.82987,3.57739784738,-4224055.9171
54400.0,560.0,85.6323617156,-4.4787569729,888862.220853,0.784146139249,3774505.08493
55200.0,546.666666667,87.149128328,-3.72155251337,113636.587745,3.04336153772,11063168.5754
56000.0,533.333333333,88.5401929546,-2.77984813536,2067844.26663,4.73761623392,18766312.5868
56800.0,533.333333333,89.5085280347,-2.31932662854,69867.369819,18.0300747387,12339067.7613
57600.0,520.0,90.0824389421,-1.8309207272,1976763.49671,4.69834438063,16112929.5775
58400.0,520.0,90.3055821816,-1.40907573564,104964.070285,101835.699343,11686768.3216
59200.0,520.0,90.4793751203,-0.684104749633,108768.688021,121289.188701,13168487.6013
60000.0,520.0,90.5245623271,-0.226187511291,104921.130308,67781.9012093,12960418.5201
60800.0,520.0,90.4268306596,0.498292415886,120053.855386,155469.446332,13453619.4904
61600.0,520.0,90.3529439027,1.19781996022,77731.3066644,44572.1933023,13355574.9143
62400.0,520.0,90.0410218798,1.75559363584,441237.961534,19.5487687394,17677018.4255
63200.0,533.333333333,89.4641132877,2.70109908629,587550.004267,40823.5756604,12603810.079
64000.0,533.333333333,88.7132893273,3.08589251421,6994053.48464,6.9475367482,13791393.5478
64800.0,546.666666667,87.4481001384,3.8046424213,141766.457631,23191.1424514,17331418.2581
65600.0,560.0,86.0024790981,4.11621130327,1264069.90059,6.78810674477,12787878.0072
66400.0,573.333333333,84.0471494861,4.52330390168,213899.012844,20986.8008131,11476879.6983
67200.0,586.666666667,81.4958217044,5.06459050045,1428577.22655,2.40003895643,-15295379.2536
68000.0,613.333333333,78.8641217023,6.0234278787,279198.644063,35080.703932,19404303.8227
68800.0,626.666666667,76.2682920028,6.06747688575,1581375.45959,24753.3486669,17964936.423
69600.0,653.333333333,72.8591754811,6.23705501955,2641029.01464,23785.2756255,11823107.1636
70400.0,666.666666667,69.2574845145,6.61514889727,1640220.18796,7.16416071309,-14532278.8416
71200.0,693.333333333,65.613381755,6.62404721019,1499790.82051,24529.9374974,15451697.4584
72000.0,720.0,61.6738382944,6.74763267035,895291.901874,23128.4066048,12549456.8101
72800.0,746.666666667,57.6381531287,6.77157720835,1386052.97023,24112.8871332,13561560.8824
73600.0,773.333333333,53.6734560782,6.69050693639,1111272.6305,21654.5393673,12069115.3123
74400.0,800.0,49.5999449559,6.08340662734,856811.685472,22163.1659842,15171449.9152
75200.0,826.666666667,45.3928091467,5.77843015139,2396716.59743,8.22440763485,-7445670.73767
76000.0,853.333333333,41.377876159,5.43616186144,8851106.31269,2.26804511863,-4652571.28505
76800.0,893.333333333,37.550085459,5.19414898403,1155864.85709,19686.0760734,12662791.6071
77600.0,920.0,33.9487043388,4.61657277591,867568.209031,20263.8547733,14594692.3954
78400.0,946.666666667,30.3311214302,4.29429472959,4288516.93953,4.11056456241,-5411043.94443
79200.0,986.666666667,27.0103225614,3.8841289086,1585491.30143,19451.5287528,10172829.1968
80000.0,1013.33333333,24.0620945685,3.32173756482,1169940.7503,17356.3807512,12716450.1569
