X,Y,surf vx,surf vy,tau integr.,tau dir.,P,
0.0,1013.33333333,19.0785891284,7.50704550521,409587.195795,0.0945011924237,8952259.07785
100.0,1040.0,18.8004442321,7.40395764283,2842787.12203,27.9501353936,4171958.02872
200.0,1080.0,18.4755381085,7.34979387269,251379.517418,27526.0279585,9260977.76472
300.0,1106.66666667,18.1252842513,7.18109624279,215504.045084,26546.4582006,7889822.51245
400.0,1133.33333333,17.7324311237,7.05491758884,399102.726892,24384.0118541,9235895.38551
500.0,1173.33333333,17.3155739908,6.81404907115,356378.915708,28318.2888764,8735115.18251
600.0,1200.0,16.8674642099,6.61554834904,181027.671595,27205.6852952,6753643.96447
700.0,1226.66666667,16.4054921979,6.29274694337,572201.506257,27246.2552178,7904333.96312
800.0,1253.33333333,15.9188916229,6.01026131135,269401.404122,26676.436548,6367969.95913
900.0,1280.0,15.4291292961,5.61108888709,564631.842565,26782.3701007,7469630.54731
1000.0,1306.66666667,14.9184354562,5.24895392659,275001.640187,26528.751139,5914207.00735
1100.0,1333.33333333,14.4078443886,4.78985022068,243328.198,26666.0601353,7051608.93968
1200.0,1360.0,13.8837522074,4.37525270952,420691.28967,26846.0818689,5465692.37526
1300.0,1373.33333333,13.3632288072,3.89495705419,1153152.64048,4.72502249647,1280996.64095
1400.0,1400.0,12.8341682381,3.48215243978,504964.965965,25119.4190908,7076750.13148
1500.0,1413.33333333,12.3248129866,3.04292727765,841792.73722,5.76110840749,2851939.87254
1600.0,1440.0,11.8374626601,2.68359843796,125294.626476,33811.5563003,6014449.85757
1700.0,1453.33333333,11.3985788057,2.32204821797,154055.967199,38079.9408865,6094566.29448
1800.0,1466.66666667,11.0277731591,2.02734959537,119800.99447,43544.8937484,5795196.94962
1900.0,1480.0,10.7395128993,1.71529596669,212101.624476,47758.9080416,5362487.01856
2000.0,1493.33333333,10.5359273267,1.42124040563,61515.8654923,50897.6010946,4558254.46192
2100.0,1493.33333333,10.3864889429,1.10196657069,1563641.9508,2.13050998069,2924793.91148
2200.0,1506.66666667,10.2743276226,0.81179944884,62171.4120891,17526.0474475,4870099.45909
2300.0,1506.66666667,10.2016496357,0.533383110909,362805.111211,7.28188678433,3933488.89703
2400.0,1506.66666667,10.1702149716,0.279718877708,576865.631389,1.4312692791,4892633.69753
2500.0,1520.0,10.1612061737,0.0305045659655,64679.1595698,65135.1441227,4829252.11931
2600.0,1506.66666667,10.1687858537,-0.212109934622,696570.417998,0.572093268855,4885436.11404
2700.0,1506.66666667,10.2000712365,-0.464922101016,275158.331447,2.30939696411,3789150.25258
2800.0,1506.66666667,10.2784861679,-0.728586119554,41294.5768983,16.728970573,4862013.35764
2900.0,1493.33333333,10.4091472124,-1.02583101116,317365.743347,1.07114616649,5932834.10535
3000.0,1493.33333333,10.5901268065,-1.34330193195,53239.50374,14.2754683062,3916365.52256
3100.0,1480.0,10.825465114,-1.69258483406,51249.2498025,2.26106696743,4510558.15536
3200.0,1466.66666667,11.1126594687,-2.05582222203,194886.552133,1.57639095009,5202661.58823
3300.0,1453.33333333,11.4443079699,-2.44547322818,116549.510995,2.2373829692,5658417.24975
3400.0,1440.0,11.8333564371,-2.82756301497,147428.029924,3.10138227595,6036375.2973
3500.0,1413.33333333,12.2678594031,-3.22791481039,1655401.70876,1.65650733323,-764925.463178
3600.0,1400.0,12.7571546842,-3.61115337101,611341.923293,2.65928302111,478191.389906
3700.0,1373.33333333,13.2729404081,-4.01943460604,2261491.36226,2.22138532986,14487478.118
3800.0,1360.0,13.8217612168,-4.40595915341,67130.2147904,0.978036019692,6564802.145
3900.0,1333.33333333,14.3684147544,-4.81981970116,315721.035378,0.581057528505,5457490.855
4000.0,1306.66666667,14.9169957758,-5.20356069342,569685.742615,0.271545969455,5592494.64706
4100.0,1280.0,15.4380408653,-5.60662542655,152524.018309,0.231202030168,6364830.59649
4200.0,1253.33333333,15.9456420954,-5.95270965364,163489.413651,0.279078886025,5935049.78261
4300.0,1226.66666667,16.4276393562,-6.29600944921,148510.045451,0.282412163576,6921351.33065
4400.0,1200.0,16.8971607623,-6.56369635084,246856.853429,0.414808071322,6472927.67997
4500.0,1173.33333333,17.3401618996,-6.82650849711,247873.153844,0.964600786856,7052944.62662
4600.0,1133.33333333,17.7604093359,-7.01495934462,197602.614437,0.0781376120208,7317295.88983
4700.0,1106.66666667,18.1461672761,-7.20382273848,421394.726048,0.292619204881,7024695.23126
4800.0,1080.0,18.5003836243,-7.32083523762,73425.6780196,0.388957389445,8193155.339
4900.0,1040.0,18.8147406022,-7.43931207319,1373943.56833,1.23996571099,13345057.69
5000.0,1013.33333333,19.0947643634,-7.48638568344,666848.412153,0.106099565771,7687721.13408
5100.0,986.666666667,19.3374782363,-7.53292090947,328373.523244,0.490549369985,9053522.36688
5200.0,946.666666667,19.5489927758,-7.50890238768,1050310.62357,1.17582889723,14162006.0389
5300.0,920.0,19.7256954177,-7.48555543265,229607.520275,0.142643020169,8439030.87907
5400.0,893.333333333,19.8733594819,-7.39761937494,249269.05582,0.754601879794,9943047.02709
5500.0,853.333333333,19.9891061153,-7.30950886908,2676202.11218,0.671702310427,14882376.8931
5600.0,826.666666667,20.0805248082,-7.16073255956,406333.489463,0.170585449066,9292956.86758
5700.0,800.0,20.1462214674,-7.00777693686,520804.146035,0.376484697866,10713183.2113
5800.0,773.333333333,20.194353643,-6.79875654623,357307.643531,0.381717499091,10067973.9352
5900.0,746.666666667,20.223704421,-6.58054786326,222104.55239,0.411591461033,11236643.1545
6000.0,720.0,20.2417404506,-6.3121765242,397109.49404,0.556042422226,10504957.9914
6100.0,693.333333333,20.2521707468,-6.03229802475,278407.721456,0.213348677755,12064039.0726
6200.0,666.666666667,20.258149387,-5.70855501441,950871.226673,1.18333682593,11568106.6877
6300.0,653.333333333,20.2610447245,-5.37571115142,506086.984812,1.9172395124,9390519.10181
6400.0,626.666666667,20.2611931789,-5.00407863211,1343579.36933,2.25793071226,17257550.9373
6500.0,613.333333333,20.2595528977,-4.6280417634,72783.6759329,0.642565937726,13221306.889
6600.0,586.666666667,20.2561058239,-4.21700838754,1309044.60037,0.938964004342,11037577.608
6700.0,573.333333333,20.2512177356,-3.80553962454,555218.002311,0.773047699918,9731575.17361
6800.0,560.0,20.2452885047,-3.36115808653,103275.871388,0.568726820795,10495367.3628
6900.0,546.666666667,20.2382444548,-2.91956082658,159175.186357,0.186492662381,11241818.0282
7000.0,533.333333333,20.2314383818,-2.44605474638,347786.124067,0.932304591548,12246070.9249
7100.0,533.333333333,20.2246334891,-1.97949928526,40460.5585111,4.05664136676,13820219.6458
7200.0,520.0,20.2192367164,-1.48336188285,74866.3426939,1.07637815287,14658746.6218
7300.0,520.0,20.2148011076,-0.999868012464,53037.988837,36021.1784482,12314834.9539
7400.0,520.0,20.2123497105,-0.490245564144,61697.9411491,65630.6475551,13798127.3647
7500.0,520.0,20.2115621356,0.000490850599619,62566.7837909,66283.8931224,12630469.7713
7600.0,520.0,20.2126936352,0.512750910353,53157.1133659,40095.3354743,14026067.2799
7700.0,520.0,20.2155397807,1.00024659496,67369.859715,20223.0331311,12172657.607
7800.0,520.0,20.2196876595,1.50438028088,392918.825232,8.05571812398,15195266.4875
7900.0,533.333333333,20.2251614268,1.97924830573,49944.3256107,27952.5189164,15534908.4964
8000.0,533.333333333,20.2312468734,2.46624632224,574040.190305,1.74380991495,5305837.27547
8100.0,546.666666667,20.2379621891,2.92023563018,950340.779327,15351.11983,5969741.16009
8200.0,560.0,20.2444982164,3.38244845623,889948.339697,13.9830945849,6583734.85295
8300.0,573.333333333,20.2507827106,3.80856059626,1028342.50252,22123.3659334,6223375.46676
8400.0,586.666666667,20.2561162225,4.23973843972,1842835.77806,6.47392221746,2880491.93603
8500.0,613.333333333,20.2603425298,4.63176185283,216309.370386,26474.0415733,16554980.8434
8600.0,626.666666667,20.2632255818,5.02570196845,528026.004255,23391.495185,16379696.3873
8700.0,653.333333333,20.2639552027,5.37599045978,297057.063451,26279.6705253,10705658.094
8800.0,666.666666667,20.2623346336,5.72491518936,1256765.84135,31.5922215854,6171444.54753
8900.0,693.333333333,20.2571021769,6.02489668614,376879.236043,24618.79139,13769415.2439
9000.0,720.0,20.2465554952,6.321726778,128152.345142,25652.2173291,11012578.3755
9100.0,746.666666667,20.2298280712,6.5632625894,186320.968118,26344.2917884,12163706.0271
9200.0,773.333333333,20.1975058389,6.80613200539,234645.793552,25743.8626991,10914116.1021
9300.0,800.0,20.1503527422,6.98108739003,650694.54593,24558.2974378,11902989.9013
9400.0,826.666666667,20.0795301786,7.16918069437,1950008.96512,99.1373758497,5693749.91373
9500.0,853.333333333,19.9897782619,7.2777218497,1153174.93855,5.1799001716,8373515.71323
9600.0,893.333333333,19.8687902223,7.40855786231,161752.505003,26614.0357368,11001776.0866
9700.0,920.0,19.7228397337,7.45020318124,462285.136851,24819.9253441,9776884.48234
9800.0,946.666666667,19.5403541276,7.52297608093,2019284.17951,48.6715397375,5724687.87656
9900.0,986.666666667,19.3286300062,7.49405237337,201794.146484,26796.1519976,9956205.55526
10000.0,1013.33333333,19.0785891284,7.50704550521,409587.195795,25016.8754216,8952259.07785
