0.0000000	0.0000000	24.9366298	-5.2705591	0.0443877	75.4289817	-0.0265342	80.1412711
0.0000000	0.1250000	25.8644346	-3.8799593	4.8071505	73.8884493	0.6185635	64.6513757
0.0000000	0.2500000	26.8037345	0.0003516	7.1890900	72.5406798	-0.0018153	44.7569458
0.0000000	0.3750000	25.8602558	3.8781615	4.7917510	73.8858704	-0.6179494	50.8942791
0.0000000	0.5000000	24.9379952	5.2706901	0.0483329	75.4344053	0.0256857	85.8707937
0.0000000	0.6250000	26.1411483	3.8932623	-4.7070056	74.4672596	0.6596517	28.1250916
0.0000000	0.7500000	27.2510501	0.0000939	-7.1451321	73.3643863	-0.0012879	10.6121553
0.0000000	0.8750000	26.1430204	-3.8911644	-4.6935783	74.4727036	-0.6593066	41.6636720
0.0000000	1.0000000	24.9366298	-5.2705591	0.0443877	75.4289817	-0.0265342	80.1412711
0.0078125	0.0000000	24.9386939	-5.2636081	-0.0653630	75.4290741	-0.5340826	-77.9245903
0.0078125	0.1250000	25.2436998	-3.8418628	4.5949592	73.5852033	0.2768311	-36.5406921
0.0078125	0.2500000	25.8100296	-0.0008207	6.9652106	72.0823663	0.0009203	-5.6653760
0.0078125	0.3750000	25.2385845	3.8405631	4.6098929	73.5854429	-0.2766702	-26.6917376
0.0078125	0.5000000	24.9391922	5.2638250	-0.0708760	75.4268247	0.5345848	-83.4456525
0.0078125	0.6250000	26.7465660	3.9184109	-4.8700380	74.7556373	1.0015024	-51.1280105
0.0078125	0.7500000	28.1929845	0.0009185	-7.3325205	73.7986095	0.0022696	-45.7213639
0.0078125	0.8750000	26.7452565	-3.9165187	-4.8853080	74.7525563	-1.0014252	-64.0750474
0.0078125	1.0000000	24.9386939	-5.2636081	-0.0653630	75.4290741	-0.5340826	-77.9245903
0.0156250	0.0000000	24.9410078	-5.2456394	0.0146066	75.3800110	-1.0871073	78.8422881
0.0156250	0.1250000	24.5754121	-3.7764265	4.6452930	73.0833576	-0.1065908	60.8087792
0.0156250	0.2500000	24.7696837	0.0003354	6.8783398	71.3653795	-0.0002861	37.8776053
0.0156250	0.3750000	24.5740555	3.7743292	4.6307174	73.0943806	0.1068866	45.6753972
0.0156250	0.5000000	24.9405772	5.2461853	0.0198510	75.3738621	1.0863402	84.3370470
0.0156250	0.6250000	27.3654711	3.9420748	-4.8062125	75.1393619	1.3898769	29.2446683
0.0156250	0.7500000	29.1186112	-0.0003539	-7.3011659	74.3636503	-0.0024821	8.8322418
0.0156250	0.8750000	27.3641348	-3.9396136	-4.7914384	75.1416892	-1.3885287	41.7769079
0.0156250	1.0000000	24.9410078	-5.2456394	0.0146066	75.3800110	-1.0871073	78.8422881
0.0234375	0.0000000	24.9476381	-5.2034589	-0.0938136	75.4354339	-1.5978114	-75.1045507
0.0234375	0.1250000	23.9368256	-3.7087945	4.4058136	72.8239314	-0.4591502	-32.2517258
0.0234375	0.2500000	23.7262099	-0.0007382	6.5984222	70.9185272	0.0008423	-4.1885161
0.0234375	0.3750000	23.9329693	3.7073793	4.4222297	72.8190762	0.4581769	-26.2903933
0.0234375	0.5000000	24.9473204	5.2040503	-0.0971582	75.4286966	1.5985397	-80.3353813
0.0234375	0.6250000	27.9356337	3.9366508	-4.9370903	75.4492242	1.7251046	-52.0931528
0.0234375	0.7500000	29.9861276	0.0002045	-7.4228262	74.7913514	0.0020008	-53.8679443
0.0234375	0.8750000	27.9324062	-3.9340096	-4.9473017	75.4432815	-1.7253325	-65.6893838
0.0234375	1.0000000	24.9476381	-5.2034589	-0.0938136	75.4354339	-1.5978114	-75.1045507
0.0312500	0.0000000	24.9524544	-5.1582094	-0.0120124	75.3876578	-2.1358970	76.2102290
0.0312500	0.1250000	23.2520391	-3.6164164	4.4246933	72.3195872	-0.8346137	55.1963824
0.0312500	0.2500000	22.6432976	0.0005673	6.4511179	70.1775712	-0.0007298	28.8155137
0.0312500	0.3750000	23.2512654	3.6139325	4.4120045	72.3284454	0.8352655	38.1970816
0.0312500	0.5000000	24.9522514	5.1591163	-0.0067710	75.3854000	2.1362749	81.6257364
0.0312500	0.6250000	28.5173778	3.9291401	-4.8422839	75.8232851	2.1017110	29.0831472
0.0312500	0.7500000	30.8306184	-0.0009648	-7.3257499	75.3182797	-0.0023341	6.5574809
0.0312500	0.8750000	28.5162243	-3.9262599	-4.8249691	75.8215508	-2.1005437	40.5457636
0.0312500	1.0000000	24.9524544	-5.1582094	-0.0120124	75.3876578	-2.1358970	76.2102290
0.0390625	0.0000000	24.9609541	-5.0817774	-0.1207160	75.4299207	-2.6406583	-72.5637229
0.0390625	0.1250000	22.6014877	-3.5221315	4.1648575	72.0239976	-1.1881589	-28.9777611
0.0390625	0.2500000	21.5675635	-0.0004707	6.1273123	69.6881599	0.0012492	-6.1846633
0.0390625	0.3750000	22.5996564	3.5206129	4.1858583	72.0233978	1.1883440	-26.5960245
0.0390625	0.5000000	24.9607180	5.0825849	-0.1260434	75.4297938	2.6412445	-77.4386495
0.0390625	0.6250000	29.0485299	3.8927884	-4.9357103	76.0862428	2.4288399	-54.0403628
0.0390625	0.7500000	31.6129675	-0.0004806	-7.3868738	75.7005920	0.0018259	-61.1154617
0.0390625	0.8750000	29.0458517	-3.8895813	-4.9438285	76.0856411	-2.4289425	-67.9365890
0.0390625	1.0000000	24.9609541	-5.0817774	-0.1207160	75.4299207	-2.6406583	-72.5637229
0.0468750	0.0000000	24.9669049	-5.0113894	-0.0376199	75.3833879	-3.1655798	73.8034768
0.0468750	0.1250000	21.9078656	-3.4066337	4.1583342	71.5266943	-1.5582386	49.0436741
0.0468750	0.2500000	20.4654515	0.0010741	5.9251146	68.9178586	-0.0007183	22.2027133
0.0468750	0.3750000	21.9103024	3.4035335	4.1445799	71.5301172	1.5594543	29.5944781
0.0468750	0.5000000	24.9664030	5.0124827	-0.0331962	75.3861851	3.1654507	78.9386304
0.0468750	0.6250000	29.5902848	3.8548423	-4.8095247	76.4345739	2.7937676	29.3239100
0.0468750	0.7500000	32.3668855	-0.0015620	-7.2317911	76.1937056	-0.0016389	4.5208727
0.0468750	0.8750000	29.5893683	-3.8514452	-4.7907953	76.4370305	-2.7931106	40.1006891
0.0468750	1.0000000	24.9669049	-5.0113894	-0.0376199	75.3833879	-3.1655798	73.8034768
0.0546875	0.0000000	24.9770232	-4.9033659	-0.1451869	75.4002069	-3.6575537	-70.1792193
0.0546875	0.1250000	21.2530646	-3.2897645	3.8839929	71.2010472	-1.9098993	-27.4950283
0.0546875	0.2500000	19.3824433	0.0000676	5.5752588	68.3577351	0.0010078	-1.8635306
0.0546875	0.3750000	21.2537521	3.2878882	3.9017942	71.1989713	1.9098192	-29.0488381
0.0546875	0.5000000	24.9765009	4.9041767	-0.1505288	75.4076443	3.6582707	-74.9292022
0.0546875	0.6250000	30.0802156	3.7887277	-4.8681620	76.6699300	3.1096274	-56.2947099
0.0546875	0.7500000	33.0559989	-0.0011440	-7.2310422	76.5203237	0.0017367	-68.3161158
0.0546875	0.8750000	30.0770747	-3.7846311	-4.8750456	76.6644403	-3.1095985	-70.6505556
0.0546875	1.0000000	24.9770232	-4.9033659	-0.1451869	75.4002069	-3.6575537	-70.1792193
0.0625000	0.0000000	24.9850910	-4.8108561	-0.0581444	75.3633166	-4.1651590	71.7350912
0.0625000	0.1250000	20.5611557	-3.1556772	3.8527221	70.7136579	-2.2713145	45.1456181
0.0625000	0.2500000	18.2872858	0.0017492	5.3250605	67.5912318	-0.0015165	21.4180698
0.0625000	0.3750000	20.5648965	3.1518700	3.8383785	70.7155188	2.2731471	23.5060661
0.0625000	0.5000000	24.9851151	4.8122506	-0.0524742	75.3733519	4.1653630	76.7919087
0.0625000	0.6250000	30.5765957	3.7217586	-4.7142950	77.0057758	3.4591847	29.3462074
0.0625000	0.7500000	33.7167239	-0.0020936	-7.0209352	76.9929850	-0.0014111	4.5931438
0.0625000	0.8750000	30.5765774	-3.7180272	-4.6917690	77.0083691	-3.4591738	39.7780981
0.0625000	1.0000000	24.9850910	-4.8108561	-0.0581444	75.3633166	-4.1651590	71.7350912
0.0703125	0.0000000	24.9960548	-4.6744821	-0.1677378	75.3772082	-4.6392900	-67.9407737
0.0703125	0.1250000	19.9117266	-3.0213986	3.5747611	70.3565292	-2.6163262	-26.8476971
0.0703125	0.2500000	17.2211463	0.0006256	4.9539162	66.9729607	0.0009807	5.8334141
0.0703125	0.3750000	19.9138841	3.0192621	3.5903081	70.3596816	2.6164111	-27.7026864
0.0703125	0.5000000	24.9963441	4.6754044	-0.1705825	75.3833249	4.6402082	-72.8174630
0.0703125	0.6250000	31.0213642	3.6274527	-4.7376773	77.2127957	3.7615578	-58.9731912
0.0703125	0.7500000	34.3123583	-0.0016504	-6.9641836	77.2789070	0.0014665	-75.3531140
0.0703125	0.8750000	31.0212814	-3.6230638	-4.7378025	77.2043443	-3.7614992	-74.2768186
0.0703125	1.0000000	24.9960548	-4.6744821	-0.1677378	75.3772082	-4.6392900	-67.9407737
0.0781250	0.0000000	25.0052571	-4.5629011	-0.0739518	75.3535851	-5.1250547	70.2683713
0.0781250	0.1250000	19.2347154	-2.8740184	3.5239680	69.8929805	-2.9674410	43.3321719
0.0781250	0.2500000	16.1604669	0.0023981	4.6731616	66.2181379	-0.0015034	24.1133287
0.0781250	0.3750000	19.2381718	2.8695864	3.5038275	69.8974598	2.9686957	24.0870581
0.0781250	0.5000000	25.0069431	4.5646492	-0.0649923	75.3568888	5.1247024	75.2930551
0.0781250	0.6250000	31.4713631	3.5344119	-4.5544402	77.5292527	4.0951918	30.3854017
0.0781250	0.7500000	34.8802197	-0.0023935	-6.7030075	77.7329454	-0.0013621	5.8244998
0.0781250	0.8750000	31.4741602	-3.5302614	-4.5307071	77.5380364	-4.0951913	41.1245414
0.0781250	1.0000000	25.0052571	-4.5629011	-0.0739518	75.3535851	-5.1250547	70.2683713
0.0859375	0.0000000	25.0170128	-4.4014307	-0.1828311	75.3613319	-5.5754620	-66.4595351
0.0859375	0.1250000	18.6015824	-2.7276709	3.2388781	69.5264257	-3.3004819	-25.1276552
0.0859375	0.2500000	15.1370110	0.0010026	4.2998555	65.5545729	0.0011722	13.8506952
0.0859375	0.3750000	18.6014758	2.7256874	3.2514375	69.5200896	3.2998734	-22.2555613
0.0859375	0.5000000	25.0199157	4.4025381	-0.1837044	75.3602895	5.5762511	-71.4893738
0.0859375	0.6250000	31.8709400	3.4148370	-4.5428697	77.7157309	4.3795568	-62.8047772
0.0859375	0.7500000	35.3863714	-0.0017864	-6.5929697	77.9901350	0.0012733	-76.1347227
0.0859375	0.8750000	31.8742655	-3.4102365	-4.5421300	77.7142674	-4.3794458	-78.8198073
0.0859375	1.0000000	25.0170128	-4.4014307	-0.1828311	75.3613319	-5.5754620	-66.4595351
0.0937500	0.0000000	25.0276138	-4.2740375	-0.0807116	75.3368217	-6.0352521	68.8488329
0.0937500	0.1250000	17.9472630	-2.5729754	3.1732136	69.0749452	-3.6367576	42.6343407
0.0937500	0.2500000	14.1387196	0.0026922	4.0038604	64.8048473	-0.0007313	29.0777716
0.0937500	0.3750000	17.9481589	2.5685558	3.1516355	69.0832550	3.6382180	25.7948347
0.0937500	0.5000000	25.0325043	4.2757144	-0.0714058	75.3373056	6.0346757	74.2225944
0.0937500	0.6250000	32.2725181	3.2983965	-4.3356719	78.0106697	4.6944935	32.3748291
0.0937500	0.7500000	35.8642685	-0.0022598	-6.2912012	78.4048059	-0.0015964	10.7127900
0.0937500	0.8750000	32.2794528	-3.2946531	-4.3111993	78.0078704	-4.6947865	43.0943569
0.0937500	1.0000000	25.0276138	-4.2740375	-0.0807116	75.3368217	-6.0352521	68.8488329
0.1015625	0.0000000	25.0408950	-4.0904550	-0.1886690	75.3496826	-6.4587795	-64.8078612
0.1015625	0.1250000	17.3408652	-2.4200718	2.8855871	68.7127372	-3.9551363	-22.6364154
0.1015625	0.2500000	13.1843658	0.0009798	3.6394952	64.1311741	0.0006259	24.0505683
0.1015625	0.3750000	17.3379916	2.4189573	2.8988441	68.7102482	3.9538187	-16.1804082
0.1015625	0.5000000	25.0466524	4.0910876	-0.1921424	75.3406440	6.4581233	-70.3161276
0.1015625	0.6250000	32.6262288	3.1571554	-4.2903451	78.1863311	4.9602450	-67.2843093
0.1015625	0.7500000	36.2865992	-0.0015426	-6.1319568	78.6401078	0.0022228	-74.2043227
0.1015625	0.8750000	32.6340691	-3.1531419	-4.2894752	78.1869009	-4.9591922	-83.2416361
0.1015625	1.0000000	25.0408950	-4.0904550	-0.1886690	75.3496826	-6.4587795	-64.8078612
0.1093750	0.0000000	25.0529670	-3.9491010	-0.0820058	75.2994699	-6.8850654	66.7698567
0.1093750	0.1250000	16.7193119	-2.2643715	2.8135183	68.2690136	-4.2703300	42.2349475
0.1093750	0.2500000	12.2695995	0.0025799	3.3371471	63.3906824	0.0004229	34.9218805
0.1093750	0.3750000	16.7194648	2.2604635	2.7958884	68.2834715	4.2718234	28.7128731
0.1093750	0.5000000	25.0588656	3.9500308	-0.0775698	75.3034315	6.8852646	72.6523588
0.1093750	0.6250000	32.9812565	3.0218889	-4.0566938	78.4334182	5.2519330	34.1856101
0.1093750	0.7500000	36.6798879	-0.0017780	-5.8022529	79.0069362	-0.0022985	15.6956613
0.1093750	0.8750000	32.9908818	-3.0186833	-4.0369323	78.4325992	-5.2517363	44.0749648
0.1093750	1.0000000	25.0529670	-3.9491010	-0.0820058	75.2994699	-6.8850654	66.7698567
0.1171875	0.0000000	25.0671773	-3.7462129	-0.1902337	75.3262538	-7.2793078	-62.1305047
0.1171875	0.1250000	16.1506330	-2.1099023	2.5302626	67.9332268	-4.5719823	-19.0159615
0.1171875	0.2500000	11.4079790	0.0007465	2.9908711	62.7424377	-0.0002907	34.3896040
0.1171875	0.3750000	16.1467805	2.1099357	2.5443893	67.9314944	4.5708491	-9.8594097
0.1171875	0.5000000	25.0732676	3.7460353	-0.1973219	75.3166062	7.2782505	-68.0309092
0.1171875	0.6250000	33.2920145	2.8639242	-3.9779010	78.6176106	5.4987591	-69.0757748
0.1171875	0.7500000	37.0222448	-0.0010132	-5.6045214	79.2348890	0.0019903	-72.6343593
0.1171875	0.8750000	33.3020091	-2.8606166	-3.9796171	78.6185852	-5.4982009	-84.5866369
0.1171875	1.0000000	25.0671773	-3.7462129	-0.1902337	75.3262538	-7.2793078	-62.1305047
0.1250000	0.0000000	25.0792300	-3.5927801	-0.0806653	75.2554125	-7.6650237	63.7052475
0.1250000	0.1250000	15.5739925	-1.9584476	2.4531223	67.5093213	-4.8618052	41.3653732
0.1250000	0.2500000	10.5946346	0.0023101	2.7009366	62.0167201	0.0003420	33.1796970
0.1250000	0.3750000	15.5729618	1.9551070	2.4360921	67.5154588	4.8628353	32.3076427
0.1250000	0.5000000	25.0849333	3.5931765	-0.0785625	75.2608814	7.6665817	69.8539222
0.1250000	0.6250000	33.6012568	2.7141472	-3.7240782	78.8153456	5.7649516	34.3031491
0.1250000	0.7500000	37.3374727	-0.0011016	-5.2547835	79.5553189	-0.0025222	20.7506903
0.1250000	0.8750000	33.6123348	-2.7118016	-3.7087450	78.8114669	-5.7646685	44.0672643
0.1250000	1.0000000	25.0792300	-3.5927801	-0.0806653	75.2554125	-7.6650237	63.7052475
0.1328125	0.0000000	25.0947838	-3.3733077	-0.1866695	75.2939362	-8.0291113	-58.9682188
0.1328125	0.1250000	15.0518069	-1.8070186	2.1755224	67.2032355	-5.1433330	-14.1219704
0.1328125	0.2500000	9.8424973	0.0004932	2.3889953	61.4149928	-0.0009233	24.8421478
0.1328125	0.3750000	15.0482576	1.8076209	2.1881684	67.1957299	5.1423577	-2.3589702
0.1328125	0.5000000	25.0990924	3.3723829	-0.1953766	75.2878224	8.0280796	-64.7542482
0.1328125	0.6250000	33.8698263	2.5442499	-3.6150899	78.9896445	5.9905444	-67.8667584
0.1328125	0.7500000	37.6084692	-0.0003966	-5.0237873	79.7760535	0.0021510	-70.6908875
0.1328125	0.8750000	33.8801690	-2.5416245	-3.6192449	78.9926496	-5.9911727	-82.4389672
0.1328125	1.0000000	25.0947838	-3.3733077	-0.1866695	75.2939362	-8.0291113	-58.9682188
0.1406250	0.0000000	25.1065055	-3.2080903	-0.0782739	75.2252892	-8.3729666	60.5754143
0.1406250	0.1250000	14.5284430	-1.6641488	2.0955513	66.8144473	-5.4043476	40.4325079
0.1406250	0.2500000	9.1468669	0.0021412	2.1185009	60.7367533	0.0001488	21.9629256
0.1406250	0.3750000	14.5271340	1.6605691	2.0777169	66.8241147	5.4054759	35.7394983
0.1406250	0.5000000	25.1104730	3.2090660	-0.0740011	75.2244850	8.3729109	66.4629291
0.1406250	0.6250000	34.1351573	2.3851734	-3.3447796	79.1510518	6.2286079	34.3214111
0.1406250	0.7500000	37.8540464	-0.0005266	-4.6590674	80.0367720	-0.0016594	24.4925494
0.1406250	0.8750000	34.1459999	-2.3835038	-3.3323784	79.1498949	-6.2273270	44.2933871
0.1406250	1.0000000	25.1065055	-3.2080903	-0.0782739	75.2252892	-8.3729666	60.5754143
0.1484375	0.0000000	25.1207578	-2.9746507	-0.1818323	75.2523020	-8.6995711	-55.6915062
0.1484375	0.1250000	14.0619873	-1.5191885	1.8285138	66.5245122	-5.6615062	-9.7230050
0.1484375	0.2500000	8.5144404	0.0002687	1.8464894	60.1850570	0.0002222	14.6686504
0.1484375	0.3750000	14.0574011	1.5203238	1.8403026	66.5208787	5.6611940	5.1803645
0.1484375	0.5000000	25.1242033	2.9740669	-0.1880994	75.2544909	8.6992864	-61.2788063
0.1484375	0.6250000	34.3634160	2.2084431	-3.2093788	79.3134897	6.4307537	-66.1668891
0.1484375	0.7500000	38.0620493	0.0000228	-4.3993981	80.2449171	0.0011949	-68.1426219
0.1484375	0.8750000	34.3732991	-2.2063159	-3.2138919	79.3143167	-6.4316314	-79.9426334
0.1484375	1.0000000	25.1207578	-2.9746507	-0.1818323	75.2523020	-8.6995711	-55.6915062
0.1562500	0.0000000	25.1313055	-2.8005660	-0.0703940	75.2029454	-8.9996889	57.6589307
0.1562500	0.1250000	13.6018847	-1.3862876	1.7455002	66.1997922	-5.8927642	41.0461377
0.1562500	0.2500000	7.9439152	0.0017725	1.6059699	59.5973488	-0.0007671	10.1562876
0.1562500	0.3750000	13.5988400	1.3834014	1.7304707	66.2000913	5.8917347	39.9447322
0.1562500	0.5000000	25.1347943	2.8011105	-0.0666189	75.1926742	8.9992103	63.0542690
0.1562500	0.6250000	34.5855596	2.0444796	-2.9269093	79.4481788	6.6397646	34.6696495
0.1562500	0.7500000	38.2480091	-0.0001840	-4.0245932	80.4675606	-0.0014164	27.7189606
0.1562500	0.8750000	34.5966700	-2.0436632	-2.9157894	79.4492812	-6.6386473	44.5683159
0.1562500	1.0000000	25.1313055	-2.8005660	-0.0703940	75.2029454	-8.9996889	57.6589307
0.1640625	0.0000000	25.1456653	-2.5559240	-0.1692047	75.2193975	-9.2854002	-52.9758388
0.1640625	0.1250000	13.1949875	-1.2509174	1.4898999	65.9307273	-6.1207188	-7.0994648
0.1640625	0.2500000	7.4356922	-0.0000369	1.3793422	59.0866874	0.0004756	3.1196510
0.1640625	0.3750000	13.1898665	1.2526660	1.5019595	65.9270171	6.1201182	11.5544171
0.1640625	0.5000000	25.1483928	2.5544975	-0.1761558	75.2189965	9.2862912	-57.9254737
0.1640625	0.6250000	34.7727479	1.8651406	-2.7674737	79.5877807	6.8166348	-64.2268348
0.1640625	0.7500000	38.4042371	0.0002997	-3.7433777	80.6507056	0.0006944	-65.4105133
0.1640625	0.8750000	34.7829691	-1.8637606	-2.7723763	79.5879010	-6.8170150	-77.8997104
0.1640625	1.0000000	25.1456653	-2.5559240	-0.1692047	75.2193975	-9.2854002	-52.9758388
0.1718750	0.0000000	25.1564922	-2.3736820	-0.0577833	75.1771667	-9.5409434	54.8932197
0.1718750	0.1250000	12.8032287	-1.1298867	1.4108657	65.6768194	-6.3181884	42.7963504
0.1718750	0.2500000	6.9924156	0.0014970	1.1745003	58.6031050	-0.0011197	-0.6144650
0.1718750	0.3750000	12.7995065	1.1269391	1.3962000	65.6708413	6.3185948	44.6052916
0.1718750	0.5000000	25.1587480	2.3734375	-0.0558800	75.1723434	9.5401024	60.1857427
0.1718750	0.6250000	34.9531727	1.7012062	-2.4702212	79.6994416	6.9931074	34.9257712
0.1718750	0.7500000	38.5412671	0.0000421	-3.3669966	80.8333269	-0.0009918	30.4650948
0.1718750	0.8750000	34.9632773	-1.7004215	-2.4645085	79.7016008	-6.9933639	45.3974966
0.1718750	1.0000000	25.1564922	-2.3736820	-0.0577833	75.1771667	-9.5409434	54.8932197
0.1796875	0.0000000	25.1703559	-2.1194401	-0.1536379	75.1960741	-9.7825480	-50.0869679
0.1796875	0.1250000	12.4629702	-1.0038238	1.1644031	65.4317641	-6.5151203	-6.1232085
0.1796875	0.2500000	6.6039650	-0.0003572	0.9888846	58.1603059	-0.0001617	-10.5894442
0.1796875	0.3750000	12.4572464	1.0063045	1.1782603	65.4275899	6.5143146	16.1441900
0.1796875	0.5000000	25.1713777	2.1171775	-0.1609014	75.1951995	9.7823278	-55.1379977
0.1796875	0.6250000	35.1022494	1.5229266	-2.2917057	79.8178623	7.1442448	-62.2907809
0.1796875	0.7500000	38.6537913	0.0005937	-3.0684017	80.9999953	0.0009884	-62.2219122
0.1796875	0.8750000	35.1103445	-1.5217006	-2.2983854	79.8213768	-7.1442199	-75.6849868
0.1796875	1.0000000	25.1703559	-2.1194401	-0.1536379	75.1960741	-9.7825480	-50.0869679
0.1875000	0.0000000	25.1792322	-1.9302120	-0.0429391	75.1538142	-9.9890028	51.8914320
0.1875000	0.1250000	12.1441719	-0.8957203	1.0925887	65.2260321	-6.6750749	45.6907053
0.1875000	0.2500000	6.2789850	0.0013302	0.8272735	57.7829008	-0.0002636	-9.0385186
0.1875000	0.3750000	12.1404551	0.8918425	1.0778334	65.2309250	6.6763338	49.9623304
0.1875000	0.5000000	25.1803046	1.9308479	-0.0365979	75.1563336	9.9896428	57.4071632
0.1875000	0.6250000	35.2424502	1.3609800	-1.9912094	79.8940967	7.2865435	35.3857006
0.1875000	0.7500000	38.7499059	0.0001405	-2.6893888	81.1316269	-0.0012077	32.2405158
0.1875000	0.8750000	35.2505885	-1.3609864	-1.9838535	79.8877615	-7.2868784	45.7827545
0.1875000	1.0000000	25.1792322	-1.9302120	-0.0429391	75.1538142	-9.9890028	51.8914320
0.1953125	0.0000000	25.1926025	-1.6695407	-0.1342411	75.1869028	-10.1884579	-46.7246773
0.1953125	0.1250000	11.8756553	-0.7757737	0.8561288	65.0350696	-6.8395371	-5.9028464
0.1953125	0.2500000	6.0020836	-0.0005232	0.6754389	57.4165033	-0.0011789	-19.9178439
0.1953125	0.3750000	11.8683984	0.7785466	0.8682706	65.0271110	6.8377718	18.2921252
0.1953125	0.5000000	25.1938591	1.6677608	-0.1386896	75.1805665	10.1868492	-52.3312991
0.1953125	0.6250000	35.3521994	1.1854469	-1.7943346	80.0124533	7.4091677	-59.7316212
0.1953125	0.7500000	38.8289046	0.0005387	-2.3790590	81.2817656	0.0015897	-58.5143272
0.1953125	0.8750000	35.3602255	-1.1852291	-1.7980932	80.0231961	-7.4091518	-71.9953795
0.1953125	1.0000000	25.1926025	-1.6695407	-0.1342411	75.1869028	-10.1884579	-46.7246773
0.2031250	0.0000000	25.1992873	-1.4752417	-0.0249783	75.1187716	-10.3381452	48.2082647
0.2031250	0.1250000	11.6320813	-0.6804004	0.7952701	64.8750141	-6.9583040	46.2660594
0.2031250	0.2500000	5.7792054	0.0009223	0.5523458	57.1317055	0.0014393	-3.4339864
0.2031250	0.3750000	11.6281266	0.6761609	0.7844097	64.8808901	6.9599932	51.9117874
0.2031250	0.5000000	25.2000146	1.4757251	-0.0200482	75.1298242	10.3398408	54.4617437
0.2031250	0.6250000	35.4534257	1.0270910	-1.4888691	80.0370692	7.5170635	35.1005444
0.2031250	0.7500000	38.8938285	0.0000758	-2.0013271	81.3541155	-0.0018611	33.2260481
0.2031250	0.8750000	35.4604772	-1.0274803	-1.4836300	80.0270060	-7.5168495	44.4377295
0.2031250	1.0000000	25.1992873	-1.4752417	-0.0249783	75.1187716	-10.3381452	48.2082647
0.2109375	0.0000000	25.2113246	-1.2120626	-0.1116472	75.1897178	-10.4964549	-42.5591043
0.2109375	0.1250000	11.4411892	-0.5612178	0.5712145	64.7484372	-7.0889029	-7.9067263
0.2109375	0.2500000	5.5965310	-0.0007370	0.4226414	56.8643104	-0.0028114	-16.7508929
0.2109375	0.3750000	11.4344759	0.5646325	0.5850932	64.7300091	7.0870747	13.3413802
0.2109375	0.5000000	25.2106012	1.2094613	-0.1172825	75.1801021	10.4951401	-48.9328053
0.2109375	0.6250000	35.5281067	0.8542364	-1.2772313	80.1608834	7.6108480	-55.9214491
0.2109375	0.7500000	38.9463397	0.0005084	-1.6813414	81.5045543	0.0019553	-53.7493725
0.2109375	0.8750000	35.5335537	-0.8538443	-1.2816558	80.1801167	-7.6121106	-66.7755185
0.2109375	1.0000000	25.2113246	-1.2120626	-0.1116472	75.1897178	-10.4964549	-42.5591043
0.2187500	0.0000000	25.2139301	-1.0109911	-0.0106687	75.0969789	-10.5913520	43.2335399
0.2187500	0.1250000	11.2763621	-0.4770422	0.5179000	64.6042377	-7.1636539	42.5990985
0.2187500	0.2500000	5.4541641	0.0005721	0.3340694	56.6655989	0.0029997	2.5572231
0.2187500	0.3750000	11.2738702	0.4722785	0.5111872	64.6175528	7.1649018	48.2040247
0.2187500	0.5000000	25.2125036	1.0121686	-0.0035718	75.1060681	10.5933803	50.2182422
0.2187500	0.6250000	35.5923162	0.6988421	-0.9733172	80.1325440	7.6802839	33.2610773
0.2187500	0.7500000	38.9878469	-0.0000399	-1.3045955	81.4918348	-0.0022280	32.3698258
0.2187500	0.8750000	35.5956870	-0.6989512	-0.9700865	80.1149756	-7.6791325	41.1733274
0.2187500	1.0000000	25.2139301	-1.0109911	-0.0106687	75.0969789	-10.5913520	43.2335399
0.2265625	0.0000000	25.2227054	-0.7495182	-0.0874826	75.1926628	-10.7048092	-37.2601080
0.2265625	0.1250000	11.1646445	-0.3528779	0.3041265	64.5545247	-7.2577688	-7.0272155
0.2265625	0.2500000	5.3476897	-0.0007168	0.2242312	56.5048209	-0.0040357	-14.0751485
0.2265625	0.3750000	11.1594043	0.3549877	0.3155171	64.5409565	7.2568867	9.4496555
0.2265625	0.5000000	25.2206059	0.7467897	-0.0907842	75.1869414	10.7023014	-44.0367796
0.2265625	0.6250000	35.6334388	0.5258416	-0.7510540	80.2603130	7.7454942	-50.3792019
0.2265625	0.7500000	39.0215690	0.0002006	-0.9789885	81.6520328	0.0025515	-47.5002673
0.2265625	0.8750000	35.6353313	-0.5248963	-0.7535097	80.2782708	-7.7468554	-58.8608657
0.2265625	1.0000000	25.2227054	-0.7495182	-0.0874826	75.1926628	-10.7048092	-37.2601080
0.2343750	0.0000000	25.2211369	-0.5409661	0.0029326	75.0769252	-10.7428621	37.3539318
0.2343750	0.1250000	11.0734187	-0.2752604	0.2468027	64.4400204	-7.2884586	38.0544073
0.2343750	0.2500000	5.2768520	0.0003356	0.1603140	56.3907354	0.0035772	6.4075614
0.2343750	0.3750000	11.0710451	0.2696705	0.2442471	64.4549238	7.2891890	44.6197428
0.2343750	0.5000000	25.2206716	0.5442363	0.0156751	75.0839507	10.7448691	44.3352671
0.2343750	0.6250000	35.6640174	0.3718481	-0.4516215	80.1803199	7.7769524	29.5920462
0.2343750	0.7500000	39.0431858	-0.0006190	-0.6075564	81.5616477	-0.0024255	29.9659500
0.2343750	0.8750000	35.6652038	-0.3719654	-0.4455161	80.1594620	-7.7752018	35.5133318
0.2343750	1.0000000	25.2211369	-0.5409661	0.0029326	75.0769252	-10.7428621	37.3539318
0.2421875	0.0000000	25.2268963	-0.2860231	-0.0613779	75.1923665	-10.8079810	-31.1281131
0.2421875	0.1250000	11.0288637	-0.1449287	0.0463003	64.4682405	-7.3439399	-4.7349020
0.2421875	0.2500000	5.2404451	-0.0008409	0.0618448	56.3443325	-0.0039309	-12.7442762
0.2421875	0.3750000	11.0256737	0.1449625	0.0545915	64.4544963	7.3438864	7.9491600
0.2421875	0.5000000	25.2273996	0.2849905	-0.0601301	75.1869874	10.8072405	-37.6886679
0.2421875	0.6250000	35.6790696	0.1941068	-0.2202037	80.3119893	7.8118639	-43.1781651
0.2421875	0.7500000	39.0555300	-0.0005244	-0.2813572	81.7121121	0.0020868	-40.2028536
0.2421875	0.8750000	35.6809618	-0.1934855	-0.2164720	80.3219477	-7.8129622	-49.4229324
0.2421875	1.0000000	25.2268963	-0.2860231	-0.0613779	75.1923665	-10.8079810	-31.1281131
0.2500000	0.0000000	25.2228098	-0.0735759	0.0176528	75.0691737	-10.7919063	30.7032405
0.2500000	0.1250000	11.0055690	-0.0638358	-0.0200175	64.3993546	-7.3333346	32.4999141
0.2500000	0.2500000	5.2362979	-0.0000282	0.0027251	56.3240298	0.0036060	6.8407736
0.2500000	0.3750000	11.0068006	0.0586541	-0.0194965	64.4138158	7.3329278	40.2460055
0.2500000	0.5000000	25.2242674	0.0788707	0.0336508	75.0735744	10.7935199	37.2668782
0.2500000	0.6250000	35.6821479	0.0390671	0.0722719	80.1715287	7.8049396	24.7298591
0.2500000	0.7500000	39.0551928	-0.0010218	0.0885479	81.5611891	-0.0022515	26.4773393
0.2500000	0.8750000	35.6849816	-0.0396201	0.0806875	80.1580712	-7.8034633	28.3852107
0.2500000	1.0000000	25.2228098	-0.0735759	0.0176528	75.0691737	-10.7919063	30.7032405
0.2578125	0.0000000	25.2240445	0.1736807	-0.0327691	75.1949693	-10.8085394	-24.8967059
0.2578125	0.1250000	11.0267851	0.0621285	-0.1962935	64.4946922	-7.3475467	-1.1658190
0.2578125	0.2500000	5.2610243	-0.0006072	-0.1011946	56.3966668	-0.0021492	-13.4392910
0.2578125	0.3750000	11.0284882	-0.0650225	-0.1934450	64.4947785	7.3498149	8.3851828
0.2578125	0.5000000	25.2263900	-0.1740177	-0.0311074	75.1992876	10.8061954	-30.4442443
0.2578125	0.6250000	35.6770466	-0.1415969	0.3070974	80.2941994	7.8074070	-35.4152674
0.2578125	0.7500000	39.0464081	-0.0005997	0.4216975	81.6859106	0.0024443	-32.3483311
0.2578125	0.8750000	35.6809551	0.1421103	0.3106445	80.3054062	-7.8090162	-39.0832078
0.2578125	1.0000000	25.2240445	0.1736807	-0.0327691	75.1949693	-10.8085394	-24.8967059
0.2656250	0.0000000	25.2163742	0.3883384	0.0322265	75.0796529	-10.7394028	24.4695100
0.2656250	0.1250000	11.0788940	0.1550767	-0.2787798	64.4845719	-7.2973116	27.5317686
0.2656250	0.2500000	5.3135443	-0.0001001	-0.1722525	56.4747233	0.0035686	3.8622291
0.2656250	0.3750000	11.0835390	-0.1568285	-0.2732243	64.5021510	7.2956491	36.4858442
0.2656250	0.5000000	25.2191680	-0.3852273	0.0438652	75.0719927	10.7395413	29.5985585
0.2656250	0.6250000	35.6515972	-0.2984412	0.5948001	80.1172992	7.7668113	19.8253065
0.2656250	0.7500000	39.0297559	-0.0006629	0.7926827	81.4989923	-0.0019178	22.4533482
0.2656250	0.8750000	35.6553680	0.2980399	0.5998891	80.1069161	-7.7646621	21.4263458
0.2656250	1.0000000	25.2163742	0.3883384	0.0322265	75.0796529	-10.7394028	24.4695100
0.2734375	0.0000000	25.2113354	0.6345006	-0.0073450	75.2011011	-10.7017054	-19.2713851
0.2734375	0.1250000	11.1797413	0.2671550	-0.4357251	64.6397491	-7.2681410	2.7348197
0.2734375	0.2500000	5.3924715	-0.0002457	-0.2850231	56.6541963	-0.0011612	-17.0611123
0.2734375	0.3750000	11.1823868	-0.2695598	-0.4355025	64.6471902	7.2705240	9.0473885
0.2734375	0.5000000	25.2161355	-0.6359922	-0.0077230	75.1996679	10.7007381	-23.3318986
0.2734375	0.6250000	35.6189608	-0.4728610	0.8325054	80.2219558	7.7345774	-28.1501592
0.2734375	0.7500000	39.0077445	-0.0000781	1.1284505	81.5781961	0.0016714	-24.6534494
0.2734375	0.8750000	35.6228822	0.4728864	0.8337567	80.2247089	-7.7359137	-29.6482528
0.2734375	1.0000000	25.2113354	0.6345006	-0.0073450	75.2011011	-10.7017054	-19.2713851
0.2812500	0.0000000	25.1991371	0.8543714	0.0448653	75.0951576	-10.5851170	18.7917765
0.2812500	0.1250000	11.3134118	0.3670397	-0.5415237	64.7051702	-7.1808482	22.6202655
0.2812500	0.2500000	5.5037834	-0.0002493	-0.3709067	56.8273727	0.0023551	-2.0663284
0.2812500	0.3750000	11.3182947	-0.3667586	-0.5334955	64.7139945	7.1776370	32.4779213
0.2812500	0.5000000	25.2019713	-0.8537426	0.0485528	75.0826839	10.5851625	22.5613819
0.2812500	0.6250000	35.5630323	-0.6308135	1.1201774	80.0309439	7.6593892	15.0379688
0.2812500	0.7500000	38.9732712	-0.0000789	1.4917825	81.3468793	-0.0016373	18.1669335
0.2812500	0.8750000	35.5641317	0.6302639	1.1206419	80.0236272	-7.6569629	15.1218270
0.2812500	1.0000000	25.1991371	0.8543714	0.0448653	75.0951576	-10.5851170	18.7917765
0.2890625	0.0000000	25.1914042	1.0992304	0.0179820	75.1949448	-10.4914144	-14.3078369
0.2890625	0.1250000	11.4924330	0.4711799	-0.6946026	64.9025531	-7.1062556	7.1171427
0.2890625	0.2500000	5.6549296	0.0000822	-0.4931055	57.1007241	-0.0010672	-23.0022398
0.2890625	0.3750000	11.4967638	-0.4730200	-0.6969905	64.8983473	7.1092600	11.1808226
0.2890625	0.5000000	25.1928786	-1.1012235	0.0145820	75.2021630	10.4912689	-16.4932341
0.2890625	0.6250000	35.4996471	-0.8016358	1.3579386	80.0952123	7.5930082	-21.0489026
0.2890625	0.7500000	38.9297044	0.0000019	1.8262385	81.3827895	0.0010672	-17.1281653
0.2890625	0.8750000	35.4992769	0.8011578	1.3583627	80.0997702	-7.5951001	-20.9612910
0.2890625	1.0000000	25.1914042	1.0992304	0.0179820	75.1949448	-10.4914144	-14.3078369
0.2968750	0.0000000	25.1780196	1.3234144	0.0561812	75.1144314	-10.3291964	14.1132790
0.2968750	0.1250000	11.7022290	0.5770565	-0.8239691	65.0190510	-6.9820398	18.3602943
0.2968750	0.2500000	5.8489598	0.0000456	-0.6017951	57.3726115	0.0008594	-10.3410315
0.2968750	0.3750000	11.7079273	-0.5771803	-0.8182870	65.0243495	6.9797990	28.0364375
0.2968750	0.5000000	25.1774227	-1.3228128	0.0588134	75.1078938	10.3294484	16.1431412
0.2968750	0.6250000	35.4097358	-0.9623560	1.6386689	79.8891207	7.4867433	10.4430865
0.2968750	0.7500000	38.8703524	-0.0001419	2.1842385	81.1426820	-0.0008633	14.6244317
0.2968750	0.8750000	35.4074590	0.9618335	1.6389869	79.8851223	-7.4852709	9.8682811
0.2968750	1.0000000	25.1780196	1.3234144	0.0561812	75.1144314	-10.3291964	14.1132790
0.3046875	0.0000000	25.1660006	1.5627108	0.0392044	75.2057669	-10.1820107	-10.0868502
0.3046875	0.1250000	11.9576577	0.6837098	-0.9765830	65.2508740	-6.8646694	10.8228777
0.3046875	0.2500000	6.0923455	0.0006252	-0.7498678	57.7345798	-0.0001065	-29.6765933
0.3046875	0.3750000	11.9619878	-0.6859076	-0.9821957	65.2518114	6.8669111	13.3901665
0.3046875	0.5000000	25.1663716	-1.5633827	0.0384752	75.2160707	10.1821755	-10.5663773
0.3046875	0.6250000	35.3104245	-1.1340294	1.8721037	79.9080477	7.3842555	-14.0953727
0.3046875	0.7500000	38.7999526	-0.0001402	2.5195383	81.1159939	0.0010629	-11.2984595
0.3046875	0.8750000	35.3084181	1.1338832	1.8737181	79.9062417	-7.3851519	-13.1690006
0.3046875	1.0000000	25.1660006	1.5627108	0.0392044	75.2057669	-10.1820107	-10.0868502
0.3125000	0.0000000	25.1499932	1.7848897	0.0711917	75.1519763	-9.9755500	10.2299715
0.3125000	0.1250000	12.2456881	0.7983993	-1.1244684	65.4284964	-6.7050833	12.7925785
0.3125000	0.2500000	6.3842659	0.0003886	-0.8961775	58.1064366	0.0003986	-17.2273848
0.3125000	0.3750000	12.2501368	-0.7991116	-1.1208086	65.4311891	6.7030412	20.2907958
0.3125000	0.5000000	25.1492974	-1.7851835	0.0709436	75.1363909	9.9750338	10.6729695
0.3125000	0.6250000	35.1839171	-1.2995647	2.1402148	79.7089230	7.2485443	6.2862300
0.3125000	0.7500000	38.7105901	-0.0001794	2.8733271	80.8602447	-0.0009045	12.3024991
0.3125000	0.8750000	35.1808772	1.2999213	2.1390876	79.6987182	-7.2467576	5.1140078
0.3125000	1.0000000	25.1499932	1.7848897	0.0711917	75.1519763	-9.9755500	10.2299715
0.3203125	0.0000000	25.1365518	2.0156271	0.0650189	75.2185519	-9.7751568	-6.9233544
0.3203125	0.1250000	12.5761792	0.9143657	-1.2817966	65.6955703	-6.5457739	10.2132233
0.3203125	0.2500000	6.7342729	0.0009449	-1.0771768	58.5502476	0.0007434	-22.6607793
0.3203125	0.3750000	12.5794194	-0.9161805	-1.2872590	65.6966866	6.5476088	10.2896914
0.3203125	0.5000000	25.1359601	-2.0170889	0.0629496	75.2286639	9.7752268	-5.8632910
0.3203125	0.6250000	35.0453973	-1.4739877	2.3623245	79.6738363	7.1118521	-8.4171682
0.3203125	0.7500000	38.6085288	-0.0003793	3.2091171	80.7765574	0.0005363	-6.6327950
0.3203125	0.8750000	35.0413191	1.4743999	2.3651240	79.6734839	-7.1125558	-6.5524743
0.3203125	1.0000000	25.1365518	2.0156271	0.0650189	75.2185519	-9.7751568	-6.9233544
0.3281250	0.0000000	25.1210583	2.2346544	0.0888022	75.1783618	-9.5253595	7.2412020
0.3281250	0.1250000	12.9375767	1.0398344	-1.4438201	65.9433835	-6.3528898	6.6019290
0.3281250	0.2500000	7.1406117	0.0006929	-1.2661715	59.0114046	-0.0004719	-9.6344065
0.3281250	0.3750000	12.9410438	-1.0403714	-1.4406256	65.9383429	6.3516087	11.5131289
0.3281250	0.5000000	25.1191169	-2.2356824	0.0865380	75.1763949	9.5257265	6.6633310
0.3281250	0.6250000	34.8783676	-1.6438878	2.6145196	79.4689728	6.9474468	3.5839201
0.3281250	0.7500000	38.4837595	-0.0004801	3.5547929	80.5114569	-0.0001429	10.6748565
0.3281250	0.8750000	34.8739013	1.6446789	2.6148262	79.4756430	-6.9473179	2.2938675
0.3281250	1.0000000	25.1210583	2.2346544	0.0888022	75.1783618	-9.5253595	7.2412020
0.3359375	0.0000000	25.1065999	2.4574650	0.0853773	75.2342438	-9.2737084	-4.4536000
0.3359375	0.1250000	13.3386384	1.1671997	-1.6049685	66.2441632	-6.1555422	8.0280515
0.3359375	0.2500000	7.6096804	0.0013088	-1.4843200	59.5393140	0.0007871	-10.9379925
0.3359375	0.3750000	13.3409461	-1.1691318	-1.6112493	66.2464375	6.1564974	6.1238025
0.3359375	0.5000000	25.1048301	-2.4582177	0.0846742	75.2416908	9.2737019	-2.5971134
0.3359375	0.6250000	34.6979860	-1.8195505	2.8277744	79.3972290	6.7800165	-4.5506892
0.3359375	0.7500000	38.3412345	-0.0007230	3.8837701	80.3761229	0.0005520	-2.5616617
0.3359375	0.8750000	34.6930787	1.8205380	2.8326814	79.3932269	-6.7805069	-2.0743522
0.3359375	1.0000000	25.1065999	2.4574650	0.0853773	75.2342438	-9.2737084	-4.4536000
0.3437500	0.0000000	25.0904908	2.6707480	0.1033279	75.2141281	-8.9826458	5.1928747
0.3437500	0.1250000	13.7698983	1.3037230	-1.7780212	66.5391679	-5.9302826	1.7024690
0.3437500	0.2500000	8.1400975	0.0010600	-1.7149529	60.0901029	-0.0004840	-2.5147542
0.3437500	0.3750000	13.7714903	-1.3049100	-1.7777081	66.5415303	5.9298663	5.0672603
0.3437500	0.5000000	25.0879019	-2.6713840	0.1022653	75.2127431	8.9830710	4.1193910
0.3437500	0.6250000	34.4908189	-1.9913744	3.0605099	79.1894512	6.5880823	2.7212637
0.3437500	0.7500000	38.1707995	-0.0008866	4.2171512	80.1005799	0.0000552	9.3436441
0.3437500	0.8750000	34.4856485	1.9926529	3.0633009	79.1896368	-6.5875366	1.2271641
0.3437500	1.0000000	25.0904908	2.6707480	0.1033279	75.2141281	-8.9826458	5.1928747
0.3515625	0.0000000	25.0757836	2.8836088	0.1034172	75.2641135	-8.6844744	-2.8726286
0.3515625	0.1250000	14.2354458	1.4431431	-1.9451564	66.8777402	-5.6980711	4.6161722
0.3515625	0.2500000	8.7345361	0.0016061	-1.9713734	60.6975701	0.0010594	-3.1476410
0.3515625	0.3750000	14.2365251	-1.4454120	-1.9513781	66.8803732	5.6982426	1.4636008
0.3515625	0.5000000	25.0730917	-2.8834710	0.1046866	75.2653173	8.6844999	-0.5483141
0.3515625	0.6250000	34.2685039	-2.1659097	3.2600303	79.0730926	6.3897010	-1.7707181
0.3515625	0.7500000	37.9772583	-0.0011455	4.5353078	79.9139824	0.0000432	0.6395551
0.3515625	0.8750000	34.2631329	2.1673391	3.2676370	79.0640434	-6.3893699	1.0100322
0.3515625	1.0000000	25.0757836	2.8836088	0.1034172	75.2641135	-8.6844744	-2.8726286
0.3593750	0.0000000	25.0603669	3.0878695	0.1190135	75.2476230	-8.3533750	3.7446184
0.3593750	0.1250000	14.7292437	1.5902389	-2.1274654	67.2206602	-5.4429495	-1.9008271
0.3593750	0.2500000	9.3923814	0.0013767	-2.2384839	61.3264583	-0.0004704	1.9171396
0.3593750	0.3750000	14.7278962	-1.5922678	-2.1282123	67.2212463	5.4432700	0.6090653
0.3593750	0.5000000	25.0581611	-3.0886246	0.1171131	75.2503506	8.3530463	2.6336942
0.3593750	0.6250000	34.0185519	-2.3355830	3.4700312	78.8618448	6.1728115	2.2991787
0.3593750	0.7500000	37.7523288	-0.0013868	4.8532684	79.6205730	0.0004163	9.1105797
0.3593750	0.8750000	34.0142333	2.3377988	3.4744158	78.8684586	-6.1734309	1.4992672
0.3593750	1.0000000	25.0603669	3.0878695	0.1190135	75.2476230	-8.3533750	3.7446184
0.3671875	0.0000000	25.0472160	3.2898274	0.1191328	75.2837531	-8.0106982	-1.5877340
0.3671875	0.1250000	15.2504015	1.7405938	-2.2995102	67.5892409	-5.1793238	0.3199288
0.3671875	0.2500000	10.1129052	0.0016217	-2.5283139	61.9920419	0.0012142	0.2997675
0.3671875	0.3750000	15.2499804	-1.7428040	-2.3029961	67.5906864	5.1791964	-2.5104076
0.3671875	0.5000000	25.0439076	-3.2899677	0.1194916	75.2883971	8.0107479	0.5924130
0.3671875	0.6250000	33.7529793	-2.5048275	3.6526691	78.7049446	5.9466667	0.8057630
0.3671875	0.7500000	37.4984111	-0.0016401	5.1535188	79.3885793	-0.0000636	2.5873515
0.3671875	0.8750000	33.7478321	2.5069182	3.6628638	78.7044462	-5.9470130	3.4564432
0.3671875	1.0000000	25.0472160	3.2898274	0.1191328	75.2837531	-8.0106982	-1.5877340
0.3750000	0.0000000	25.0334512	3.4844074	0.1278479	75.2831380	-7.6420739	2.5287812
0.3750000	0.1250000	15.7972946	1.8957624	-2.4843183	67.9712270	-4.8975282	-4.6838952
0.3750000	0.2500000	10.8929029	0.0015729	-2.8269726	62.6692938	-0.0008775	2.0201430
0.3750000	0.3750000	15.7965096	-1.8979627	-2.4845668	67.9663760	4.8978025	-2.7238339
0.3750000	0.5000000	25.0296342	-3.4845384	0.1276319	75.2858516	7.6423088	1.7806469
0.3750000	0.6250000	33.4610633	-2.6680824	3.8382403	78.4927590	5.7061895	2.3619750
0.3750000	0.7500000	37.2079233	-0.0019089	5.4476388	79.0867662	0.0003329	9.8746823
0.3750000	0.8750000	33.4566014	2.6705909	3.8463699	78.4934781	-5.7064852	1.7937314
0.3750000	1.0000000	25.0334512	3.4844074	0.1278479	75.2831380	-7.6420739	2.5287812
0.3828125	0.0000000	25.0209708	3.6736962	0.1266905	75.3107074	-7.2598447	-0.5584161
0.3828125	0.1250000	16.3680506	2.0529619	-2.6558217	68.3603323	-4.6063003	-3.7786884
0.3828125	0.2500000	11.7304702	0.0018084	-3.1460854	63.3762415	0.0012140	-0.5976884
0.3828125	0.3750000	16.3667385	-2.0558629	-2.6599117	68.3652984	4.6054763	-5.1309717
0.3828125	0.5000000	25.0174489	-3.6729866	0.1300063	75.3121169	7.2600605	1.4592254
0.3828125	0.6250000	33.1500903	-2.8274185	4.0011139	78.2962100	5.4551155	2.6035342
0.3828125	0.7500000	36.8842679	-0.0021057	5.7238942	78.8184000	-0.0001976	4.2123541
0.3828125	0.8750000	33.1464032	2.8300328	4.0127742	78.2968012	-5.4549629	5.3525601
0.3828125	1.0000000	25.0209708	3.6736962	0.1266905	75.3107074	-7.2598447	-0.5584161
0.3906250	0.0000000	25.0072954	3.8547620	0.1317712	75.3175512	-6.8566501	1.6652147
0.3906250	0.1250000	16.9616447	2.2130685	-2.8398603	68.7678776	-4.3007113	-6.9075800
0.3906250	0.2500000	12.6185584	0.0017103	-3.4671240	64.0896302	-0.0006453	-3.2943343
0.3906250	0.3750000	16.9599689	-2.2158803	-2.8414653	68.7631776	4.3007528	-4.7717654
0.3906250	0.5000000	25.0043313	-3.8544491	0.1326332	75.3175216	6.8567250	1.1762672
0.3906250	0.6250000	32.8152055	-2.9790003	4.1612267	78.0745118	5.1919150	3.0811424
0.3906250	0.7500000	36.5186431	-0.0023342	5.9870878	78.4954904	0.0004843	11.1260271
0.3906250	0.8750000	32.8129807	2.9822445	4.1693677	78.0749348	-5.1921654	3.5388934
0.3906250	1.0000000	25.0072954	3.8547620	0.1317712	75.3175512	-6.8566501	1.6652147
0.3984375	0.0000000	24.9961594	4.0290339	0.1312744	75.3369396	-6.4386221	0.0809451
0.3984375	0.1250000	17.5720458	2.3736541	-3.0137582	69.1682342	-3.9860397	-6.9822553
0.3984375	0.2500000	13.5570705	0.0017977	-3.7999123	64.8224707	0.0007126	-7.7380552
0.3984375	0.3750000	17.5693590	-2.3768686	-3.0157845	69.1759821	3.9852038	-6.9378693
0.3984375	0.5000000	24.9941316	-4.0285661	0.1324055	75.3337381	6.4387057	2.0732297
0.3984375	0.6250000	32.4590084	-3.1236969	4.2992414	77.8534621	4.9183491	5.3643065
0.3984375	0.7500000	36.1163070	-0.0025020	6.2350344	78.1860284	-0.0002047	5.6500445
0.3984375	0.8750000	32.4576267	3.1270235	4.3088552	77.8533053	-4.9184629	7.6189627
0.3984375	1.0000000	24.9961594	4.0290339	0.1312744	75.3369396	-6.4386221	0.0809451
0.4062500	0.0000000	24.9841975	4.1945691	0.1327953	75.3487260	-6.0042456	1.2007099
0.4062500	0.1250000	18.2015532	2.5339651	-3.1947960	69.5932983	-3.6606754	-8.3424474
0.4062500	0.2500000	14.5353796	0.0016251	-4.1281522	65.5491097	-0.0002766	-8.3137908
0.4062500	0.3750000	18.1982197	-2.5372142	-3.1967300	69.5874414	3.6607207	-5.0340901
0.4062500	0.5000000	24.9825843	-4.1942759	0.1331916	75.3485938	6.0037256	1.1179058
0.4062500	0.6250000	32.0803911	-3.2592647	4.4259336	77.6063099	4.6331570	5.2029450
0.4062500	0.7500000	35.6680279	-0.0026080	6.4640882	77.8483373	0.0003962	12.7091540
0.4062500	0.8750000	32.0797566	3.2626967	4.4354692	77.6084212	-4.6335935	6.0031859
0.4062500	1.0000000	24.9841975	4.1945691	0.1327953	75.3487260	-6.0042456	1.2007099
0.4140625	0.0000000	24.9738262	4.3518278	0.1289003	75.3620877	-5.5554242	0.4663465
0.4140625	0.1250000	18.8434958	2.6923442	-3.3619443	70.0040250	-3.3267409	-9.7132515
0.4140625	0.2500000	15.5509594	0.0014996	-4.4688705	66.2767751	0.0004499	-10.8882901
0.4140625	0.3750000	18.8405093	-2.6955589	-3.3633208	70.0053660	3.3265141	-8.0957294
0.4140625	0.5000000	24.9728544	-4.3510254	0.1312837	75.3683338	5.5551745	2.1937176
0.4140625	0.6250000	31.6788515	-3.3849443	4.5363848	77.3582768	4.3394577	8.2820306
0.4140625	0.7500000	35.1789815	-0.0026374	6.6701753	77.5025359	0.0002264	6.9695482
0.4140625	0.8750000	31.6798054	3.3883413	4.5492613	77.3647041	-4.3399239	10.1247160
0.4140625	1.0000000	24.9738262	4.3518278	0.1289003	75.3620877	-5.5554242	0.4663465
0.4218750	0.0000000	24.9634773	4.4991201	0.1267647	75.3738002	-5.0926444	0.9986486
0.4218750	0.1250000	19.4981809	2.8474871	-3.5354296	70.4401154	-2.9848805	-8.9731445
0.4218750	0.2500000	16.5969146	0.0012605	-4.7931404	66.9926384	-0.0006354	-10.0383721
0.4218750	0.3750000	19.4951074	-2.8505392	-3.5337455	70.4302596	2.9848733	-4.1724108
0.4218750	0.5000000	24.9634520	-4.4983508	0.1270606	75.3736587	5.0928255	1.3141590
0.4218750	0.6250000	31.2544016	-3.4994453	4.6356762	77.1079452	4.0367345	6.9263555
0.4218750	0.7500000	34.6430731	-0.0025918	6.8517143	77.1401441	0.0004705	16.0770009
0.4218750	0.8750000	31.2570304	3.5030017	4.6447731	77.0980380	-4.0368830	7.6158414
0.4218750	1.0000000	24.9634773	4.4991201	0.1267647	75.3738002	-5.0926444	0.9986486
0.4296875	0.0000000	24.9543971	4.6364365	0.1194274	75.3889533	-4.6176417	0.7071411
0.4296875	0.1250000	20.1608465	2.9976095	-3.6941161	70.8535145	-2.6367876	-11.6579435
0.4296875	0.2500000	17.6657941	0.0010452	-5.1221186	67.7052278	0.0002610	-10.4042830
0.4296875	0.3750000	20.1581922	-3.0006574	-3.6930772	70.8564262	2.6356629	-7.8363184
0.4296875	0.5000000	24.9549763	-4.6354253	0.1214912	75.3806532	4.6178165	1.9620636
0.4296875	0.6250000	30.8081603	-3.6020690	4.7176819	76.8330476	3.7247079	11.0135981
0.4296875	0.7500000	34.0618564	-0.0024201	7.0122917	76.7580219	-0.0005474	9.1069139
0.4296875	0.8750000	30.8117049	3.6054092	4.7285088	76.8317829	-3.7241609	12.3590169
0.4296875	1.0000000	24.9543971	4.6364365	0.1194274	75.3889533	-4.6176417	0.7071411
0.4375000	0.0000000	24.9452054	4.7623584	0.1126291	75.3967446	-4.1323304	0.8196874
0.4375000	0.1250000	20.8320657	3.1412337	-3.8515487	71.2825808	-2.2819313	-9.1257054
0.4375000	0.2500000	18.7501979	0.0008263	-5.4304329	68.4025887	-0.0006174	-8.4032541
0.4375000	0.3750000	20.8290143	-3.1441319	-3.8509952	71.2773036	2.2819406	-3.2933584
0.4375000	0.5000000	24.9471423	-4.7615191	0.1138212	75.3971683	4.1320698	1.8935509
0.4375000	0.6250000	30.3395036	-3.6920835	4.7822612	76.5572885	3.4041505	8.8182524
0.4375000	0.7500000	33.4327414	-0.0022370	7.1483564	76.3567941	0.0003709	18.6713573
0.4375000	0.8750000	30.3446695	3.6954415	4.7897313	76.5586008	-3.4046267	9.7360352
0.4375000	1.0000000	24.9452054	4.7623584	0.1126291	75.3967446	-4.1323304	0.8196874
0.4453125	0.0000000	24.9373181	4.8765730	0.1020984	75.4064260	-3.6353899	0.9391856
0.4453125	0.1250000	21.5068188	3.2769098	-3.9977631	71.6921094	-1.9224825	-11.0895041
0.4453125	0.2500000	19.8426304	0.0005414	-5.7349753	69.0941674	0.0001480	-8.5825152
0.4453125	0.3750000	21.5046107	-3.2796015	-3.9971942	71.6948962	1.9216623	-5.6114156
0.4453125	0.5000000	24.9392122	-4.8757768	0.1029249	75.4032627	3.6353693	1.8581190
0.4453125	0.6250000	29.8494990	-3.7684434	4.8353031	76.2578164	3.0774699	12.3389773
0.4453125	0.7500000	32.7582925	-0.0019061	7.2549133	75.9500557	-0.0000563	14.1445536
0.4453125	0.8750000	29.8543253	3.7713900	4.8433574	76.2580438	-3.0773090	13.0138629
0.4453125	1.0000000	24.9373181	4.8765730	0.1020984	75.4064260	-3.6353899	0.9391856
0.4531250	0.0000000	24.9297884	4.9779091	0.0910043	75.4164489	-3.1308152	0.7059536
0.4531250	0.1250000	22.1840593	3.4030464	-4.1380099	72.1092790	-1.5592572	-8.7284246
0.4531250	0.2500000	20.9384254	0.0003437	-6.0110453	69.7661074	-0.0004293	-3.7458028
0.4531250	0.3750000	22.1817993	-3.4056071	-4.1385631	72.1059894	1.5591910	-4.8458721
0.4531250	0.5000000	24.9320446	-4.9770970	0.0924658	75.4143998	3.1304969	2.2239637
0.4531250	0.6250000	29.3378023	-3.8307945	4.8677516	75.9606312	2.7424554	11.0776431
0.4531250	0.7500000	32.0369276	-0.0015915	7.3304079	75.5202680	0.0005512	19.9059733
0.4531250	0.8750000	29.3433142	3.8335571	4.8748747	75.9606219	-2.7428955	11.6984791
0.4531250	1.0000000	24.9297884	4.9779091	0.0910043	75.4164489	-3.1308152	0.7059536
0.4609375	0.0000000	24.9238032	5.0656214	0.0791195	75.4229904	-2.6177954	1.1133200
0.4609375	0.1250000	22.8582027	3.5185716	-4.2705988	72.5219165	-1.1938001	-10.3334469
0.4609375	0.2500000	22.0322426	0.0000277	-6.2730318	70.4070809	0.0002067	-6.4405954
0.4609375	0.3750000	22.8555908	-3.5207810	-4.2700216	72.5193870	1.1930036	-5.5934285
0.4609375	0.5000000	24.9263948	-5.0649336	0.0799312	75.4203127	2.6175734	1.8431768
0.4609375	0.6250000	28.8041816	-3.8782838	4.8881727	75.6390782	2.4021568	13.1800716
0.4609375	0.7500000	31.2704557	-0.0011726	7.3800532	75.0802761	-0.0003227	17.9695443
0.4609375	0.8750000	28.8099481	3.8807327	4.8934528	75.6367688	-2.4019096	13.5550454
0.4609375	1.0000000	24.9238032	5.0656214	0.0791195	75.4229904	-2.6177954	1.1133200
0.4687500	0.0000000	24.9191499	5.1387818	0.0672396	75.4297136	-2.0989002	0.7132480
0.4687500	0.1250000	23.5282575	3.6219406	-4.3943876	72.9267816	-0.8255666	-8.3341349
0.4687500	0.2500000	23.1170646	-0.0001448	-6.5036930	71.0375748	-0.0000941	-4.8079539
0.4687500	0.3750000	23.5266823	-3.6239094	-4.3919016	72.9277202	0.8254234	-5.7264920
0.4687500	0.5000000	24.9213301	-5.1382265	0.0671392	75.4254444	2.0986635	2.4158755
0.4687500	0.6250000	28.2517673	-3.9111802	4.8858791	75.3258566	2.0559859	12.2394948
0.4687500	0.7500000	30.4586792	-0.0008095	7.3985996	74.6105430	0.0001770	20.6231562
0.4687500	0.8750000	28.2568057	3.9132950	4.8903045	75.3212758	-2.0561769	12.7835936
0.4687500	1.0000000	24.9191499	5.1387818	0.0672396	75.4297136	-2.0989002	0.7132480
0.4765625	0.0000000	24.9161280	5.1968450	0.0526513	75.4315579	-1.5743637	1.0603329
0.4765625	0.1250000	24.1920182	3.7122750	-4.5045175	73.3216939	-0.4566656	-10.1560604
0.4765625	0.2500000	24.1846790	-0.0002811	-6.7177428	71.6348889	0.0000712	-9.5318166
0.4765625	0.3750000	24.1911901	-3.7140003	-4.5018485	73.3227890	0.4560172	-7.2946447
0.4765625	0.5000000	24.9180558	-5.1964945	0.0513186	75.4285981	1.5744052	1.7840163
0.4765625	0.6250000	27.6776016	-3.9284991	4.8766525	74.9810339	1.7052205	14.3472682
0.4765625	0.7500000	29.6060710	-0.0004656	7.3840930	74.1320152	-0.0001809	19.5615667
0.4765625	0.8750000	27.6824894	3.9304133	4.8775953	74.9838473	-1.7051209	14.2423884
0.4765625	1.0000000	24.9161280	5.1968450	0.0526513	75.4315579	-1.5743637	1.0603329
0.4843750	0.0000000	24.9141521	5.2391811	0.0373242	75.4342072	-1.0473286	0.8327420
0.4843750	0.1250000	24.8484420	3.7885637	-4.6004000	73.7030372	-0.0867501	-8.6899841
0.4843750	0.2500000	25.2311220	-0.0002868	-6.8985419	72.2315866	0.0000794	-9.6341626
0.4843750	0.3750000	24.8489892	-3.7902287	-4.5988792	73.7084719	0.0865462	-7.0830691
0.4843750	0.5000000	24.9151731	-5.2389741	0.0363756	75.4358861	1.0464803	2.7856511
0.4843750	0.6250000	27.0882857	-3.9306744	4.8440010	74.6408287	1.3496058	12.0463675
0.4843750	0.7500000	28.7107691	-0.0002120	7.3380476	73.6315818	0.0005435	20.8957407
0.4843750	0.8750000	27.0916822	3.9324569	4.8441957	74.6475963	-1.3498140	12.6664259
0.4843750	1.0000000	24.9141521	5.2391811	0.0373242	75.4342072	-1.0473286	0.8327420
0.4921875	0.0000000	24.9139804	5.2657084	0.0200682	75.4326587	-0.5160818	1.0728411
0.4921875	0.1250000	25.4928598	3.8502765	-4.6839609	74.0861474	0.2823082	-10.4660006
0.4921875	0.2500000	26.2518999	-0.0002566	-7.0604360	72.7932265	-0.0003070	-13.8844360
0.4921875	0.3750000	25.4943902	-3.8519357	-4.6830699	74.0798215	-0.2824552	-9.2479398
0.4921875	0.5000000	24.9142649	-5.2655576	0.0201957	75.4324520	0.5162942	1.7764820
0.4921875	0.6250000	26.4815336	-3.9173613	4.8011152	74.2856111	0.9908972	14.9278177
0.4921875	0.7500000	27.7764336	-0.0000020	7.2595234	73.1121373	-0.0002752	19.8086525
0.4921875	0.8750000	26.4837753	3.9190131	4.8027744	74.2819606	-0.9914817	14.2327696
0.4921875	1.0000000	24.9139804	5.2657084	0.0200682	75.4326587	-0.5160818	1.0728411
0.5000000	0.0000000	24.9148948	5.2761198	0.0040850	75.4370336	0.0155256	1.0621925
0.5000000	0.1250000	26.1259431	3.8969338	-4.7529077	74.4497999	0.6493335	-9.9757756
0.5000000	0.2500000	27.2425618	-0.0001412	-7.1814742	73.3344715	0.0002479	-14.2567478
0.5000000	0.3750000	26.1274064	-3.8985841	-4.7540470	74.4536109	-0.6501213	-9.3706958
0.5000000	0.5000000	24.9151507	-5.2761176	0.0050322	75.4325022	-0.0155524	3.0065047
0.5000000	0.6250000	25.8600443	-3.8885855	4.7379215	73.9226360	0.6296897	11.8043414
0.5000000	0.7500000	26.8057781	0.0001278	7.1482052	72.5857263	-0.0000603	18.5895434
0.5000000	0.8750000	25.8625623	3.8902935	4.7400643	73.9200562	-0.6298336	12.3577345
0.5000000	1.0000000	24.9148948	5.2761198	0.0040850	75.4370336	0.0155256	1.0621925
0.5078125	0.0000000	24.9175786	5.2704610	-0.0109954	75.4322147	0.5469492	1.0116533
0.5078125	0.1250000	26.7440044	3.9283756	-4.8109341	74.8034696	1.0151436	-10.9522153
0.5078125	0.2500000	28.1973261	-0.0000103	-7.2784268	73.8522177	0.0003882	-19.1075626
0.5078125	0.3750000	26.7458428	-3.9300584	-4.8113025	74.8057135	-1.0153893	-10.9362998
0.5078125	0.5000000	24.9175215	-5.2705457	-0.0114964	75.4305183	-0.5474730	1.8596372
0.5078125	0.6250000	25.2244641	-3.8445309	4.6654110	73.5473898	0.2669582	13.9450107
0.5078125	0.7500000	25.8038074	0.0002436	7.0096030	72.0281678	-0.0002254	19.1359571
0.5078125	0.8750000	25.2265365	3.8462089	4.6647103	73.5444775	-0.2667796	13.3939142
0.5078125	1.0000000	24.9175786	5.2704610	-0.0109954	75.4322147	0.5469492	1.0116533
0.5156250	0.0000000	24.9224023	5.2487689	-0.0251421	75.4305229	1.0770926	1.2423236
0.5156250	0.1250000	27.3449465	3.9442436	-4.8511808	75.1519062	1.3778760	-11.5775817
0.5156250	0.2500000	29.1166189	0.0002090	-7.3371971	74.3565611	0.0000853	-18.7836863
0.5156250	0.3750000	27.3485162	-3.9460890	-4.8514966	75.1476162	-1.3780049	-12.0505156
0.5156250	0.5000000	24.9211358	-5.2489047	-0.0259148	75.4318904	-1.0774965	3.1606255
0.5156250	0.6250000	24.5791907	-3.7855047	4.5728770	73.1694514	-0.0985853	11.0935110
0.5156250	0.7500000	24.7731213	0.0002357	6.8384373	71.4569299	0.0003282	13.8837364
0.5156250	0.8750000	24.5797966	3.7872356	4.5725206	73.1678249	0.0981186	11.5997471
0.5156250	1.0000000	24.9224023	5.2487689	-0.0251421	75.4305229	1.0770926	1.2423236
0.5234375	0.0000000	24.9286748	5.2110836	-0.0415617	75.4233533	1.6049804	0.9200216
0.5234375	0.1250000	27.9280078	3.9446685	-4.8764163	75.4817754	1.7366236	-12.0916447
0.5234375	0.2500000	29.9945791	0.0004939	-7.3727457	74.8313461	-0.0000208	-23.8829774
0.5234375	0.3750000	27.9320187	-3.9466503	-4.8776338	75.4840174	-1.7368023	-13.0746981
0.5234375	0.5000000	24.9270239	-5.2114104	-0.0421840	75.4247606	-1.6051354	1.9049605
0.5234375	0.6250000	23.9221150	-3.7121376	4.4736546	72.7790343	-0.4635211	12.4787236
0.5234375	0.7500000	23.7199072	0.0002194	6.6391331	70.8595404	0.0000259	16.3662003
0.5234375	0.8750000	23.9221200	3.7139830	4.4727794	72.7808421	0.4628598	12.1588595
0.5234375	1.0000000	24.9286748	5.2110836	-0.0415617	75.4233533	1.6049804	0.9200216
0.5312500	0.0000000	24.9355761	5.1579183	-0.0564170	75.4191044	2.1287522	1.4454839
0.5312500	0.1250000	28.4936775	3.9297119	-4.8817727	75.8047436	2.0911505	-13.0534750
0.5312500	0.2500000	30.8291947	0.0008054	-7.3686812	75.2987654	-0.0001386	-23.6648755
0.5312500	0.3750000	28.4989851	-3.9319860	-4.8847699	75.8048981	-2.0913414	-14.2704125
0.5312500	0.5000000	24.9331921	-5.1584206	-0.0570963	75.4280179	-2.1291970	3.3508299
0.5312500	0.6250000	23.2594961	-3.6249968	4.3583199	72.3814031	-0.8284362	8.9063464
0.5312500	0.7500000	22.6470448	0.0001348	6.4111477	70.2568614	-0.0000247	7.7932680
0.5312500	0.8750000	23.2584220	3.6269835	4.3556861	72.3828816	0.8280811	9.6859790
0.5312500	1.0000000	24.9355761	5.1579183	-0.0564170	75.4191044	2.1287522	1.4454839
0.5390625	0.0000000	24.9431203	5.0898070	-0.0721553	75.4097833	2.6476227	0.8321610
0.5390625	0.1250000	29.0392806	3.8993629	-4.8725310	76.1205564	2.4402541	-13.5070950
0.5390625	0.2500000	31.6178837	0.0012039	-7.3439245	75.7333765	-0.0003434	-28.0722600
0.5390625	0.3750000	29.0451040	-3.9019599	-4.8782772	76.1109948	-2.4396323	-15.2724471
0.5390625	0.5000000	24.9406040	-5.0905813	-0.0708513	75.4139794	-2.6472516	1.9105969
0.5390625	0.6250000	22.5913428	-3.5250920	4.2336638	71.9869606	-1.1927160	10.5408454
0.5390625	0.7500000	21.5604601	-0.0000948	6.1605625	69.6228217	0.0002687	10.6202611
0.5390625	0.8750000	22.5895215	3.5274260	4.2322239	71.9842121	1.1914062	10.7791119
0.5390625	1.0000000	24.9431203	5.0898070	-0.0721553	75.4097833	2.6476227	0.8321610
0.5468750	0.0000000	24.9516739	5.0077527	-0.0834806	75.4119073	3.1595433	2.0389376
0.5468750	0.1250000	29.5649207	3.8540002	-4.8478972	76.4155075	2.7829482	-15.0845791
0.5468750	0.2500000	32.3622041	0.0015482	-7.2756038	76.1629186	0.0005575	-27.5351585
0.5468750	0.3750000	29.5704795	-3.8567979	-4.8546889	76.4167431	-2.7838674	-16.9815225
0.5468750	0.5000000	24.9493044	-5.0085125	-0.0825844	75.4083624	-3.1597834	3.3414236
0.5468750	0.6250000	21.9197034	-3.4134405	4.0940252	71.5794263	-1.5537992	6.6218495
0.5468750	0.7500000	20.4691322	-0.0003026	5.8892331	68.9809971	-0.0006614	3.2355795
0.5468750	0.8750000	21.9170030	3.4159725	4.0930731	71.5743330	1.5542639	6.8067243
0.5468750	1.0000000	24.9516739	5.0077527	-0.0834806	75.4119073	3.1595433	2.0389376
0.5546875	0.0000000	24.9603486	4.9120097	-0.0971245	75.3997758	3.6640949	0.4665545
0.5546875	0.1250000	30.0682967	3.7937165	-4.8071209	76.7035668	3.1204617	-14.3923088
0.5546875	0.2500000	33.0599396	0.0019358	-7.1873840	76.5649102	-0.0003827	-32.7427189
0.5546875	0.3750000	30.0728155	-3.7967792	-4.8179870	76.7014605	-3.1200904	-16.7015870
0.5546875	0.5000000	24.9585548	-4.9129307	-0.0949823	75.4046410	-3.6644780	2.2705458
0.5546875	0.6250000	21.2474913	-3.2915467	3.9495459	71.1660048	-1.9135954	6.0391264
0.5546875	0.7500000	19.3754544	-0.0005684	5.6006598	68.3136411	0.0003246	11.5026781
0.5546875	0.8750000	21.2447426	3.2943259	3.9483546	71.1706804	1.9126993	8.6152310
0.5546875	1.0000000	24.9603486	4.9120097	-0.0971245	75.3997758	3.6640949	0.4665545
0.5625000	0.0000000	24.9699656	4.8039904	-0.1064605	75.3928396	4.1596514	2.4497096
0.5625000	0.1250000	30.5501822	3.7193299	-4.7480935	76.9836744	3.4503859	-17.9440187
0.5625000	0.2500000	33.7118819	0.0021688	-7.0623617	76.9603497	0.0002317	-29.6090316
0.5625000	0.3750000	30.5551727	-3.7229343	-4.7585900	76.9849500	-3.4503846	-20.0461787
0.5625000	0.5000000	24.9680324	-4.8048344	-0.1053100	75.3975332	-4.1598322	3.2791524
0.5625000	0.6250000	20.5777700	-3.1604580	3.7935515	70.7591104	-2.2691908	4.7463501
0.5625000	0.7500000	18.2882332	-0.0007491	5.2956136	67.6335820	-0.0001961	8.4507022
0.5625000	0.8750000	20.5744140	3.1632221	3.7916974	70.7590749	2.2687651	4.5922874
0.5625000	1.0000000	24.9699656	4.8039904	-0.1064605	75.3928396	4.1596514	2.4497096
0.5703125	0.0000000	24.9799677	4.6840287	-0.1161636	75.3834359	4.6454314	0.3593233
0.5703125	0.1250000	31.0094740	3.6311908	-4.6763830	77.2444911	3.7715562	-15.1127626
0.5703125	0.2500000	34.3157189	0.0023791	-6.9199006	77.3234095	-0.0001042	-37.2195471
0.5703125	0.3750000	31.0129177	-3.6348931	-4.6899912	77.2472996	-3.7717144	-17.8357346
0.5703125	0.5000000	24.9789089	-4.6850802	-0.1137719	75.3879424	-4.6458128	2.2898577
0.5703125	0.6250000	19.9109265	-3.0217522	3.6319365	70.3393990	-2.6194058	4.4937225
0.5703125	0.7500000	17.2144915	-0.0010844	4.9806017	66.9475489	0.0003186	14.8116536
0.5703125	0.8750000	19.9068888	3.0248455	3.6295413	70.3399575	2.6188509	7.6596969
0.5703125	1.0000000	24.9799677	4.6840287	-0.1161636	75.3834359	4.6454314	0.3593233
0.5781250	0.0000000	24.9904796	4.5536019	-0.1217096	75.3767468	5.1204324	2.6627589
0.5781250	0.1250000	31.4478192	3.5306917	-4.5869977	77.5101261	4.0850683	-19.3733100
0.5781250	0.2500000	34.8747459	0.0023803	-6.7432928	77.6912017	-0.0000894	-31.9638383
0.5781250	0.3750000	31.4490896	-3.5343681	-4.5977477	77.5083542	-4.0856702	-21.6550880
0.5781250	0.5000000	24.9905471	-4.5544211	-0.1205532	75.3809719	-5.1203368	3.2802648
0.5781250	0.6250000	19.2513096	-2.8767324	3.4625625	69.9267131	-2.9650620	5.3764344
0.5781250	0.7500000	16.1606434	-0.0012787	4.6539822	66.2473200	-0.0002188	16.6294755
0.5781250	0.8750000	19.2471294	2.8798693	3.4622815	69.9284122	2.9647442	5.6652192
0.5781250	1.0000000	24.9904796	4.5536019	-0.1217096	75.3767468	5.1204324	2.6627589
0.5859375	0.0000000	25.0013489	4.4123216	-0.1300460	75.3602981	5.5810232	0.3140149
0.5859375	0.1250000	31.8615851	3.4175522	-4.4852377	77.7464115	4.3894291	-17.7910118
0.5859375	0.2500000	35.3866887	0.0024036	-6.5534289	78.0350761	0.0001789	-34.6611176
0.5859375	0.3750000	31.8606586	-3.4210482	-4.4981506	77.7452907	-4.3892088	-21.0839650
0.5859375	0.5000000	25.0028235	-4.4132971	-0.1268973	75.3580958	-5.5813740	2.2969117
0.5859375	0.6250000	18.5999309	-2.7272754	3.2925016	69.5126762	-3.3033297	6.9957542
0.5859375	0.7500000	15.1332553	-0.0015607	4.3185328	65.5378525	0.0006447	19.2624348
0.5859375	0.8750000	18.5965858	2.7306787	3.2951723	69.5149146	3.3028396	9.0949695
0.5859375	1.0000000	25.0013489	4.4123216	-0.1300460	75.3602981	5.5810232	0.3140149
0.5937500	0.0000000	25.0136798	4.2623438	-0.1306698	75.3606355	6.0300263	3.1238020
0.5937500	0.1250000	32.2523688	3.2937604	-4.3669021	77.9868673	4.6844381	-19.2298661
0.5937500	0.2500000	35.8586337	0.0022155	-6.3277621	78.3673848	0.0007688	-30.4692158
0.5937500	0.3750000	32.2503550	-3.2974069	-4.3766449	77.9951814	-4.6852023	-20.9159867
0.5937500	0.5000000	25.0161536	-4.2627177	-0.1301993	75.3541499	-6.0306281	3.4337978
0.5937500	0.6250000	17.9613597	-2.5743355	3.1146537	69.1058733	-3.6342771	5.7441490
0.5937500	0.7500000	14.1386997	-0.0015532	3.9858627	64.8193842	-0.0006561	26.5362525
0.5937500	0.8750000	17.9588019	2.5773672	3.1171978	69.1052398	3.6354405	6.5080336
0.5937500	1.0000000	25.0136798	4.2623438	-0.1306698	75.3606355	6.0300263	3.1238020
0.6015625	0.0000000	25.0257570	4.1024856	-0.1354594	75.3258308	6.4625257	-0.3621312
0.6015625	0.1250000	32.6190716	3.1593641	-4.2375891	78.2076908	4.9693721	-19.7195509
0.6015625	0.2500000	36.2847203	0.0020167	-6.0971288	78.6756664	-0.0004140	-31.0157200
0.6015625	0.3750000	32.6158296	-3.1627618	-4.2469675	78.2017539	-4.9688551	-24.4442322
0.6015625	0.5000000	25.0287591	-4.1028116	-0.1359581	75.3318821	-6.4623423	2.1944124
0.6015625	0.6250000	17.3382736	-2.4199483	2.9397558	68.6977475	-3.9569586	9.5455396
0.6015625	0.7500000	13.1804761	-0.0016176	3.6531900	64.1179293	0.0008889	26.5151562
0.6015625	0.8750000	17.3371099	2.4225653	2.9393389	68.6996095	3.9553900	11.0598700
0.6015625	1.0000000	25.0257570	4.1024856	-0.1354594	75.3258308	6.4625257	-0.3621312
0.6093750	0.0000000	25.0394803	3.9353308	-0.1342241	75.3290140	6.8821643	3.9007238
0.6093750	0.1250000	32.9647005	3.0170285	-4.0869397	78.4272728	5.2431707	-20.9563604
0.6093750	0.2500000	36.6729932	0.0016627	-5.8375903	78.9808666	0.0002235	-26.2361814
0.6093750	0.3750000	32.9612762	-3.0203437	-4.0931727	78.4274022	-5.2434170	-21.8174006
0.6093750	0.5000000	25.0422612	-3.9351001	-0.1369236	75.3301806	-6.8818771	3.5568784
0.6093750	0.6250000	16.7330779	-2.2646553	2.7611807	68.3102321	-4.2704232	8.5681385
0.6093750	0.7500000	12.2682997	-0.0015050	3.3236537	63.4085813	-0.0008236	37.5263094
0.6093750	0.8750000	16.7317252	2.2667683	2.7598312	68.3082764	4.2705270	8.4557104
0.6093750	1.0000000	25.0394803	3.9353308	-0.1342241	75.3290140	6.8821643	3.9007238
0.6171875	0.0000000	25.0523973	3.7590034	-0.1393098	75.2986367	7.2803754	-1.0363339
0.6171875	0.1250000	33.2862483	2.8657002	-3.9306337	78.6134531	5.5059374	-19.9215737
0.6171875	0.2500000	37.0184985	0.0014344	-5.5760549	79.2520251	-0.0002136	-29.2599410
0.6171875	0.3750000	33.2815228	-2.8685987	-3.9385403	78.6126190	-5.5060191	-24.0908043
0.6171875	0.5000000	25.0553438	-3.7591292	-0.1392788	75.2966010	-7.2806039	1.8066032
0.6171875	0.6250000	16.1483285	-2.1102624	2.5821873	67.9092465	-4.5712541	11.3813585
0.6171875	0.7500000	11.4034589	-0.0016950	2.9999504	62.7254889	0.0010841	34.4321044
0.6171875	0.8750000	16.1473596	2.1126437	2.5846124	67.9129749	4.5707648	12.8939775
0.6171875	1.0000000	25.0523973	3.7590034	-0.1393098	75.2986367	7.2803754	-1.0363339
0.6250000	0.0000000	25.0663183	3.5775945	-0.1321834	75.3028369	7.6664849	4.7655583
0.6250000	0.1250000	33.5885658	2.7093581	-3.7552298	78.8206808	5.7583783	-20.6139817
0.6250000	0.2500000	37.3295519	0.0010873	-5.2843469	79.5478432	0.0000781	-21.5170632
0.6250000	0.3750000	33.5838999	-2.7121511	-3.7591201	78.8208896	-5.7589283	-21.6660073
0.6250000	0.5000000	25.0689637	-3.5769761	-0.1351822	75.2959508	-7.6655786	4.1494020
0.6250000	0.6250000	15.5872811	-1.9570577	2.4013196	67.5465553	-4.8639870	12.8436481
0.6250000	0.7500000	10.5923311	-0.0015359	2.6934354	62.0498211	-0.0005447	36.8400923
0.6250000	0.8750000	15.5860525	1.9591183	2.4020107	67.5443616	4.8647759	10.9468570
0.6250000	1.0000000	25.0663183	3.5775945	-0.1321834	75.3028369	7.6664849	4.7655583
0.6328125	0.0000000	25.0796343	3.3868026	-0.1369865	75.2623641	8.0266933	-2.1354904
0.6328125	0.1250000	33.8655851	2.5458138	-3.5776995	78.9722062	5.9958360	-18.5961830
0.6328125	0.2500000	37.6028851	0.0009551	-4.9941508	79.7795266	0.0004085	-28.1695801
0.6328125	0.3750000	33.8593173	-2.5480011	-3.5853838	78.9710614	-5.9956033	-21.5787125
0.6328125	0.5000000	25.0824983	-3.3867408	-0.1352338	75.2603409	-8.0275624	0.8549547
0.6328125	0.6250000	15.0483757	-1.8078388	2.2215834	67.1774003	-5.1405524	13.8019037
0.6328125	0.7500000	9.8390404	-0.0017356	2.3944812	61.3871615	0.0016384	24.6111819
0.6328125	0.8750000	15.0487611	1.8101321	2.2283180	67.1887071	5.1405749	15.0452726
0.6328125	1.0000000	25.0796343	3.3868026	-0.1369865	75.2623641	8.0266933	-2.1354904
0.6406250	0.0000000	25.0940869	3.1930129	-0.1262501	75.2664538	8.3759508	6.0485702
0.6406250	0.1250000	34.1242966	2.3803138	-3.3764183	79.1725625	6.2238613	-19.0126735
0.6406250	0.2500000	37.8477078	0.0006180	-4.6798530	80.0430546	0.0000400	-16.8262609
0.6406250	0.3750000	34.1184476	-2.3827227	-3.3788287	79.1721387	-6.2236485	-19.9409264
0.6406250	0.5000000	25.0966917	-3.1920324	-0.1280373	75.2687598	-8.3763609	5.3030197
0.6406250	0.6250000	14.5391564	-1.6612459	2.0468176	66.8466010	-5.4094161	17.4548452
0.6406250	0.7500000	9.1457461	-0.0013788	2.1159625	60.7679006	-0.0004267	24.0387684
0.6406250	0.8750000	14.5396360	1.6629173	2.0485626	66.8486181	5.4092076	13.6825075
0.6406250	1.0000000	25.0940869	3.1930129	-0.1262501	75.2664538	8.3759508	6.0485702
0.6484375	0.0000000	25.1066617	2.9890501	-0.1324476	75.2213443	8.6961511	-3.5399857
0.6484375	0.1250000	34.3577553	2.2093071	-3.1776377	79.2961867	6.4345777	-17.9909474
0.6484375	0.2500000	38.0576790	0.0004827	-4.3741452	80.2260455	-0.0006041	-26.8786956
0.6484375	0.3750000	34.3523532	-2.2114071	-3.1841849	79.2837962	-6.4342603	-20.5936356
0.6484375	0.5000000	25.1084138	-2.9888150	-0.1299278	75.2212027	-8.6953159	-0.5394573
0.6484375	0.6250000	14.0579888	-1.5203125	1.8710954	66.5140053	-5.6575190	16.7101311
0.6484375	0.7500000	8.5117874	-0.0015940	1.8472561	60.1602443	0.0011445	13.3605536
0.6484375	0.8750000	14.0596373	1.5223726	1.8792181	66.5169311	5.6574396	16.8354779
0.6484375	1.0000000	25.1066617	2.9890501	-0.1324476	75.2213443	8.6961511	-3.5399857
0.6562500	0.0000000	25.1206024	2.7851256	-0.1159155	75.2440912	9.0064051	7.8526408
0.6562500	0.1250000	34.5760419	2.0401014	-2.9525201	79.4812895	6.6371328	-16.6010877
0.6562500	0.2500000	38.2439774	0.0002186	-4.0437040	80.4877912	-0.0001363	-12.0337970
0.6562500	0.3750000	34.5699054	-2.0420913	-2.9551565	79.4764586	-6.6363779	-17.0559621
0.6562500	0.5000000	25.1232787	-2.7842704	-0.1163326	75.2432840	-9.0052506	6.8190967
0.6562500	0.6250000	13.6088827	-1.3828891	1.7039756	66.2276701	-5.8995794	21.5742675
0.6562500	0.7500000	7.9424222	-0.0011317	1.6046108	59.6114533	-0.0010005	11.0295791
0.6562500	0.8750000	13.6114912	1.3840187	1.7044079	66.2202323	5.8990388	16.8428105
0.6562500	1.0000000	25.1206024	2.7851256	-0.1159155	75.2440912	9.0064051	7.8526408
0.6640625	0.0000000	25.1328749	2.5703955	-0.1213089	75.1923327	9.2793571	-5.3569390
0.6640625	0.1250000	34.7680138	1.8660984	-2.7396754	79.5522539	6.8167954	-18.3266568
0.6640625	0.2500000	38.3998521	0.0000471	-3.7256458	80.6228334	0.0001659	-26.3108606
0.6640625	0.3750000	34.7623105	-1.8676012	-2.7447827	79.5492629	-6.8178682	-20.4675594
0.6640625	0.5000000	25.1347235	-2.5693205	-0.1208448	75.1814459	-9.2790821	-2.5593345
0.6640625	0.6250000	13.1900463	-1.2525339	1.5303608	65.9220800	-6.1134801	21.2155418
0.6640625	0.7500000	7.4338216	-0.0013033	1.3757044	59.0805020	0.0007858	2.3187550
0.6640625	0.8750000	13.1932217	1.2541745	1.5370332	65.9270206	6.1154498	18.3827006
0.6640625	1.0000000	25.1328749	2.5703955	-0.1213089	75.1923327	9.2793571	-5.3569390
0.6718750	0.0000000	25.1470665	2.3584401	-0.0987612	75.2262009	9.5489202	9.9688673
0.6718750	0.1250000	34.9462192	1.6969327	-2.4955271	79.7376979	6.9936850	-12.3301850
0.6718750	0.2500000	38.5372352	-0.0001341	-3.3804930	80.8700664	-0.0002784	-6.9864021
0.6718750	0.3750000	34.9407600	-1.6985520	-2.4980683	79.7351687	-6.9926685	-12.1375920
0.6718750	0.5000000	25.1486867	-2.3573413	-0.0981011	75.2248920	-9.5482418	9.4598602
0.6718750	0.6250000	12.8074340	-1.1257506	1.3712000	65.6859176	-6.3277616	24.6969025
0.6718750	0.7500000	6.9898640	-0.0007679	1.1773596	58.6124887	-0.0004757	-3.4369555
0.6718750	0.8750000	12.8110398	1.1264216	1.3702994	65.6838095	6.3263433	20.6877126
0.6718750	1.0000000	25.1470665	2.3584401	-0.0987612	75.2262009	9.5489202	9.9688673
0.6796875	0.0000000	25.1587518	2.1332209	-0.1085040	75.1543113	9.7735167	-8.0128236
0.6796875	0.1250000	35.0968369	1.5229787	-2.2708538	79.7738630	7.1419335	-20.6626042
0.6796875	0.2500000	38.6499562	-0.0002770	-3.0545051	80.9482792	0.0003210	-26.0708436
0.6796875	0.3750000	35.0917621	-1.5242093	-2.2763327	79.7715993	-7.1425418	-23.2747080
0.6796875	0.5000000	25.1598294	-2.1315035	-0.1078699	75.1454718	-9.7729514	-6.3243404
0.6796875	0.6250000	12.4562563	-1.0063758	1.2018575	65.4236359	-6.5044835	23.3155504
0.6796875	0.7500000	6.6033152	-0.0008990	0.9870294	58.1564326	0.0006036	-8.8127936
0.6796875	0.8750000	12.4606104	1.0076719	1.2075635	65.4302183	6.5065269	18.3514933
0.6796875	1.0000000	25.1587518	2.1332209	-0.1085040	75.1543113	9.7735167	-8.0128236
0.6875000	0.0000000	25.1722702	1.9157425	-0.0783766	75.2015252	10.0005479	13.1019092
0.6875000	0.1250000	35.2366141	1.3569384	-2.0088386	79.9585042	7.2906669	-5.2857014
0.6875000	0.2500000	38.7475104	-0.0004493	-2.7015664	81.1855021	-0.0011141	-1.5587093
0.6875000	0.3750000	35.2319503	-1.3582373	-2.0114299	79.9514415	-7.2891040	-3.9657731
0.6875000	0.5000000	25.1730558	-1.9146589	-0.0773054	75.2127979	-10.0000357	14.0793728
0.6875000	0.6250000	12.1455635	-0.8901595	1.0572616	65.2468696	-6.6882794	34.0572898
0.6875000	0.7500000	6.2770044	-0.0003246	0.8298002	57.7864946	0.0004342	-13.5366792
0.6875000	0.8750000	12.1495717	0.8903409	1.0536728	65.2467595	6.6854750	26.0907723
0.6875000	1.0000000	25.1722702	1.9157425	-0.0783766	75.2015252	10.0005479	13.1019092
0.6953125	0.0000000	25.1829371	1.6816262	-0.0947490	75.1227387	10.1731001	-11.3291566
0.6953125	0.1250000	35.3477365	1.1849027	-1.7774012	79.9388072	7.4038835	-25.6172339
0.6953125	0.2500000	38.8260545	-0.0005927	-2.3699023	81.2118906	0.0007121	-26.7594284
0.6953125	0.3750000	35.3432878	-1.1858164	-1.7830250	79.9378682	-7.4055425	-28.9588183
0.6953125	0.5000000	25.1825890	-1.6793948	-0.0949129	75.1146935	-10.1733525	-12.1229136
0.6953125	0.6250000	11.8667301	-0.7798185	0.8928429	65.0230956	-6.8245145	15.5944259
0.6953125	0.7500000	6.0026604	-0.0005344	0.6726008	57.4166648	-0.0002871	-20.8206354
0.6953125	0.8750000	11.8704633	0.7815186	0.8981210	65.0183336	6.8273100	15.7866714
0.6953125	1.0000000	25.1829371	1.6816262	-0.0947490	75.1227387	10.1731001	-11.3291566
0.7031250	0.0000000	25.1957323	1.4613971	-0.0570856	75.1991412	10.3564789	16.9753036
0.7031250	0.1250000	35.4500244	1.0230753	-1.5018129	80.1239504	7.5236550	3.4382727
0.7031250	0.2500000	38.8922188	-0.0007347	-2.0104188	81.4350781	-0.0008762	4.7005898
0.7031250	0.3750000	35.4464513	-1.0241188	-1.5047721	80.1237641	-7.5218014	5.7887878
0.7031250	0.5000000	25.1954621	-1.4611504	-0.0539731	75.2054619	-10.3567233	20.4035845
0.7031250	0.6250000	11.6320178	-0.6730239	0.7676323	64.8969458	-6.9754562	47.3498604
0.7031250	0.7500000	5.7781474	0.0000272	0.5515972	57.1348884	0.0011036	-2.0250373
0.7031250	0.8750000	11.6362219	0.6726799	0.7616099	64.9048620	6.9729816	30.7879298
0.7031250	1.0000000	25.1957323	1.4613971	-0.0570856	75.1991412	10.3564789	16.9753036
0.7109375	0.0000000	25.2024355	1.2198271	-0.0830067	75.1056224	10.4763117	-15.6759905
0.7109375	0.1250000	35.5240763	0.8522781	-1.2674206	80.0567392	7.6014441	-31.0473856
0.7109375	0.2500000	38.9439980	-0.0008443	-1.6759267	81.4033061	0.0010142	-28.9200437
0.7109375	0.3750000	35.5211983	-0.8532063	-1.2715915	80.0633333	-7.6036637	-33.8459721
0.7109375	0.5000000	25.2000817	-1.2176219	-0.0839377	75.0894107	-10.4750500	-18.7735678
0.7109375	0.6250000	11.4330594	-0.5666631	0.6052763	64.7116122	-7.0691906	4.5775177
0.7109375	0.7500000	5.5957929	-0.0001841	0.4222206	56.8584730	-0.0011053	-19.5661998
0.7109375	0.8750000	11.4351355	0.5685394	0.6086576	64.7089320	7.0722613	9.5802374
0.7109375	1.0000000	25.2024355	1.2198271	-0.0830067	75.1056224	10.4763117	-15.6759905
0.7187500	0.0000000	25.2127641	1.0001702	-0.0330285	75.1908319	10.6140822	21.4439535
0.7187500	0.1250000	35.5900057	0.6941202	-0.9827282	80.2512974	7.6914152	11.5780519
0.7187500	0.2500000	38.9875429	-0.0008804	-1.3105665	81.6097930	-0.0014509	12.2962213
0.7187500	0.3750000	35.5882427	-0.6956196	-0.9854894	80.2391327	-7.6894180	12.1698578
0.7187500	0.5000000	25.2110080	-1.0003053	-0.0271886	75.2008185	-10.6139321	26.4559180
0.7187500	0.6250000	11.2773247	-0.4668524	0.4955932	64.6414490	-7.1838629	45.7785378
0.7187500	0.7500000	5.4535971	0.0000579	0.3333074	56.6724330	0.0019572	3.0673994
0.7187500	0.8750000	11.2810427	0.4665095	0.4906159	64.6513733	7.1815373	31.7047295
0.7187500	1.0000000	25.2127641	1.0001702	-0.0330285	75.1908319	10.6140822	21.4439535
0.7265625	0.0000000	25.2157588	0.7530100	-0.0694670	75.0834888	10.6783450	-20.5840309
0.7265625	0.1250000	35.6289686	0.5215276	-0.7470758	80.1277684	7.7328885	-35.3260861
0.7265625	0.2500000	39.0202545	-0.0009508	-0.9776486	81.5205210	0.0019039	-32.4850401
0.7265625	0.3750000	35.6291596	-0.5239305	-0.7492515	80.1465382	-7.7353390	-34.2263689
0.7265625	0.5000000	25.2123088	-0.7497377	-0.0712753	75.0741125	-10.6793728	-24.9627685
0.7265625	0.6250000	11.1569206	-0.3576022	0.3292029	64.5069960	-7.2349322	8.4643808
0.7265625	0.7500000	5.3466610	0.0001327	0.2257651	56.4904962	-0.0022718	-11.9568455
0.7265625	0.8750000	11.1589047	0.3589996	0.3292376	64.4957507	7.2369500	5.1471703
0.7265625	1.0000000	25.2157588	0.7530100	-0.0694670	75.0834888	10.6783450	-20.5840309
0.7343750	0.0000000	25.2235050	0.5344054	-0.0072545	75.1937615	10.7695323	26.5386892
0.7343750	0.1250000	35.6638382	0.3667201	-0.4524039	80.3136772	7.7904258	18.6569807
0.7343750	0.2500000	39.0446184	-0.0005817	-0.6129392	81.7007652	-0.0019100	20.6779427
0.7343750	0.3750000	35.6630303	-0.3688186	-0.4579366	80.3025944	-7.7885103	14.6310897
0.7343750	0.5000000	25.2225239	-0.5364543	0.0043169	75.2002516	-10.7691960	32.1789594
0.7343750	0.6250000	11.0738992	-0.2641284	0.2358339	64.4930755	-7.3121718	32.9432616
0.7343750	0.7500000	5.2765546	0.0000150	0.1593713	56.4082645	0.0029749	1.6736333
0.7343750	0.8750000	11.0780024	0.2649831	0.2311377	64.5074462	7.3105307	32.1538988
0.7343750	1.0000000	25.2235050	0.5344054	-0.0072545	75.1937615	10.7695323	26.5386892
0.7421875	0.0000000	25.2227360	0.2844697	-0.0565525	75.0702816	10.7807502	-26.5344647
0.7421875	0.1250000	35.6789698	0.1882532	-0.2186258	80.1611907	7.7967986	-39.6973173
0.7421875	0.2500000	39.0550046	-0.0006065	-0.2837219	81.5708604	0.0017620	-36.6620981
0.7421875	0.3750000	35.6777977	-0.1910218	-0.2223281	80.1744731	-7.7992407	-33.8077765
0.7421875	0.5000000	25.2230404	-0.2828889	-0.0562049	75.0691386	-10.7812310	-31.4224694
0.7421875	0.6250000	11.0228315	-0.1449409	0.0611931	64.4152374	-7.3200938	16.8373557
0.7421875	0.7500000	5.2401836	0.0005615	0.0620523	56.3270636	-0.0034968	-6.2393129
0.7421875	0.8750000	11.0241545	0.1457206	0.0558261	64.3974588	7.3213395	1.1993209
0.7421875	1.0000000	25.2227360	0.2844697	-0.0565525	75.0702816	10.7807502	-26.5344647
0.7500000	0.0000000	25.2281403	0.0714204	0.0224606	75.2000387	10.8211701	32.7667790
0.7500000	0.1250000	35.6884880	0.0345286	0.0766175	80.3203197	7.8194008	26.9180974
0.7500000	0.2500000	39.0572677	-0.0002823	0.0862085	81.7132376	-0.0022791	28.8852247
0.7500000	0.3750000	35.6846431	-0.0362630	0.0696625	80.3059271	-7.8178914	20.1797177
0.7500000	0.5000000	25.2299804	-0.0753834	0.0352007	75.1934814	-10.8195497	38.8263513
0.7500000	0.6250000	11.0093913	-0.0572027	-0.0154480	64.4564811	-7.3572122	26.8566260
0.7500000	0.7500000	5.2362997	0.0000271	0.0020673	56.3449449	0.0033978	0.5812139
0.7500000	0.8750000	11.0105343	0.0601924	-0.0191952	64.4678534	7.3569000	34.7781269
0.7500000	1.0000000	25.2281403	0.0714204	0.0224606	75.2000387	10.8211701	32.7667790
0.7578125	0.0000000	25.2229437	-0.1796887	-0.0418009	75.0763969	10.7794042	-33.3947420
0.7578125	0.1250000	35.6836702	-0.1481484	0.3025044	80.1482280	7.7943526	-46.5592933
0.7578125	0.2500000	39.0469165	-0.0007922	0.4167212	81.5476631	0.0024119	-40.4475062
0.7578125	0.3750000	35.6789701	0.1457972	0.2995092	80.1638302	-7.7957166	-39.0813052
0.7578125	0.5000000	25.2262192	0.1808334	-0.0412145	75.0820430	-10.7812709	-39.2863745
0.7578125	0.6250000	11.0257475	0.0692405	-0.1974258	64.4481863	-7.3252866	12.6462985
0.7578125	0.7500000	5.2614435	0.0008266	-0.1013573	56.3775601	-0.0040946	-7.2918561
0.7578125	0.8750000	11.0227133	-0.0702331	-0.2064015	64.4264218	7.3249321	-4.8207111
0.7578125	1.0000000	25.2229437	-0.1796887	-0.0418009	75.0763969	10.7794042	-33.3947420
0.7656250	0.0000000	25.2240607	-0.3858364	0.0500479	75.2005125	10.7681826	39.2543729
0.7656250	0.1250000	35.6636347	-0.3020970	0.6010774	80.2678358	7.7791950	38.3058429
0.7656250	0.2500000	39.0322200	-0.0006552	0.7933039	81.6277332	-0.0024093	35.8624883
0.7656250	0.3750000	35.6572889	0.3000877	0.5966167	80.2570448	-7.7780455	31.6188584
0.7656250	0.5000000	25.2285006	0.3840470	0.0595721	75.1891567	-10.7650549	46.4669611
0.7656250	0.6250000	11.0866109	0.1549321	-0.2608019	64.5424237	-7.3191724	37.2180887
0.7656250	0.7500000	5.3142050	-0.0002769	-0.1717923	56.4926624	0.0034028	0.5243582
0.7656250	0.8750000	11.0854454	-0.1507715	-0.2587850	64.5556529	7.3195489	40.6079267
0.7656250	1.0000000	25.2240607	-0.3858364	0.0500479	75.2005125	10.7681826	39.2543729
0.7734375	0.0000000	25.2142362	-0.6445810	-0.0277313	75.0882886	10.6758559	-40.1326405
0.7734375	0.1250000	35.6301357	-0.4789215	0.8175053	80.0867995	7.7231450	-55.8807218
0.7734375	0.2500000	39.0091521	-0.0013482	1.1213230	81.4592769	0.0024494	-42.8104372
0.7734375	0.3750000	35.6241956	0.4766068	0.8211452	80.1042131	-7.7246809	-48.8639347
0.7734375	0.5000000	25.2201804	0.6478176	-0.0320415	75.0979015	-10.6784429	-47.4261186
0.7734375	0.6250000	11.1782361	0.2751108	-0.4477590	64.6143005	-7.2496784	-3.7697869
0.7734375	0.7500000	5.3936135	0.0008892	-0.2871591	56.6432124	-0.0038539	-15.2708644
0.7734375	0.8750000	11.1747203	-0.2782163	-0.4590280	64.5967530	7.2484829	-12.6509367
0.7734375	1.0000000	25.2142362	-0.6445810	-0.0277313	75.0882886	10.6758559	-40.1326405
0.7812500	0.0000000	25.2101561	-0.8479580	0.0718938	75.1940803	10.6076094	45.4472281
0.7812500	0.1250000	35.5749113	-0.6324882	1.1294920	80.1473714	7.6692386	49.3970017
0.7812500	0.2500000	38.9767766	-0.0007829	1.4962612	81.4677533	-0.0020764	40.9888502
0.7812500	0.3750000	35.5709798	0.6316238	1.1248599	80.1454092	-7.6696284	44.1394494
0.7812500	0.5000000	25.2145099	0.8468896	0.0801098	75.1826435	-10.6057054	53.4806306
0.7812500	0.6250000	11.3206272	0.3641993	-0.5142566	64.7403509	-7.1978249	53.6743313
0.7812500	0.7500000	5.5050167	-0.0004815	-0.3711744	56.8379045	0.0027560	1.2461903
0.7812500	0.8750000	11.3203878	-0.3596109	-0.5055884	64.7500604	7.1995554	47.2017570
0.7812500	1.0000000	25.2101561	-0.8479580	0.0718938	75.1940803	10.6076094	45.4472281
0.7890625	0.0000000	25.1973204	-1.1136930	-0.0147914	75.1113169	10.4723400	-45.9402527
0.7890625	0.1250000	35.5105402	-0.8064501	1.3377303	79.9892165	7.5858715	-61.9343497
0.7890625	0.2500000	38.9321199	-0.0011236	1.8153060	81.2907317	0.0022921	-43.9885059
0.7890625	0.3750000	35.5078392	0.8052869	1.3416765	80.0029400	-7.5859412	-54.7166444
0.7890625	0.5000000	25.2005465	1.1163150	-0.0198732	75.1234566	-10.4741931	-53.4193769
0.7890625	0.6250000	11.4921330	0.4767645	-0.7142801	64.8773040	-7.0919042	-14.4472622
0.7890625	0.7500000	5.6565516	0.0009027	-0.4938441	57.1031042	-0.0028755	-25.3885483
0.7890625	0.8750000	11.4880130	-0.4800800	-0.7284091	64.8623974	7.0898265	-17.1980218
0.7890625	1.0000000	25.1973204	-1.1136930	-0.0147914	75.1113169	10.4723400	-45.9402527
0.7968750	0.0000000	25.1898902	-1.3123749	0.0949826	75.1970146	10.3475033	50.1270950
0.7968750	0.1250000	35.4211072	-0.9628988	1.6541866	79.9849278	7.4920445	55.5060552
0.7968750	0.2500000	38.8743577	-0.0004323	2.1932919	81.2280368	-0.0018175	44.9694676
0.7968750	0.3750000	35.4195012	0.9623340	1.6477596	79.9760184	-7.4916997	48.7145726
0.7968750	0.5000000	25.1918169	1.3115155	0.1024661	75.1839361	-10.3459700	57.4290128
0.7968750	0.6250000	11.7097055	0.5753143	-0.7959978	65.0387029	-6.9950879	56.2851028
0.7968750	0.7500000	5.8496943	-0.0009302	-0.6011035	57.3719119	0.0016469	-5.2579751
0.7968750	0.8750000	11.7082592	-0.5708722	-0.7843191	65.0423676	6.9965395	48.8582467
0.7968750	1.0000000	25.1898902	-1.3123749	0.0949826	75.1970146	10.3475033	50.1270950
0.8046875	0.0000000	25.1749106	-1.5783039	0.0019783	75.1439477	10.1680867	-49.9374249
0.8046875	0.1250000	35.3231708	-1.1389742	1.8452908	79.8342345	7.3807025	-62.5684839
0.8046875	0.2500000	38.8032415	-0.0006933	2.5066439	81.0545764	0.0017341	-44.4227009
0.8046875	0.3750000	35.3218584	1.1376861	1.8501901	79.8455671	-7.3814888	-51.7179737
0.8046875	0.5000000	25.1766651	1.5801705	-0.0023283	75.1494698	-10.1695058	-56.1600308
0.8046875	0.6250000	11.9567370	0.6879571	-1.0048102	65.2379060	-6.8533264	-5.7225248
0.8046875	0.7500000	6.0948864	0.0005610	-0.7485471	57.7362312	-0.0013745	-26.1348420
0.8046875	0.8750000	11.9525233	-0.6900008	-1.0179123	65.2279941	6.8525104	-16.5532436
0.8046875	1.0000000	25.1749106	-1.5783039	0.0019783	75.1439477	10.1680867	-49.9374249
0.8125000	0.0000000	25.1643265	-1.7706802	0.1184653	75.1967427	9.9870417	53.1797290
0.8125000	0.1250000	35.1947422	-1.2996087	2.1602427	79.7658711	7.2506317	55.9853826
0.8125000	0.2500000	38.7158626	0.0000191	2.8887553	80.9171576	-0.0012321	48.4708621
0.8125000	0.3750000	35.1948288	1.2989727	2.1516466	79.7680652	-7.2512397	45.6527425
0.8125000	0.5000000	25.1648561	1.7713411	0.1237572	75.1975866	-9.9868785	58.8487883
0.8125000	0.6250000	12.2505324	0.7982355	-1.0963366	65.4385215	-6.7147368	37.1259624
0.8125000	0.7500000	6.3856988	-0.0013474	-0.8974642	58.0950795	-0.0001831	-22.1310341
0.8125000	0.8750000	12.2490263	-0.7940897	-1.0812194	65.4398865	6.7155045	42.6826573
0.8125000	1.0000000	25.1643265	-1.7706802	0.1184653	75.1967427	9.9870417	53.1797290
0.8203125	0.0000000	25.1492424	-2.0324287	0.0210641	75.1699347	9.7652107	-52.7317843
0.8203125	0.1250000	35.0576814	-1.4788742	2.3341109	79.6298963	7.1125562	-59.5281850
0.8203125	0.2500000	38.6142398	-0.0001519	3.1904883	80.7351567	0.0008802	-44.9472295
0.8203125	0.3750000	35.0579506	1.4776399	2.3377703	79.6296730	-7.1116777	-44.2823760
0.8203125	0.5000000	25.1497972	2.0346235	0.0161753	75.1820997	-9.7657201	-57.3705339
0.8203125	0.6250000	12.5717412	0.9167820	-1.3122241	65.6829767	-6.5380316	5.0933387
0.8203125	0.7500000	6.7373363	0.0001621	-1.0774364	58.5491259	0.0004110	-9.0754984
0.8203125	0.8750000	12.5688571	-0.9182626	-1.3246337	65.6814382	6.5366642	-16.1550019
0.8203125	1.0000000	25.1492424	-2.0324287	0.0210641	75.1699347	9.7652107	-52.7317843
0.8281250	0.0000000	25.1359450	-2.2206156	0.1367762	75.2147740	9.5334315	55.6127607
0.8281250	0.1250000	34.8887525	-1.6427387	2.6462352	79.5127228	6.9467450	55.6744660
0.8281250	0.2500000	38.4894576	0.0004933	3.5716659	80.5383648	-0.0009684	51.1298603
0.8281250	0.3750000	34.8900179	1.6421038	2.6358108	79.5168836	-6.9468989	43.4245539
0.8281250	0.5000000	25.1354957	2.2211864	0.1409816	75.2143849	-9.5329930	59.9003287
0.8281250	0.6250000	12.9413815	1.0400640	-1.4135686	65.9483842	-6.3596581	22.9932716
0.8281250	0.7500000	7.1416922	-0.0017577	-1.2664322	59.0110418	-0.0014236	-17.6539222
0.8281250	0.8750000	12.9410136	-1.0359266	-1.3977548	65.9385451	6.3596870	35.2967343
0.8281250	1.0000000	25.1359450	-2.2206156	0.1367762	75.2147740	9.5334315	55.6127607
0.8359375	0.0000000	25.1200514	-2.4746684	0.0371996	75.1982615	9.2676889	-55.3696824
0.8359375	0.1250000	34.7134197	-1.8245905	2.7984350	79.3641391	6.7812957	-58.1774826
0.8359375	0.2500000	38.3468567	0.0003494	3.8593802	80.3527432	0.0010247	-43.9437657
0.8359375	0.3750000	34.7140357	1.8230547	2.8011958	79.3653265	-6.7819870	-41.9179537
0.8359375	0.5000000	25.1198949	2.4768476	0.0315375	75.1979009	-9.2682048	-59.8491312
0.8359375	0.6250000	13.3304456	1.1688606	-1.6385262	66.2251245	-6.1485580	-0.7218620
0.8359375	0.7500000	7.6129197	-0.0001797	-1.4861608	59.5345837	0.0001041	-3.4396981
0.8359375	0.8750000	13.3295880	-1.1693705	-1.6509224	66.2189822	6.1482150	-19.5848786
0.8359375	1.0000000	25.1200514	-2.4746684	0.0371996	75.1982615	9.2676889	-55.3696824
0.8437500	0.0000000	25.1063385	-2.6563036	0.1530806	75.2423789	8.9874515	58.2916037
0.8437500	0.1250000	34.5020101	-1.9898587	3.1013898	79.2131499	6.5860654	58.7515108
0.8437500	0.2500000	38.1755989	0.0010047	4.2389340	80.1132075	-0.0011164	51.5274755
0.8437500	0.3750000	34.5037901	1.9889977	3.0886785	79.2160840	-6.5855717	48.3843364
0.8437500	0.5000000	25.1050660	2.6565995	0.1573882	75.2482999	-8.9880324	63.2226732
0.8437500	0.6250000	13.7719597	1.3041661	-1.7433755	66.5510757	-5.9353716	22.7718694
0.8437500	0.7500000	8.1425786	-0.0018953	-1.7153389	60.0990180	-0.0007678	-4.5358564
0.8437500	0.8750000	13.7723391	-1.3007157	-1.7293944	66.5515444	5.9352336	31.5244785
0.8437500	1.0000000	25.1063385	-2.6563036	0.1530806	75.2423789	8.9874515	58.2916037
0.8515625	0.0000000	25.0897215	-2.9005030	0.0526420	75.2188436	8.6801060	-58.4021847
0.8515625	0.1250000	34.2866583	-2.1710556	3.2278446	79.0529937	6.3933403	-60.6966105
0.8515625	0.2500000	37.9826825	0.0008883	4.5076309	79.8987197	0.0011543	-40.6874404
0.8515625	0.3750000	34.2878297	2.1692596	3.2296836	79.0481036	-6.3933289	-45.9319380
0.8515625	0.5000000	25.0882019	2.9017564	0.0482946	75.2189320	-8.6802801	-63.9992924
0.8515625	0.6250000	14.2258470	1.4440309	-1.9831263	66.8525709	-5.6927418	-13.5370105
0.8515625	0.7500000	8.7368897	-0.0004630	-1.9757834	60.6825946	0.0000799	-2.8658234
0.8515625	0.8750000	14.2242138	-1.4442641	-1.9946189	66.8474637	5.6925554	-25.3138690
0.8515625	1.0000000	25.0897215	-2.9005030	0.0526420	75.2188436	8.6801060	-58.4021847
0.8593750	0.0000000	25.0771022	-3.0738461	0.1698126	75.2722206	8.3552579	61.3116350
0.8593750	0.1250000	34.0310064	-2.3339905	3.5180476	78.8796955	6.1686357	63.4280161
0.8593750	0.2500000	37.7562454	0.0015724	4.8808362	79.6241732	-0.0019252	50.1485048
0.8593750	0.3750000	34.0324074	2.3325444	3.5027279	78.8791734	-6.1682992	56.8659905
0.8593750	0.5000000	25.0756552	3.0741596	0.1741712	75.2776763	-8.3547827	67.3977826
0.8593750	0.6250000	14.7291165	1.5913633	-2.0908044	67.2376304	-5.4455443	22.5961965
0.8593750	0.7500000	9.3966062	-0.0022217	-2.2346595	61.3424491	-0.0002941	0.5194992
0.8593750	0.8750000	14.7313287	-1.5873093	-2.0733388	67.2400292	5.4462904	28.9752949
0.8593750	1.0000000	25.0771022	-3.0738461	0.1698126	75.2722206	8.3552579	61.3116350
0.8671875	0.0000000	25.0618960	-3.3057559	0.0673312	75.2410858	8.0090474	-61.6817327
0.8671875	0.1250000	33.7734515	-2.5101005	3.6184891	78.6906914	5.9531045	-62.1306470
0.8671875	0.2500000	37.5042390	0.0014418	5.1216371	79.3926411	0.0018548	-36.9142258
0.8671875	0.3750000	33.7744625	2.5079710	3.6187034	78.6940102	-5.9532847	-48.4990987
0.8671875	0.5000000	25.0598183	3.3071903	0.0612127	75.2437581	-8.0094044	-68.1875581
0.8671875	0.6250000	15.2382285	1.7402900	-2.3396904	67.5610348	-5.1768527	-21.1298098
0.8671875	0.7500000	10.1153116	-0.0007067	-2.5371856	61.9689994	-0.0008114	-0.8478539
0.8671875	0.8750000	15.2385293	-1.7398183	-2.3520055	67.5510502	5.1754502	-30.5558196
0.8671875	1.0000000	25.0618960	-3.3057559	0.0673312	75.2410858	8.0090474	-61.6817327
0.8750000	0.0000000	25.0501263	-3.4703695	0.1816658	75.3041662	7.6410194	64.5227805
0.8750000	0.1250000	33.4737481	-2.6659973	3.8937624	78.4926846	5.6994529	65.2914670
0.8750000	0.2500000	37.2104153	0.0021796	5.4823926	79.0801677	-0.0022503	49.4104358
0.8750000	0.3750000	33.4753571	2.6642704	3.8758872	78.4906476	-5.6989154	60.1257651
0.8750000	0.5000000	25.0478460	3.4705045	0.1859892	75.3016575	-7.6402290	70.8294456
0.8750000	0.6250000	15.7971698	1.8973532	-2.4438082	67.9844246	-4.8974413	17.3259254
0.8750000	0.7500000	10.8971595	-0.0025117	-2.8213315	62.6935595	0.0001138	-0.1693584
0.8750000	0.8750000	15.8016731	-1.8927427	-2.4257495	67.9859582	4.8984202	26.5348007
0.8750000	1.0000000	25.0501263	-3.4703695	0.1816658	75.3041662	7.6410194	64.5227805
0.8828125	0.0000000	25.0366878	-3.6874657	0.0784302	75.2803406	7.2618655	-64.6586710
0.8828125	0.1250000	33.1734480	-2.8327537	3.9609864	78.2958892	5.4631720	-59.5568562
0.8828125	0.2500000	36.8904587	0.0020898	5.6915864	78.8320413	0.0021532	-35.0842269
0.8828125	0.3750000	33.1731823	2.8299292	3.9626950	78.2939402	-5.4631278	-42.9745725
0.8828125	0.5000000	25.0343572	3.6885781	0.0699127	75.2798405	-7.2618299	-70.9999495
0.8828125	0.6250000	16.3549443	2.0516210	-2.6997921	68.3348907	-4.6066451	-25.2963673
0.8828125	0.7500000	11.7325923	-0.0008688	-3.1554510	63.3564760	-0.0006982	-6.5380572
0.8828125	0.8750000	16.3564023	-2.0506891	-2.7159591	68.3283457	4.6057605	-35.3845067
0.8828125	1.0000000	25.0366878	-3.6874657	0.0784302	75.2803406	7.2618655	-64.6586710
0.8906250	0.0000000	25.0259280	-3.8413410	0.1879802	75.3279060	6.8516942	67.3564135
0.8906250	0.1250000	32.8286681	-2.9768813	4.2216984	78.0507607	5.1823137	63.5304305
0.8906250	0.2500000	36.5201166	0.0028522	6.0307101	78.4691283	-0.0021509	50.9824847
0.8906250	0.3750000	32.8293195	2.9745141	4.2009789	78.0565630	-5.1829055	56.7055544
0.8906250	0.5000000	25.0228240	3.8413670	0.1917863	75.3233257	-6.8518985	73.0531779
0.8906250	0.6250000	16.9601990	2.2150498	-2.7998352	68.7738849	-4.2980356	13.2451764
0.8906250	0.7500000	12.6239463	-0.0026158	-3.4543140	64.1111946	0.0002418	-0.1113650
0.8906250	0.8750000	16.9648949	-2.2104548	-2.7832963	68.7836594	4.2999781	25.3422266
0.8906250	1.0000000	25.0259280	-3.8413410	0.1879802	75.3279060	6.8516942	67.3564135
0.8984375	0.0000000	25.0137060	-4.0406753	0.0807945	75.3106820	6.4433335	-67.0766486
0.8984375	0.1250000	32.4851122	-3.1290132	4.2558083	77.8662378	4.9281459	-54.1699924
0.8984375	0.2500000	36.1234705	0.0026782	6.2005269	78.2189853	0.0021787	-33.4651481
0.8984375	0.3750000	32.4834458	3.1257936	4.2541115	77.8726393	-4.9276066	-34.7603984
0.8984375	0.5000000	25.0110154	4.0411671	0.0762499	75.3145896	-6.4435457	-72.6603016
0.8984375	0.6250000	17.5591993	2.3709638	-3.0588779	69.1513481	-3.9882499	-30.9646601
0.8984375	0.7500000	13.5575232	-0.0011261	-3.8134838	64.8013692	0.0000717	-16.8418869
0.8984375	0.8750000	17.5612503	-2.3689712	-3.0736138	69.1457649	3.9878183	-39.9555961
0.8984375	1.0000000	25.0137060	-4.0406753	0.0807945	75.3106820	6.4433335	-67.0766486
0.9062500	0.0000000	25.0039870	-4.1826406	0.1838618	75.3462525	5.9974818	69.4611124
0.9062500	0.1250000	32.0937534	-3.2563583	4.4971255	77.5745108	4.6228779	63.5692414
0.9062500	0.2500000	35.6703140	0.0032985	6.5067610	77.8016824	-0.0016952	51.2119444
0.9062500	0.3750000	32.0909058	3.2534727	4.4729497	77.5849793	-4.6237845	54.7415347
0.9062500	0.5000000	25.0025318	4.1820692	0.1919338	75.3446224	-5.9982041	74.5512570
0.9062500	0.6250000	18.1996686	2.5355882	-3.1528427	69.5997694	-3.6567623	12.0091220
0.9062500	0.7500000	14.5412727	-0.0026934	-4.1148578	65.5652649	-0.0010148	-2.0042912
0.9062500	0.8750000	18.2054976	-2.5305886	-3.1323346	69.6019797	3.6578870	25.2237445
0.9062500	1.0000000	25.0039870	-4.1826406	0.1838618	75.3462525	5.9974818	69.4611124
0.9140625	0.0000000	24.9918954	-4.3610814	0.0769327	75.3553359	5.5615233	-68.6186901
0.9140625	0.1250000	31.7087733	-3.3895823	4.4939036	77.3905571	4.3490047	-50.1516162
0.9140625	0.2500000	35.1864899	0.0028376	6.6316348	77.5463937	0.0014557	-28.8786011
0.9140625	0.3750000	31.7033639	3.3860428	4.4929777	77.3967923	-4.3494089	-30.4955193
0.9140625	0.5000000	24.9915207	4.3610422	0.0744098	75.3492565	-5.5612262	-73.8840623
0.9140625	0.6250000	18.8295158	2.6880988	-3.4094030	69.9854418	-3.3306216	-35.8149133
0.9140625	0.7500000	15.5518879	-0.0011288	-4.4862074	66.2494796	0.0012338	-18.2355931
0.9140625	0.8750000	18.8335368	-2.6853513	-3.4215888	69.9838931	3.3307640	-43.0772315
0.9140625	1.0000000	24.9918954	-4.3610814	0.0769327	75.3553359	5.5615233	-68.6186901
0.9218750	0.0000000	24.9834123	-4.4879375	0.1758292	75.3786435	5.0865877	70.7843814
0.9218750	0.1250000	31.2694094	-3.4961210	4.7067555	77.0580906	4.0259583	64.2282022
0.9218750	0.2500000	34.6446548	0.0033245	6.9033493	77.0869690	-0.0014848	49.0546164
0.9218750	0.3750000	31.2638343	3.4930491	4.6849013	77.0716486	-4.0264789	55.6979207
0.9218750	0.5000000	24.9842590	4.4874862	0.1826090	75.3737239	-5.0868724	75.9360340
0.9218750	0.6250000	19.4980237	2.8478042	-3.4905635	70.4441948	-2.9810352	10.3066814
0.9218750	0.7500000	16.6036368	-0.0023395	-4.7746290	67.0171518	-0.0014196	-3.0651722
0.9218750	0.8750000	19.5059050	-2.8430499	-3.4714830	70.4497878	2.9825224	25.0798368
0.9218750	1.0000000	24.9834123	-4.4879375	0.1758292	75.3786435	5.0865877	70.7843814
0.9296875	0.0000000	24.9735057	-4.6425066	0.0683857	75.3791163	4.6241941	-69.9988024
0.9296875	0.1250000	30.8394261	-3.6058118	4.6696439	76.8699747	3.7344216	-46.3631209
0.9296875	0.2500000	34.0720898	0.0026271	6.9730889	76.8044585	0.0008211	-22.1093679
0.9296875	0.3750000	30.8314394	3.6023508	4.6713016	76.8606295	-3.7343634	-28.2035545
0.9296875	0.5000000	24.9750696	4.6425111	0.0651238	75.3765648	-4.6236068	-75.2183918
0.9296875	0.6250000	20.1470608	2.9913894	-3.7415217	70.8239101	-2.6410734	-38.3976930
0.9296875	0.7500000	17.6653677	-0.0006836	-5.1467512	67.6710574	0.0015133	-16.3574028
0.9296875	0.8750000	20.1527048	-2.9886221	-3.7562549	70.8201167	2.6405907	-44.2434923
0.9296875	1.0000000	24.9735057	-4.6425066	0.0683857	75.3791163	4.6241941	-69.9988024
0.9375000	0.0000000	24.9658353	-4.7524653	0.1576315	75.4029155	4.1259644	72.3373204
0.9375000	0.1250000	30.3557912	-3.6878325	4.8582086	76.5172913	3.3939516	63.9622929
0.9375000	0.2500000	33.4338264	0.0029255	7.1948638	76.3078985	-0.0016425	48.9221540
0.9375000	0.3750000	30.3480491	3.6850566	4.8362739	76.5240258	-3.3938716	55.6622864
0.9375000	0.5000000	24.9682992	4.7517217	0.1650077	75.4032067	-4.1263096	77.4170282
0.9375000	0.6250000	20.8350430	3.1399104	-3.8051739	71.3024571	-2.2781246	9.7761591
0.9375000	0.7500000	18.7576077	-0.0017038	-5.4068337	68.4409734	-0.0010299	0.3495798
0.9375000	0.8750000	20.8429400	-3.1356137	-3.7885546	71.3045768	2.2796177	25.8472306
0.9375000	1.0000000	24.9658353	-4.7524653	0.1576315	75.4029155	4.1259644	72.3373204
0.9453125	0.0000000	24.9570867	-4.8797665	0.0514156	75.3875850	3.6423739	-71.7129340
0.9453125	0.1250000	29.8818089	-3.7707423	4.7818941	76.2886621	3.0867917	-42.8471201
0.9453125	0.2500000	32.7696700	0.0019541	7.2125072	75.9950097	0.0013346	-16.0590160
0.9453125	0.3750000	29.8706549	3.7676568	4.7854699	76.2824518	-3.0872970	-25.7132959
0.9453125	0.5000000	24.9604462	4.8793379	0.0494921	75.3824406	-3.6416537	-76.8543013
0.9453125	0.6250000	21.4940913	3.2687340	-4.0520186	71.6508770	-1.9278028	-40.0860469
0.9453125	0.7500000	19.8424375	-0.0000500	-5.7618601	69.0441402	0.0010179	-14.0532376
0.9453125	0.8750000	21.4994438	-3.2661796	-4.0674791	71.6465390	1.9276251	-45.6489932
0.9453125	1.0000000	24.9570867	-4.8797665	0.0514156	75.3875850	3.6423739	-71.7129340
0.9531250	0.0000000	24.9519644	-4.9687141	0.1362417	75.4261425	3.1241222	74.2953801
0.9531250	0.1250000	29.3526273	-3.8253740	4.9394612	75.9235893	2.7323842	63.9660952
0.9531250	0.2500000	32.0392523	0.0021918	7.3798767	75.4729142	-0.0021480	49.2036530
0.9531250	0.3750000	29.3428905	3.8228069	4.9223416	75.9285209	-2.7321404	55.1277728
0.9531250	0.5000000	24.9558588	4.9680737	0.1421891	75.4200077	-3.1239553	79.4722050
0.9531250	0.6250000	22.1882595	3.4001583	-4.0932330	72.1461044	-1.5551965	14.0036460
0.9531250	0.7500000	20.9504040	-0.0008950	-5.9792962	69.7987945	-0.0006725	6.8112916
0.9531250	0.8750000	22.1952739	-3.3966720	-4.0784056	72.1557364	1.5567756	29.7145624
0.9531250	1.0000000	24.9519644	-4.9687141	0.1362417	75.4261425	3.1241222	74.2953801
0.9609375	0.0000000	24.9450378	-5.0652883	0.0285778	75.3951022	2.6250634	-73.8012786
0.9609375	0.1250000	28.8359281	-3.8792189	4.8286848	75.6546763	2.4113993	-40.4408748
0.9609375	0.2500000	31.2816514	0.0010793	7.3350528	75.1168492	0.0018965	-11.5283017
0.9609375	0.3750000	28.8249858	3.8767596	4.8384470	75.6557394	-2.4118001	-24.5278083
0.9609375	0.5000000	24.9490639	5.0649535	0.0244023	75.3916019	-2.6240708	-78.9454712
0.9609375	0.6250000	22.8477618	3.5085678	-4.3276513	72.4649681	-1.1993581	-41.3070510
0.9609375	0.7500000	22.0317741	0.0006536	-6.3086636	70.3494202	0.0008342	-13.3248299
0.9609375	0.8750000	22.8519680	-3.5065326	-4.3450378	72.4501040	1.1996874	-49.3917550
0.9609375	1.0000000	24.9450378	-5.0652883	0.0285778	75.3951022	2.6250634	-73.8012786
0.9687500	0.0000000	24.9418728	-5.1303545	0.1078931	75.4431342	2.0913808	76.6270242
0.9687500	0.1250000	28.2650104	-3.9044113	4.9591295	75.2984274	2.0454087	64.7877201
0.9687500	0.2500000	30.4610002	0.0013726	7.4411113	74.5674283	-0.0023117	49.0638123
0.9687500	0.3750000	28.2561656	3.9024418	4.9424781	75.3001227	-2.0441899	54.5755842
0.9687500	0.5000000	24.9458777	5.1298082	0.1132572	75.4471137	-2.0915520	82.2089520
0.9687500	0.6250000	23.5381880	3.6177861	-4.3435900	72.9681913	-0.8197365	19.2550807
0.9687500	0.7500000	23.1257110	-0.0002167	-6.4704559	71.0950140	-0.0006168	10.3874174
0.9687500	0.8750000	23.5443027	-3.6150271	-4.3290740	72.9737391	0.8203266	34.2090691
0.9687500	1.0000000	24.9418728	-5.1303545	0.1078931	75.4431342	2.0913808	76.6270242
0.9765625	0.0000000	24.9376408	-5.1933863	-0.0003878	75.4062794	1.5819267	-75.9848528
0.9765625	0.1250000	27.7088550	-3.9280810	4.8097598	75.0096343	1.7141527	-39.2310916
0.9765625	0.2500000	29.6162444	0.0001914	7.3371829	74.1774502	0.0016359	-8.4006871
0.9765625	0.3750000	27.6982515	3.9262998	4.8220575	75.0085978	-1.7147218	-24.9178862
0.9765625	0.5000000	24.9416834	5.1931298	-0.0060862	75.4117933	-1.5813217	-81.5750938
0.9765625	0.6250000	24.1872477	3.7011608	-4.5597711	73.2696297	-0.4637057	-43.9852150
0.9765625	0.7500000	24.1830880	0.0010589	-6.7640071	71.5821685	0.0007263	-24.5509965
0.9765625	0.8750000	24.1908464	-3.6994019	-4.5764660	73.2559638	0.4632252	-54.0664134
0.9765625	1.0000000	24.9376408	-5.1933863	-0.0003878	75.4062794	1.5819267	-75.9848528
0.9843750	0.0000000	24.9380640	-5.2319394	0.0765385	75.4680228	1.0370109	79.1475135
0.9843750	0.1250000	27.0981514	-3.9230137	4.9111779	74.6411916	1.3380805	65.5513049
0.9843750	0.2500000	28.7135642	0.0006422	7.3784042	73.6154615	-0.0027446	47.9919697
0.9843750	0.3750000	27.0895602	3.9212722	4.8976954	74.6405810	-1.3371440	53.6882232
0.9843750	0.5000000	24.9417183	5.2317374	0.0791895	75.4751267	-1.0369207	84.9334020
0.9843750	0.6250000	24.8601203	3.7839948	-4.5498634	73.7689748	-0.0799347	24.2188710
0.9843750	0.7500000	25.2428868	0.0001648	-6.8614280	72.2998073	-0.0006318	11.1835072
0.9843750	0.8750000	24.8655820	-3.7818084	-4.5373329	73.7761332	0.0801038	38.6493520
0.9843750	1.0000000	24.9380640	-5.2319394	0.0765385	75.4680228	1.0370109	79.1475135
0.9921875	0.0000000	24.9359176	-5.2602385	-0.0341063	75.4310047	0.5289976	-78.3045804
0.9921875	0.1250000	26.5057948	-3.9156377	4.7312179	74.3219646	1.0029122	-38.7483837
0.9921875	0.2500000	27.7857799	-0.0005252	7.2089758	73.1705139	0.0018812	-7.1870452
0.9921875	0.3750000	26.4988464	3.9143196	4.7478289	74.3220526	-1.0026631	-26.1446399
0.9921875	0.5000000	24.9378956	5.2601750	-0.0422113	75.4309157	-0.5283086	-83.9552983
0.9921875	0.6250000	25.4927176	3.8390240	-4.7417934	74.0427449	0.2692032	-48.3670475
0.9921875	0.7500000	26.2511852	0.0012429	-7.1075615	72.7279332	0.0011980	-35.9972480
0.9921875	0.8750000	25.4933368	-3.8373970	-4.7608965	74.0338901	-0.2693835	-60.1520385
0.9921875	1.0000000	24.9359176	-5.2602385	-0.0341063	75.4310047	0.5289976	-78.3045804
1.0000000	0.0000000	24.9366298	-5.2705591	0.0443877	75.4289817	-0.0265342	80.1412711
1.0000000	0.1250000	25.8644346	-3.8799593	4.8071505	73.8884493	0.6185635	64.6513757
1.0000000	0.2500000	26.8037345	0.0003516	7.1890900	72.5406798	-0.0018153	44.7569458
1.0000000	0.3750000	25.8602558	3.8781615	4.7917510	73.8858704	-0.6179494	50.8942791
1.0000000	0.5000000	24.9379952	5.2706901	0.0483329	75.4344053	0.0256857	85.8707937
1.0000000	0.6250000	26.1411483	3.8932623	-4.7070056	74.4672596	0.6596517	28.1250916
1.0000000	0.7500000	27.2510501	0.0000939	-7.1451321	73.3643863	-0.0012879	10.6121553
1.0000000	0.8750000	26.1430204	-3.8911644	-4.6935783	74.4727036	-0.6593066	41.6636720
1.0000000	1.0000000	24.9366298	-5.2705591	0.0443877	75.4289817	-0.0265342	80.1412711
