0.0000000	31.1837461	9.9557029	3.1006808	74.5264873	36.7714505
0.0078125	29.9331580	9.6677515	3.0446535	73.9053581	10.3184282
0.0156250	28.6367680	9.4468303	2.9157022	72.9656131	34.2596830
0.0234375	27.3224226	9.0776397	2.8541814	72.2964179	10.1668311
0.0312500	25.9737607	8.7796694	2.7220202	71.3036777	30.9340538
0.0390625	24.6228382	8.3469107	2.6539183	70.5758340	9.2796670
0.0468750	23.2530578	7.9853062	2.5156105	69.5036891	27.9254979
0.0546875	21.8960636	7.5080085	2.4406621	68.7115246	11.1449351
0.0625000	20.5358437	7.1002619	2.3008774	67.5790387	27.0908209
0.0703125	19.2067037	6.5979881	2.2223183	66.7240159	14.0872892
0.0781250	17.8920451	6.1642096	2.0869318	65.5512753	26.6330400
0.0859375	16.6246818	5.6613224	2.0050390	64.6299471	17.2490541
0.0937500	15.3901737	5.2218410	1.8784692	63.4376989	26.7135715
0.1015625	14.2162242	4.7367609	1.7947828	62.4677267	20.4273766
0.1093750	13.0908369	4.3074469	1.6817960	61.2983580	27.3872396
0.1171875	12.0364384	3.8550567	1.5989569	60.3056102	22.9149151
0.1250000	11.0432252	3.4544489	1.5006856	59.1909387	25.1733289
0.1328125	10.1270326	3.0477944	1.4204965	58.2112000	18.7685952
0.1406250	9.2817275	2.6867869	1.3407770	57.1958940	20.2711462
0.1484375	8.5146908	2.3305637	1.2669816	56.2747890	13.8424443
0.1562500	7.8236418	2.0187509	1.2064066	55.4050620	15.8638787
0.1640625	7.2093267	1.7151848	1.1420625	54.5818767	8.2974907
0.1718750	6.6711944	1.4556321	1.0986988	53.8826939	12.1160209
0.1796875	6.2052020	1.2029255	1.0469024	53.2124513	2.5006673
0.1875000	5.8112435	0.9960661	1.0170988	52.6918114	8.9196644
0.1953125	5.4831985	0.7925143	0.9792617	52.1865984	-1.4350944
0.2031250	5.2197787	0.6352139	0.9579602	51.8132585	8.9410023
0.2109375	5.0141938	0.4784258	0.9331668	51.4644113	-2.0577287
0.2187500	4.8631063	0.3668176	0.9161464	51.1857710	8.6046061
0.2265625	4.7608785	0.2531516	0.9007936	50.9390780	-2.6321394
0.2343750	4.7007064	0.1729669	0.8836429	50.6988734	7.6128015
0.2421875	4.6756295	0.0823566	0.8765146	50.5543217	-2.5025455
0.2500000	4.6685153	0.0039519	0.8658256	50.4541112	6.9372412
0.2578125	4.6739017	-0.0845238	0.8779381	50.5671348	-1.5970177
0.2656250	4.7005997	-0.1626811	0.8813189	50.6875383	5.3079825
0.2734375	4.7608062	-0.2570230	0.9039819	50.9602150	-2.4219442
0.2812500	4.8621531	-0.3561825	0.9126349	51.1710730	1.7577325
0.2890625	5.0146835	-0.4835806	0.9382621	51.4985327	-4.8376190
0.2968750	5.2191729	-0.6256543	0.9535100	51.7981696	-2.5386856
0.3046875	5.4838977	-0.7980632	0.9851116	52.2234713	-7.6553432
0.3125000	5.8102658	-0.9888966	1.0117569	52.6757326	-5.9406947
0.3203125	6.2051022	-1.2087766	1.0529226	53.2439826	-7.4139888
0.3281250	6.6696210	-1.4499120	1.0935414	53.8720485	-5.4449555
0.3359375	7.2085894	-1.7193003	1.1469921	54.6013946	-6.2176227
0.3437500	7.8229733	-2.0124309	1.2028329	55.4009389	-5.2923957
0.3515625	8.5145929	-2.3337204	1.2696423	56.2804608	-5.9927928
0.3593750	9.2834476	-2.6790090	1.3405099	57.2217386	-5.9423534
0.3671875	10.1290970	-3.0503360	1.4203117	58.2100740	-6.8937142
0.3750000	11.0492809	-3.4445418	1.5046415	59.2356140	-7.5978528
0.3828125	12.0414529	-3.8613532	1.5961257	60.2916307	-8.8542413
0.3906250	13.1011504	-4.2961319	1.6902404	61.3605383	-10.3015505
0.3984375	14.2239359	-4.7459990	1.7889006	62.4453689	-11.5175299
0.4062500	15.4036703	-5.2078406	1.8905951	63.5196517	-12.4474407
0.4140625	16.6337588	-5.6785293	1.9953270	64.5832572	-13.1323228
0.4218750	17.9076556	-6.1508540	2.1014421	65.6318228	-13.4783986
0.4296875	19.2162913	-6.6219748	2.2087203	66.6586867	-13.8715336
0.4375000	20.5518033	-7.0852912	2.3175606	67.6656654	-13.6726998
0.4453125	21.9049404	-7.5369573	2.4258610	68.6518783	-13.8962668
0.4531250	23.2682058	-7.9693755	2.5334187	69.6030151	-13.4438069
0.4609375	24.6330584	-8.3794392	2.6384778	70.5196401	-13.8017486
0.4687500	25.9910996	-8.7611010	2.7407471	71.3995504	-14.6416865
0.4765625	27.3330738	-9.1127078	2.8400138	72.2496577	-15.7479244
0.4843750	28.6523513	-9.4284115	2.9377850	73.0729492	-16.5504678
0.4921875	29.9418568	-9.7077519	3.0301953	73.8622763	-17.8122976
0.5000000	31.1954073	-9.9421541	3.1202554	74.6101501	-18.3941081
0.5078125	32.4069076	-10.1334323	3.2053555	75.3306742	-19.6024763
0.5156250	33.5727531	-10.2769393	3.2877002	76.0270189	-20.0571934
0.5234375	34.6878494	-10.3751141	3.3643086	76.6868023	-21.0716809
0.5312500	35.7488445	-10.4229025	3.4385024	77.3285055	-21.4064652
0.5390625	36.7528353	-10.4257202	3.5058420	77.9355940	-22.2545589
0.5468750	37.6988960	-10.3769601	3.5726248	78.5239105	-22.2713438
0.5546875	38.5854801	-10.2840956	3.6318178	79.0860437	-23.0660582
0.5625000	39.4117773	-10.1433622	3.6904948	79.6252091	-22.7661780
0.5703125	40.1769293	-9.9630334	3.7408510	80.1354754	-23.5600644
0.5781250	40.8817608	-9.7387754	3.7917659	80.6357524	-22.7588339
0.5859375	41.5270070	-9.4794147	3.8324329	81.1107132	-22.8016633
0.5937500	42.1151962	-9.1790066	3.8751797	81.5647406	-21.3125032
0.6015625	42.6465821	-8.8509200	3.9081660	81.9903947	-21.4333817
0.6093750	43.1242948	-8.4893250	3.9443800	82.4104218	-19.5557575
0.6171875	43.5487931	-8.1064560	3.9719133	82.7886211	-19.9038286
0.6250000	43.9246322	-7.6941269	4.0050777	83.1910419	-17.6612102
0.6328125	44.2528626	-7.2670749	4.0243205	83.5287206	-18.3292157
0.6406250	44.5384341	-6.8176966	4.0538290	83.8905137	-15.4699063
0.6484375	44.7814440	-6.3614389	4.0683897	84.1832358	-16.6484854
0.6562500	44.9871391	-5.8883335	4.0990936	84.5355720	-13.0289803
0.6640625	45.1559823	-5.4135622	4.1063741	84.7878437	-15.1108131
0.6718750	45.2941257	-4.9254890	4.1398017	85.1170682	-10.3082405
0.6796875	45.4022414	-4.4403693	4.1390028	85.3164993	-13.7333633
0.6875000	45.4867169	-3.9456561	4.1769191	85.6270548	-7.3163484
0.6953125	45.5475137	-3.4566637	4.1666240	85.7721697	-12.7069666
0.7031250	45.5918004	-2.9601707	4.2096457	86.0571816	-4.1070263
0.7109375	45.6198508	-2.4700757	4.1877421	86.1304351	-12.0784252
0.7187500	45.6383924	-1.9739257	4.2362293	86.3835022	-0.6046577
0.7265625	45.6479239	-1.4833978	4.2012416	86.3729416	-11.8785683
0.7343750	45.6534210	-0.9889569	4.2533919	86.5828575	3.2180935
0.7421875	45.6551376	-0.4983197	4.2062828	86.4933216	-12.0768622
0.7500000	45.6556262	-0.0040537	4.2592104	86.6503551	7.3373505
0.7578125	45.6549484	0.4870591	4.2035650	86.4781407	-12.4978515
0.7656250	45.6526195	0.9828468	4.2520707	86.5631691	11.6488088
0.7734375	45.6480618	1.4736909	4.1938145	86.3425825	-12.8342919
0.7812500	45.6379419	1.9719595	4.2338202	86.3534941	15.9074235
0.7890625	45.6207032	2.4600593	4.1790960	86.0877917	-12.8595009
0.7968750	45.5906470	2.9617322	4.2052138	86.0244100	19.9543492
0.8046875	45.5473233	3.4465635	4.1616036	85.7422681	-12.2598359
0.8125000	45.4842333	3.9518526	4.1711814	85.5933265	23.5082544
0.8203125	45.4017337	4.4299722	4.1388456	85.3030253	-11.0542587
0.8281250	45.2914810	4.9354404	4.1307619	85.0759899	26.4885160
0.8359375	45.1556292	5.4025464	4.1113089	84.7946109	-9.1693006
0.8437500	44.9847985	5.9024440	4.0904378	84.4999291	28.9488438
0.8515625	44.7824208	6.3503364	4.0757849	84.2046108	-6.9101275
0.8593750	44.5381081	6.8346981	4.0441674	83.8524870	31.0628399
0.8671875	44.2565367	7.2528762	4.0322858	83.5468996	-4.4386405
0.8750000	43.9258976	7.7112163	3.9934135	83.1445227	32.9117783
0.8828125	43.5530717	8.0890152	3.9785393	82.8139863	-1.9299802
0.8906250	43.1255482	8.5084844	3.9343543	82.3640161	34.7634461
0.8984375	42.6514839	8.8318541	3.9151520	82.0082231	0.5769425
0.9062500	42.1172516	9.1981775	3.8631757	81.5130279	36.4946878
0.9140625	41.5324443	9.4552416	3.8392437	81.1282781	3.0366529
0.9218750	40.8839623	9.7576790	3.7802434	80.5895566	38.2204468
0.9296875	40.1821128	9.9347106	3.7502093	80.1680018	5.1984371
0.9375000	39.4127616	10.1603249	3.6781369	79.5720473	39.4632483
0.9453125	38.5900188	10.2501774	3.6434697	79.1251972	6.7819930
0.9531250	37.6992763	10.3918092	3.5587245	78.4705290	39.9039294
0.9609375	36.7557304	10.3858406	3.5202497	77.9879314	8.1855797
0.9687500	35.7460389	10.4362417	3.4219248	77.2612318	39.6005128
0.9765625	34.6878580	10.3329848	3.3790804	76.7448801	9.3297225
0.9843750	33.5667076	10.2899504	3.2707412	75.9594984	38.5649794
0.9921875	32.4038535	10.0902176	3.2207056	75.3857811	10.0179206
1.0000000	31.1837461	9.9557029	3.1006808	74.5264873	36.7714505
