0.0000000	0.0000112	0.0000000	1.9341541	5.7841029
0.0200000	0.0330801	-0.0129247	13.4422042	19.7354921
0.0400000	1.4433083	-0.8170807	44.9275383	-5.8359352
0.0600000	7.9434557	-4.8783148	70.2062643	-61.1948453
0.0800000	15.1675726	-8.9650493	85.5229630	-93.7287383
0.1000000	19.9914259	-10.2925789	99.2706952	-101.6642201
0.1200000	22.6460164	-9.4728901	116.5222323	-95.9256617
0.1400000	24.5951942	-7.8697090	134.7796727	-66.2433978
0.1600000	26.0560496	-6.3467693	143.2481033	-53.4829044
0.1800000	27.1549076	-5.0267925	142.0257388	-52.8647785
0.2000000	28.4566119	-4.1969223	139.2139394	-31.4167150
0.2200000	30.5253377	-5.1105954	143.3760558	-22.6035862
0.2400000	33.7706952	-7.3968334	150.1803125	-43.1674249
0.2600000	37.4643753	-9.2472137	153.5078539	-41.8600265
0.2800000	41.2338519	-10.6782976	156.6173748	-34.7662127
0.3000000	45.5686965	-12.2326561	160.3159146	-36.4063800
0.3200000	49.3726270	-13.9191480	159.3469958	-49.7218370
0.3400000	52.8894954	-15.3090931	150.1122004	-88.5643798
0.3600000	55.3549346	-15.2542504	154.1208620	-76.8863453
0.3800000	57.0610846	-13.8213028	169.5070603	-51.0866529
0.4000000	58.0366947	-11.5908132	176.0900155	-69.6421907
0.4200000	58.9780553	-8.5454777	174.2876207	-61.1326341
0.4400000	59.8176777	-5.5874047	167.3420764	-34.3432879
0.4600000	60.8942567	-4.4799004	165.2605598	-26.0042637
0.4800000	61.7945603	-4.7146276	170.2087109	-19.7233677
0.5000000	62.9699230	-5.1676108	182.4328920	1.6964167
0.5200000	63.7289016	-5.3508102	193.8508909	-8.6175242
0.5400000	64.0910639	-5.1722188	191.5718537	-32.0964146
0.5600000	64.4274393	-4.7894049	190.4021843	-20.3314843
0.5800000	64.5877041	-4.6354636	201.5570793	4.2027935
0.6000000	64.5348324	-5.0966757	207.3621191	-38.1744057
0.6200000	63.3836777	-4.3829110	197.8631776	-55.1442470
0.6400000	59.1614247	-0.6542102	185.4395300	-47.6941782
0.6600000	50.7336555	4.0836318	167.9793190	-48.0190049
0.6800000	40.1187911	6.2219110	152.7972409	-21.1788192
0.7000000	31.9716513	5.3213033	145.1538357	0.4769302
0.7200000	24.5763404	3.7763361	136.8301657	-18.4081832
0.7400000	19.1519374	2.8586840	126.0001003	-32.6180478
0.7600000	14.7392657	2.3251353	116.5454738	-17.0659765
0.7800000	11.0613728	1.5274167	109.0061194	-3.6624738
0.8000000	8.7348391	0.9346236	102.9653477	-13.0850933
0.8200000	6.7055513	0.6076232	98.1920384	-26.9166380
0.8400000	5.4212267	0.3999296	94.2931294	-21.1034031
0.8600000	4.4924505	0.2200195	90.7824291	-10.8630149
0.8800000	3.7910188	0.1032430	87.5306674	-15.1875322
0.9000000	3.3295764	-0.0979189	86.9238729	-26.3775313
0.9200000	3.4817260	-0.2461485	90.2146508	-31.0487011
0.9400000	3.4306204	-0.1630282	95.7944103	-43.0667382
0.9600000	2.8050960	0.2386468	93.8205158	-38.6573769
0.9800000	0.9966635	0.2452008	72.2676746	-21.0042779
1.0000000	0.0488554	0.0025929	30.4428032	80.7118466
