0.0000000	0.0000000	20.8444378	-4.1705314	0.0131903	70.9744229	-0.0458990	153.9246407
0.0000000	0.1250000	21.0703492	-3.2512312	4.5343143	66.5087306	0.9608831	183.3101095
0.0000000	0.2500000	21.1309819	0.0004490	6.3996829	62.2290624	-0.0023610	148.7242900
0.0000000	0.3750000	21.0641199	3.2521814	4.5315529	66.5079772	-0.9606494	164.5647464
0.0000000	0.5000000	20.8427984	4.1702715	0.0130796	70.9767856	0.0448044	160.0092687
0.0000000	0.6250000	21.1460780	3.2433021	-4.4744045	67.1196310	1.0337253	124.2973464
0.0000000	0.7500000	21.2806957	0.0010832	-6.3724739	63.0597435	-0.0013344	93.8269354
0.0000000	0.8750000	21.1489917	-3.2441291	-4.4728293	67.1194585	-1.0332786	141.8512755
0.0000000	1.0000000	20.8444378	-4.1705314	0.0131903	70.9744229	-0.0458990	153.9246407
0.0078125	0.0000000	20.8448978	-4.1659698	-0.0448654	70.9756657	-1.0062583	-152.9552080
0.0078125	0.1250000	20.9223351	-3.2623869	4.4268360	66.6718652	0.3166215	-131.4774589
0.0078125	0.2500000	20.8861030	0.0001464	6.2897164	62.4184328	0.0026071	-83.5175962
0.0078125	0.3750000	20.9155658	3.2635130	4.4317675	66.6753969	-0.3174037	-115.4350396
0.0078125	0.5000000	20.8431423	4.1657460	-0.0466347	70.9745791	1.0060116	-158.8746741
0.0078125	0.6250000	21.2859699	3.2255076	-4.5531668	66.9617564	1.6773975	-172.7318484
0.0078125	0.7500000	21.5047506	0.0012167	-6.4521515	62.8931862	0.0034291	-157.5921509
0.0078125	0.8750000	21.2885020	-3.2264960	-4.5582021	66.9607437	-1.6782056	-189.5649838
0.0078125	1.0000000	20.8448978	-4.1659698	-0.0448654	70.9756657	-1.0062583	-152.9552080
0.0156250	0.0000000	20.8455056	-4.1505115	-0.0274383	70.9664980	-1.9778547	154.1795409
0.0156250	0.1250000	20.7579429	-3.2626191	4.4539303	66.7866976	-0.3606888	184.0820918
0.0156250	0.2500000	20.6246216	0.0003914	6.2983971	62.5248412	-0.0016909	147.9326104
0.0156250	0.3750000	20.7513546	3.2636334	4.4511733	66.7933180	0.3603343	163.5570880
0.0156250	0.5000000	20.8437342	4.1503140	-0.0273101	70.9633016	1.9763863	160.1493483
0.0156250	0.6250000	21.4300091	3.2016824	-4.4914088	66.8617007	2.3391436	122.6567384
0.0156250	0.7500000	21.7220086	0.0008626	-6.3765840	62.8331243	-0.0019457	90.5797754
0.0156250	0.8750000	21.4327649	-3.2025824	-4.4898354	66.8637435	-2.3382610	138.9231293
0.0156250	1.0000000	20.8455056	-4.1505115	-0.0274383	70.9664980	-1.9778547	154.1795409
0.0234375	0.0000000	20.8462330	-4.1237061	-0.0848000	70.9614511	-2.9308847	-151.5475046
0.0234375	0.1250000	20.6017831	-3.2557978	4.3180417	66.9867076	-1.0225910	-133.0110750
0.0234375	0.2500000	20.3573637	0.0000647	6.1449068	62.7767701	0.0028798	-85.3700241
0.0234375	0.3750000	20.5950129	3.2570057	4.3239989	66.9876269	1.0206485	-119.3890436
0.0234375	0.5000000	20.8443212	4.1235505	-0.0864993	70.9562005	2.9312332	-157.4213313
0.0234375	0.6250000	21.5603237	3.1668180	-4.5401229	66.7337468	2.9584199	-171.6770453
0.0234375	0.7500000	21.9236264	0.0009595	-6.4130607	62.7156680	0.0026818	-162.5976450
0.0234375	0.8750000	21.5625023	-3.1678380	-4.5445226	66.7292673	-2.9586675	-189.6895089
0.0234375	1.0000000	20.8462330	-4.1237061	-0.0848000	70.9614511	-2.9308847	-151.5475046
0.0312500	0.0000000	20.8471632	-4.0860783	-0.0662636	70.9401800	-3.8876337	153.9709285
0.0312500	0.1250000	20.4287073	-3.2381685	4.3253921	67.1230227	-1.7082681	184.5974343
0.0312500	0.2500000	20.0732064	0.0003887	6.1233755	62.9333730	-0.0017146	145.6485694
0.0312500	0.3750000	20.4227097	3.2391866	4.3229026	67.1301919	1.7080232	161.7481052
0.0312500	0.5000000	20.8451877	4.0859693	-0.0662672	70.9394500	3.8871537	160.0074898
0.0312500	0.6250000	21.6930156	3.1261956	-4.4573985	66.6599512	3.5941640	120.6676780
0.0312500	0.7500000	22.1181930	0.0006172	-6.3041704	62.7009911	-0.0024699	87.3305123
0.0312500	0.8750000	21.6952259	-3.1271147	-4.4557455	66.6524843	-3.5933811	135.8349290
0.0312500	1.0000000	20.8471632	-4.0860783	-0.0662636	70.9401800	-3.8876337	153.9709285
0.0390625	0.0000000	20.8487300	-4.0374616	-0.1218861	70.9296249	-4.8221915	-149.9448875
0.0390625	0.1250000	20.2653822	-3.2130618	4.1627282	67.3348732	-2.3797339	-135.1699975
0.0390625	0.2500000	19.7856794	0.0000620	5.9276216	63.2365685	0.0026771	-89.1420107
0.0390625	0.3750000	20.2592493	3.2142697	4.1694818	67.3422039	2.3784510	-124.4415292
0.0390625	0.5000000	20.8466322	4.0373954	-0.1240579	70.9257888	4.8216344	-155.7881144
0.0390625	0.6250000	21.8118489	3.0751376	-4.4758312	66.5534141	4.1838346	-170.8886027
0.0390625	0.7500000	22.2988181	0.0006888	-6.2992996	62.6398333	0.0027492	-167.3528995
0.0390625	0.8750000	21.8138499	-3.0761673	-4.4796075	66.5514018	-4.1840192	-189.7513579
0.0390625	1.0000000	20.8487300	-4.0374616	-0.1218861	70.9296249	-4.8221915	-149.9448875
0.0468750	0.0000000	20.8504212	-3.9783106	-0.1027803	70.9025902	-5.7557443	153.4343019
0.0468750	0.1250000	20.0852583	-3.1776065	4.1531383	67.5006251	-3.0694965	184.1063873
0.0468750	0.2500000	19.4806282	0.0004339	5.8772792	63.4446281	-0.0012496	142.1920312
0.0468750	0.3750000	20.0799848	3.1785331	4.1499229	67.5036145	3.0688003	158.6305369
0.0468750	0.5000000	20.8481291	3.9782817	-0.1027127	70.8988683	5.7547333	159.4663539
0.0468750	0.6250000	21.9322650	3.0186422	-4.3713541	66.4870234	4.7881394	118.5305460
0.0468750	0.7500000	22.4715295	0.0003468	-6.1589070	62.6589317	-0.0024170	83.9000719
0.0468750	0.8750000	21.9344420	-3.0195312	-4.3692521	66.4828144	-4.7873038	132.8304061
0.0468750	1.0000000	20.8504212	-3.9783106	-0.1027803	70.9025902	-5.7557443	153.4343019
0.0546875	0.0000000	20.8524415	-3.9086614	-0.1557506	70.8833110	-6.6608295	-148.0575953
0.0546875	0.1250000	19.9172866	-3.1342387	3.9652906	67.7331052	-3.7442707	-137.1109699
0.0546875	0.2500000	19.1748283	0.0001037	5.6419309	63.7877363	0.0016621	-90.5867980
0.0546875	0.3750000	19.9116634	3.1353256	3.9715731	67.7335993	3.7425771	-129.8973163
0.0546875	0.5000000	20.8500546	3.9086673	-0.1577068	70.8791845	6.6607717	-153.8764325
0.0546875	0.6250000	22.0401427	2.9524903	-4.3602261	66.4167483	5.3444593	-169.8893057
0.0546875	0.7500000	22.6309623	0.0003809	-6.1135351	62.6465950	0.0028971	-171.3311364
0.0546875	0.8750000	22.0420869	-2.9534277	-4.3634158	66.4142973	-5.3436796	-189.2682558
0.0546875	1.0000000	20.8524415	-3.9086614	-0.1557506	70.8833110	-6.6608295	-148.0575953
0.0625000	0.0000000	20.8546551	-3.8289637	-0.1353353	70.8408039	-7.5603485	152.2481265
0.0625000	0.1250000	19.7323883	-3.0813620	3.9399689	67.9058570	-4.4296603	182.7454959
0.0625000	0.2500000	18.8514520	0.0005396	5.5651607	64.0475175	-0.0012354	138.5763566
0.0625000	0.3750000	19.7276423	3.0820704	3.9365006	67.9122873	4.4300518	154.8024527
0.0625000	0.5000000	20.8521888	3.8290080	-0.1347928	70.8403762	7.5594293	158.4253335
0.0625000	0.6250000	22.1481378	2.8812509	-4.2347046	66.3613467	5.9115136	115.7184411
0.0625000	0.7500000	22.7827211	0.0000257	-5.9430620	62.6875982	-0.0028714	80.7315776
0.0625000	0.8750000	22.1503893	-2.8820011	-4.2320092	66.3551080	-5.9105989	129.0056882
0.0625000	1.0000000	20.8546551	-3.8289637	-0.1353353	70.8408039	-7.5603485	152.2481265
0.0703125	0.0000000	20.8570963	-3.7393629	-0.1852319	70.8214882	-8.4268227	-145.4096038
0.0703125	0.1250000	19.5623948	-3.0200459	3.7308399	68.1444507	-5.1005399	-137.4378542
0.0703125	0.2500000	18.5306145	0.0001791	5.2911475	64.4338782	0.0006943	-88.8098023
0.0703125	0.3750000	19.5573456	3.0209437	3.7369126	68.1551647	5.0998387	-130.2536555
0.0703125	0.5000000	20.8545270	3.7394385	-0.1863261	70.8174086	8.4275077	-151.3924572
0.0703125	0.6250000	22.2447816	2.8012568	-4.1950381	66.3198147	6.4317459	-168.2750038
0.0703125	0.7500000	22.9218376	0.0000562	-5.8597451	62.7224179	0.0027539	-174.1858936
0.0703125	0.8750000	22.2470249	-2.8020356	-4.1967308	66.3170502	-6.4311202	-187.9813076
0.0703125	1.0000000	20.8570963	-3.7393629	-0.1852319	70.8214882	-8.4268227	-145.4096038
0.0781250	0.0000000	20.8594733	-3.6404190	-0.1628854	70.7668565	-9.2818411	150.1483576
0.0781250	0.1250000	19.3762805	-2.9505195	3.6918123	68.3310033	-5.7752610	178.7507555
0.0781250	0.2500000	18.1924620	0.0006693	5.1922703	64.7344006	-0.0004538	136.0793446
0.0781250	0.3750000	19.3722519	2.9509618	3.6870819	68.3406818	5.7753865	153.5301341
0.0781250	0.5000000	20.8568574	3.6405064	-0.1614523	70.7649393	9.2817338	156.4259545
0.0781250	0.6250000	22.3408363	2.7165815	-4.0489439	66.2692621	6.9597023	112.3897333
0.0781250	0.7500000	23.0534714	-0.0002587	-5.6605067	62.7930893	-0.0041294	77.8048389
0.0781250	0.8750000	22.3431452	-2.7171572	-4.0460834	66.2652159	-6.9583833	124.8499126
0.0781250	1.0000000	20.8594733	-3.6404190	-0.1628854	70.7668565	-9.2818411	150.1483576
0.0859375	0.0000000	20.8622501	-3.5322196	-0.2082956	70.7454309	-10.1027269	-142.0028128
0.0859375	0.1250000	19.2071024	-2.8719412	3.4634209	68.5876519	-6.4351574	-135.3882565
0.0859375	0.2500000	17.8619413	0.0003063	4.8854989	65.1551543	0.0000475	-84.5706159
0.0859375	0.3750000	19.2025402	2.8725995	3.4686617	68.5895952	6.4341706	-126.3670061
0.0859375	0.5000000	20.8597250	3.5323225	-0.2086050	70.7404976	10.1033453	-147.9940344
0.0859375	0.6250000	22.4262387	2.6241664	-3.9820380	66.2572140	7.4386125	-165.7464034
0.0859375	0.7500000	23.1736560	-0.0002224	-5.5410884	62.8681460	0.0022510	-172.0822035
0.0859375	0.8750000	22.4286635	-2.6247589	-3.9833218	66.2521965	-7.4386836	-185.4181988
0.0859375	1.0000000	20.8622501	-3.5322196	-0.2082956	70.7454309	-10.1027269	-142.0028128
0.0937500	0.0000000	20.8647164	-3.4155910	-0.1836256	70.6846414	-10.9052013	146.7893848
0.0937500	0.1250000	19.0227801	-2.7869440	3.4119982	68.7707653	-7.0895118	173.7104400
0.0937500	0.2500000	17.5149808	0.0008308	4.7689386	65.4808237	0.0003391	134.5684333
0.0937500	0.3750000	19.0193646	2.7870906	3.4064967	68.7817569	7.0898258	152.0762255
0.0937500	0.5000000	20.8622215	3.4156764	-0.1816406	70.6815582	10.9056198	153.0961640
0.0937500	0.6250000	22.5104545	2.5275178	-3.8170598	66.2192332	7.9248334	108.2007922
0.0937500	0.7500000	23.2863316	-0.0005049	-5.3156697	62.9489346	-0.0045330	77.5134873
0.0937500	0.8750000	22.5129574	-2.5279110	-3.8139653	66.2068234	-7.9231271	119.7517553
0.0937500	1.0000000	20.8647164	-3.4155910	-0.1836256	70.6846414	-10.9052013	146.7893848
0.1015625	0.0000000	20.8676936	-3.2903664	-0.2238164	70.6598281	-11.6734472	-137.6057627
0.1015625	0.1250000	18.8581472	-2.6921123	3.1678790	69.0323131	-7.7309356	-131.8945001
0.1015625	0.2500000	17.1812866	0.0004489	4.4351921	65.9323965	-0.0002904	-77.3007568
0.1015625	0.3750000	18.8542273	2.6925629	3.1727378	69.0395444	7.7304465	-120.9331530
0.1015625	0.5000000	20.8653308	3.2904328	-0.2238443	70.6547955	11.6725318	-143.5189902
0.1015625	0.6250000	22.5850301	2.4242356	-3.7245679	66.2232922	8.3615075	-162.3814336
0.1015625	0.7500000	23.3885856	-0.0004751	-5.1625836	63.0591401	0.0030956	-166.5590737
0.1015625	0.8750000	22.5876594	-2.4246406	-3.7253804	66.2167052	-8.3599228	-181.2223952
0.1015625	1.0000000	20.8676936	-3.2903664	-0.2238164	70.6598281	-11.6734472	-137.6057627
0.1093750	0.0000000	20.8703072	-3.1578266	-0.1971526	70.5883517	-12.4146860	142.2050004
0.1093750	0.1250000	18.6787590	-2.5932896	3.1066112	69.2130596	-8.3562428	167.6150334
0.1093750	0.2500000	16.8336156	0.0010153	4.3039521	66.2779810	0.0012200	134.1628932
0.1093750	0.3750000	18.6764204	2.5931619	3.1012543	69.2263263	8.3570712	150.0260751
0.1093750	0.5000000	20.8678397	3.1578428	-0.1953691	70.5885272	12.4153583	148.3876745
0.1093750	0.6250000	22.6579275	2.3171809	-3.5415184	66.1901026	8.8007351	103.7362357
0.1093750	0.7500000	23.4838189	-0.0006978	-4.9136959	63.1491411	-0.0050173	76.7307764
0.1093750	0.8750000	22.6604395	-2.3174216	-3.5388962	66.1854124	-8.7990903	113.7606492
0.1093750	1.0000000	20.8703072	-3.1578266	-0.1971526	70.5883517	-12.4146860	142.2050004
0.1171875	0.0000000	20.8732948	-3.0173130	-0.2318370	70.5628362	-13.1215320	-132.1108893
0.1171875	0.1250000	18.5222096	-2.4836139	2.8513454	69.4732177	-8.9699136	-127.1075279
0.1171875	0.2500000	16.5052728	0.0006397	3.9495855	66.7437364	-0.0008313	-68.2789126
0.1171875	0.3750000	18.5193705	2.4838410	2.8556624	69.4858416	8.9716378	-114.1077107
0.1171875	0.5000000	20.8710308	3.0172879	-0.2318567	70.5611191	13.1209069	-137.7458664
0.1171875	0.6250000	22.7222001	2.2047082	-3.4250248	66.2159995	9.1949342	-157.2894307
0.1171875	0.7500000	23.5693154	-0.0006782	-4.7306789	63.2792742	0.0024395	-159.5481707
0.1171875	0.8750000	22.7247890	-2.2049555	-3.4257812	66.2094869	-9.1942983	-174.8891472
0.1171875	1.0000000	20.8732948	-3.0173130	-0.2318370	70.5628362	-13.1215320	-132.1108893
0.1250000	0.0000000	20.8758979	-2.8708089	-0.2031216	70.4868819	-13.7939709	136.3683337
0.1250000	0.1250000	18.3519822	-2.3729229	2.7812649	69.6492168	-9.5596664	160.2910015
0.1250000	0.2500000	16.1657228	0.0012246	3.8104114	67.0916649	0.0013816	130.2234693
0.1250000	0.3750000	18.3507066	2.3724713	2.7748837	69.6590851	9.5595262	147.4297081
0.1250000	0.5000000	20.8736789	2.8706994	-0.2010834	70.4898752	13.7962140	142.2359342
0.1250000	0.6250000	22.7840187	2.0889443	-3.2266654	66.1892375	9.5871684	99.0189048
0.1250000	0.7500000	23.6487265	-0.0008218	-4.4608979	63.3829043	-0.0052592	75.5954680
0.1250000	0.8750000	22.7865314	-2.0890797	-3.2243120	66.1815473	-9.5861445	108.2668720
0.1250000	1.0000000	20.8758979	-2.8708089	-0.2031216	70.4868819	-13.7939709	136.3683337
0.1328125	0.0000000	20.8791884	-2.7168770	-0.2319499	70.4678488	-14.4360539	-125.8543994
0.1328125	0.1250000	18.2066897	-2.2500057	2.5189407	69.9048040	-10.1374921	-120.8712657
0.1328125	0.2500000	15.8527813	0.0008651	3.4445637	67.5562441	-0.0017546	-72.3090896
0.1328125	0.3750000	18.2051073	2.2499219	2.5216164	69.9125601	10.1384490	-105.8224252
0.1328125	0.5000000	20.8770873	2.7167471	-0.2315899	70.4649327	14.4357491	-131.0326234
0.1328125	0.6250000	22.8380633	1.9690132	-3.0883169	66.2204412	9.9357286	-150.2554246
0.1328125	0.7500000	23.7194585	-0.0007783	-4.2512615	63.5288074	0.0030019	-151.2399806
0.1328125	0.8750000	22.8406355	-1.9691906	-3.0888590	66.2172788	-9.9358380	-165.5978897
0.1328125	1.0000000	20.8791884	-2.7168770	-0.2319499	70.4678488	-14.4360539	-125.8543994
0.1406250	0.0000000	20.8815605	-2.5584945	-0.2013730	70.3913868	-15.0375899	129.5116255
0.1406250	0.1250000	18.0490942	-2.1297065	2.4414621	70.0643991	-10.6800398	151.7158297
0.1406250	0.2500000	15.5324140	0.0014433	3.3005399	67.8944054	0.0024437	119.5394132
0.1406250	0.3750000	18.0490240	2.1288235	2.4337828	70.0813174	10.6822455	143.8751730
0.1406250	0.5000000	20.8797074	2.5582627	-0.1988209	70.3941826	15.0373336	135.0148541
0.1406250	0.6250000	22.8895988	1.8462726	-2.8770924	66.2001430	10.2802256	94.1252625
0.1406250	0.7500000	23.7844056	-0.0008901	-3.9630262	63.6188881	-0.0044745	73.9252876
0.1406250	0.8750000	22.8921640	-1.8463474	-2.8748838	66.1968801	-10.2784378	102.5370181
0.1406250	1.0000000	20.8815605	-2.5584945	-0.2013730	70.3913868	-15.0375899	129.5116255
0.1484375	0.0000000	20.8847509	-2.3932507	-0.2241795	70.3697152	-15.6053491	-118.6883618
0.1484375	0.1250000	17.9189027	-1.9951236	2.1764250	70.3028686	-11.2124098	-113.5836471
0.1484375	0.2500000	15.2452274	0.0010516	2.9317093	68.3468057	-0.0016003	-77.2498593
0.1484375	0.3750000	17.9181466	1.9947868	2.1774796	70.3126935	11.2148301	-96.5449017
0.1484375	0.5000000	20.8832942	2.3929679	-0.2233266	70.3718810	15.6050256	-123.5705416
0.1484375	0.6250000	22.9339684	1.7206305	-2.7194770	66.2386652	10.5819004	-141.5697955
0.1484375	0.7500000	23.8420186	-0.0008528	-3.7298914	63.7745126	0.0026216	-141.8225301
0.1484375	0.8750000	22.9366693	-1.7207405	-2.7196962	66.2363966	-10.5822458	-154.7012981
0.1484375	1.0000000	20.8847509	-2.3932507	-0.2241795	70.3697152	-15.6053491	-118.6883618
0.1562500	0.0000000	20.8870261	-2.2251660	-0.1915847	70.2968715	-16.1290476	121.6768684
0.1562500	0.1250000	17.7771160	-1.8675351	2.0922472	70.4484164	-11.7017213	142.2227937
0.1562500	0.2500000	14.9550916	0.0015421	2.7866348	68.6630633	0.0025137	106.6678993
0.1562500	0.3750000	17.7777131	1.8664110	2.0842979	70.4636920	11.7015203	139.3404080
0.1562500	0.5000000	20.8860121	2.2247523	-0.1893558	70.2970247	16.1297428	126.6840607
0.1562500	0.6250000	22.9756147	1.5926351	-2.4976621	66.2212546	10.8781020	88.8152962
0.1562500	0.7500000	23.8944303	-0.0009173	-3.4270870	63.8582239	-0.0045372	71.9007943
0.1562500	0.8750000	22.9784860	-1.5926906	-2.4957747	66.2169954	-10.8764332	96.0006747
0.1562500	1.0000000	20.8870261	-2.2251660	-0.1915847	70.2968715	-16.1290476	121.6768684
0.1640625	0.0000000	20.8900147	-2.0508004	-0.2085945	70.2802983	-16.6214734	-111.0776743
0.1640625	0.1250000	17.6650204	-1.7228318	1.8291600	70.6697188	-12.1787788	-105.4175469
0.1640625	0.2500000	14.7033237	0.0011073	2.4231785	69.0724598	-0.0023173	-82.8121572
0.1640625	0.3750000	17.6649561	1.7224051	1.8288298	70.6737399	12.1805480	-86.5281184
0.1640625	0.5000000	20.8893819	2.0503163	-0.2081319	70.2813708	16.6226856	-115.2848007
0.1640625	0.6250000	23.0111051	1.4629404	-2.3228747	66.2595215	11.1336051	-131.6792332
0.1640625	0.7500000	23.9403858	-0.0008412	-3.1751857	64.0104287	0.0025071	-131.2705624
0.1640625	0.8750000	23.0140751	-1.4630955	-2.3231606	66.2596725	-11.1346460	-142.9677122
0.1640625	1.0000000	20.8900147	-2.0508004	-0.2085945	70.2802983	-16.6214734	-111.0776743
0.1718750	0.0000000	20.8921533	-1.8751193	-0.1745258	70.2071526	-17.0650137	113.0378115
0.1718750	0.1250000	17.5421750	-1.5903268	1.7389891	70.7957068	-12.6046162	131.6101406
0.1718750	0.2500000	14.4527280	0.0015036	2.2789343	69.3544011	0.0028705	91.8751041
0.1718750	0.3750000	17.5436822	1.5890292	1.7307600	70.8074420	12.6064064	133.5069184
0.1718750	0.5000000	20.8917517	1.8744719	-0.1733257	70.2075380	17.0652222	117.5318813
0.1718750	0.6250000	23.0439192	1.3314157	-2.0923346	66.2439674	11.3798331	82.9600448
0.1718750	0.7500000	23.9818075	-0.0008395	-2.8623553	64.0780696	-0.0039480	69.3712532
0.1718750	0.8750000	23.0468787	-1.3315796	-2.0916935	66.2420994	-11.3793386	89.2425257
0.1718750	1.0000000	20.8921533	-1.8751193	-0.1745258	70.2071526	-17.0650137	113.0378115
0.1796875	0.0000000	20.8946625	-1.6939369	-0.1860567	70.1983249	-17.4770278	-102.9039970
0.1796875	0.1250000	17.4508243	-1.4367224	1.4811241	70.9836261	-13.0175595	-96.5935514
0.1796875	0.2500000	14.2435404	0.0010846	1.9277018	69.7161590	-0.0024798	-88.5988638
0.1796875	0.3750000	17.4519266	1.4361908	1.4798250	70.9934604	13.0208432	-76.2125055
0.1796875	0.5000000	20.8944071	1.6932184	-0.1864894	70.2019546	17.4764674	-106.5147572
0.1796875	0.6250000	23.0716717	1.1993672	-1.9035734	66.2786148	11.5903987	-120.8135666
0.1796875	0.7500000	24.0171414	-0.0007482	-2.5951845	64.2190988	0.0029460	-119.7515843
0.1796875	0.8750000	23.0745849	-1.1996251	-1.9045176	66.2800997	-11.5915525	-130.1836090
0.1796875	1.0000000	20.8946625	-1.6939369	-0.1860567	70.1983249	-17.4770278	-102.9039970
0.1875000	0.0000000	20.8959521	-1.5126865	-0.1506777	70.1294176	-17.8372616	103.8070055
0.1875000	0.1250000	17.3502194	-1.3012611	1.3841044	71.0791634	-13.3726469	120.6055575
0.1875000	0.2500000	14.0382440	0.0014281	1.7859294	69.9566028	0.0031576	76.4567175
0.1875000	0.3750000	17.3532380	1.2996770	1.3758014	71.0984151	13.3742319	126.8582469
0.1875000	0.5000000	20.8954955	1.5118544	-0.1500602	70.1305737	17.8381137	107.5939813
0.1875000	0.6250000	23.0974620	1.0659637	-1.6687139	66.2561214	11.7853396	77.0331575
0.1875000	0.7500000	24.0479321	-0.0007289	-2.2754896	64.2718106	-0.0034096	66.2625453
0.1875000	0.8750000	23.0999923	-1.0662609	-1.6684384	66.2520393	-11.7844783	81.9988751
0.1875000	1.0000000	20.8959521	-1.5126865	-0.1506777	70.1294176	-17.8372616	103.8070055
0.1953125	0.0000000	20.8977710	-1.3272002	-0.1566125	70.1263170	-18.1681508	-94.3831464
0.1953125	0.1250000	17.2813248	-1.1392852	1.1338331	71.2390989	-13.7124063	-87.4042809
0.1953125	0.2500000	13.8763353	0.0010773	1.4527787	70.2480669	-0.0022559	-88.9496696
0.1953125	0.3750000	17.2840791	1.1385643	1.1306418	71.2499239	13.7157878	-66.8358016
0.1953125	0.5000000	20.8972110	1.3262917	-0.1574327	70.1300901	18.1662473	-97.3818106
0.1953125	0.6250000	23.1181917	0.9329906	-1.4691833	66.2951254	11.9502528	-109.1838878
0.1953125	0.7500000	24.0741090	-0.0006596	-1.9973121	64.3866645	0.0033035	-107.5206779
0.1953125	0.8750000	23.1206586	-0.9333681	-1.4700633	66.2967960	-11.9507897	-116.3455790
0.1953125	1.0000000	20.8977710	-1.3272002	-0.1566125	70.1263170	-18.1681508	-94.3831464
0.2031250	0.0000000	20.8987156	-1.1422773	-0.1199675	70.0584180	-18.4374373	94.1036196
0.2031250	0.1250000	17.2037124	-1.0025261	1.0296430	71.3183726	-13.9917176	108.6751999
0.2031250	0.2500000	13.7214342	0.0014130	1.3109991	70.4345799	0.0035253	71.1608805
0.2031250	0.3750000	17.2082815	1.0007573	1.0213462	71.3304571	13.9924955	117.3888984
0.2031250	0.5000000	20.8977522	1.1411993	-0.1203984	70.0612777	18.4387544	97.3137953
0.2031250	0.6250000	23.1369461	0.7992922	-1.2323553	66.2613680	12.0973033	70.8206236
0.2031250	0.7500000	24.0965036	-0.0006341	-1.6754662	64.4197295	-0.0031940	62.9304006
0.2031250	0.8750000	23.1389534	-0.7996866	-1.2326750	66.2608472	-12.0963497	74.0266708
0.2031250	1.0000000	20.8987156	-1.1422773	-0.1199675	70.0584180	-18.4374373	94.1036196
0.2109375	0.0000000	20.8997592	-0.9550174	-0.1208870	70.0688856	-18.6853515	-85.5849293
0.2109375	0.1250000	17.1573435	-0.8323000	0.7883996	71.4438607	-14.2515585	-78.7097949
0.2109375	0.2500000	13.6082326	0.0012284	0.9968192	70.6618550	-0.0029778	-78.0978427
0.2109375	0.3750000	17.1617357	0.8312874	0.7832386	71.4467016	14.2543104	-61.7393237
0.2109375	0.5000000	20.8984315	0.9538401	-0.1220707	70.0696731	18.6854290	-88.0329164
0.2109375	0.6250000	23.1515253	0.6665330	-1.0256505	66.2984221	12.2164605	-96.8880406
0.2109375	0.7500000	24.1146504	-0.0006130	-1.3895587	64.5111472	0.0031690	-94.6109516
0.2109375	0.8750000	23.1533147	-0.6669381	-1.0265789	66.3023199	-12.2181508	-101.9076252
0.2109375	1.0000000	20.8997592	-0.9550174	-0.1208870	70.0688856	-18.6853515	-85.5849293
0.2187500	0.0000000	20.9006294	-0.7680567	-0.0837332	70.0095077	-18.8715273	83.7566632
0.2187500	0.1250000	17.1032749	-0.6950264	0.6760385	71.4854108	-14.4468474	95.2192746
0.2187500	0.2500000	13.5046219	0.0016198	0.8518129	70.7925827	0.0043381	66.5352305
0.2187500	0.3750000	17.1086253	0.6929958	0.6668178	71.4984916	14.4471594	104.3218653
0.2187500	0.5000000	20.8991976	0.7666695	-0.0842428	70.0113229	18.8724840	86.4570992
0.2187500	0.6250000	23.1632467	0.5338495	-0.7905415	66.2597065	12.3142812	64.3774425
0.2187500	0.7500000	24.1303128	-0.0006094	-1.0691624	64.5145625	-0.0031092	58.9001958
0.2187500	0.8750000	23.1649325	-0.5342067	-0.7911153	66.2580618	-12.3133887	65.7943149
0.2187500	1.0000000	20.9006294	-0.7680567	-0.0837332	70.0095077	-18.8715273	83.7566632
0.2265625	0.0000000	20.9014055	-0.5813084	-0.0804937	70.0258370	-19.0327356	-76.4162319
0.2265625	0.1250000	17.0776995	-0.5166878	0.4449042	71.5800410	-14.6197116	-68.5896979
0.2265625	0.2500000	13.4386898	0.0016208	0.5539810	70.9513920	-0.0028907	-67.6139048
0.2265625	0.3750000	17.0824370	0.5151374	0.4368731	71.5899870	14.6235563	-55.7834686
0.2265625	0.5000000	20.8998468	0.5798261	-0.0815465	70.0278142	19.0295705	-78.2505448
0.2265625	0.6250000	23.1716184	0.4020925	-0.5789893	66.2896779	12.3884998	-84.0939469
0.2265625	0.7500000	24.1420718	-0.0005737	-0.7804416	64.5814769	0.0039341	-80.9643089
0.2265625	0.8750000	23.1733145	-0.4024569	-0.5799122	66.2919049	-12.3892870	-86.5887259
0.2265625	1.0000000	20.9014055	-0.5813084	-0.0804937	70.0258370	-19.0327356	-76.4162319
0.2343750	0.0000000	20.9009087	-0.3939008	-0.0443092	69.9746059	-19.1297150	73.0952835
0.2343750	0.1250000	17.0488665	-0.3777967	0.3231921	71.5980083	-14.7280556	81.4514697
0.2343750	0.2500000	13.3826502	0.0019890	0.3997697	71.0244425	0.0046099	60.4387690
0.2343750	0.3750000	17.0536133	0.3755545	0.3128955	71.6103817	14.7284844	91.4658753
0.2343750	0.5000000	20.8991758	0.3922604	-0.0445280	69.9768405	19.1307099	75.0978118
0.2343750	0.6250000	23.1786496	0.2710114	-0.3476275	66.2480124	12.4390358	57.7036262
0.2343750	0.7500000	24.1499962	-0.0005715	-0.4662742	64.5591140	-0.0033029	54.3409836
0.2343750	0.8750000	23.1800598	-0.2713221	-0.3484462	66.2455740	-12.4382369	57.1158869
0.2343750	1.0000000	20.9009087	-0.3939008	-0.0443092	69.9746059	-19.1297150	73.0952835
0.2421875	0.0000000	20.9005864	-0.2094900	-0.0367010	69.9986791	-19.2004298	-66.9834789
0.2421875	0.1250000	17.0426977	-0.1936912	0.1010633	71.6645388	-14.8102375	-58.0616176
0.2421875	0.2500000	13.3590602	0.0021802	0.1176657	71.1152178	-0.0029937	-58.4642548
0.2421875	0.3750000	17.0463437	0.1914405	0.0897423	71.6708351	14.8132579	-48.6264163
0.2421875	0.5000000	20.8988022	0.2078127	-0.0365895	69.9974265	19.2001094	-68.1248298
0.2421875	0.6250000	23.1828067	0.1400703	-0.1354273	66.2745129	12.4698056	-70.8620307
0.2421875	0.7500000	24.1544102	-0.0005578	-0.1764087	64.5983280	0.0032670	-66.9265269
0.2421875	0.8750000	23.1840256	-0.1403913	-0.1358980	66.2712410	-12.4694552	-71.0925596
0.2421875	1.0000000	20.9005864	-0.2094900	-0.0367010	69.9986791	-19.2004298	-66.9834789
0.2500000	0.0000000	20.8999250	-0.0227196	-0.0004639	69.9588865	-19.2115341	62.1296202
0.2500000	0.1250000	17.0370005	-0.0496746	-0.0339794	71.6618636	-14.8297947	67.0362518
0.2500000	0.2500000	13.3505282	0.0023863	-0.0467640	71.1377585	0.0040931	51.9885349
0.2500000	0.3750000	17.0392615	0.0474407	-0.0456003	71.6693384	14.8286044	78.3541650
0.2500000	0.5000000	20.8985365	0.0209426	0.0006378	69.9601899	19.2123707	63.4199796
0.2500000	0.6250000	23.1832430	0.0103962	0.0888346	66.2246147	12.4729295	50.7846537
0.2500000	0.7500000	24.1563694	-0.0006038	0.1324944	64.5502508	-0.0032233	49.5197557
0.2500000	0.8750000	23.1842975	-0.0106605	0.0883769	66.2229492	-12.4726733	48.2099653
0.2500000	1.0000000	20.8999250	-0.0227196	-0.0004639	69.9588865	-19.2115341	62.1296202
0.2578125	0.0000000	20.9010105	0.1600660	0.0088153	69.9933829	-19.1977832	-57.6076101
0.2578125	0.1250000	17.0462095	0.1314118	-0.2444207	71.6974626	-14.8193697	-47.1187863
0.2578125	0.2500000	13.3715684	0.0023637	-0.3185983	71.1657805	-0.0020721	-51.2048323
0.2578125	0.3750000	17.0461241	-0.1340839	-0.2569280	71.7048082	14.8232423	-40.1587501
0.2578125	0.5000000	20.9005456	-0.1618758	0.0097628	69.9961644	19.1946405	-57.7452917
0.2578125	0.6250000	23.1805326	-0.1206140	0.3019155	66.2445552	12.4583110	-57.4243828
0.2578125	0.7500000	24.1567330	-0.0006484	0.4210830	64.5637070	0.0036513	-53.0037454
0.2578125	0.8750000	23.1817872	0.1203871	0.3016905	66.2423354	-12.4583197	-55.3305493
0.2578125	1.0000000	20.9010105	0.1600660	0.0088153	69.9933829	-19.1977832	-57.6076101
0.2656250	0.0000000	20.8990983	0.3467712	0.0411308	69.9679675	-19.1198139	51.5237041
0.2656250	0.1250000	17.0627563	0.2839727	-0.3912272	71.6697706	-14.7475144	53.1868811
0.2656250	0.2500000	13.4074273	0.0018365	-0.4981666	71.1344987	0.0033135	41.1561794
0.2656250	0.3750000	17.0617576	-0.2851810	-0.3997635	71.6758066	14.7452138	65.7753297
0.2656250	0.5000000	20.8988754	-0.3483944	0.0413282	69.9650614	19.1199975	51.6347328
0.2656250	0.6250000	23.1751862	-0.2510256	0.5289827	66.1913637	12.4185124	43.8747572
0.2656250	0.7500000	24.1505249	-0.0006417	0.7266253	64.4946040	-0.0026708	44.7640699
0.2656250	0.8750000	23.1762503	0.2507456	0.5282138	66.1865027	-12.4163657	39.5786335
0.2656250	1.0000000	20.8990983	0.3467712	0.0411308	69.9679675	-19.1198139	51.5237041
0.2734375	0.0000000	20.8978973	0.5317198	0.0504827	70.0135499	-19.0164504	-48.6727913
0.2734375	0.1250000	17.0935353	0.4532502	-0.5898547	71.6751063	-14.6438259	-36.5508974
0.2734375	0.2500000	13.4701035	0.0017276	-0.7610949	71.1000441	-0.0018522	-46.3210594
0.2734375	0.3750000	17.0911918	-0.4552514	-0.5995994	71.6823360	14.6460499	-31.3633784
0.2734375	0.5000000	20.8978877	-0.5331571	0.0507428	70.0085265	19.0157693	-47.6620334
0.2734375	0.6250000	23.1691921	-0.3825013	0.7418315	66.2100387	12.3574997	-44.3414718
0.2734375	0.7500000	24.1414034	-0.0006961	1.0176221	64.4795566	0.0022519	-39.7200096
0.2734375	0.8750000	23.1702387	0.3822184	0.7419296	66.2055244	-12.3580225	-40.4263416
0.2734375	1.0000000	20.8978973	0.5317198	0.0504827	70.0135499	-19.0164504	-48.6727913
0.2812500	0.0000000	20.8952506	0.7190544	0.0805054	69.9955777	-18.8537075	41.4101734
0.2812500	0.1250000	17.1311863	0.6098217	-0.7466680	71.6355923	-14.4851858	39.9202452
0.2812500	0.2500000	13.5518251	0.0010958	-0.9537119	71.0097093	0.0022400	28.2634023
0.2812500	0.3750000	17.1287132	-0.6105924	-0.7519724	71.6357921	14.4816286	53.3886692
0.2812500	0.5000000	20.8952462	-0.7202715	0.0799323	69.9920735	18.8543674	40.5042994
0.2812500	0.6250000	23.1578415	-0.5147006	0.9701923	66.1547941	12.2701777	37.1849819
0.2812500	0.7500000	24.1273227	-0.0006901	1.3265577	64.3773710	-0.0022982	40.0439258
0.2812500	0.8750000	23.1589177	0.5143379	0.9693729	66.1510232	-12.2675384	31.6826157
0.2812500	1.0000000	20.8952506	0.7190544	0.0805054	69.9955777	-18.8537075	41.4101734
0.2890625	0.0000000	20.8938690	0.9055157	0.0893755	70.0427088	-18.6608441	-40.3786081
0.2890625	0.1250000	17.1836715	0.7696672	-0.9364259	71.6064107	-14.2908810	-26.4584039
0.2890625	0.2500000	13.6633052	0.0010330	-1.2107263	70.9025109	-0.0014492	-43.7426091
0.2890625	0.3750000	17.1806582	-0.7711271	-0.9437950	71.6018899	14.2924695	-22.2694467
0.2890625	0.5000000	20.8938960	-0.9065095	0.0892211	70.0395418	18.6599133	-38.0925029
0.2890625	0.6250000	23.1453593	-0.6473931	1.1819363	66.1692867	12.1660297	-32.1564199
0.2890625	0.7500000	24.1115025	-0.0007399	1.6186434	64.3423071	0.0012518	-26.9979003
0.2890625	0.8750000	23.1464951	0.6470197	1.1820894	66.1678944	-12.1676694	-26.8760556
0.2890625	1.0000000	20.8938690	0.9055157	0.0893755	70.0427088	-18.6608441	-40.3786081
0.2968750	0.0000000	20.8905880	1.0925383	0.1151136	70.0391577	-18.4134360	32.4020087
0.2968750	0.1250000	17.2432789	0.9252871	-1.0999787	71.5336682	-14.0456182	27.8931889
0.2968750	0.2500000	13.7944011	0.0004969	-1.4183347	70.7584193	0.0005730	14.2389958
0.2968750	0.3750000	17.2406371	-0.9260110	-1.1030295	71.5334566	14.0430098	41.9695398
0.2968750	0.5000000	20.8904037	-1.0933265	0.1140868	70.0369804	18.4141694	30.3400307
0.2968750	0.6250000	23.1275952	-0.7809160	1.4101766	66.1045689	12.0327715	31.3898652
0.2968750	0.7500000	24.0900367	-0.0007272	1.9257245	64.2190816	-0.0013311	35.7834470
0.2968750	0.8750000	23.1286249	0.7804774	1.4088756	66.1020390	-12.0314019	25.3198160
0.2968750	1.0000000	20.8905880	1.0925383	0.1151136	70.0391577	-18.4134360	32.4020087
0.3046875	0.0000000	20.8877100	1.2785026	0.1230157	70.0958632	-18.1336995	-33.1307632
0.3046875	0.1250000	17.3194452	1.0787477	-1.2841335	71.4689563	-13.7668691	-17.9254889
0.3046875	0.2500000	13.9555691	0.0005228	-1.6747178	70.5813489	-0.0008225	-43.0783767
0.3046875	0.3750000	17.3169787	-1.0799759	-1.2896511	71.4656067	13.7677551	-14.6928222
0.3046875	0.5000000	20.8873177	-1.2790746	0.1228341	70.0948092	18.1336467	-29.6247953
0.3046875	0.6250000	23.1094969	-0.9142876	1.6190071	66.1159590	11.8819218	-21.1963675
0.3046875	0.7500000	24.0653394	-0.0008109	2.2154671	64.1575926	0.0012519	-15.8895822
0.3046875	0.8750000	23.1102914	0.9139039	1.6189096	66.1115813	-11.8825263	-15.1669372
0.3046875	1.0000000	20.8877100	1.2785026	0.1230157	70.0958632	-18.1336995	-33.1307632
0.3125000	0.0000000	20.8834352	1.4634677	0.1450172	70.1052104	-17.8023627	24.7188437
0.3125000	0.1250000	17.4021937	1.2308476	-1.4533991	71.3720313	-13.4410261	16.9358113
0.3125000	0.2500000	14.1371812	0.0001396	-1.8979366	70.3767134	-0.0005415	2.5751599
0.3125000	0.3750000	17.4004248	-1.2316453	-1.4551328	71.3643681	13.4381604	30.1400835
0.3125000	0.5000000	20.8826986	-1.4639326	0.1439862	70.0966793	17.8011667	21.5050953
0.3125000	0.6250000	23.0853453	-1.0480984	1.8421249	66.0508896	11.7026204	26.4173807
0.3125000	0.7500000	24.0350842	-0.0008041	2.5175098	64.0094567	-0.0006843	32.4059714
0.3125000	0.8750000	23.0859037	1.0477025	1.8406537	66.0434071	-11.7000220	20.0887518
0.3125000	1.0000000	20.8834352	1.4634677	0.1450172	70.1052104	-17.8023627	24.7188437
0.3203125	0.0000000	20.8797733	1.6465020	0.1519662	70.1616638	-17.4373629	-27.0844163
0.3203125	0.1250000	17.5004172	1.3792439	-1.6343027	71.2673400	-13.0818690	-12.6623984
0.3203125	0.2500000	14.3481992	0.0002721	-2.1567869	70.1340524	0.0001495	-35.1399200
0.3203125	0.3750000	17.4990570	-1.3804182	-1.6387499	71.2602771	13.0823044	-12.4504370
0.3203125	0.5000000	20.8788634	-1.6467979	0.1524567	70.1610811	17.4364292	-22.4542022
0.3203125	0.6250000	23.0601676	-1.1811750	2.0442371	66.0520283	11.5041055	-11.7710182
0.3203125	0.7500000	24.0012491	-0.0009180	2.8018160	63.9279637	0.0005519	-6.4853075
0.3203125	0.8750000	23.0603106	1.1808988	2.0447268	66.0523798	-11.5053391	-5.2486657
0.3203125	1.0000000	20.8797733	1.6465020	0.1519662	70.1616638	-17.4373629	-27.0844163
0.3281250	0.0000000	20.8749124	1.8273071	0.1697285	70.1768154	-17.0226196	18.3239389
0.3281250	0.1250000	17.6051258	1.5263601	-1.8074749	71.1505910	-12.6831695	7.4319622
0.3281250	0.2500000	14.5792285	0.0000079	-2.3937378	69.8648782	-0.0015567	3.2762175
0.3281250	0.3750000	17.6042773	-1.5272815	-1.8088680	71.1359119	12.6796554	18.1292024
0.3281250	0.5000000	20.8738223	-1.8275636	0.1694823	70.1748109	17.0234262	14.2580702
0.3281250	0.6250000	23.0284787	-1.3139652	2.2586295	65.9829816	11.2784667	22.3196097
0.3281250	0.7500000	23.9613859	-0.0009504	3.0946063	63.7614852	0.0001175	29.9938239
0.3281250	0.8750000	23.0285117	1.3137490	2.2578884	65.9859504	-11.2777167	16.3339815
0.3281250	1.0000000	20.8749124	1.8273071	0.1697285	70.1768154	-17.0226196	18.3239389
0.3359375	0.0000000	20.8710379	2.0050369	0.1748469	70.2378772	-16.5732380	-22.0152502
0.3359375	0.1250000	17.7229186	1.6692317	-1.9854649	71.0091743	-12.2528495	-9.5937966
0.3359375	0.2500000	14.8363733	0.0001914	-2.6562828	69.5630544	0.0004217	-24.3494964
0.3359375	0.3750000	17.7220794	-1.6705231	-1.9896445	71.0033329	12.2516589	-11.4863959
0.3359375	0.5000000	20.8702816	-2.0051124	0.1764307	70.2368894	16.5728606	-16.5815589
0.3359375	0.6250000	22.9943885	-1.4454748	2.4523311	65.9836461	11.0352145	-3.8689150
0.3359375	0.7500000	23.9180085	-0.0010760	3.3686179	63.6625133	0.0006424	1.1323129
0.3359375	0.8750000	22.9944502	1.4453835	2.4536892	65.9833141	-11.0364233	2.7216252
0.3359375	1.0000000	20.8710379	2.0050369	0.1748469	70.2378772	-16.5732380	-22.0152502
0.3437500	0.0000000	20.8661483	2.1794051	0.1879906	70.2638117	-16.0798469	13.2467861
0.3437500	0.1250000	17.8473657	1.8098257	-2.1596476	70.8604661	-11.7849652	-0.3736445
0.3437500	0.2500000	15.1107809	-0.0000440	-2.9035627	69.2461466	-0.0016783	4.2027677
0.3437500	0.3750000	17.8463267	-1.8109711	-2.1613773	70.8546193	11.7832839	7.8112109
0.3437500	0.5000000	20.8656373	-2.1794449	0.1887150	70.2616535	16.0797595	8.6333397
0.3437500	0.6250000	22.9538601	-1.5758804	2.6550657	65.9180282	10.7630103	19.2907546
0.3437500	0.7500000	23.8676495	-0.0010803	3.6475230	63.4816609	0.0010245	28.3209428
0.3437500	0.8750000	22.9540993	1.5758123	2.6552085	65.9165846	-10.7612558	13.8819123
0.3437500	1.0000000	20.8661483	2.1794051	0.1879906	70.2638117	-16.0798469	13.2467861
0.3515625	0.0000000	20.8620806	2.3495007	0.1905826	70.3279714	-15.5508306	-18.0072432
0.3515625	0.1250000	17.9827726	1.9457179	-2.3336783	70.6946688	-11.2915349	-8.2911034
0.3515625	0.2500000	15.4050278	0.0000881	-3.1685483	68.9025375	0.0010408	-16.3727996
0.3515625	0.3750000	17.9819350	-1.9470412	-2.3372801	70.6898304	11.2904482	-11.6735555
0.3515625	0.5000000	20.8619079	-2.3494105	0.1928451	70.3250253	15.5506247	-12.0187723
0.3515625	0.6250000	22.9108117	-1.7042725	2.8381529	65.9133224	10.4703744	2.7199665
0.3515625	0.7500000	23.8125009	-0.0011892	3.9064649	63.3713500	0.0003825	6.8399861
0.3515625	0.8750000	22.9111421	1.7043130	2.8401050	65.9115249	-10.4704182	8.9792454
0.3515625	1.0000000	20.8620806	2.3495007	0.1905826	70.3279714	-15.5508306	-18.0072432
0.3593750	0.0000000	20.8573017	2.5151142	0.1993114	70.3582907	-14.9815717	9.3508002
0.3593750	0.1250000	18.1244509	2.0780411	-2.5060335	70.5262906	-10.7650379	-6.5189672
0.3593750	0.2500000	15.7126812	-0.0001509	-3.4200430	68.5545611	-0.0019740	4.5601110
0.3593750	0.3750000	18.1229649	-2.0791984	-2.5074828	70.5171810	10.7642434	-0.6298288
0.3593750	0.5000000	20.8576835	-2.5149909	0.2001730	70.3567842	14.9800190	4.5222170
0.3593750	0.6250000	22.8608710	-1.8307114	3.0261771	65.8534777	10.1526612	16.9251414
0.3593750	0.7500000	23.7499055	-0.0011562	4.1679741	63.1853552	0.0014310	27.6748054
0.3593750	0.8750000	22.8616848	1.8307160	3.0266733	65.8573042	-10.1532368	12.8256174
0.3593750	1.0000000	20.8573017	2.5151142	0.1993114	70.3582907	-14.9815717	9.3508002
0.3671875	0.0000000	20.8532725	2.6753634	0.1987161	70.4179186	-14.3747763	-14.7282975
0.3671875	0.1250000	18.2747988	2.2050361	-2.6744117	70.3370745	-10.2169125	-8.7912515
0.3671875	0.2500000	16.0335966	-0.0001179	-3.6821143	68.1763666	0.0012305	-11.7113454
0.3671875	0.3750000	18.2736304	-2.2061812	-2.6770246	70.3298867	10.2152372	-12.8176348
0.3671875	0.5000000	20.8538634	-2.6751704	0.2009978	70.4173941	14.3745141	-8.7287668
0.3671875	0.6250000	22.8082397	-1.9543132	3.1955110	65.8472149	9.8137655	7.7474925
0.3671875	0.7500000	23.6814092	-0.0011907	4.4081605	63.0636792	0.0002049	10.7501804
0.3671875	0.8750000	22.8090014	1.9543651	3.1979122	65.8506297	-9.8155529	13.5145097
0.3671875	1.0000000	20.8532725	2.6753634	0.1987161	70.4179186	-14.3747763	-14.7282975
0.3750000	0.0000000	20.8487700	2.8300645	0.2026054	70.4549809	-13.7326963	6.3536697
0.3750000	0.1250000	18.4304568	2.3271563	-2.8416838	70.1527513	-9.6399798	-11.2520050
0.3750000	0.2500000	16.3627552	-0.0003313	-3.9307011	67.8034989	-0.0024097	3.1555677
0.3750000	0.3750000	18.4292364	-2.3280465	-2.8421489	70.1423526	9.6394627	-7.0976912
0.3750000	0.5000000	20.8495870	-2.8298458	0.2033997	70.4554646	13.7318294	1.7870027
0.3750000	0.6250000	22.7487508	-2.0750397	3.3663444	65.8004390	9.4519122	15.9359246
0.3750000	0.7500000	23.6044726	-0.0011186	4.6481407	62.8916472	0.0017693	27.5054048
0.3750000	0.8750000	22.7498315	2.0750041	3.3672222	65.8064390	-9.4524356	12.8606252
0.3750000	1.0000000	20.8487700	2.8300645	0.2026054	70.4549809	-13.7326963	6.3536697
0.3828125	0.0000000	20.8449359	2.9783664	0.1988634	70.5115866	-13.0553072	-12.1576962
0.3828125	0.1250000	18.5925838	2.4431006	-3.0022770	69.9487514	-9.0458825	-10.3636866
0.3828125	0.2500000	16.6993041	-0.0003255	-4.1838448	67.4106074	0.0015361	-9.9107748
0.3828125	0.3750000	18.5917036	-2.4439581	-3.0038688	69.9445824	9.0439425	-14.3083971
0.3828125	0.5000000	20.8458570	-2.9780946	0.2009506	70.5137413	13.0550203	-6.3518875
0.3828125	0.6250000	22.6857223	-2.1921043	3.5193366	65.7942626	9.0675029	10.8237141
0.3828125	0.7500000	23.5210608	-0.0011131	4.8663699	62.7701027	0.0003647	13.6085645
0.3828125	0.8750000	22.6868274	2.1920599	3.5214902	65.8003791	-9.0684658	16.2945662
0.3828125	1.0000000	20.8449359	2.9783664	0.1988634	70.5115866	-13.0553072	-12.1576962
0.3906250	0.0000000	20.8407358	3.1200543	0.1982503	70.5528460	-12.3453719	4.3091407
0.3906250	0.1250000	18.7589110	2.5530567	-3.1609084	69.7520381	-8.4281893	-15.0399251
0.3906250	0.2500000	17.0390228	-0.0005152	-4.4221094	67.0357038	-0.0021255	-3.0483398
0.3906250	0.3750000	18.7580693	-2.5536299	-3.1608645	69.7450171	8.4283465	-12.0958009
0.3906250	0.5000000	20.8418476	-3.1197728	0.1985630	70.5525769	12.3452085	0.0972010
0.3906250	0.6250000	22.6158751	-2.3053822	3.6706623	65.7650308	8.6611049	16.4811566
0.3906250	0.7500000	23.4284343	-0.0009964	5.0815409	62.6110884	0.0019031	27.4526703
0.3906250	0.8750000	22.6172925	2.3052016	3.6710324	65.7714052	-8.6622062	14.6370593
0.3906250	1.0000000	20.8407358	3.1200543	0.1982503	70.5528460	-12.3453719	4.3091407
0.3984375	0.0000000	20.8372264	3.2543832	0.1915735	70.6044910	-11.6020315	-10.1787299
0.3984375	0.1250000	18.9292726	2.6560578	-3.3122805	69.5355900	-7.7973184	-12.3051055
0.3984375	0.2500000	17.3808747	-0.0005189	-4.6585093	66.6502520	0.0008987	-16.0503540
0.3984375	0.3750000	18.9287742	-2.6565594	-3.3125597	69.5361091	7.7959815	-15.7030046
0.3984375	0.5000000	20.8384107	-3.2540656	0.1926371	70.6066974	11.6027206	-4.6555938
0.3984375	0.6250000	22.5418924	-2.4141451	3.8043736	65.7684003	8.2330605	13.8218953
0.3984375	0.7500000	23.3285538	-0.0009678	5.2753999	62.4934691	0.0002422	15.7212748
0.3984375	0.8750000	22.5433494	2.4139164	3.8056468	65.7732036	-8.2343256	18.9155540
0.3984375	1.0000000	20.8372264	3.2543832	0.1915735	70.6044910	-11.6020315	-10.1787299
0.4062500	0.0000000	20.8337664	3.3810910	0.1870078	70.6462480	-10.8313842	2.9900166
0.4062500	0.1250000	19.1021043	2.7520530	-3.4601333	69.3383977	-7.1480628	-18.0319240
0.4062500	0.2500000	17.7220856	-0.0006852	-4.8782914	66.2784888	-0.0019013	-10.4656825
0.4062500	0.3750000	19.1016419	-2.7522574	-3.4596407	69.3281351	7.1495105	-15.5713530
0.4062500	0.5000000	20.8349410	-3.3807774	0.1867298	70.6485191	10.8303292	-0.6654202
0.4062500	0.6250000	22.4609013	-2.5182374	3.9328789	65.7507155	7.7818248	18.9027085
0.4062500	0.7500000	23.2190047	-0.0008258	5.4638123	62.3604558	0.0016033	27.2593996
0.4062500	0.8750000	22.4625108	2.5178618	3.9330512	65.7608279	-7.7839481	17.6866087
0.4062500	1.0000000	20.8337664	3.3810910	0.1870078	70.6462480	-10.8313842	2.9900166
0.4140625	0.0000000	20.8308412	3.4995412	0.1767842	70.6930981	-10.0295610	-8.4966063
0.4140625	0.1250000	19.2771276	2.8403768	-3.5981386	69.1194806	-6.4892110	-14.6032117
0.4140625	0.2500000	18.0603878	-0.0007146	-5.0941972	65.9071236	0.0004135	-21.3303465
0.4140625	0.3750000	19.2770615	-2.8404547	-3.5979683	69.1120585	6.4884982	-16.8638299
0.4140625	0.5000000	20.8318911	-3.4992119	0.1775341	70.7009505	10.0295716	-3.5024503
0.4140625	0.6250000	22.3753494	-2.6169810	4.0454506	65.7653982	7.3117750	16.9888916
0.4140625	0.7500000	23.1013577	-0.0007908	5.6286562	62.2618536	0.0004828	17.0773536
0.4140625	0.8750000	22.3769266	2.6165774	4.0469343	65.7742431	-7.3131554	21.4219378
0.4140625	1.0000000	20.8308412	3.4995412	0.1767842	70.6930981	-10.0295610	-8.4966063
0.4218750	0.0000000	20.8280367	3.6094631	0.1683966	70.7333831	-9.2032852	2.1847732
0.4218750	0.1250000	19.4528356	2.9208585	-3.7318349	68.9214540	-5.8169213	-20.2795775
0.4218750	0.2500000	18.3950047	-0.0008117	-5.2907519	65.5563643	-0.0022869	-14.9687328
0.4218750	0.3750000	19.4529192	-2.9206971	-3.7302442	68.9096216	5.8182188	-17.6315820
0.4218750	0.5000000	20.8290127	-3.6091297	0.1675044	70.7364310	9.2030520	-0.8493945
0.4218750	0.6250000	22.2828375	-2.7102375	4.1511811	65.7755040	6.8217318	20.7863182
0.4218750	0.7500000	22.9734528	-0.0006582	5.7857915	62.1614971	0.0017344	27.9710885
0.4218750	0.8750000	22.2845851	2.7096936	4.1510662	65.7759323	-6.8227959	20.0802469
0.4218750	1.0000000	20.8280367	3.6094631	0.1683966	70.7333831	-9.2032852	2.1847732
0.4296875	0.0000000	20.8259003	3.7103017	0.1549251	70.7782267	-8.3499113	-7.0050377
0.4296875	0.1250000	19.6285786	2.9930645	-3.8544484	68.7053586	-5.1397126	-17.2395978
0.4296875	0.2500000	18.7235221	-0.0008036	-5.4795007	65.2123195	0.0002540	-24.7734410
0.4296875	0.3750000	19.6290369	-2.9928330	-3.8533941	68.7018366	5.1383389	-17.8388140
0.4296875	0.5000000	20.8266838	-3.7099476	0.1551278	70.7779965	8.3504751	-2.7638202
0.4296875	0.6250000	22.1851413	-2.7974075	4.2410102	65.8080234	6.3115002	20.3647816
0.4296875	0.7500000	22.8369005	-0.0005880	5.9199944	62.0780452	-0.0004942	18.8160027
0.4296875	0.8750000	22.1868772	2.7967963	4.2420124	65.8091736	-6.3110430	23.9595706
0.4296875	1.0000000	20.8259003	3.7103017	0.1549251	70.7782267	-8.3499113	-7.0050377
0.4375000	0.0000000	20.8236548	3.8017929	0.1428090	70.8123934	-7.4780032	1.7654616
0.4375000	0.1250000	19.8041294	3.0568354	-3.9703270	68.5111173	-4.4523702	-21.4881957
0.4375000	0.2500000	19.0448809	-0.0008541	-5.6481602	64.8852094	-0.0019849	-17.4363178
0.4375000	0.3750000	19.8046141	-3.0564157	-3.9688816	68.5040369	4.4542741	-18.2896315
0.4375000	0.5000000	20.8245227	-3.8014572	0.1418454	70.8156743	7.4780753	-0.3546816
0.4375000	0.6250000	22.0808281	-2.8782672	4.3217843	65.8328734	5.7803252	22.1480196
0.4375000	0.7500000	22.6890611	-0.0004500	6.0448656	62.0099503	0.0008355	30.8292037
0.4375000	0.8750000	22.0829695	2.8775308	4.3213402	65.8431101	-5.7822024	22.1154420
0.4375000	1.0000000	20.8236548	3.8017929	0.1428090	70.8123934	-7.4780032	1.7654616
0.4453125	0.0000000	20.8218898	3.8834824	0.1264583	70.8484576	-6.5816807	-5.7765172
0.4453125	0.1250000	19.9785199	3.1119364	-4.0746965	68.3041794	-3.7639555	-18.9350385
0.4453125	0.2500000	19.3573630	-0.0008280	-5.8064378	64.5845338	-0.0001935	-26.7744193
0.4453125	0.3750000	19.9791701	-3.1114499	-4.0736939	68.2987700	3.7628299	-17.8913252
0.4453125	0.5000000	20.8225480	-3.8831466	0.1262465	70.8514031	6.5824152	-2.2272223
0.4453125	0.6250000	21.9713934	-2.9523312	4.3879226	65.8829948	5.2336279	23.0782301
0.4453125	0.7500000	22.5318475	-0.0003763	6.1454080	61.9659377	-0.0003512	23.1360225
0.4453125	0.8750000	21.9734304	2.9515502	4.3884125	65.8850742	-5.2334853	25.5479600
0.4453125	1.0000000	20.8218898	3.8834824	0.1264583	70.8484576	-6.5816807	-5.7765172
0.4531250	0.0000000	20.8203577	3.9551433	0.1111478	70.8793985	-5.6704664	1.8200347
0.4531250	0.1250000	20.1510245	3.1582375	-4.1705220	68.1123167	-3.0706077	-22.2864100
0.4531250	0.2500000	19.6611382	-0.0008744	-5.9436559	64.3012331	-0.0017155	-17.9965703
0.4531250	0.3750000	20.1516428	-3.1575712	-4.1691352	68.1066408	3.0725214	-19.5508327
0.4531250	0.5000000	20.8209782	-3.9548319	0.1100738	70.8813699	5.6706275	0.4326289
0.4531250	0.6250000	21.8552251	-3.0193932	4.4435697	65.9368377	4.6676144	23.5621635
0.4531250	0.7500000	22.3633267	-0.0002300	6.2341377	61.9381846	0.0008532	33.3404275
0.4531250	0.8750000	21.8574729	3.0184973	4.4430555	65.9408838	-4.6687387	23.7851199
0.4531250	1.0000000	20.8203577	3.9551433	0.1111478	70.8793985	-5.6704664	1.8200347
0.4609375	0.0000000	20.8190909	4.0164250	0.0925900	70.9083910	-4.7414343	-4.7239825
0.4609375	0.1250000	20.3208782	3.1955875	-4.2548535	67.9272889	-2.3798027	-20.0821213
0.4609375	0.2500000	19.9545302	-0.0008429	-6.0676939	64.0321452	-0.0003308	-27.5245103
0.4609375	0.3750000	20.3215624	-3.1948570	-4.2536261	67.9177832	2.3791320	-18.5230875
0.4609375	0.5000000	20.8195441	-4.0161273	0.0921939	70.9108451	4.7419345	-1.7701754
0.4609375	0.6250000	21.7340523	-3.0790068	4.4846058	66.0052477	4.0862054	24.9531523
0.4609375	0.7500000	22.1842980	-0.0001668	6.2996794	61.9382869	-0.0006365	26.6116020
0.4609375	0.8750000	21.7362113	3.0780877	4.4846940	66.0047026	-4.0857702	26.6576960
0.4609375	1.0000000	20.8190909	4.0164250	0.0925900	70.9083910	-4.7414343	-4.7239825
0.4687500	0.0000000	20.8181487	4.0671552	0.0754659	70.9321717	-3.8011661	2.1894971
0.4687500	0.1250000	20.4877064	3.2239093	-4.3297368	67.7478210	-1.6878660	-23.0622847
0.4687500	0.2500000	20.2381000	-0.0008533	-6.1693568	63.7889939	-0.0012015	-19.8477830
0.4687500	0.3750000	20.4885973	-3.2230503	-4.3277912	67.7473470	1.6893415	-20.8716389
0.4687500	0.5000000	20.8184686	-4.0668851	0.0741060	70.9315320	3.8014400	1.3000918
0.4687500	0.6250000	21.6064776	-3.1309933	4.5138506	66.0866158	3.4888944	24.8154479
0.4687500	0.7500000	21.9935413	-0.0000194	6.3525445	61.9493618	0.0001761	34.8626154
0.4687500	0.8750000	21.6087709	3.1299808	4.5130266	66.0889917	-3.4893368	24.9577583
0.4687500	1.0000000	20.8181487	4.0671552	0.0754659	70.9321717	-3.8011661	2.1894971
0.4765625	0.0000000	20.8174434	4.1070728	0.0552437	70.9516174	-2.8484686	-3.9191607
0.4765625	0.1250000	20.6509204	3.2431610	-4.3919598	67.5762470	-1.0008364	-20.9414142
0.4765625	0.2500000	20.5102119	-0.0007781	-6.2571570	63.5669300	-0.0003736	-29.7608883
0.4765625	0.3750000	20.6518592	-3.2422888	-4.3902684	67.5724667	1.0001293	-19.6637222
0.4765625	0.5000000	20.8176140	-4.1068142	0.0542792	70.9513143	2.8492893	-1.3649463
0.4765625	0.6250000	21.4736844	-3.1749921	4.5298337	66.1789393	2.8774441	26.2642496
0.4765625	0.7500000	21.7920438	0.0000431	6.3812840	61.9886609	-0.0008012	29.0641685
0.4765625	0.8750000	21.4759437	3.1739686	4.5290292	66.1812356	-2.8768836	27.1929732
0.4765625	1.0000000	20.8174434	4.1070728	0.0552437	70.9516174	-2.8484686	-3.9191607
0.4843750	0.0000000	20.8168470	4.1360595	0.0364297	70.9655516	-1.8905770	2.7875690
0.4843750	0.1250000	20.8107153	3.2533929	-4.4427569	67.4132903	-0.3176469	-24.1968586
0.4843750	0.2500000	20.7712296	-0.0007490	-6.3225912	63.3724427	-0.0009319	-22.9924929
0.4843750	0.3750000	20.8118501	-3.2524535	-4.4408899	67.4172514	0.3187277	-22.7413051
0.4843750	0.5000000	20.8168640	-4.1358309	0.0348972	70.9674586	1.8906023	2.4063183
0.4843750	0.6250000	21.3353772	-3.2108168	4.5329813	66.2806063	2.2514885	25.5280330
0.4843750	0.7500000	21.5781871	0.0001576	6.3968020	62.0531525	0.0001392	35.3821785
0.4843750	0.8750000	21.3376087	3.2097408	4.5314240	66.2892084	-2.2515559	25.4581698
0.4843750	1.0000000	20.8168470	4.1360595	0.0364297	70.9655516	-1.8905770	2.7875690
0.4921875	0.0000000	20.8166741	4.1539659	0.0149200	70.9749835	-0.9240007	-3.2228707
0.4921875	0.1250000	20.9655296	3.2546329	-4.4808276	67.2628300	0.3582216	-21.9666475
0.4921875	0.2500000	21.0209678	-0.0006893	-6.3742341	63.2026119	-0.0008505	-32.8238020
0.4921875	0.3750000	20.9667479	-3.2536843	-4.4792473	67.2561690	-0.3583358	-21.2916350
0.4921875	0.5000000	20.8164612	-4.1537604	0.0141426	70.9742810	0.9248547	-0.9688543
0.4921875	0.6250000	21.1919099	-3.2381965	4.5229705	66.4042985	1.6147189	26.8765794
0.4921875	0.7500000	21.3534279	0.0002052	6.3884044	62.1398539	-0.0007032	30.5944880
0.4921875	0.8750000	21.1939422	3.2371576	4.5222024	66.3975117	-1.6145105	26.9038156
0.4921875	1.0000000	20.8166741	4.1539659	0.0149200	70.9749835	-0.9240007	-3.2228707
0.5000000	0.0000000	20.8167010	4.1607560	-0.0044697	70.9816012	0.0423742	3.6802365
0.5000000	0.1250000	21.1162568	3.2469704	-4.5071151	67.1219964	1.0255069	-25.4497427
0.5000000	0.2500000	21.2594564	-0.0006499	-6.4016111	63.0487713	-0.0003595	-26.8196369
0.5000000	0.3750000	21.1175386	-3.2459883	-4.5054686	67.1227332	-1.0253994	-24.7421936
0.5000000	0.5000000	20.8163960	-4.1605766	-0.0056742	70.9785242	-0.0417430	3.5387553
0.5000000	0.6250000	21.0430579	-3.2570010	4.5005957	66.5279774	0.9665221	25.8286905
0.5000000	0.7500000	21.1165233	0.0003048	6.3655978	62.2619475	-0.0007726	34.3122784
0.5000000	0.8750000	21.0450744	3.2559478	4.4993938	66.5267516	-0.9660208	25.3793551
0.5000000	1.0000000	20.8167010	4.1607560	-0.0044697	70.9816012	0.0423742	3.6802365
0.5078125	0.0000000	20.8169454	4.1563847	-0.0258260	70.9805292	1.0107026	-2.7971965
0.5078125	0.1250000	21.2616816	3.2305020	-4.5209754	66.9849742	1.6840917	-23.1137290
0.5078125	0.2500000	21.4859551	-0.0005775	-6.4145031	62.9255134	-0.0003527	-36.2223030
0.5078125	0.3750000	21.2630177	-3.2295418	-4.5196111	66.9873944	-1.6842843	-23.2500949
0.5078125	0.5000000	20.8164350	-4.1562320	-0.0266369	70.9786684	-1.0104197	-0.6012065
0.5078125	0.6250000	20.8895892	-3.2670234	4.4652631	66.6667729	0.3098236	26.7025960
0.5078125	0.7500000	20.8685500	0.0003409	6.3203679	62.4020961	-0.0004941	30.7693859
0.5078125	0.8750000	20.8914316	3.2660353	4.4642315	66.6658745	-0.3091402	26.1008712
0.5078125	1.0000000	20.8169454	4.1563847	-0.0258260	70.9805292	1.0107026	-2.7971965
0.5156250	0.0000000	20.8176978	4.1408966	-0.0446747	70.9785563	1.9742324	4.7714806
0.5156250	0.1250000	21.4019464	3.2053895	-4.5221203	66.8681976	2.3303824	-26.7343011
0.5156250	0.2500000	21.7019901	-0.0005206	-6.4036936	62.8265800	-0.0003611	-30.8422858
0.5156250	0.3750000	21.4036000	-3.2044351	-4.5203255	66.8667057	-2.3302185	-26.8315743
0.5156250	0.5000000	20.8169430	-4.1407645	-0.0460002	70.9768863	-1.9740109	4.6682732
0.5156250	0.6250000	20.7313617	-3.2681518	4.4177318	66.8245874	-0.3564221	25.5396841
0.5156250	0.7500000	20.6088277	0.0003953	6.2605249	62.5626531	-0.0004595	31.7180143
0.5156250	0.8750000	20.7331704	3.2671997	4.4162351	66.8219788	0.3570328	24.4949935
0.5156250	1.0000000	20.8176978	4.1408966	-0.0446747	70.9785563	1.9742324	4.7714806
0.5234375	0.0000000	20.8186245	4.1143247	-0.0659041	70.9674147	2.9344010	-2.6261571
0.5234375	0.1250000	21.5366123	3.1717823	-4.5104892	66.7549456	2.9655381	-24.3038197
0.5234375	0.2500000	21.9060852	-0.0004187	-6.3789575	62.7462816	-0.0005728	-39.9246390
0.5234375	0.3750000	21.5381717	-3.1708925	-4.5092731	66.7591518	-2.9657853	-25.3067223
0.5234375	0.5000000	20.8177053	-4.1142276	-0.0666689	70.9657259	-2.9340365	-0.2489152
0.5234375	0.6250000	20.5688914	-3.2603303	4.3586547	66.9840363	-1.0279146	25.6630107
0.5234375	0.7500000	20.3384198	0.0004210	6.1776062	62.7561448	-0.0001575	29.5961621
0.5234375	0.8750000	20.5704544	3.2594754	4.3575362	66.9821449	1.0280151	24.7365175
0.5234375	1.0000000	20.8186245	4.1143247	-0.0659041	70.9674147	2.9344010	-2.6261571
0.5312500	0.0000000	20.8200571	4.0768214	-0.0838924	70.9535590	3.8845543	5.9031099
0.5312500	0.1250000	21.6660575	3.1299112	-4.4854063	66.6546091	3.5845360	-28.0238812
0.5312500	0.2500000	22.0997161	-0.0003347	-6.3301623	62.7006236	-0.0001149	-34.6694049
0.5312500	0.3750000	21.6677380	-3.1290750	-4.4842027	66.6590708	-3.5850380	-28.8971935
0.5312500	0.5000000	20.8188915	-4.0767380	-0.0850501	70.9558375	-3.8845548	5.6649166
0.5312500	0.6250000	20.4025965	-3.2434504	4.2877098	67.1558879	-1.7048902	24.8502772
0.5312500	0.7500000	20.0568260	0.0004786	6.0813128	62.9731708	-0.0009496	27.2610979
0.5312500	0.8750000	20.4038609	3.2426451	4.2859648	67.1565032	1.7058943	22.9713435
0.5312500	1.0000000	20.8200571	4.0768214	-0.0838924	70.9535590	3.8845543	5.9031099
0.5390625	0.0000000	20.8216103	4.0284930	-0.1041539	70.9324655	4.8264454	-2.5916410
0.5390625	0.1250000	21.7892560	3.0799821	-4.4480820	66.5693939	4.1905536	-25.3727744
0.5390625	0.2500000	22.2819785	-0.0002023	-6.2688029	62.6594603	-0.0006914	-43.6117692
0.5390625	0.3750000	21.7908008	-3.0792687	-4.4478339	66.5676814	-4.1899726	-27.3214018
0.5390625	0.5000000	20.8203209	-4.0284366	-0.1044231	70.9319517	-4.8258759	0.0957541
0.5390625	0.6250000	20.2328792	-3.2175757	4.2058806	67.3425057	-2.3851758	23.6497657
0.5390625	0.7500000	19.7650539	0.0004651	5.9620215	63.2188275	0.0002088	26.6034212
0.5390625	0.8750000	20.2340159	3.2169080	4.2047498	67.3346906	2.3842579	22.7454737
0.5390625	1.0000000	20.8216103	4.0284930	-0.1041539	70.9324655	4.8264454	-2.5916410
0.5468750	0.0000000	20.8237302	3.9695667	-0.1200889	70.9156655	5.7518899	7.3599966
0.5468750	0.1250000	21.9072524	3.0223099	-4.3975662	66.4911739	4.7773432	-29.4064788
0.5468750	0.2500000	22.4539874	-0.0001213	-6.1833152	62.6507034	0.0006696	-38.1804187
0.5468750	0.3750000	21.9088544	-3.0216714	-4.3968219	66.4948137	-4.7786364	-30.8452010
0.5468750	0.5000000	20.8222429	-3.9695241	-0.1208014	70.9107686	-5.7515234	6.5762852
0.5468750	0.6250000	20.0601816	-3.1826316	4.1126215	67.5334917	-3.0667114	23.9718040
0.5468750	0.7500000	19.4636232	0.0004816	5.8316937	63.4848703	-0.0018074	22.7535749
0.5468750	0.8750000	20.0610538	3.1820651	4.1113313	67.5258270	3.0685868	20.8392986
0.5468750	1.0000000	20.8237302	3.9695667	-0.1200889	70.9156655	5.7518899	7.3599966
0.5546875	0.0000000	20.8258549	3.9002700	-0.1386561	70.8850284	6.6647710	-3.0034163
0.5546875	0.1250000	22.0187413	2.9570905	-4.3353620	66.4185907	5.3511340	-26.4296645
0.5546875	0.2500000	22.6152384	0.0000218	-6.0855297	62.6571598	-0.0005581	-46.9745750
0.5546875	0.3750000	22.0199849	-2.9565886	-4.3361375	66.4223054	-5.3512878	-29.4060328
0.5546875	0.5000000	20.8243241	-3.9002516	-0.1383934	70.8816835	-6.6642689	0.3616945
0.5546875	0.6250000	19.8853955	-3.1387964	4.0101949	67.7324033	-3.7485560	20.6169797
0.5546875	0.7500000	19.1525752	0.0004439	5.6785943	63.7735471	0.0001909	22.9907655
0.5546875	0.8750000	19.8860943	3.1384044	4.0092373	67.7302296	3.7480646	20.3895465
0.5546875	1.0000000	20.8258549	3.9002700	-0.1386561	70.8850284	6.6647710	-3.0034163
0.5625000	0.0000000	20.8285943	3.8208675	-0.1522982	70.8554028	7.5556017	8.9309979
0.5625000	0.1250000	22.1250489	2.8847437	-4.2588400	66.3645810	5.9033248	-30.7227322
0.5625000	0.2500000	22.7665913	0.0000973	-5.9655020	62.6930837	0.0009302	-41.0885936
0.5625000	0.3750000	22.1263385	-2.8843327	-4.2589136	66.3706106	-5.9041267	-32.2186440
0.5625000	0.5000000	20.8268297	-3.8208496	-0.1526024	70.8542905	-7.5558092	7.6945067
0.5625000	0.6250000	19.7089749	-3.0860686	3.8973003	67.9402646	-4.4288801	22.0639978
0.5625000	0.7500000	18.8334955	0.0004383	5.5166378	64.0805826	-0.0014869	24.5334760
0.5625000	0.8750000	19.7094004	3.0857964	3.8960027	67.9372672	4.4302233	18.5515734
0.5625000	1.0000000	20.8285943	3.8208675	-0.1522982	70.8554028	7.5556017	8.9309979
0.5703125	0.0000000	20.8312900	3.7316985	-0.1682810	70.8168153	8.4305679	-3.6883476
0.5703125	0.1250000	22.2248052	2.8054669	-4.1727384	66.3078403	6.4373956	-27.2019518
0.5703125	0.2500000	22.9074150	0.0002469	-5.8338618	62.7259303	-0.0003731	-50.2287709
0.5703125	0.3750000	22.2258161	-2.8052197	-4.1740061	66.3157226	-6.4384794	-31.3304547
0.5703125	0.5000000	20.8294448	-3.7316812	-0.1678246	70.8164154	-8.4308346	0.0240259
0.5703125	0.6250000	19.5315541	-3.0247474	3.7765695	68.1503874	-5.1040160	17.7805971
0.5703125	0.7500000	18.5069305	0.0003684	5.3323035	64.4238932	0.0005491	20.6021816
0.5703125	0.8750000	19.5316808	3.0246622	3.7754728	68.1444935	5.1033032	18.3732479
0.5703125	1.0000000	20.8312900	3.7316985	-0.1682810	70.8168153	8.4305679	-3.6883476
0.5781250	0.0000000	20.8344195	3.6330523	-0.1786871	70.7841875	9.2800135	10.6279091
0.5781250	0.1250000	22.3197644	2.7197808	-4.0716921	66.2817882	6.9502498	-31.3907825
0.5781250	0.2500000	23.0390281	0.0003013	-5.6812685	62.7953282	0.0009689	-42.9139055
0.5781250	0.3750000	22.3204920	-2.7196143	-4.0716073	66.2846200	-6.9519012	-33.0304499
0.5781250	0.5000000	20.8325800	-3.6330174	-0.1788025	70.7836128	-9.2798609	9.0380095
0.5781250	0.6250000	19.3541945	-2.9548841	3.6462276	68.3679146	-5.7754160	22.1021431
0.5781250	0.7500000	18.1745871	0.0003627	5.1415880	64.7736451	-0.0018782	28.4469669
0.5781250	0.8750000	19.3541289	2.9549171	3.6452679	68.3614572	5.7760857	19.0433282
0.5781250	1.0000000	20.8344195	3.6330523	-0.1786871	70.7841875	9.2800135	10.6279091
0.5859375	0.0000000	20.8375148	3.5253618	-0.1922275	70.7381445	10.1058503	-4.7002968
0.5859375	0.1250000	22.4080490	2.6278838	-3.9623130	66.2401988	7.4448488	-28.4750261
0.5859375	0.2500000	23.1604096	0.0004280	-5.5184640	62.8642137	0.0005129	-50.2720099
0.5859375	0.3750000	22.4084150	-2.6278783	-3.9636399	66.2445488	-7.4452234	-33.5767309
0.5859375	0.5000000	20.8356478	-3.5253092	-0.1912414	70.7313627	-10.1061749	-0.6645592
0.5859375	0.6250000	19.1771608	-2.8769132	3.5097308	68.5894147	-6.4368231	15.3192320
0.5859375	0.7500000	17.8375366	0.0002597	4.9291457	65.1455064	0.0008530	19.8288408
0.5859375	0.8750000	19.1768534	2.8771625	3.5097715	68.5822540	6.4364338	17.0355209
0.5859375	1.0000000	20.8375148	3.5253618	-0.1922275	70.7381445	10.1058503	-4.7002968
0.5937500	0.0000000	20.8411109	3.4089551	-0.1987408	70.7036733	10.9035418	12.5953179
0.5937500	0.1250000	22.4915492	2.5303170	-3.8378165	66.2255365	7.9148561	-31.1766991
0.5937500	0.2500000	23.2734282	0.0004470	-5.3348870	62.9647361	0.0019483	-40.6151366
0.5937500	0.3750000	22.4919158	-2.5303927	-3.8378416	66.2360334	-7.9165702	-32.5693018
0.5937500	0.5000000	20.8391566	-3.4088589	-0.1983512	70.6979917	-10.9039182	10.6157438
0.5937500	0.6250000	19.0024201	-2.7909206	3.3648951	68.8083223	-7.0907121	22.9347331
0.5937500	0.7500000	17.4976947	0.0002321	4.7149827	65.5180143	-0.0021626	34.6014203
0.5937500	0.8750000	19.0016593	2.7912977	3.3647585	68.8048399	7.0931659	19.9317218
0.5937500	1.0000000	20.8411109	3.4089551	-0.1987408	70.7036733	10.9035418	12.5953179
0.6015625	0.0000000	20.8445289	3.2843306	-0.2088216	70.6448494	11.6745591	-6.3954660
0.6015625	0.1250000	22.5684633	2.4273406	-3.7074019	66.2039787	8.3665044	-29.3183782
0.6015625	0.2500000	23.3767497	0.0005438	-5.1426218	63.0455230	-0.0001481	-48.9877255
0.6015625	0.3750000	22.5685653	-2.4275619	-3.7085567	66.2062496	-8.3671888	-35.9254973
0.6015625	0.5000000	20.8425808	-3.2842097	-0.2077747	70.6438430	-11.6740372	-1.7599825
0.6015625	0.6250000	18.8294766	-2.6974753	3.2145170	69.0333986	-7.7320969	12.5158061
0.6015625	0.7500000	17.1562859	0.0000617	4.4817529	65.9206350	0.0014056	21.0550218
0.6015625	0.8750000	18.8285975	2.6980868	3.2145640	69.0293230	7.7302031	15.5076702
0.6015625	1.0000000	20.8445289	3.2843306	-0.2088216	70.6448494	11.6745591	-6.3954660
0.6093750	0.0000000	20.8484600	3.1518576	-0.2116606	70.6096273	12.4137614	14.7921029
0.6093750	0.1250000	22.6410709	2.3195165	-3.5601817	66.2075426	8.7932641	-31.0624742
0.6093750	0.2500000	23.4723814	0.0005424	-4.9321539	63.1675184	0.0016627	-36.4168630
0.6093750	0.3750000	22.6412865	-2.3197947	-3.5599375	66.2121847	-8.7935882	-31.7382768
0.6093750	0.5000000	20.8463908	-3.1516758	-0.2111211	70.6098550	-12.4142367	12.2451557
0.6093750	0.6250000	18.6610006	-2.5966944	3.0594653	69.2571285	-8.3608873	25.2745001
0.6093750	0.7500000	16.8165224	0.0000114	4.2483412	66.3139871	-0.0023354	43.2542309
0.6093750	0.8750000	18.6595184	2.5974320	3.0593268	69.2504083	8.3607445	21.7563710
0.6093750	1.0000000	20.8484600	3.1518576	-0.2116606	70.6096273	12.4137614	14.7921029
0.6171875	0.0000000	20.8519810	3.0120969	-0.2185305	70.5511229	13.1217533	-8.3839919
0.6171875	0.1250000	22.7073605	2.2071121	-3.4103528	66.1888192	9.1988407	-30.0012762
0.6171875	0.2500000	23.5587798	0.0006391	-4.7138138	63.2594848	0.0002501	-47.9003809
0.6171875	0.3750000	22.7072439	-2.2075392	-3.4117169	66.1920309	-9.2000380	-37.1784709
0.6171875	0.5000000	20.8499854	-3.0118891	-0.2167797	70.5471905	-13.1224019	-3.4523017
0.6171875	0.6250000	18.4957307	-2.4893029	2.8970567	69.4731769	-8.9698828	9.2947750
0.6171875	0.7500000	16.4795621	-0.0002245	3.9985674	66.7381429	0.0013917	23.3231022
0.6171875	0.8750000	18.4939777	2.4903475	2.8989145	69.4651494	8.9685546	13.4153135
0.6171875	1.0000000	20.8519810	3.0120969	-0.2185305	70.5511229	13.1217533	-8.3839919
0.6250000	0.0000000	20.8561883	2.8654490	-0.2164186	70.5165522	13.7966269	17.1781715
0.6250000	0.1250000	22.7694268	2.0907251	-3.2437502	66.2103940	9.5812365	-28.2176804
0.6250000	0.2500000	23.6388222	0.0006292	-4.4776350	63.4064767	0.0014567	-31.4343931
0.6250000	0.3750000	22.7693080	-2.0912095	-3.2433988	66.2134729	-9.5823256	-27.9968605
0.6250000	0.5000000	20.8543176	-2.8651538	-0.2153952	70.5114896	-13.7955621	14.4711563
0.6250000	0.6250000	18.3368239	-2.3754011	2.7340655	69.6913722	-9.5651430	28.8503167
0.6250000	0.7500000	16.1497007	-0.0002449	3.7543310	67.1290407	-0.0023890	44.4200787
0.6250000	0.8750000	18.3345714	2.3765496	2.7353591	69.6827280	9.5657226	24.3920075
0.6250000	1.0000000	20.8561883	2.8654490	-0.2164186	70.5165522	13.7966269	17.1781715
0.6328125	0.0000000	20.8598840	2.7124833	-0.2200221	70.4528563	14.4353795	-11.1728026
0.6328125	0.1250000	22.8252468	1.9706403	-3.0769413	66.1913343	9.9387915	-30.2049814
0.6328125	0.2500000	23.7101395	0.0007294	-4.2358153	63.5043887	0.0009106	-47.0300554
0.6328125	0.3750000	22.8247304	-1.9712663	-3.0786252	66.1923006	-9.9391870	-37.2732218
0.6328125	0.5000000	20.8582816	-2.7121507	-0.2175515	70.4513538	-14.4365606	-6.1772527
0.6328125	0.6250000	18.1822084	-2.2559526	2.5625458	69.8996623	-10.1353224	5.7872304
0.6328125	0.7500000	15.8275907	-0.0005010	3.4946787	67.5446354	0.0019273	15.1140668
0.6328125	0.8750000	18.1800297	2.2573771	2.5666171	69.8991713	10.1343971	10.6888590
0.6328125	1.0000000	20.8598840	2.7124833	-0.2200221	70.4528563	14.4353795	-11.1728026
0.6406250	0.0000000	20.8641865	2.5536668	-0.2132815	70.4159298	15.0382094	20.2468039
0.6406250	0.1250000	22.8773566	1.8474239	-2.8923132	66.2258756	10.2752214	-23.9018967
0.6406250	0.2500000	23.7760757	0.0006729	-3.9779656	63.6516988	0.0011108	-25.2086372
0.6406250	0.3750000	22.8767065	-1.8480607	-2.8922244	66.2307800	-10.2752708	-22.6709197
0.6406250	0.5000000	20.8629255	-2.5532376	-0.2115855	70.4175444	-15.0391006	17.6351867
0.6406250	0.6250000	18.0366416	-2.1308189	2.3955228	70.1067848	-10.6880065	33.5745122
0.6406250	0.7500000	15.5182970	-0.0004904	3.2458275	67.9320470	-0.0018855	36.2958508
0.6406250	0.8750000	18.0341066	2.1322757	2.3981933	70.1010351	10.6867632	27.8500478
0.6406250	1.0000000	20.8641865	2.5536668	-0.2132815	70.4159298	15.0382094	20.2468039
0.6484375	0.0000000	20.8680387	2.3895194	-0.2137582	70.3522213	15.6054584	-14.9342344
0.6484375	0.1250000	22.9230677	1.7214842	-2.7105807	66.2127671	10.5848237	-30.8963432
0.6484375	0.2500000	23.8341563	0.0007275	-3.7174102	63.7367327	-0.0003240	-46.4266787
0.6484375	0.3750000	22.9221626	-1.7221770	-2.7124571	66.2058110	-10.5855121	-38.2050691
0.6484375	0.5000000	20.8670570	-2.3890785	-0.2111062	70.3541148	-15.6048914	-10.2542417
0.6484375	0.6250000	17.8965256	-2.0012469	2.2178455	70.3000303	-11.2095079	1.4461254
0.6484375	0.7500000	15.2210538	-0.0007451	2.9812918	68.3280763	0.0013625	4.4597177
0.6484375	0.8750000	17.8941738	2.0029075	2.2233919	70.2932639	11.2087395	6.7487015
0.6484375	1.0000000	20.8680387	2.3895194	-0.2137582	70.3522213	15.6054584	-14.9342344
0.6562500	0.0000000	20.8723660	2.2206657	-0.2023586	70.3241123	16.1334122	24.1956043
0.6562500	0.1250000	22.9658555	1.5932045	-2.5104337	66.2545173	10.8753305	-18.3881670
0.6562500	0.2500000	23.8876747	0.0006583	-3.4415827	63.8966541	0.0007809	-17.6547966
0.6562500	0.3750000	22.9646258	-1.5938793	-2.5103524	66.2506752	-10.8734139	-16.0719079
0.6562500	0.5000000	20.8719041	-2.2200926	-0.2008030	70.3236976	-16.1321591	21.8813525
0.6562500	0.6250000	17.7676947	-1.8668694	2.0505469	70.4914202	-11.7108908	39.9534993
0.6562500	0.7500000	14.9425928	-0.0006639	2.7339719	68.6935524	-0.0022448	27.5066684
0.6562500	0.8750000	17.7652145	1.8683894	2.0536607	70.4811340	11.7088182	32.5041159
0.6562500	1.0000000	20.8723660	2.2206657	-0.2023586	70.3241123	16.1334122	24.1956043
0.6640625	0.0000000	20.8760112	2.0475045	-0.1997705	70.2614164	16.6192396	-19.8080796
0.6640625	0.1250000	23.0024578	1.4631701	-2.3168743	66.2304602	11.1347223	-32.3586244
0.6640625	0.2500000	23.9337678	0.0006270	-3.1659256	63.9674100	0.0003727	-46.6963656
0.6640625	0.3750000	23.0010790	-1.4638038	-2.3183461	66.2267776	-11.1361442	-39.7857021
0.6640625	0.5000000	20.8757479	-2.0468951	-0.1978224	70.2602097	-16.6196766	-15.7788170
0.6640625	0.6250000	17.6454674	-1.7290521	1.8679116	70.6600059	-12.1738788	-4.0940032
0.6640625	0.7500000	14.6800977	-0.0008988	2.4701073	69.0569162	0.0007054	-8.4867977
0.6640625	0.8750000	17.6429776	1.7307071	1.8740732	70.6524346	12.1741324	1.1764794
0.6640625	1.0000000	20.8760112	2.0475045	-0.1997705	70.2614164	16.6192396	-19.8080796
0.6718750	0.0000000	20.8802678	1.8708009	-0.1837955	70.2392014	17.0698453	28.9656118
0.6718750	0.1250000	23.0366447	1.3315787	-2.1042269	66.2725437	11.3781249	-11.0965433
0.6718750	0.2500000	23.9760733	0.0005372	-2.8750448	64.1212173	0.0002158	-8.6903634
0.6718750	0.3750000	23.0352874	-1.3321398	-2.1039457	66.2699874	-11.3760275	-7.9261748
0.6718750	0.5000000	20.8801208	-1.8700875	-0.1826993	70.2372731	-17.0681587	27.4493526
0.6718750	0.6250000	17.5367371	-1.5872367	1.7018721	70.8259141	-12.6153556	47.5804809
0.6718750	0.7500000	14.4417512	-0.0007446	2.2323034	69.3805022	-0.0017612	19.0165503
0.6718750	0.8750000	17.5338350	1.5886005	1.7051645	70.8193464	12.6120817	38.8512223
0.6718750	1.0000000	20.8802678	1.8708009	-0.1837955	70.2392014	17.0698453	28.9656118
0.6796875	0.0000000	20.8832827	1.6908744	-0.1790989	70.1719015	17.4739989	-25.9101839
0.6796875	0.1250000	23.0652882	1.1990559	-1.9008481	66.2496618	11.5901233	-35.0722265
0.6796875	0.2500000	24.0111493	0.0005224	-2.5891280	64.1715964	0.0004356	-47.7609709
0.6796875	0.3750000	23.0639345	-1.1995885	-1.9019968	66.2479310	-11.5911035	-42.5180293
0.6796875	0.5000000	20.8830550	-1.6900908	-0.1778879	70.1719911	-17.4733934	-22.9508003
0.6796875	0.6250000	17.4355720	-1.4424928	1.5152699	70.9719141	-13.0113459	-10.9173566
0.6796875	0.7500000	14.2215765	-0.0010333	1.9713728	69.6903045	0.0001548	-23.5100272
0.6796875	0.8750000	17.4321596	1.4441014	1.5221068	70.9648444	13.0112188	-6.3713507
0.6796875	1.0000000	20.8832827	1.6908744	-0.1790989	70.1719015	17.4739989	-25.9101839
0.6875000	0.0000000	20.8868886	1.5085874	-0.1584043	70.1557792	17.8420640	34.7079138
0.6875000	0.1250000	23.0920689	1.0657089	-1.6790232	66.2917675	11.7864738	-1.7736141
0.6875000	0.2500000	24.0433083	0.0004222	-2.2871321	64.3102024	-0.0010222	1.7372288
0.6875000	0.3750000	23.0909108	-1.0661507	-1.6785054	66.2867447	-11.7841876	1.6188472
0.6875000	0.5000000	20.8865070	-1.5076964	-0.1580493	70.1604745	-17.8412245	34.2524332
0.6875000	0.6250000	17.3494731	-1.2947930	1.3526679	71.1171822	-13.3843861	56.3549934
0.6875000	0.7500000	14.0294176	-0.0008960	1.7471914	69.9724557	-0.0008319	11.8564154
0.6875000	0.8750000	17.3453183	1.2960876	1.3565320	71.1071530	13.3799718	46.4454380
0.6875000	1.0000000	20.8868886	1.5085874	-0.1584043	70.1557792	17.8420640	34.7079138
0.6953125	0.0000000	20.8893189	1.3241446	-0.1518165	70.0923066	18.1607164	-32.9824637
0.6953125	0.1250000	23.1132644	0.9322870	-1.4692895	66.2604341	11.9495141	-39.4399501
0.6953125	0.2500000	24.0692604	0.0004031	-1.9940293	64.3439076	0.0010778	-49.9225666
0.6953125	0.3750000	23.1123098	-0.9327076	-1.4702591	66.2567061	-11.9509306	-46.2876143
0.6953125	0.5000000	20.8885604	-1.3231714	-0.1513074	70.0955586	-18.1622225	-31.4969196
0.6953125	0.6250000	17.2708000	-1.1437167	1.1613561	71.2264560	-13.7054056	-18.6202671
0.6953125	0.7500000	13.8573376	-0.0013149	1.4895525	70.2228394	-0.0010042	-34.8236303
0.6953125	0.8750000	17.2657664	1.1455951	1.1696504	71.2127258	13.7058331	-15.3178268
0.6953125	1.0000000	20.8893189	1.3241446	-0.1518165	70.0923066	18.1607164	-32.9824637
0.7031250	0.0000000	20.8924373	1.1384347	-0.1266968	70.0929277	18.4461552	41.3726326
0.7031250	0.1250000	23.1331120	0.7986306	-1.2417124	66.2965650	12.0978099	9.4110734
0.7031250	0.2500000	24.0930399	0.0003372	-1.6849827	64.4571613	-0.0010618	13.3472591
0.7031250	0.3750000	23.1323205	-0.7990122	-1.2413324	66.2966970	-12.0952561	12.7463356
0.7031250	0.5000000	20.8914613	-1.1373614	-0.1265564	70.0930274	-18.4454960	42.2844124
0.7031250	0.6250000	17.2072432	-0.9919837	1.0036098	71.3434439	-14.0030238	64.5062801
0.7031250	0.7500000	13.7150993	-0.0012473	1.2816800	70.4425920	0.0000272	21.4610801
0.7031250	0.8750000	17.2019472	0.9932538	1.0087842	71.3376845	13.9994115	54.2712472
0.7031250	1.0000000	20.8924373	1.1384347	-0.1266968	70.0929277	18.4461552	41.3726326
0.7109375	0.0000000	20.8939453	0.9518592	-0.1185856	70.0360672	18.6794471	-41.4357453
0.7109375	0.1250000	23.1478565	0.6655015	-1.0284750	66.2612036	12.2142863	-45.3021760
0.7109375	0.2500000	24.1110966	0.0003121	-1.3888229	64.4678818	0.0012822	-52.9065633
0.7109375	0.3750000	23.1470959	-0.6658630	-1.0293580	66.2605462	-12.2164166	-51.4034482
0.7109375	0.5000000	20.8927758	-0.9506789	-0.1182191	70.0319153	-18.6772181	-41.3463048
0.7109375	0.6250000	17.1515625	-0.8336364	0.8056570	71.4187542	-14.2433042	-30.2125677
0.7109375	0.7500000	13.5929432	-0.0018151	1.0251051	70.6321767	-0.0023018	-39.1117839
0.7109375	0.8750000	17.1456148	0.8359191	0.8160820	71.4092800	14.2442635	-27.6407729
0.7109375	1.0000000	20.8939453	0.9518592	-0.1185856	70.0360672	18.6794471	-41.4357453
0.7187500	0.0000000	20.8970658	0.7646592	-0.0892359	70.0385384	18.8785809	49.0986873
0.7187500	0.1250000	23.1609371	0.5327655	-0.7987376	66.2963382	12.3159032	22.5540821
0.7187500	0.2500000	24.1283127	0.0002650	-1.0772077	64.5536264	-0.0023084	25.9028405
0.7187500	0.3750000	23.1598798	-0.5331530	-0.7986601	66.2903843	-12.3140609	25.3752901
0.7187500	0.5000000	20.8962127	-0.7633223	-0.0888130	70.0415906	-18.8771346	51.2841440
0.7187500	0.6250000	17.1086612	-0.6805838	0.6543770	71.5112207	-14.4573674	72.2335572
0.7187500	0.7500000	13.5011629	-0.0018177	0.8328139	70.7960824	0.0009351	34.3215872
0.7187500	0.8750000	17.1037223	0.6817188	0.6618628	71.5033278	14.4532691	62.6848803
0.7187500	1.0000000	20.8970658	0.7646592	-0.0892359	70.0385384	18.8785809	49.0986873
0.7265625	0.0000000	20.8978743	0.5782591	-0.0808276	69.9888945	19.0221904	-51.0497729
0.7265625	0.1250000	23.1697898	0.4007630	-0.5836064	66.2505521	12.3867417	-52.8081667
0.7265625	0.2500000	24.1395747	0.0002341	-0.7830105	64.5406887	0.0028011	-56.5314276
0.7265625	0.3750000	23.1686782	-0.4011376	-0.5839331	66.2557008	-12.3878810	-57.5271706
0.7265625	0.5000000	20.8970524	-0.5768415	-0.0808543	69.9873964	-19.0241774	-52.3946180
0.7265625	0.6250000	17.0751394	-0.5126484	0.4493073	71.5581272	-14.6115516	-43.1147273
0.7265625	0.7500000	13.4275084	-0.0023443	0.5705615	70.9206409	-0.0030933	-45.4637126
0.7265625	0.8750000	17.0701992	0.5148729	0.4612135	71.5444010	14.6113121	-41.5988441
0.7265625	1.0000000	20.8978743	0.5782591	-0.0808276	69.9888945	19.0221904	-51.0497729
0.7343750	0.0000000	20.8995246	0.3910537	-0.0484040	70.0072188	19.1369362	57.7891586
0.7343750	0.1250000	23.1781803	0.2695873	-0.3550285	66.2792945	12.4410175	37.2520403
0.7343750	0.2500000	24.1485506	0.0001872	-0.4734894	64.5947115	-0.0031854	39.1101071
0.7343750	0.3750000	23.1769974	-0.2699652	-0.3546027	66.2788482	-12.4404059	38.6757324
0.7343750	0.5000000	20.8989081	-0.3895467	-0.0479193	70.0103254	-19.1355929	61.2287554
0.7343750	0.6250000	17.0544458	-0.3623205	0.3075309	71.6266636	-14.7388646	81.2157296
0.7343750	0.7500000	13.3811283	-0.0023853	0.3915075	71.0361130	0.0019516	46.1559152
0.7343750	0.8750000	17.0509277	0.3633186	0.3167781	71.6231941	14.7359017	72.8401843
0.7343750	1.0000000	20.8995246	0.3910537	-0.0484040	70.0072188	19.1369362	57.7891586
0.7421875	0.0000000	20.8992433	0.2068267	-0.0387297	69.9609866	19.1934789	-61.6670605
0.7421875	0.1250000	23.1823061	0.1385778	-0.1418545	66.2338754	12.4659502	-61.2255056
0.7421875	0.2500000	24.1526983	0.0001624	-0.1809781	64.5625069	0.0024880	-60.6980198
0.7421875	0.3750000	23.1812315	-0.1389295	-0.1416003	66.2347813	-12.4678821	-64.0159812
0.7421875	0.5000000	20.8987209	-0.2053317	-0.0386674	69.9613392	-19.1938619	-64.1319740
0.7421875	0.6250000	17.0415444	-0.1822977	0.0911868	71.6435686	-14.8016137	-56.1766964
0.7421875	0.7500000	13.3516205	-0.0027842	0.1210625	71.0931295	-0.0040770	-53.6422395
0.7421875	0.8750000	17.0386583	0.1840906	0.1038085	71.6301922	14.8026128	-56.1767314
0.7421875	1.0000000	20.8992433	0.2068267	-0.0387297	69.9609866	19.1934789	-61.6670605
0.7500000	0.0000000	20.9012705	0.0201843	-0.0024083	69.9965339	19.2200057	67.2314834
0.7500000	0.1250000	23.1834803	0.0089372	0.0820118	66.2570972	12.4742211	52.4095817
0.7500000	0.2500000	24.1559422	0.0001498	0.1265202	64.5879732	-0.0036751	52.6140872
0.7500000	0.3750000	23.1823068	-0.0093012	0.0824381	66.2572644	-12.4744306	52.3612287
0.7500000	0.5000000	20.9014464	-0.0186631	-0.0014338	69.9941095	-19.2183165	71.5115052
0.7500000	0.6250000	17.0408887	-0.0390639	-0.0402458	71.6897224	-14.8397222	90.8786249
0.7500000	0.7500000	13.3521641	-0.0027295	-0.0431293	71.1509928	0.0028803	55.5754080
0.7500000	0.8750000	17.0404800	0.0401870	-0.0297148	71.6853775	14.8375684	83.8459943
0.7500000	1.0000000	20.9012705	0.0201843	-0.0024083	69.9965339	19.2200057	67.2314834
0.7578125	0.0000000	20.9022410	-0.1626112	0.0049399	69.9587861	19.1874308	-72.6999213
0.7578125	0.1250000	23.1811938	-0.1220555	0.2951905	66.2062175	12.4570048	-69.8054845
0.7578125	0.2500000	24.1556656	0.0001569	0.4146454	64.5293896	0.0037050	-65.1105584
0.7578125	0.3750000	23.1799419	0.1217042	0.2954750	66.2113583	-12.4577677	-70.5040860
0.7578125	0.5000000	20.9031218	0.1640550	0.0049536	69.9600761	-19.1892746	-75.9365830
0.7578125	0.6250000	17.0428719	0.1477311	-0.2646704	71.6778127	-14.8100592	-68.8245969
0.7578125	0.7500000	13.3669175	-0.0025002	-0.3282943	71.1448819	-0.0041878	-63.7290956
0.7578125	0.8750000	17.0437524	-0.1468405	-0.2535146	71.6671696	14.8109187	-71.0538142
0.7578125	1.0000000	20.9022410	-0.1626112	0.0049399	69.9587861	19.1874308	-72.6999213
0.7656250	0.0000000	20.9024339	-0.3495990	0.0412588	70.0037015	19.1288760	76.6448549
0.7656250	0.1250000	23.1772678	-0.2520778	0.5232879	66.2259786	12.4183056	67.7803993
0.7656250	0.2500000	24.1499901	0.0001457	0.7219934	64.5257657	-0.0036288	65.8973946
0.7656250	0.3750000	23.1760628	0.2517919	0.5239447	66.2317875	-12.4183012	65.5102001
0.7656250	0.5000000	20.9033994	0.3508333	0.0410847	70.0007489	-19.1257949	81.4932936
0.7656250	0.6250000	17.0676046	0.2857248	-0.3821965	71.7022396	-14.7566645	100.3724171
0.7656250	0.7500000	13.4119522	-0.0020178	-0.4814960	71.1539657	0.0033077	61.8245079
0.7656250	0.8750000	17.0702405	-0.2849393	-0.3730741	71.7015916	14.7540677	95.0699616
0.7656250	1.0000000	20.9024339	-0.3495990	0.0412588	70.0037015	19.1288760	76.6448549
0.7734375	0.0000000	20.9017028	-0.5348379	0.0457770	69.9744936	19.0073422	-83.5073190
0.7734375	0.1250000	23.1713619	-0.3834060	0.7340046	66.1679878	12.3552965	-78.5139282
0.7734375	0.2500000	24.1404960	0.0002128	1.0105884	64.4468592	0.0037114	-69.4060538
0.7734375	0.3750000	23.1703383	0.3830825	0.7345596	66.1760720	-12.3577408	-76.5792198
0.7734375	0.5000000	20.9024271	0.5359223	0.0445532	69.9752656	-19.0098237	-87.3686739
0.7734375	0.6250000	17.0896676	0.4679435	-0.6151267	71.6639444	-14.6360431	-80.3363413
0.7734375	0.7500000	13.4674304	-0.0015609	-0.7818734	71.0837274	-0.0039354	-75.4734767
0.7734375	0.8750000	17.0922630	-0.4677477	-0.6075074	71.6591473	14.6374861	-85.8722101
0.7734375	1.0000000	20.9017028	-0.5348379	0.0457770	69.9744936	19.0073422	-83.5073190
0.7812500	0.0000000	20.9015746	-0.7220908	0.0829605	70.0252068	18.8587109	85.9793216
0.7812500	0.1250000	23.1612996	-0.5152905	0.9666213	66.1841224	12.2708490	82.5557872
0.7812500	0.2500000	24.1277822	0.0002894	1.3244141	64.4165266	-0.0033516	78.4585617
0.7812500	0.3750000	23.1601043	0.5149516	0.9663461	66.1950340	-12.2726709	78.1305387
0.7812500	0.5000000	20.9020918	0.7229677	0.0831496	70.0235104	-18.8577658	91.2789460
0.7812500	0.6250000	17.1386425	0.6056870	-0.7250696	71.6588667	-14.4915432	109.9271445
0.7812500	0.7500000	13.5613019	-0.0011883	-0.9238309	71.0287444	0.0036471	65.2201722
0.7812500	0.8750000	17.1424783	-0.6048462	-0.7168321	71.6590468	14.4907233	106.6063132
0.7812500	1.0000000	20.9015746	-0.7220908	0.0829605	70.0252068	18.8587109	85.9793216
0.7890625	0.0000000	20.9006936	-0.9092291	0.0829593	70.0090138	18.6541870	-94.0277276
0.7890625	0.1250000	23.1491969	-0.6476100	1.1735083	66.1275539	12.1652653	-86.5352344
0.7890625	0.2500000	24.1117293	0.0003510	1.6101695	64.3084197	0.0040434	-73.5088791
0.7890625	0.3750000	23.1479864	0.6472416	1.1736280	66.1371345	-12.1664795	-82.1283494
0.7890625	0.5000000	20.9008876	0.9099303	0.0818600	70.0091694	-18.6555053	-98.3640941
0.7890625	0.6250000	17.1814246	0.7795418	-0.9660696	71.5865805	-14.2825292	-90.6959262
0.7890625	0.7500000	13.6637116	-0.0007208	-1.2412726	70.8906155	-0.0036640	-87.8990889
0.7890625	0.8750000	17.1845319	-0.7793830	-0.9613657	71.5823560	14.2835562	-99.5910789
0.7890625	1.0000000	20.9006936	-0.9092291	0.0829593	70.0090138	18.6541870	-94.0277276
0.7968750	0.0000000	20.8995171	-1.0955934	0.1200070	70.0722123	18.4187324	94.9239770
0.7968750	0.1250000	23.1331039	-0.7809186	1.4089608	66.1406944	12.0323343	96.4281605
0.7968750	0.2500000	24.0911275	0.0004491	1.9259587	64.2556296	-0.0031419	90.1514423
0.7968750	0.3750000	23.1316903	0.7804932	1.4084310	66.1433171	-12.0318751	89.6372300
0.7968750	0.5000000	20.8995101	1.0961078	0.1205200	70.0657533	-18.4180324	100.6794163
0.7968750	0.6250000	17.2547427	0.9183708	-1.0696110	71.5556764	-14.0516685	119.0477108
0.7968750	0.7500000	13.8084781	-0.0005731	-1.3774410	70.7743107	0.0036243	65.7116575
0.7968750	0.8750000	17.2587241	-0.9172850	-1.0625262	71.5558559	14.0512460	116.8192091
0.7968750	1.0000000	20.8995171	-1.0955934	0.1200070	70.0722123	18.4187324	94.9239770
0.8046875	0.0000000	20.8972188	-1.2825543	0.1154505	70.0638053	18.1283806	-103.9846509
0.8046875	0.1250000	23.1152269	-0.9138572	1.6086948	66.0746630	11.8805228	-94.1773721
0.8046875	0.2500000	24.0664723	0.0005129	2.2061434	64.1263483	0.0034017	-77.1289122
0.8046875	0.3750000	23.1140129	0.9133789	1.6090016	66.0840687	-11.8834013	-87.2994502
0.8046875	0.5000000	20.8967252	1.2829418	0.1146582	70.0608407	-18.1293810	-108.8451069
0.8046875	0.6250000	17.3209707	1.0840981	-1.3190962	71.4462189	-13.7575889	-100.8690162
0.8046875	0.7500000	13.9594950	-0.0001091	-1.7147191	70.5584589	-0.0029011	-100.9780669
0.8046875	0.8750000	17.3237623	-1.0836436	-1.3165458	71.4452329	13.7602986	-112.8282762
0.8046875	1.0000000	20.8972188	-1.2825543	0.1154505	70.0638053	18.1283806	-103.9846509
0.8125000	0.0000000	20.8952245	-1.4665372	0.1523396	70.1264384	17.8047410	103.5375263
0.8125000	0.1250000	23.0923016	-1.0475235	1.8434344	66.0804024	11.7016404	109.1302777
0.8125000	0.2500000	24.0373228	0.0006622	2.5208825	64.0465560	-0.0036166	100.6560576
0.8125000	0.3750000	23.0910262	1.0468983	1.8421451	66.0849846	-11.7021722	100.4335802
0.8125000	0.5000000	20.8945967	1.4667928	0.1536287	70.1271782	-17.8047991	109.8280997
0.8125000	0.6250000	17.4176908	1.2230599	-1.4175534	71.3830964	-13.4465355	125.4939225
0.8125000	0.7500000	14.1555979	-0.0001881	-1.8498587	70.3882996	0.0035218	67.9755055
0.8125000	0.8750000	17.4213854	-1.2215962	-1.4105711	71.3899125	13.4463381	125.2018932
0.8125000	1.0000000	20.8952245	-1.4665372	0.1523396	70.1264384	17.8047410	103.5375263
0.8203125	0.0000000	20.8922602	-1.6507315	0.1429551	70.1281514	17.4315245	-113.3285719
0.8203125	0.1250000	23.0671917	-1.1802140	2.0330502	66.0161710	11.5072053	-101.2987287
0.8203125	0.2500000	24.0041458	0.0007275	2.7908705	63.8909244	0.0032163	-80.4414783
0.8203125	0.3750000	23.0659524	1.1795301	2.0328561	66.0224739	-11.5076945	-92.1110354
0.8203125	0.5000000	20.8914774	1.6508963	0.1429974	70.1321415	-17.4322108	-118.7427856
0.8203125	0.6250000	17.5057956	1.3811093	-1.6746497	71.2349556	-13.0740030	-113.2629427
0.8203125	0.7500000	14.3561956	0.0002618	-2.2056964	70.0970163	-0.0021199	-106.0539589
0.8203125	0.8750000	17.5086026	-1.3801887	-1.6734352	71.2392660	13.0755651	-125.8840456
0.8203125	1.0000000	20.8922602	-1.6507315	0.1429551	70.1281514	17.4315245	-113.3285719
0.8281250	0.0000000	20.8896670	-1.8306165	0.1788515	70.2005411	17.0251187	111.7204703
0.8281250	0.1250000	23.0366615	-1.3128452	2.2641811	66.0175826	11.2763527	121.0621735
0.8281250	0.2500000	23.9653906	0.0008930	3.0998848	63.7911109	-0.0040022	109.7568029
0.8281250	0.3750000	23.0351881	1.3120053	2.2620995	66.0192442	-11.2760111	110.8324345
0.8281250	0.5000000	20.8889906	1.8306602	0.1809825	70.1968766	-17.0234230	118.3586267
0.8281250	0.6250000	17.6238059	1.5186339	-1.7683028	71.1522947	-12.6862955	129.1393028
0.8281250	0.7500000	14.6012993	0.0000433	-2.3414365	69.8807844	0.0032343	81.8651976
0.8281250	0.8750000	17.6277340	-1.5167763	-1.7613798	71.1537101	12.6865119	131.4016859
0.8281250	1.0000000	20.8896670	-1.8306165	0.1788515	70.2005411	17.0251187	111.7204703
0.8359375	0.0000000	20.8864542	-2.0094513	0.1640775	70.2098802	16.5706084	-122.0579987
0.8359375	0.1250000	23.0035725	-1.4440307	2.4404001	65.9503046	11.0367434	-107.9678604
0.8359375	0.2500000	23.9224718	0.0009177	3.3557933	63.6284448	0.0032191	-83.3129801
0.8359375	0.3750000	23.0017648	1.4431715	2.4398863	65.9554699	-11.0386528	-96.7981760
0.8359375	0.5000000	20.8860206	2.0094179	0.1648057	70.2078810	-16.5717372	-127.9913198
0.8359375	0.6250000	17.7316095	1.6687438	-2.0300789	70.9693668	-12.2433018	-125.5464062
0.8359375	0.7500000	14.8478651	0.0005152	-2.7127288	69.5206607	-0.0019383	-107.9457934
0.8359375	0.8750000	17.7351173	-1.6673665	-2.0299631	70.9704642	12.2449908	-138.4491000
0.8359375	1.0000000	20.8864542	-2.0094513	0.1640775	70.2098802	16.5706084	-122.0579987
0.8437500	0.0000000	20.8837080	-2.1831528	0.1986455	70.2841811	16.0812099	119.4290165
0.8437500	0.1250000	22.9642388	-1.5741356	2.6648162	65.9465009	10.7597030	131.9957125
0.8437500	0.2500000	23.8730717	0.0010668	3.6548511	63.5128820	-0.0043097	117.6561857
0.8437500	0.3750000	22.9620170	1.5731678	2.6619685	65.9446564	-10.7589334	120.4303972
0.8437500	0.5000000	20.8837034	2.1830018	0.2015889	70.2825883	-16.0813325	126.5298517
0.8437500	0.6250000	17.8682589	1.8026220	-2.1180798	70.8640631	-11.7875965	131.1062277
0.8437500	0.7500000	15.1351629	0.0002926	-2.8504175	69.2578595	0.0034100	93.6755102
0.8437500	0.8750000	17.8731518	-1.8005681	-2.1114548	70.8716816	11.7885713	136.5267899
0.8437500	1.0000000	20.8837080	-2.1831528	0.1986455	70.2841811	16.0812099	119.4290165
0.8515625	0.0000000	20.8802107	-2.3541933	0.1781139	70.2976725	15.5490509	-129.9103392
0.8515625	0.1250000	22.9225382	-1.7023057	2.8247751	65.8874978	10.4753896	-114.3770437
0.8515625	0.2500000	23.8185207	0.0010392	3.8920599	63.3358751	0.0031187	-85.9953627
0.8515625	0.3750000	22.9199410	1.7013832	2.8242710	65.8857408	-10.4746575	-101.0120122
0.8515625	0.5000000	20.8804904	2.3539803	0.1792443	70.2976087	-15.5493709	-136.2308369
0.8515625	0.6250000	17.9947371	1.9435738	-2.3811248	70.6539469	-11.2834280	-136.6290114
0.8515625	0.7500000	15.4188319	0.0008341	-3.2297375	68.8547610	-0.0011645	-110.7708379
0.8515625	0.8750000	17.9989366	-1.9420985	-2.3822882	70.6564129	11.2853599	-149.8355598
0.8515625	1.0000000	20.8802107	-2.3541933	0.1781139	70.2976725	15.5490509	-129.9103392
0.8593750	0.0000000	20.8773027	-2.5195480	0.2113896	70.3707011	14.9799640	126.4409690
0.8593750	0.1250000	22.8739335	-1.8281990	3.0393498	65.8838885	10.1494107	141.6461825
0.8593750	0.2500000	23.7565285	0.0011340	4.1772586	63.2147790	-0.0052550	124.3404349
0.8593750	0.3750000	22.8707492	1.8272476	3.0360128	65.8799187	-10.1487521	128.9996511
0.8593750	0.5000000	20.8779940	2.5192634	0.2143765	70.3726368	-14.9788929	133.8188250
0.8593750	0.6250000	18.1477580	2.0714082	-2.4630214	70.5244458	-10.7655125	131.8191061
0.8593750	0.7500000	15.7381694	0.0006248	-3.3667192	68.5632672	0.0031257	102.7395424
0.8593750	0.8750000	18.1532534	-2.0694587	-2.4568209	70.5309277	10.7666562	140.7330520
0.8593750	1.0000000	20.8773027	-2.5195480	0.2113896	70.3707011	14.9799640	126.4409690
0.8671875	0.0000000	20.8738640	-2.6805269	0.1849631	70.3905165	14.3746424	-136.8503704
0.8671875	0.1250000	22.8228166	-1.9517130	3.1803824	65.8249393	9.8209978	-119.8648294
0.8671875	0.2500000	23.6887196	0.0010293	4.3919682	63.0400051	0.0029187	-88.3774873
0.8671875	0.3750000	22.8194032	1.9508911	3.1799969	65.8254376	-9.8205872	-104.3897787
0.8671875	0.5000000	20.8747025	2.6802146	0.1855426	70.3926843	-14.3745442	-143.4301636
0.8671875	0.6250000	18.2896023	2.2017790	-2.7231655	70.2956397	-10.2110519	-147.0921622
0.8671875	0.7500000	16.0490027	0.0012032	-3.7450898	68.1261288	-0.0005598	-115.7469822
0.8671875	0.8750000	18.2945864	-2.2003940	-2.7260500	70.2994752	10.2110855	-160.2048209
0.8671875	1.0000000	20.8738640	-2.6805269	0.1849631	70.3905165	14.3746424	-136.8503704
0.8750000	0.0000000	20.8708859	-2.8353348	0.2163309	70.4657232	13.7308022	132.8012825
0.8750000	0.1250000	22.7641426	-2.0717244	3.3822707	65.8273520	9.4477613	149.9902232
0.8750000	0.2500000	23.6122555	0.0011231	4.6599721	62.9158810	-0.0049889	129.4466379
0.8750000	0.3750000	22.7604265	2.0709141	3.3789832	65.8228020	-9.4458962	136.6875867
0.8750000	0.5000000	20.8718360	2.8349823	0.2187250	70.4655335	-13.7294861	140.2213478
0.8750000	0.6250000	18.4562190	2.3210576	-2.7976115	70.1448763	-9.6393548	131.8110855
0.8750000	0.7500000	16.3884437	0.0009820	-3.8785859	67.8150129	0.0027138	109.1266076
0.8750000	0.8750000	18.4622110	-2.3193914	-2.7924104	70.1506253	9.6396805	144.1787113
0.8750000	1.0000000	20.8708859	-2.8353348	0.2163309	70.4657232	13.7308022	132.8012825
0.8828125	0.0000000	20.8675708	-2.9841597	0.1843888	70.4932761	13.0576194	-142.7324953
0.8828125	0.1250000	22.7032041	-2.1888515	3.5009658	65.7787021	9.0751897	-124.3099745
0.8828125	0.2500000	23.5294153	0.0009887	4.8492759	62.7482825	0.0029890	-90.4195584
0.8828125	0.3750000	22.6991665	2.1882082	3.5018297	65.7719416	-9.0744353	-106.6660973
0.8828125	0.5000000	20.8684544	2.9838030	0.1838026	70.4924226	-13.0566156	-149.4661768
0.8828125	0.6250000	18.6105802	2.4390811	-3.0510775	69.9094740	-9.0416982	-156.5628998
0.8828125	0.7500000	16.7157135	0.0015409	-4.2455850	67.3642045	-0.0000447	-122.9042942
0.8828125	0.8750000	18.6155670	-2.4380254	-3.0558436	69.9132694	9.0424401	-169.3466617
0.8828125	1.0000000	20.8675708	-2.9841597	0.1843888	70.4932761	13.0576194	-142.7324953
0.8906250	0.0000000	20.8647622	-3.1262464	0.2134988	70.5604623	12.3420147	138.4006254
0.8906250	0.1250000	22.6335343	-2.3012833	3.6884931	65.7829464	8.6551736	156.8692444
0.8906250	0.2500000	23.4373013	0.0010789	5.0966073	62.6291078	-0.0048398	133.4947278
0.8906250	0.3750000	22.6292723	2.3006627	3.6852160	65.7830090	-8.6547530	143.2881877
0.8906250	0.5000000	20.8655951	3.1258648	0.2152197	70.5618431	-12.3421521	145.7768080
0.8906250	0.6250000	18.7867788	2.5474996	-3.1175550	69.7438995	-8.4255892	131.0590125
0.8906250	0.7500000	17.0648969	0.0012716	-4.3702720	67.0450819	0.0025153	108.5836557
0.8906250	0.8750000	18.7924943	-2.5462514	-3.1136359	69.7527305	8.4272618	146.9104531
0.8906250	1.0000000	20.8647622	-3.1262464	0.2134988	70.5604623	12.3420147	138.4006254
0.8984375	0.0000000	20.8617148	-3.2609283	0.1754684	70.5848896	11.6049352	-147.5029397
0.8984375	0.1250000	22.5620468	-2.4102975	3.7833647	65.7542701	8.2422394	-126.9538930
0.8984375	0.2500000	23.3381506	0.0009133	5.2566980	62.4791830	0.0035456	-91.8457896
0.8984375	0.3750000	22.5575263	2.4098674	3.7845153	65.7539106	-8.2411349	-107.9467850
0.8984375	0.5000000	20.8623126	3.2605349	0.1746947	70.5879658	-11.6051454	-154.1979559
0.8984375	0.6250000	18.9499660	2.6515580	-3.3600184	69.5014288	-7.7946256	-164.7687426
0.8984375	0.7500000	17.3982977	0.0017613	-4.7179852	66.5999859	0.0003540	-131.9673053
0.8984375	0.8750000	18.9545820	-2.6508168	-3.3655664	69.5063606	7.7950201	-176.9254878
0.8984375	1.0000000	20.8617148	-3.2609283	0.1754684	70.5848896	11.6049352	-147.5029397
0.9062500	0.0000000	20.8592167	-3.3881981	0.2025555	70.6500626	10.8269384	143.0343659
0.9062500	0.1250000	22.4807333	-2.5134470	3.9539223	65.7716796	7.7770288	164.1906279
0.9062500	0.2500000	23.2289582	0.0009964	5.4800624	62.3683316	-0.0043683	136.0465040
0.9062500	0.3750000	22.4758861	2.5130600	3.9505794	65.7694390	-7.7761636	149.6289900
0.9062500	0.5000000	20.8597379	3.3878045	0.2042830	70.6524386	-10.8273359	150.2438383
0.9062500	0.6250000	19.1318815	2.7470179	-3.4172353	69.3303424	-7.1444542	130.0412850
0.9062500	0.7500000	17.7475986	0.0014267	-4.8298673	66.2931745	0.0014440	104.6422733
0.9062500	0.8750000	19.1370568	-2.7461136	-3.4130706	69.3333747	7.1452100	148.9328495
0.9062500	1.0000000	20.8592167	-3.3881981	0.2025555	70.6500626	10.8269384	143.0343659
0.9140625	0.0000000	20.8566721	-3.5068450	0.1594494	70.6808667	10.0331194	-150.9599614
0.9140625	0.1250000	22.3980776	-2.6126619	4.0225035	65.7577230	7.3206288	-128.5840218
0.9140625	0.2500000	23.1121803	0.0007758	5.6081343	62.2523786	0.0029790	-92.8218360
0.9140625	0.3750000	22.3930102	2.6124989	4.0243179	65.7579199	-7.3206074	-108.1182000
0.9140625	0.5000000	20.8570226	3.5064646	0.1584955	70.6802785	-10.0329629	-157.5839883
0.9140625	0.6250000	19.2995225	2.8355923	-3.6446852	69.0874413	-6.4889854	-171.8641130
0.9140625	0.7500000	18.0791460	0.0018562	-5.1504788	65.8599267	0.0013602	-137.9825522
0.9140625	0.8750000	19.3039448	-2.8351640	-3.6499534	69.0905609	6.4892001	-182.9190578
0.9140625	1.0000000	20.8566721	-3.5068450	0.1594494	70.6808667	10.0331194	-150.9599614
0.9218750	0.0000000	20.8544711	-3.6173860	0.1847501	70.7395909	9.1986063	146.5610239
0.9218750	0.1250000	22.3046428	-2.7049193	4.1738786	65.7825364	6.8148292	170.0655002
0.9218750	0.2500000	22.9844083	0.0008779	5.8056574	62.1622909	-0.0039082	137.3606622
0.9218750	0.3750000	22.2993523	2.7048038	4.1712003	65.7804891	-6.8142074	154.8262333
0.9218750	0.5000000	20.8546262	3.6170027	0.1858043	70.7387592	-9.1985855	153.6606564
0.9218750	0.6250000	19.4838608	2.9162731	-3.6900239	68.9081073	-5.8118964	128.5595616
0.9218750	0.7500000	18.4202126	0.0015071	-5.2448335	65.5692929	0.0007552	101.6653025
0.9218750	0.8750000	19.4888207	-2.9157450	-3.6863035	68.9140970	5.8133680	150.0479550
0.9218750	1.0000000	20.8544711	-3.6173860	0.1847501	70.7395909	9.1986063	146.5610239
0.9296875	0.0000000	20.8525442	-3.7183001	0.1369569	70.7657995	8.3550130	-153.2377124
0.9296875	0.1250000	22.2105078	-2.7927290	4.2150089	65.8032034	6.3208970	-129.3666252
0.9296875	0.2500000	22.8488731	0.0006630	5.8982380	62.0768050	0.0022488	-92.0344572
0.9296875	0.3750000	22.2048067	2.7928312	4.2177736	65.7954464	-6.3194917	-108.3059303
0.9296875	0.5000000	20.8525378	3.7179323	0.1355015	70.7697382	-8.3542410	-159.6978556
0.9296875	0.6250000	19.6526937	2.9881897	-3.8983214	68.6766712	-5.1410547	-177.2412113
0.9296875	0.7500000	18.7428030	0.0018712	-5.5329465	65.1663876	0.0023117	-140.7296092
0.9296875	0.8750000	19.6568804	-2.9880707	-3.9040099	68.6789979	5.1396408	-186.7578417
0.9296875	1.0000000	20.8525442	-3.7183001	0.1369569	70.7657995	8.3550130	-153.2377124
0.9375000	0.0000000	20.8508425	-3.8104016	0.1597864	70.8132471	7.4722743	149.2497543
0.9375000	0.1250000	22.1046246	-2.8725660	4.3470595	65.8370316	5.7739964	174.4795272
0.9375000	0.2500000	22.7010255	0.0007923	6.0664709	62.0024993	-0.0035447	141.5056830
0.9375000	0.3750000	22.0987751	2.8726989	4.3443973	65.8348037	-5.7730899	158.7167756
0.9375000	0.5000000	20.8506485	3.8100412	0.1606728	70.8197768	-7.4732027	155.9910838
0.9375000	0.6250000	19.8357753	3.0526946	-3.9304509	68.5003181	-4.4472008	126.7722650
0.9375000	0.7500000	19.0697108	0.0014849	-5.6053320	64.9058008	0.0002796	99.8922255
0.9375000	0.8750000	19.8403590	-3.0524977	-3.9271339	68.5039739	4.4477554	150.0489840
0.9375000	1.0000000	20.8508425	-3.8104016	0.1597864	70.8132471	7.4722743	149.2497543
0.9453125	0.0000000	20.8493763	-3.8920997	0.1079783	70.8389518	6.5864890	-154.3849015
0.9453125	0.1250000	21.9989937	-2.9474556	4.3594215	65.8868305	5.2431121	-129.6656646
0.9453125	0.2500000	22.5452595	0.0005401	6.1214328	61.9720487	0.0025782	-88.8987646
0.9453125	0.3750000	21.9926865	2.9478148	4.3626398	65.8810367	-5.2424885	-108.4400533
0.9453125	0.5000000	20.8490339	3.8917538	0.1065845	70.8430366	-6.5861751	-160.6794481
0.9453125	0.6250000	20.0031401	3.1070582	-4.1169716	68.2753576	-3.7666851	-179.0879930
0.9453125	0.7500000	19.3774728	0.0018129	-5.8560788	64.5427155	0.0027312	-141.5369121
0.9453125	0.8750000	20.0070689	-3.1072306	-4.1224494	68.2800785	3.7655195	-188.4478437
0.9453125	1.0000000	20.8493763	-3.8920997	0.1079783	70.8389518	6.5864890	-154.3849015
0.9531250	0.0000000	20.8481685	-3.9643224	0.1291397	70.8800054	5.6655950	151.0822163
0.9531250	0.1250000	21.8804415	-3.0134623	4.4700430	65.9297852	4.6605472	177.7934167
0.9531250	0.2500000	22.3763065	0.0006892	6.2596967	61.9244403	-0.0032750	144.7126943
0.9531250	0.3750000	21.8741221	3.0138529	4.4677584	65.9284075	-4.6602250	161.7238066
0.9531250	0.5000000	20.8476389	3.9639750	0.1296541	70.8819025	-5.6661767	157.5846669
0.9531250	0.6250000	20.1822423	3.1543734	-4.1333987	68.1151324	-3.0653627	126.6750134
0.9531250	0.7500000	19.6860600	0.0014341	-5.9034813	64.3089420	-0.0003006	99.2750311
0.9531250	0.8750000	20.1864592	-3.1544927	-4.1304347	68.1195924	3.0658968	149.1313653
0.9531250	1.0000000	20.8481685	-3.9643224	0.1291397	70.8800054	5.6655950	151.0822163
0.9609375	0.0000000	20.8471252	-4.0255471	0.0740587	70.9047574	4.7458792	-154.6887471
0.9609375	0.1250000	21.7636373	-3.0740491	4.4532479	66.0122706	4.0946583	-129.5823394
0.9609375	0.2500000	22.1989232	0.0004041	6.2741994	61.9459844	0.0025336	-86.0965349
0.9609375	0.3750000	21.7568473	3.0746895	4.4575746	66.0096567	-4.0943989	-108.9620140
0.9609375	0.5000000	20.8465206	4.0252182	0.0722179	70.9072568	-4.7460202	-160.8765147
0.9609375	0.6250000	20.3454880	3.1906524	-4.2951563	67.8960801	-2.3831199	-177.1216967
0.9609375	0.7500000	19.9751966	0.0017248	-6.1134985	63.9981167	0.0034598	-141.5417537
0.9609375	0.8750000	20.3492863	-3.1911131	-4.3007402	67.8980042	2.3820881	-189.2102413
0.9609375	1.0000000	20.8471252	-4.0255471	0.0740587	70.9047574	4.7458792	-154.6887471
0.9687500	0.0000000	20.8462891	-4.0767176	0.0930541	70.9326976	3.7972483	152.3205891
0.9687500	0.1250000	21.6328035	-3.1249878	4.5430323	66.0757244	3.4813908	180.1143671
0.9687500	0.2500000	22.0074630	0.0005709	6.3801094	61.9276606	-0.0027957	147.1771401
0.9687500	0.3750000	21.6260396	3.1256448	4.5407345	66.0730146	-3.4808616	163.4234110
0.9687500	0.5000000	20.8454814	4.0763872	0.0934064	70.9344819	-3.7983503	158.7279021
0.9687500	0.6250000	20.5185643	3.2201812	-4.2936065	67.7505755	-1.6817047	126.4615078
0.9687500	0.7500000	20.2622070	0.0013676	-6.1333878	63.8093903	-0.0007894	98.4223437
0.9687500	0.8750000	20.5224945	-3.2205968	-4.2911183	67.7535232	1.6821382	147.2425395
0.9687500	1.0000000	20.8462891	-4.0767176	0.0930541	70.9326976	3.7972483	152.3205891
0.9765625	0.0000000	20.8455619	-4.1165047	0.0359253	70.9460616	2.8527748	-154.4800846
0.9765625	0.1250000	21.5048929	-3.1700853	4.4955585	66.1936175	2.8852276	-129.6077947
0.9765625	0.2500000	21.8078802	0.0002875	6.3542328	62.0106030	0.0023001	-84.1514443
0.9765625	0.3750000	21.4978367	3.1709534	4.5005714	66.1891772	-2.8855023	-110.0911529
0.9765625	0.5000000	20.8447515	4.1162043	0.0338896	70.9484419	-2.8524881	-160.6351711
0.9765625	0.6250000	20.6756676	3.2382144	-4.4285377	67.5466055	-1.0051132	-175.1916490
0.9765625	0.7500000	20.5309328	0.0015904	-6.3013764	63.5332724	0.0035079	-146.6649260
0.9765625	0.8750000	20.6790264	-3.2389127	-4.4340082	67.5489392	1.0039401	-189.1412556
0.9765625	1.0000000	20.8455619	-4.1165047	0.0359253	70.9460616	2.8527748	-154.4800846
0.9843750	0.0000000	20.8451518	-4.1458126	0.0537704	70.9637163	1.8860894	153.3234245
0.9843750	0.1250000	21.3618750	-3.2048827	4.5642942	66.2681491	2.2455982	181.8895551
0.9843750	0.2500000	21.5933789	0.0004921	6.4271219	62.0370664	-0.0027660	148.5648998
0.9843750	0.3750000	21.3553146	3.2057358	4.5620321	66.2682174	-2.2454858	164.3864872
0.9843750	0.5000000	20.8440521	4.1455138	0.0536238	70.9661680	-1.8865635	159.5686548
0.9843750	0.6250000	20.8407045	3.2497158	-4.4078843	67.4229445	-0.3110320	125.5297767
0.9843750	0.7500000	20.7950731	0.0012573	-6.2905697	63.3905694	-0.0012517	96.4575118
0.9843750	0.8750000	20.8440222	-3.2503969	-4.4060596	67.4248540	0.3112187	144.6481709
0.9843750	1.0000000	20.8451518	-4.1458126	0.0537704	70.9637163	1.8860894	153.3234245
0.9921875	0.0000000	20.8448252	-4.1635750	-0.0043748	70.9728838	0.9287174	-153.9719854
0.9921875	0.1250000	21.2236991	-3.2334269	4.4869237	66.4076853	1.6229094	-130.3121431
0.9921875	0.2500000	21.3705257	0.0002249	6.3585933	62.1619115	0.0025377	-83.2586451
0.9921875	0.3750000	21.2170125	3.2344557	4.4922752	66.4077748	-1.6234385	-112.3348695
0.9921875	0.5000000	20.8434722	4.1632938	-0.0067873	70.9721878	-0.9287150	-159.9764847
0.9921875	0.6250000	20.9902183	3.2496237	-4.5149690	67.2413663	0.3519185	-173.8791225
0.9921875	0.7500000	21.0410442	0.0014300	-6.4149519	63.1625265	0.0034227	-152.1469771
0.9921875	0.8750000	20.9930001	-3.2505064	-4.5207388	67.2396569	-0.3530177	-189.3506759
0.9921875	1.0000000	20.8448252	-4.1635750	-0.0043748	70.9728838	0.9287174	-153.9719854
1.0000000	0.0000000	20.8444378	-4.1705314	0.0131903	70.9744229	-0.0458990	153.9246407
1.0000000	0.1250000	21.0703492	-3.2512312	4.5343143	66.5087306	0.9608831	183.3101095
1.0000000	0.2500000	21.1309819	0.0004490	6.3996829	62.2290624	-0.0023610	148.7242900
1.0000000	0.3750000	21.0641199	3.2521814	4.5315529	66.5079772	-0.9606494	164.5647464
1.0000000	0.5000000	20.8427984	4.1702715	0.0130796	70.9767856	0.0448044	160.0092687
1.0000000	0.6250000	21.1460780	3.2433021	-4.4744045	67.1196310	1.0337253	124.2973464
1.0000000	0.7500000	21.2806957	0.0010832	-6.3724739	63.0597435	-0.0013344	93.8269354
1.0000000	0.8750000	21.1489917	-3.2441291	-4.4728293	67.1194585	-1.0332786	141.8512755
1.0000000	1.0000000	20.8444378	-4.1705314	0.0131903	70.9744229	-0.0458990	153.9246407
