0.000000000000000000e+00 1.975749867560000084e+01 1.705270711839999898e+00 1.832098736360000046e+01 1.832307708479999775e+01 -9.949914616999961936e+01
2.666666666662500206e-03 1.938318739190000173e+01 1.646230406419999959e+00 1.798511107110000040e+01 1.828650765759999786e+01 -9.906240056000090988e+01
5.333333333337499961e-03 1.902165522010000132e+01 1.590047392610000054e+00 1.765515449009999926e+01 1.824861373510000107e+01 -9.904618940000050031e+01
8.000000000000000167e-03 1.867227788470000149e+01 1.535479267849999996e+00 1.734177874890000126e+01 1.821330935499999981e+01 -9.912421786000021484e+01
1.066666666666250124e-02 1.833485710000000068e+01 1.483369579589999931e+00 1.703459888820000145e+01 1.817708543940000254e+01 -9.878950558999926557e+01
1.333333333337500051e-02 1.800875473050000153e+01 1.432853627250000095e+00 1.674167477820000016e+01 1.814295125820000010e+01 -9.902969975999928920e+01
1.600000000000000033e-02 1.769397667140000152e+01 1.384449789730000102e+00 1.645538155119999857e+01 1.810835043180000170e+01 -9.834260689999908323e+01
1.866666666662500015e-02 1.738945901989999854e+01 1.337471817529999996e+00 1.618162305790000133e+01 1.807567435989999893e+01 -9.905400738999992427e+01
2.133333333337500068e-02 1.709534538189999964e+01 1.292325638219999906e+00 1.591486855139999967e+01 1.804293671570000157e+01 -9.805228315999917754e+01
2.400000000000000050e-02 1.681119679940000111e+01 1.248850039629999964e+00 1.565862131599999962e+01 1.801179591180000017e+01 -9.912755110999941621e+01
2.666666666662500379e-02 1.653634093830000040e+01 1.206678874739999907e+00 1.541069441720000022e+01 1.798156471529999934e+01 -9.760675293000042529e+01
2.933333333337499738e-02 1.627069598050000110e+01 1.166074732110000012e+00 1.517094604549999914e+01 1.795226264739999777e+01 -9.928561759999952585e+01
3.200000000000000067e-02 1.601384752479999918e+01 1.127037271859999912e+00 1.493992214350000047e+01 1.792422689670000224e+01 -9.753295625000075120e+01
3.466666666662500396e-02 1.576543936290000048e+01 1.089555188969999922e+00 1.471563700029999922e+01 1.789677410600000229e+01 -9.886914361999929213e+01
3.733333333337499754e-02 1.552550612139999942e+01 1.053235966719999972e+00 1.450011810390000022e+01 1.787082360619999832e+01 -9.758606633000076158e+01
4.000000000000000083e-02 1.529336971270000056e+01 1.018376310809999907e+00 1.429013294619999996e+01 1.784512780009999844e+01 -9.835354246000014200e+01
4.266666666662500412e-02 1.506909949789999992e+01 9.845905375190000530e-01 1.408891175219999958e+01 1.782125801269999954e+01 -9.781642946000025063e+01
4.533333333337499771e-02 1.485212514470000045e+01 9.517630736569999694e-01 1.389265895529999995e+01 1.779760784950000030e+01 -9.776405551999994259e+01
4.800000000000000100e-02 1.464234295690000032e+01 9.202060718369999837e-01 1.370438840049999918e+01 1.777568542489999714e+01 -9.814412907999940217e+01
5.066666666662500429e-02 1.443968136089999987e+01 8.896214454180000342e-01 1.352124395499999920e+01 1.775436344270000077e+01 -9.712156014000065340e+01
5.333333333337500481e-02 1.424339107780000013e+01 8.601077883850000161e-01 1.334534355399999939e+01 1.773473563270000142e+01 -9.854573156999983041e+01
5.600000000000000117e-02 1.405370459100000069e+01 8.315101443979999729e-01 1.317443343140000067e+01 1.771580513150000158e+01 -9.667348744999989663e+01
5.866666666662499752e-02 1.387017657520000036e+01 8.039288186749999898e-01 1.300999500660000052e+01 1.769844036579999980e+01 -9.856767775999941250e+01
6.133333333337500498e-02 1.369275579640000018e+01 7.770849679839999524e-01 1.285073326600000065e+01 1.768203922149999840e+01 -9.643709527000039827e+01
6.400000000000000133e-02 1.352136553649999939e+01 7.514882618720000185e-01 1.269679054260000051e+01 1.766678466669999992e+01 -9.823069343999959813e+01
6.666666666662499074e-02 1.335544290109999999e+01 7.264138644669999589e-01 1.254849098639999916e+01 1.765288271249999852e+01 -9.656857406000048627e+01
6.933333333337500515e-02 1.319517065980000048e+01 7.020648641960000047e-01 1.240421190039999999e+01 1.763948141190000030e+01 -9.763911340999975152e+01
7.199999999999999456e-02 1.304021231429999972e+01 6.786812980759999725e-01 1.226569420410000077e+01 1.762780728019999898e+01 -9.696523929000086639e+01
7.466666666662499785e-02 1.289031917920000048e+01 6.558637729670000471e-01 1.213152416850000037e+01 1.761706645510000158e+01 -9.702276398999988771e+01
7.733333333337499838e-02 1.274540203649999981e+01 6.338167278830000306e-01 1.200178307560000057e+01 1.760747962669999822e+01 -9.727032884000055901e+01
8.000000000000000167e-02 1.260546271669999996e+01 6.122946688499999457e-01 1.187713090699999974e+01 1.759926879330000205e+01 -9.641724365000054320e+01
8.266666666662499108e-02 1.247027980610000064e+01 5.916897924380000173e-01 1.175546523310000069e+01 1.759159712639999995e+01 -9.776045584000088695e+01
8.533333333337500548e-02 1.233961633420000048e+01 5.713089489720000191e-01 1.163981046870000036e+01 1.758598305339999968e+01 -9.576537072999961708e+01
8.799999999999999489e-02 1.221344648360000029e+01 5.518051180799999900e-01 1.152605598170000079e+01 1.758044084470000001e+01 -9.770026153000071645e+01
9.066666666662499818e-02 1.209154681429999911e+01 5.327061117129999746e-01 1.141853696659999962e+01 1.757727473659999973e+01 -9.546277920999936839e+01
9.333333333337499871e-02 1.197388839439999941e+01 5.140055177890000548e-01 1.131274965140000077e+01 1.757420479390000168e+01 -9.768005905999987704e+01
9.600000000000000200e-02 1.186026423680000086e+01 4.959386547649999866e-01 1.121262796769999959e+01 1.757343498750000066e+01 -9.531320694000088167e+01
9.866666666662499141e-02 1.175056368489999947e+01 4.781500013369999746e-01 1.111481106159999932e+01 1.757314494520000281e+01 -9.746585610999912319e+01
1.013333333333750058e-01 1.164469792529999914e+01 4.609272817839999981e-01 1.102140280419999918e+01 1.757461608849999735e+01 -9.548337971000000834e+01
1.039999999999999952e-01 1.154251895019999985e+01 4.442190500939999787e-01 1.093126932600000067e+01 1.757704293109999938e+01 -9.710943228000030558e+01
1.066666666666249985e-01 1.144409316620000006e+01 4.279455199960000011e-01 1.084375728600000066e+01 1.758033000370000210e+01 -9.568851680999993903e+01
1.093333333333749990e-01 1.134927833000000064e+01 4.121783537079999893e-01 1.076112608050000041e+01 1.758558318420000077e+01 -9.642700686999968696e+01
1.120000000000000023e-01 1.125770612250000013e+01 3.967002171430000224e-01 1.067927015499999932e+01 1.759060913969999973e+01 -9.621919999999926176e+01
1.146666666666249917e-01 1.116976107009999986e+01 3.816588838789999882e-01 1.060310361460000017e+01 1.759809642660000151e+01 -9.579675923000090165e+01
1.173333333333750061e-01 1.108507790300000018e+01 3.668484088339999949e-01 1.052712818270000028e+01 1.760520605949999862e+01 -9.641117767000011440e+01
1.199999999999999956e-01 1.100350693440000072e+01 3.525611588270000096e-01 1.045709062769999953e+01 1.761523171949999877e+01 -9.521525304999947537e+01
1.226666666666249988e-01 1.092501285890000062e+01 3.383418331920000077e-01 1.038738818520000073e+01 1.762496463649999967e+01 -9.661970150999911766e+01
1.253333333337500188e-01 1.084957838529999918e+01 3.247339665619999871e-01 1.032251382039999932e+01 1.763710648249999835e+01 -9.513196812999993313e+01
1.280000000000000027e-01 1.077706594930000072e+01 3.112239604920000180e-01 1.025940180419999948e+01 1.764974273520000025e+01 -9.645794346000067776e+01
1.306666666662499865e-01 1.070735651260000054e+01 2.982168448890000212e-01 1.019876735429999925e+01 1.766342845930000038e+01 -9.505214454999938312e+01
1.333333333337499982e-01 1.064050878179999948e+01 2.856807403330000050e-01 1.014220878839999962e+01 1.767897519729999800e+01 -9.632793580999970118e+01
1.360000000000000098e-01 1.057635306719999946e+01 2.734823358419999906e-01 1.008542892480000042e+01 1.769392902310000082e+01 -9.510521388000063325e+01
1.386666666662499936e-01 1.051496379329999975e+01 2.615470463890000041e-01 1.003483821350000049e+01 1.771187211419999841e+01 -9.580715375999919559e+01
1.413333333337500053e-01 1.045610055619999912e+01 2.502645117200000269e-01 9.981541799769999557e+00 1.772755433089999855e+01 -9.526728409999981295e+01
1.439999999999999891e-01 1.039973476389999973e+01 2.391103052709999954e-01 9.936099367949999817e+00 1.774727517810000066e+01 -9.555337773000076140e+01
1.466666666662500007e-01 1.034588659739999983e+01 2.284751205810000019e-01 9.886664656680000718e+00 1.776367284659999868e+01 -9.524554260000027739e+01
1.493333333337500124e-01 1.029443297979999983e+01 2.182798044750000055e-01 9.844722276680000661e+00 1.778369898399999727e+01 -9.568333341999910147e+01
1.519999999999999962e-01 1.024543178040000058e+01 2.084907153080000075e-01 9.799446580930000650e+00 1.780068611349999941e+01 -9.489251563999988548e+01
1.546666666662499801e-01 1.019899286330000088e+01 1.992723137540000078e-01 9.760222501570000375e+00 1.782039489339999960e+01 -9.605225465000047791e+01
1.573333333337500195e-01 1.015533940369999932e+01 1.900620760370000106e-01 9.719122862340000779e+00 1.783757478340000091e+01 -9.453838099000044792e+01
1.600000000000000033e-01 1.011382772330000002e+01 1.819188875359999957e-01 9.681271803479999605e+00 1.785576055519999983e+01 -9.627385682000033285e+01
1.626666666662499872e-01 1.007386538299999934e+01 1.746086463969999947e-01 9.645204447479999388e+00 1.787391002769999915e+01 -9.424311246000044662e+01
1.653333333337499989e-01 1.003541332230000016e+01 1.676874316239999885e-01 9.608488670119999853e+00 1.789062802739999825e+01 -9.599861683999932893e+01
1.680000000000000104e-01 9.998412714040000537e+00 1.612834092269999908e-01 9.577276795630000450e+00 1.790978772979999789e+01 -9.389867757000028803e+01
1.706666666662499943e-01 9.962874218499999657e+00 1.551819118130000064e-01 9.542111967620000357e+00 1.792524973400000121e+01 -9.575005532000027131e+01
1.733333333337500060e-01 9.928773023770000705e+00 1.492397956629999967e-01 9.514518017340000355e+00 1.794426837980000045e+01 -9.379703436000086469e+01
1.759999999999999898e-01 9.896063793999999803e+00 1.435306088739999875e-01 9.481158606330000183e+00 1.795816792109999938e+01 -9.544933891000039239e+01
1.786666666662500014e-01 9.864643851940000374e+00 1.378463769859999966e-01 9.456045204789999659e+00 1.797616286479999914e+01 -9.409348147000000040e+01
1.813333333337500131e-01 9.834528135999999421e+00 1.322743155599999942e-01 9.425522666219999124e+00 1.798920777840000085e+01 -9.485018806000053360e+01
1.839999999999999969e-01 9.805709448869999179e+00 1.267504115589999925e-01 9.401760425699999146e+00 1.800533435759999890e+01 -9.467273429000005081e+01
1.866666666662499807e-01 9.778086626929999525e+00 1.212561457350000010e-01 9.374586455839999388e+00 1.801779782060000201e+01 -9.420739729999937140e+01
1.893333333337500202e-01 9.751697805190000068e+00 1.158470788089999981e-01 9.351712185300000257e+00 1.803178673899999751e+01 -9.507658266999945340e+01
1.920000000000000040e-01 9.726518332679999546e+00 1.105253252469999975e-01 9.328146348149999767e+00 1.804401243310000069e+01 -9.364145987999998511e+01
1.946666666662499878e-01 9.702524757040000836e+00 1.052317181610000069e-01 9.306297304530000147e+00 1.805600495010000017e+01 -9.557653225000017017e+01
1.973333333337499995e-01 9.679744812370000062e+00 9.999854740619999738e-02 9.285749720349999237e+00 1.806746545189999864e+01 -9.300036646999977563e+01
2.000000000000000111e-01 9.658170883569999532e+00 9.474858053159999904e-02 9.265175980809999601e+00 1.807754371789999936e+01 -9.579668559999950617e+01
2.026666666662499949e-01 9.637743592170000539e+00 8.960098980380000466e-02 9.247306266260000740e+00 1.808826040960000014e+01 -9.281632247000001712e+01
2.053333333337499789e-01 9.618470509130000679e+00 8.437124154840000556e-02 9.228884766429999331e+00 1.809722596619999990e+01 -9.561314764999970350e+01
2.079999999999999905e-01 9.600400494720000566e+00 7.928070264679999701e-02 9.212780904449999753e+00 1.810647505630000254e+01 -9.304112856999971370e+01
2.106666666662500020e-01 9.583421792599999378e+00 7.404938565620000634e-02 9.196844767349999117e+00 1.811458040409999981e+01 -9.507646409000084020e+01
2.133333333337499860e-01 9.567616268220000109e+00 6.890390937699999996e-02 9.182613602989999180e+00 1.812259042270000009e+01 -9.358602369000017518e+01
2.159999999999999976e-01 9.552912765280000329e+00 6.383047016329999879e-02 9.168935633780000316e+00 1.812970731320000084e+01 -9.428548657000064281e+01
2.186666666662500091e-01 9.539317670100000868e+00 5.863365118999999681e-02 9.156776087720000845e+00 1.813662024810000162e+01 -9.419258919999934676e+01
2.213333333337499931e-01 9.526882530500000001e+00 5.359107787769999687e-02 9.145069275870000070e+00 1.814250964180000025e+01 -9.361484774000011555e+01
2.240000000000000047e-01 9.515579264379999458e+00 4.843716363500000233e-02 9.135018445249999175e+00 1.814831566440000188e+01 -9.452188158000073770e+01
2.266666666662500162e-01 9.505368244830000535e+00 4.343011274659999699e-02 9.125293571329999409e+00 1.815305205690000179e+01 -9.333563519000075814e+01
2.293333333337500002e-01 9.496291737720000015e+00 3.824026972609999991e-02 9.117317161420000815e+00 1.815774780649999798e+01 -9.460973018000088075e+01
2.320000000000000118e-01 9.488318063110000367e+00 3.325052608069999777e-02 9.109605694360000783e+00 1.816143251919999813e+01 -9.307125483000092458e+01
2.346666666662500234e-01 9.481458416509999765e+00 2.811150431079999928e-02 9.103798467740000788e+00 1.816516086200000046e+01 -9.459927961000055063e+01
2.373333333337499795e-01 9.475675409649999992e+00 2.302275662689999905e-02 9.098008960390000510e+00 1.816765768960000216e+01 -9.315391853000036804e+01
2.399999999999999911e-01 9.471038322160000078e+00 1.792601734100000149e-02 9.094156172570000862e+00 1.817024788089999987e+01 -9.424112240999937740e+01
2.426666666662500027e-01 9.467436689470000388e+00 1.287993500189999960e-02 9.090643947920000301e+00 1.817201320480000248e+01 -9.348377582000009056e+01
2.453333333337499866e-01 9.464974822029999402e+00 7.746134838370000164e-03 9.088850299560000678e+00 1.817362518870000088e+01 -9.382781485000066368e+01
2.479999999999999982e-01 9.463588671540000163e+00 2.774538560660000201e-03 9.087251512019999922e+00 1.817417932980000117e+01 -9.369830784999952300e+01
2.506666666662500376e-01 9.463321363660000429e+00 -2.329989491749999853e-03 9.087427535199999795e+00 1.817465606090000207e+01 -9.341964595000072791e+01
2.533333333337499660e-01 9.464117944459999876e+00 -7.253892032069999933e-03 9.087925444910000650e+00 1.817426142069999884e+01 -9.401297917000017890e+01
2.560000000000000053e-01 9.466051509950000664e+00 -1.231134213860000069e-02 9.090238772730000250e+00 1.817380030380000022e+01 -9.299013983999937238e+01
2.586666666662499892e-01 9.469101177169999772e+00 -1.723975741220000121e-02 9.092552052020000275e+00 1.817209890150000007e+01 -9.417312326000072176e+01
2.613333333337499731e-01 9.473247361520000354e+00 -2.228665188389999940e-02 9.096908863239999476e+00 1.817053557390000051e+01 -9.265266548999957763e+01
2.640000000000000124e-01 9.478516418979999969e+00 -2.721982857950000154e-02 9.101214030379999542e+00 1.816769305389999900e+01 -9.421471875000000296e+01
2.666666666662499963e-01 9.484843995769999481e+00 -3.222913780440000292e-02 9.107539713239999557e+00 1.816502255219999995e+01 -9.259320597999915492e+01
2.693333333337499802e-01 9.492321033999999713e+00 -3.721256366140000132e-02 9.113982709720000130e+00 1.816118815120000107e+01 -9.406491081999988069e+01
2.720000000000000195e-01 9.500913332790000609e+00 -4.221907439750000046e-02 9.122259975000000409e+00 1.815743114569999861e+01 -9.265453074000031108e+01
2.746666666662500034e-01 9.510595649620000813e+00 -4.725984106359999715e-02 9.130920071249999381e+00 1.815265683759999860e+01 -9.380304643999971859e+01
2.773333333337499873e-01 9.521394773829999991e+00 -5.226969147260000087e-02 9.141050576210000500e+00 1.814765980379999988e+01 -9.284216832000016950e+01
2.800000000000000266e-01 9.533356214839999510e+00 -5.728213990279999723e-02 9.151900690599999777e+00 1.814181845039999885e+01 -9.333459383000061393e+01
2.826666666662500105e-01 9.546372419249999908e+00 -6.235586375760000105e-02 9.163804260419999181e+00 1.813544877680000056e+01 -9.305602699000016287e+01
2.853333333337499944e-01 9.560587701390000248e+00 -6.741265733489999745e-02 9.176901867090000664e+00 1.812857062139999798e+01 -9.293996921999938365e+01
2.879999999999999782e-01 9.575893934650000716e+00 -7.260688642269999549e-02 9.190656623740000697e+00 1.812093752139999836e+01 -9.326078483000024733e+01
2.906666666662500176e-01 9.592366811739999832e+00 -7.767268634200000244e-02 9.206110698590000752e+00 1.811318587999999963e+01 -9.274637418000027367e+01
2.933333333337500015e-01 9.609917468769999971e+00 -8.293935962060000611e-02 9.221824255770000534e+00 1.810429477910000173e+01 -9.318154134999960547e+01
2.959999999999999853e-01 9.628648895379999573e+00 -8.812187569880000626e-02 9.239308997860000261e+00 1.809529147070000121e+01 -9.260902174999937131e+01
2.986666666662500247e-01 9.648494474319999625e+00 -9.348434758380000376e-02 9.257179864819999437e+00 1.808524864940000043e+01 -9.311986546999960979e+01
3.013333333337500086e-01 9.669509419280000628e+00 -9.875542213769999966e-02 9.276724108599999852e+00 1.807510946720000078e+01 -9.264279882000013799e+01
3.039999999999999925e-01 9.691622163279999924e+00 -1.040691492229999932e-01 9.297031002760000717e+00 1.806416438229999955e+01 -9.302665541999972731e+01
3.066666666662500318e-01 9.714901571309999539e+00 -1.094345420160000026e-01 9.318423978400000252e+00 1.805258978230000011e+01 -9.269540406999922766e+01
3.093333333337500157e-01 9.739449750460000388e+00 -1.147799357609999987e-01 9.341068285880000488e+00 1.804052944889999921e+01 -9.300982210999913491e+01
3.119999999999999996e-01 9.765094542829999114e+00 -1.201198250420000002e-01 9.364512387919999625e+00 1.802769805009999970e+01 -9.245363409000076160e+01
3.146666666662500389e-01 9.792012599430000463e+00 -1.255521333480000001e-01 9.389560030229999299e+00 1.801450669429999962e+01 -9.292051857000031134e+01
3.173333333337499673e-01 9.820197992109999774e+00 -1.309519306489999868e-01 9.414845840410000832e+00 1.800002063379999839e+01 -9.242421718999929681e+01
3.200000000000000067e-01 9.849644707479999539e+00 -1.365130871780000088e-01 9.442100455729999453e+00 1.798539271530000150e+01 -9.287652700999937849e+01
3.226666666662499905e-01 9.880440268390000114e+00 -1.421309272200000084e-01 9.469541220680000038e+00 1.796942268189999936e+01 -9.227137454999983390e+01
3.253333333337499744e-01 9.912512882730000641e+00 -1.478784114210000000e-01 9.498799503809999933e+00 1.795328161739999828e+01 -9.274859693999961507e+01
3.280000000000000138e-01 9.945939650299999713e+00 -1.538834390319999967e-01 9.528942182919999837e+00 1.793637330070000147e+01 -9.229409362000041028e+01
3.306666666662499976e-01 9.980787358480000648e+00 -1.599925042539999953e-01 9.560269692809999498e+00 1.791893139500000132e+01 -9.237265451000071437e+01
3.333333333337499815e-01 1.001700063160000020e+01 -1.664893924729999863e-01 9.593334661549999254e+00 1.790143082950000064e+01 -9.237919477000087909e+01
3.360000000000000209e-01 1.005466521890000031e+01 -1.732968813209999903e-01 9.627274291919999172e+00 1.788333049670000108e+01 -9.206436559000052000e+01
3.386666666662500047e-01 1.009384413619999954e+01 -1.805846531209999994e-01 9.663336120669999474e+00 1.786567216550000126e+01 -9.217910463000089294e+01
3.413333333337499886e-01 1.013437333499999937e+01 -1.882926129299999918e-01 9.700916852029999760e+00 1.784793807119999798e+01 -9.189402505999990467e+01
3.439999999999999725e-01 1.017667499889999938e+01 -1.969709048830000087e-01 9.739636138959999911e+00 1.782972420459999796e+01 -9.196809913999959463e+01
3.466666666662500118e-01 1.022156055459999990e+01 -2.063136565249999999e-01 9.780422814010000465e+00 1.781160529019999927e+01 -9.215413525000028017e+01
3.493333333337499957e-01 1.026918251160000040e+01 -2.158201025650000049e-01 9.822034076039999562e+00 1.779275136500000087e+01 -9.156533684000000051e+01
3.519999999999999796e-01 1.031934392500000008e+01 -2.257826908799999976e-01 9.865849456330000322e+00 1.777421242240000154e+01 -9.219670467000082681e+01
3.546666666662500189e-01 1.037192769640000023e+01 -2.363217351599999905e-01 9.911262422729999244e+00 1.775554291179999922e+01 -9.163536483000032717e+01
3.573333333337500028e-01 1.042695697869999982e+01 -2.472770701800000026e-01 9.958052535260000226e+00 1.773685928399999767e+01 -9.198517858999967700e+01
3.599999999999999867e-01 1.048444975990000039e+01 -2.587230431809999787e-01 1.000817821529999918e+01 1.771947972519999936e+01 -9.187739530999958504e+01
3.626666666662500260e-01 1.054445757859999944e+01 -2.705249503170000236e-01 1.005878055430000018e+01 1.770161114019999715e+01 -9.157523460000008697e+01
3.653333333337500100e-01 1.060712177839999981e+01 -2.827417268399999850e-01 1.011348525630000061e+01 1.768586306079999915e+01 -9.205429158999956485e+01
3.679999999999999938e-01 1.067240178169999965e+01 -2.951250590930000195e-01 1.016969073439999960e+01 1.767035163879999971e+01 -9.142645653999969113e+01
3.706666666662500331e-01 1.074040683499999993e+01 -3.078728452000000226e-01 1.022820299540000022e+01 1.765561341529999950e+01 -9.157928832999989766e+01
3.733333333337499615e-01 1.081137981800000070e+01 -3.211383500930000134e-01 1.029037838470000032e+01 1.764271069169999961e+01 -9.185137718000076745e+01
3.760000000000000009e-01 1.088522568379999989e+01 -3.343601157800000223e-01 1.035402560920000070e+01 1.762985790100000116e+01 -9.086509030999988568e+01
3.786666666662499847e-01 1.096204165510000017e+01 -3.482404912829999977e-01 1.042078691520000078e+01 1.761853349980000161e+01 -9.184616750999911972e+01
3.813333333337499687e-01 1.104195153570000087e+01 -3.623431960140000019e-01 1.049159169440000028e+01 1.760893817319999854e+01 -9.097069459000043423e+01
3.840000000000000080e-01 1.112509553349999969e+01 -3.770231935050000205e-01 1.056236638480000067e+01 1.759864359570000047e+01 -9.120242585000023894e+01
3.866666666662499918e-01 1.121142687270000060e+01 -3.917877639089999975e-01 1.064015749090000007e+01 1.759223377589999870e+01 -9.138549823999963451e+01
3.893333333337499758e-01 1.130100354750000058e+01 -4.072709779640000249e-01 1.071758061260000083e+01 1.758468216420000019e+01 -9.070284572999923967e+01
3.920000000000000151e-01 1.139407594270000068e+01 -4.229751043489999862e-01 1.079963725220000015e+01 1.757928492119999930e+01 -9.148450335000083555e+01
3.946666666662499989e-01 1.149056804009999944e+01 -4.389899289029999818e-01 1.088594854109999943e+01 1.757576523950000080e+01 -9.072600606000051471e+01
3.973333333337499829e-01 1.159069227290000015e+01 -4.555760611640000124e-01 1.097255417619999918e+01 1.757138430310000032e+01 -9.089789295000024083e+01
4.000000000000000222e-01 1.169466305809999973e+01 -4.725178268360000211e-01 1.106614067279999958e+01 1.757050477029999769e+01 -9.098400823999941167e+01
4.026666666662500060e-01 1.180223078719999918e+01 -4.898376231489999788e-01 1.116051546739999978e+01 1.756907792340000185e+01 -9.048010308000073110e+01
4.053333333337499900e-01 1.191392287849999931e+01 -5.080079139009999745e-01 1.125923840819999988e+01 1.756928234280000112e+01 -9.072945265999995001e+01
4.079999999999999738e-01 1.202947424439999935e+01 -5.263252283279999943e-01 1.136304663509999990e+01 1.757153141959999942e+01 -9.074678528999909588e+01
4.106666666662499576e-01 1.214917113139999927e+01 -5.454848976530000115e-01 1.146750457859999983e+01 1.757301866919999966e+01 -9.031544215999916503e+01
4.133333333337500526e-01 1.227318455560000032e+01 -5.651912836779999783e-01 1.157955690370000035e+01 1.757807727510000007e+01 -9.083784507000073916e+01
4.159999999999999809e-01 1.240140613790000046e+01 -5.854422197390000138e-01 1.169324419430000006e+01 1.758288820499999972e+01 -9.010626884000002690e+01
4.186666666662499647e-01 1.253416283059999969e+01 -6.060320494169999517e-01 1.181122410729999928e+01 1.758903886110000059e+01 -9.073767836000025966e+01
4.213333333337500597e-01 1.267157408859999990e+01 -6.275553641959999984e-01 1.193580944330000015e+01 1.759771670159999957e+01 -9.019131044000015152e+01
4.239999999999999880e-01 1.281374524780000002e+01 -6.492321145470000276e-01 1.206059978400000077e+01 1.760515387819999944e+01 -9.031398699999972735e+01
4.266666666662499718e-01 1.296096820650000048e+01 -6.720511451599999742e-01 1.219442003240000005e+01 1.761627253460000020e+01 -9.031258231999910890e+01
4.293333333337500113e-01 1.311338443470000037e+01 -6.952954007010000437e-01 1.232924977080000062e+01 1.762649209799999994e+01 -8.991473376999981326e+01
4.319999999999999951e-01 1.327070093929999928e+01 -7.193612773569999508e-01 1.247036356639999966e+01 1.763868920290000020e+01 -9.026912987999990889e+01
4.346666666662499789e-01 1.343352241440000050e+01 -7.441968907570000180e-01 1.261742327630000027e+01 1.765268825890000315e+01 -8.978707698000036430e+01
4.373333333337500184e-01 1.360195342059999923e+01 -7.700674504840000489e-01 1.276679897470000036e+01 1.766629289449999973e+01 -9.006611968999915518e+01
4.400000000000000022e-01 1.377628816840000070e+01 -7.965978166099999536e-01 1.292495915089999947e+01 1.768306219340000141e+01 -9.009111814999953083e+01
4.426666666662499861e-01 1.395632503030000038e+01 -8.237510210509999542e-01 1.308589133030000085e+01 1.769948782320000191e+01 -8.966184589999913612e+01
4.453333333337500255e-01 1.414260911370000073e+01 -8.520269292090000279e-01 1.325313642759999944e+01 1.771733927989999913e+01 -9.005700909999944770e+01
4.480000000000000093e-01 1.433528190100000010e+01 -8.809827213809999780e-01 1.342731749430000043e+01 1.773708755419999861e+01 -8.965002465000003440e+01
4.506666666662499932e-01 1.453469435569999924e+01 -9.113748935209999846e-01 1.360565384819999935e+01 1.775684619180000112e+01 -8.942941232999973522e+01
4.533333333337500326e-01 1.474055917689999973e+01 -9.422396425390000552e-01 1.379151297399999976e+01 1.777841681010000130e+01 -8.995325146000087102e+01
4.560000000000000164e-01 1.495362771099999932e+01 -9.746349723270000265e-01 1.398349236970000042e+01 1.780086015379999864e+01 -8.928383722000010891e+01
4.586666666662499448e-01 1.517403916980000034e+01 -1.007889553190000065e+00 1.418091275809999985e+01 1.782379200530000318e+01 -8.960227622999995845e+01
4.613333333337500397e-01 1.540208806539999919e+01 -1.042663121559999961e+00 1.438753124650000004e+01 1.784908516299999803e+01 -8.927948596999981135e+01
4.640000000000000235e-01 1.563789999279999954e+01 -1.078055868789999927e+00 1.459916253869999991e+01 1.787439178410000196e+01 -8.929436521000042148e+01
4.666666666662499519e-01 1.588143575219999981e+01 -1.115317496290000099e+00 1.481926516250000070e+01 1.790116702150000094e+01 -8.943722197999991863e+01
4.693333333337500468e-01 1.613367194439999963e+01 -1.153734451140000061e+00 1.504677875319999991e+01 1.792905187730000094e+01 -8.909953924000076597e+01
4.719999999999999751e-01 1.639443178479999830e+01 -1.193309001370000066e+00 1.528231764380000079e+01 1.795793396900000261e+01 -8.905961112000048274e+01
4.746666666662499590e-01 1.666445757159999985e+01 -1.234416075209999963e+00 1.552590054430000066e+01 1.798767406729999863e+01 -8.915380997999943702e+01
4.773333333337500539e-01 1.694366061010000024e+01 -1.277035394000000101e+00 1.577784593950000058e+01 1.801822894689999899e+01 -8.901972072000056357e+01
4.799999999999999822e-01 1.723269555210000092e+01 -1.321285320669999930e+00 1.603850746770000057e+01 1.804968510369999990e+01 -8.876439852000028452e+01
4.826666666662499661e-01 1.753161107200000046e+01 -1.367038436499999898e+00 1.630879182909999869e+01 1.808234069370000086e+01 -8.873229896000027850e+01
4.853333333337500610e-01 1.784091742389999879e+01 -1.414611762300000075e+00 1.658825255929999898e+01 1.811568190959999924e+01 -8.885810250999965376e+01
4.879999999999999893e-01 1.816111892840000053e+01 -1.464408818539999935e+00 1.687734046969999824e+01 1.814978539870000063e+01 -8.849113742000051275e+01
4.906666666662499732e-01 1.849235298729999855e+01 -1.515481967479999970e+00 1.717749386379999876e+01 1.818515406650000088e+01 -8.872379972999915765e+01
4.933333333337500126e-01 1.883549053189999967e+01 -1.568919380030000088e+00 1.748766537919999919e+01 1.822103364739999876e+01 -8.844951157999969382e+01
4.959999999999999964e-01 1.919046535660000075e+01 -1.623839527499999935e+00 1.780907922720000158e+01 1.825766881819999909e+01 -8.835801530000009052e+01
4.986666666662499803e-01 1.955796526150000147e+01 -1.681076357450000058e+00 1.814200544779999902e+01 1.829499064170000011e+01 -8.845355375999957914e+01
5.013333333337500752e-01 1.993881164589999955e+01 -1.740544654270000047e+00 1.848647409579999845e+01 1.833273310280000246e+01 -8.807678766000084636e+01
5.040000000000000036e-01 2.033241021299999929e+01 -1.802213932069999913e+00 1.884364722890000010e+01 1.837117674010000101e+01 -8.826532897000014088e+01
5.066666666662499319e-01 2.074064583910000081e+01 -1.866607239059999923e+00 1.921358329330000103e+01 1.841009418070000336e+01 -8.802781554999947389e+01
5.093333333337500823e-01 2.116348067139999856e+01 -1.932508442430000084e+00 1.959680078210000076e+01 1.844940097389999778e+01 -8.786275269999913462e+01
5.120000000000000107e-01 2.160072359540000164e+01 -2.002008877080000193e+00 1.999415853140000010e+01 1.848915840729999971e+01 -8.792423193999938746e+01
5.146666666662499390e-01 2.205372204940000103e+01 -2.073317244990000141e+00 2.040571350969999997e+01 1.852912929600000069e+01 -8.780313856000080364e+01
5.173333333337499784e-01 2.252315234079999939e+01 -2.148000051779999975e+00 2.083266557299999988e+01 1.856942170559999994e+01 -8.774221608999930311e+01
5.200000000000000178e-01 2.300905206530000058e+01 -2.224659636769999782e+00 2.127494461770000100e+01 1.860965775500000063e+01 -8.756072908000089683e+01
5.226666666662499461e-01 2.351198057939999941e+01 -2.304547727310000127e+00 2.173335323859999946e+01 1.864980738710000097e+01 -8.759896733999997309e+01
5.253333333337499855e-01 2.403369813420000156e+01 -2.387613326879999942e+00 2.220889451989999941e+01 1.868979418179999996e+01 -8.735471037000044703e+01
5.280000000000000249e-01 2.457370775720000111e+01 -2.473181701740000182e+00 2.270093648179999946e+01 1.872907009649999921e+01 -8.723431647000089129e+01
5.306666666662499532e-01 2.513308116130000158e+01 -2.562140805499999896e+00 2.321188729080000002e+01 1.876812648769999825e+01 -8.730511684999987665e+01
5.333333333337499926e-01 2.571190711879999924e+01 -2.654082727720000090e+00 2.374139233889999900e+01 1.880643523849999710e+01 -8.694822972000017103e+01
5.360000000000000320e-01 2.631162325749999908e+01 -2.749312985590000036e+00 2.428990776990000100e+01 1.884376657129999799e+01 -8.716763643000088280e+01
5.386666666662499603e-01 2.693276094510000007e+01 -2.847973106720000036e+00 2.485982724509999997e+01 1.888046863949999832e+01 -8.676784676999970713e+01
5.413333333337499997e-01 2.757517288909999920e+01 -2.950320992980000057e+00 2.544965333789999917e+01 1.891559774139999917e+01 -8.691759539999999618e+01
5.440000000000000391e-01 2.824087196809999867e+01 -3.055558505930000113e+00 2.606181959710000129e+01 1.894939252620000048e+01 -8.680319971000029966e+01
5.466666666662499674e-01 2.892980525160000127e+01 -3.164002118810000042e+00 2.669624202130000157e+01 1.898139389070000149e+01 -8.645378404000028638e+01
5.493333333337500068e-01 2.964205616819999989e+01 -3.275778367820000092e+00 2.735389010129999932e+01 1.901135820260000031e+01 -8.672603002999909449e+01
5.520000000000000462e-01 3.037956036659999981e+01 -3.391725427909999979e+00 2.803586969619999891e+01 1.903908914109999984e+01 -8.619307424000092510e+01
5.546666666662499745e-01 3.114236656459999963e+01 -3.509846901409999997e+00 2.874230358750000036e+01 1.906401079780000174e+01 -8.644860150000080523e+01
5.573333333337500139e-01 3.193093260050000026e+01 -3.631915339289999878e+00 2.947416672430000162e+01 1.908589823570000021e+01 -8.613223123000003056e+01
5.600000000000000533e-01 3.274648185979999937e+01 -3.757325900890000181e+00 3.023314529849999843e+01 1.910461954020000164e+01 -8.588261548000015466e+01
5.626666666662499816e-01 3.358909577160000026e+01 -3.886036647480000106e+00 3.101848092970000081e+01 1.911942114669999881e+01 -8.614835948999970583e+01
5.653333333337500211e-01 3.445924763290000215e+01 -4.017241078039999636e+00 3.183280830609999867e+01 1.913031732140000329e+01 -8.568568149000033429e+01
5.679999999999999494e-01 3.535810085109999790e+01 -4.152359398899999832e+00 3.267527810330000193e+01 1.913647965459999867e+01 -8.583735153000056073e+01
5.706666666662499887e-01 3.628543972660000350e+01 -4.288691835309999867e+00 3.354737703469999843e+01 1.913760201339999867e+01 -8.559110638000070992e+01
5.733333333337500282e-01 3.724159155899999973e+01 -4.428804653310000283e+00 3.445016018830000348e+01 1.913333842459999801e+01 -8.548696068999916520e+01
5.759999999999999565e-01 3.822840526320000265e+01 -4.570843824659999832e+00 3.538380028840000335e+01 1.912295270310000106e+01 -8.547690327000059085e+01
5.786666666662499958e-01 3.924442536290000305e+01 -4.714244699450000020e+00 3.634848891050000219e+01 1.910578491589999928e+01 -8.513612340999954142e+01
5.813333333337500353e-01 4.029045114150000018e+01 -4.859206183300000426e+00 3.734572271300000068e+01 1.908149682780000234e+01 -8.504509829000011223e+01
5.839999999999999636e-01 4.136690258120000152e+01 -5.005408385660000015e+00 3.837551215010000050e+01 1.904941534019999949e+01 -8.489235431000031440e+01
5.866666666662500029e-01 4.247356261129999666e+01 -5.152578484330000208e+00 3.943868593340000217e+01 1.900895839569999879e+01 -8.480324615000002098e+01
5.893333333337500424e-01 4.361017619839999782e+01 -5.299584951459999971e+00 4.053501896899999934e+01 1.895931054889999956e+01 -8.465405612999946072e+01
5.919999999999999707e-01 4.477676894620000070e+01 -5.446436970359999741e+00 4.166475135689999831e+01 1.889981611930000227e+01 -8.439257010000012826e+01
5.946666666662500100e-01 4.597296057289999993e+01 -5.592222721009999731e+00 4.282866496199999773e+01 1.882994166840000005e+01 -8.436994477000087045e+01
5.973333333337500495e-01 4.719766608479999803e+01 -5.736469285080000091e+00 4.402637693620000192e+01 1.874894069479999814e+01 -8.440368215000070506e+01
5.999999999999999778e-01 4.845139154169999784e+01 -5.877548700880000254e+00 4.525788408220000036e+01 1.865609223110000059e+01 -8.403872496999986197e+01
6.026666666662500171e-01 4.973144987439999909e+01 -6.015608708760000312e+00 4.652297606679999831e+01 1.855064808310000046e+01 -8.401903460000082191e+01
6.053333333337500566e-01 5.103846562289999866e+01 -6.149605430420000296e+00 4.782021048840000077e+01 1.843173499279999916e+01 -8.362132289000041396e+01
6.079999999999999849e-01 5.236953601119999746e+01 -6.277429745020000063e+00 4.915073711029999970e+01 1.829892186109999841e+01 -8.388060962999985293e+01
6.106666666662499132e-01 5.372508356579999855e+01 -6.400459019430000396e+00 5.051129998180000058e+01 1.815110251770000005e+01 -8.321947004999965714e+01
6.133333333337500637e-01 5.510297475699999836e+01 -6.515145611930000413e+00 5.190254338190000283e+01 1.798783153469999974e+01 -8.360525864000059926e+01
6.159999999999999920e-01 5.649934862719999984e+01 -6.622146526979999948e+00 5.332221347739999828e+01 1.780841549509999666e+01 -8.304031288000010136e+01
6.186666666662499203e-01 5.791569270709999984e+01 -6.718886875239999945e+00 5.477008903709999998e+01 1.761230684720000284e+01 -8.323979633999988437e+01
6.213333333337500708e-01 5.934636906010000246e+01 -6.805486350539999840e+00 5.624107079499999884e+01 1.739850939089999926e+01 -8.282467406000010612e+01
6.239999999999999991e-01 6.078978042100000323e+01 -6.880229755920000301e+00 5.773690435879999683e+01 1.716694347929999864e+01 -8.289270139000005599e+01
6.266666666662499274e-01 6.224377579309999931e+01 -6.942296977959999893e+00 5.925094737860000293e+01 1.691678186629999914e+01 -8.278507794000022102e+01
6.293333333337500779e-01 6.370545970029999694e+01 -6.989424061540000288e+00 6.078585652350000146e+01 1.664816455749999946e+01 -8.264269613000006132e+01
6.320000000000000062e-01 6.517121412570000416e+01 -7.020772768239999628e+00 6.233209810849999855e+01 1.636013252380000083e+01 -8.250600157999991779e+01
6.346666666662499345e-01 6.663673396490000300e+01 -7.036987201069999642e+00 6.389228279510000164e+01 1.605299866529999875e+01 -8.248653443999961610e+01
6.373333333337500850e-01 6.810036567800000284e+01 -7.034358162280000215e+00 6.545689419679999332e+01 1.572618377990000127e+01 -8.244876225000061254e+01
6.400000000000000133e-01 6.955687942550000002e+01 -7.013555594489999656e+00 6.702706719910000288e+01 1.538018465429999893e+01 -8.208698612000047490e+01
6.426666666662499416e-01 7.100389181619999590e+01 -6.973942893010000255e+00 6.859556320039999378e+01 1.501496180010000003e+01 -8.252061422000080881e+01
6.453333333337499811e-01 7.243663941949999696e+01 -6.912695964290000106e+00 7.015868548070000088e+01 1.463079953809999978e+01 -8.179166612000018688e+01
6.480000000000000204e-01 7.385094362300000626e+01 -6.833525727779999670e+00 7.171137173980000057e+01 1.422817743220000075e+01 -8.231229708000086021e+01
6.506666666662499487e-01 7.524409817660000499e+01 -6.731641156330000264e+00 7.324888178659999483e+01 1.380772931799999981e+01 -8.194170124999992311e+01
6.533333333337499882e-01 7.660965769150000426e+01 -6.609689560659999685e+00 7.476576724049999711e+01 1.337025798629999862e+01 -8.204807282000035684e+01
6.560000000000000275e-01 7.794746506100000261e+01 -6.465897893210000191e+00 7.625888228079999465e+01 1.291687973089999986e+01 -8.202899613999947803e+01
6.586666666662499559e-01 7.925012139000000388e+01 -6.302676180239999759e+00 7.772081256750000477e+01 1.244852050260000098e+01 -8.197528020000085291e+01
6.613333333337499953e-01 8.051523288789999810e+01 -6.119488730229999618e+00 7.914631530409999982e+01 1.196648762650000108e+01 -8.221111649999953386e+01
6.640000000000000346e-01 8.174077447530000029e+01 -5.916147014549999916e+00 8.053403995790000636e+01 1.147244978310000008e+01 -8.216059600999950874e+01
6.666666666662499630e-01 8.292065405569999825e+01 -5.695261261369999772e+00 8.187252350320000005e+01 1.096766145800000025e+01 -8.231396640999987824e+01
6.693333333337500024e-01 8.405477323579999904e+01 -5.457482705300000347e+00 8.316566531819999852e+01 1.045423366410000021e+01 -8.220117975999973225e+01
6.720000000000000417e-01 8.513818851119999920e+01 -5.204160197090000217e+00 8.439875754390000395e+01 9.933640594799999946e+00 -8.281487738999911130e+01
6.746666666662499701e-01 8.616937536659999353e+01 -4.937781420340000338e+00 8.558093308860000548e+01 9.408363396459998640e+00 -8.223807720999978699e+01
6.773333333337500095e-01 8.714662639040000158e+01 -4.659913144589999945e+00 8.669370288929999901e+01 8.879834399330000849e+00 -8.297110098999924332e+01
6.800000000000000488e-01 8.806755083429999331e+01 -4.372538093990000263e+00 8.774773207280000520e+01 8.350778393910001540e+00 -8.286381568999961189e+01
6.826666666662499772e-01 8.893182410330000209e+01 -4.079048513760000105e+00 8.873340118420000522e+01 7.823044395860000222e+00 -8.349746474000066598e+01
6.853333333337500166e-01 8.973772228180000354e+01 -3.780026522820000068e+00 8.964681766580000044e+01 7.298708875420000020e+00 -8.268085121000000015e+01
6.879999999999999449e-01 9.048534634600000004e+01 -3.480378055860000153e+00 9.049420451020000655e+01 6.780305296010000760e+00 -8.462909932000003721e+01
6.906666666662499843e-01 9.117439249180000616e+01 -3.180460597450000204e+00 9.127133341069999517e+01 6.269764501240000065e+00 -8.294611834999919608e+01
6.933333333337500237e-01 9.180590479059999609e+01 -2.884432044640000026e+00 9.197201135560000296e+01 5.769036659730000238e+00 -8.444545082000084335e+01
6.959999999999999520e-01 9.238054670639999699e+01 -2.593656421749999996e+00 9.261240273440000692e+01 5.280537628870000333e+00 -8.498703769999929136e+01
6.986666666662499914e-01 9.289916860969999846e+01 -2.311696477559999963e+00 9.317567239710000138e+01 4.805736875050000023e+00 -8.372624190999940197e+01
7.013333333337500308e-01 9.336445345010000096e+01 -2.039190290050000076e+00 9.367797697909999499e+01 4.346748238119999996e+00 -8.667812102000043240e+01
7.039999999999999591e-01 9.377828495720000035e+01 -1.780320915499999934e+00 9.411704059720000259e+01 3.905129063930000033e+00 -8.414127528999932792e+01
7.066666666662499985e-01 9.414348338540000327e+01 -1.534872901349999985e+00 9.448865891639999859e+01 3.482309944529999868e+00 -8.730326140999980566e+01
7.093333333337500379e-01 9.446278098940000234e+01 -1.306674241729999908e+00 9.481507256179999388e+01 3.079936928239999983e+00 -8.583288508000038064e+01
7.119999999999999662e-01 9.474009522970000319e+01 -1.095959938920000099e+00 9.507329726269999526e+01 2.698905538919999625e+00 -8.706025889999978062e+01
7.146666666662500056e-01 9.497886780400000362e+01 -9.052941727679999495e-01 9.529749351969999793e+01 2.340648760330000133e+00 -8.878593988000042714e+01
7.173333333337500450e-01 9.518275747270000409e+01 -7.353319055429999862e-01 9.546767040359999612e+01 2.005852237360000068e+00 -8.661200558000058436e+01
7.199999999999999734e-01 9.535523912019999671e+01 -5.869337053909999824e-01 9.560283848470000123e+01 1.695433622779999983e+00 -9.018935438000038118e+01
7.226666666662500127e-01 9.549931653939999876e+01 -4.610025610510000149e-01 9.570774134120000554e+01 1.410063504720000083e+00 -8.790012278000078538e+01
7.253333333337500521e-01 9.561770185049999782e+01 -3.564853943590000074e-01 9.578285786719999351e+01 1.150227320189999958e+00 -8.796810710000060851e+01
7.279999999999999805e-01 9.571285495870000659e+01 -2.730793254819999794e-01 9.584360050920000162e+01 9.163907505170000301e-01 -8.941759369999915918e+01
7.306666666662500198e-01 9.578682094629999710e+01 -2.091997155700000000e-01 9.589147423320000030e+01 7.088229860970000074e-01 -8.550204271999932359e+01
7.333333333337500592e-01 9.584078979740000648e+01 -1.652347104280000034e-01 9.592729172789999836e+01 5.277190516690000166e-01 -9.192800276999921039e+01
7.359999999999999876e-01 9.587994241399999851e+01 -1.350646683610000065e-01 9.596038808640000184e+01 3.732422283869999968e-01 -9.021194008000009035e+01
7.386666666662499159e-01 9.591053351029999874e+01 -1.081223287159999991e-01 9.598161139430000333e+01 2.454837768389999952e-01 -9.170930519999936337e+01
7.413333333337500664e-01 9.593407123250000268e+01 -8.215349820360000332e-02 9.600295224260000282e+01 1.445399419789999973e-01 -9.404725820999965435e+01
7.439999999999999947e-01 9.595087953629999333e+01 -5.671747891509999751e-02 9.601607880880000323e+01 7.046502994460000779e-02 -9.109177016999944954e+01
7.466666666662499230e-01 9.596145831649999991e+01 -3.134165610069999941e-02 9.602516040890000681e+01 2.330525641710000026e-02 -9.488238566000013918e+01
7.493333333337500735e-01 9.596591891500000315e+01 -6.081894288409999891e-03 9.602899967070000287e+01 3.088924921650000079e-03 -9.143495014999993487e+01
7.520000000000000018e-01 9.596436388530000272e+01 1.928254021830000040e-02 9.602907393969999816e+01 9.828112966939998515e-03 -9.646521733999996684e+01
7.546666666662499301e-01 9.595692585400000496e+01 4.459521867400000061e-02 9.602104169300000081e+01 4.351874310339999552e-02 -8.940739062000065474e+01
7.573333333337500806e-01 9.594319197689999612e+01 7.012736444570000227e-02 9.601146579800000325e+01 1.041418720219999955e-01 -9.992036539999953959e+01
7.600000000000000089e-01 9.592289259140000013e+01 9.581205902429999754e-02 9.599484443039999348e+01 1.916594650410000100e-01 -8.770485012000054326e+01
7.626666666662499372e-01 9.589583379219999415e+01 1.227548858140000004e-01 9.597159147520000033e+01 3.060197089320000341e-01 -1.016649792999997715e+02
7.653333333337500877e-01 9.586118593349999628e+01 1.504772222000000104e-01 9.594935948869999720e+01 4.471585759899999735e-01 -9.240369814000092674e+01
7.680000000000000160e-01 9.581569755169999780e+01 1.866693302680000055e-01 9.590798243080000418e+01 6.149479205760000067e-01 -9.939287426999956665e+01
7.706666666662499443e-01 9.575192441640000141e+01 2.413840987829999896e-01 9.587091224540000667e+01 8.093091845500000048e-01 -1.010263122400008200e+02
7.733333333337499838e-01 9.566757210039999393e+01 3.149477897460000175e-01 9.580969379559999766e+01 1.030003267040000114e+00 -9.578347887999936461e+01
7.760000000000000231e-01 9.556121580510000513e+01 4.091031986859999803e-01 9.574673736219999398e+01 1.276887109990000102e+00 -1.031964578000008999e+02
7.786666666662499514e-01 9.543022423339999705e+01 5.241716387989999726e-01 9.565433892410000283e+01 1.549523202679999878e+00 -9.522780316000059031e+01
7.813333333337499909e-01 9.527199431399999696e+01 6.608527309489999890e-01 9.553678358189999642e+01 1.847485231059999844e+00 -1.007038089099992106e+02
7.840000000000000302e-01 9.508333323509999957e+01 8.196215687900000324e-01 9.538295481689999633e+01 2.170172939219999986e+00 -9.927626092999987861e+01
7.866666666662499585e-01 9.486148231420000343e+01 1.000295038380000001e+00 9.519224203829999453e+01 2.516856446939999881e+00 -9.987098077999986856e+01
7.893333333337499980e-01 9.460288863920000324e+01 1.201254622450000031e+00 9.494343117530000598e+01 2.886546360910000164e+00 -1.004853548900000817e+02
7.920000000000000373e-01 9.430441351070000167e+01 1.422020904650000084e+00 9.466446222170000624e+01 3.278544461229999651e+00 -1.030292540199998825e+02
7.946666666662499656e-01 9.396197813000000565e+01 1.659548292129999991e+00 9.430043128789999685e+01 3.691062740770000072e+00 -9.776920511999912833e+01
7.973333333337500051e-01 9.357283566600000313e+01 1.912770644969999934e+00 9.390812589489999596e+01 4.123631245210000351e+00 -1.069422208900004563e+02
8.000000000000000444e-01 9.313399224370000695e+01 2.179154066460000205e+00 9.342799855680000576e+01 4.573929940830000263e+00 -9.716448760999925582e+01
8.026666666662499727e-01 9.264222920260000649e+01 2.457067272100000199e+00 9.289801763660000233e+01 5.041038175450000658e+00 -1.076504214999992399e+02
8.053333333337500122e-01 9.209622197219999862e+01 2.743837322450000116e+00 9.229839567349999641e+01 5.522928833759999989e+00 -9.937516709999925979e+01
8.080000000000000515e-01 9.149338013450000062e+01 3.037833617310000012e+00 9.162059452709999618e+01 6.017545328490000678e+00 -1.059759594400003522e+02
8.106666666662499798e-01 9.083372891029999607e+01 3.335104420439999995e+00 9.088998330079999732e+01 6.523625667569999287e+00 -1.027352221000008257e+02
8.133333333337500193e-01 9.011585446140000499e+01 3.635134479730000034e+00 9.007106731960000445e+01 7.038160353270000336e+00 -1.044713324699997941e+02
8.159999999999999476e-01 8.933883032059999607e+01 3.934246080409999902e+00 8.919553392529999769e+01 7.559905582080000741e+00 -1.043936464499998777e+02
8.186666666662499869e-01 8.850405757270000606e+01 4.229493548299999794e+00 8.824303387039999791e+01 8.086156312880000030e+00 -1.050179042300004539e+02
8.213333333337499154e-01 8.761176294489999350e+01 4.520155745760000343e+00 8.722704284770000527e+01 8.614929144950000506e+00 -1.045205854199994349e+02
8.239999999999999547e-01 8.666172688349999476e+01 4.802890722869999962e+00 8.613798530379999363e+01 9.143812366890001542e+00 -1.051847279000002828e+02
8.266666666662501051e-01 8.565771949499999494e+01 5.074030385230000384e+00 8.499912819579999734e+01 9.671342476760001361e+00 -1.057033274799995155e+02
8.293333333337499225e-01 8.460024761459999354e+01 5.334940489440000100e+00 8.378093635919999826e+01 1.019410523479999853e+01 -1.045086937000006486e+02
8.319999999999999618e-01 8.349064094790000468e+01 5.580429259739999814e+00 8.252861170709999783e+01 1.071185306249999947e+01 -1.066434154899995832e+02
8.346666666662501122e-01 8.233371413849999954e+01 5.809833773940000334e+00 8.120182629490000181e+01 1.122070188060000007e+01 -1.043947670600004471e+02
8.373333333337499296e-01 8.113020264620000432e+01 6.022431543729999781e+00 7.984739848159999553e+01 1.172076861260000058e+01 -1.068816317100003346e+02
8.399999999999999689e-01 7.988417290559999628e+01 6.215418125740000299e+00 7.843331110420000130e+01 1.220864303970000009e+01 -1.047257628600001311e+02
8.426666666662500083e-01 7.860034439390000216e+01 6.389720864960000135e+00 7.699370281550000072e+01 1.268422566939999996e+01 -1.067195452500004365e+02
8.453333333337499367e-01 7.727962124130000632e+01 6.543687581830000433e+00 7.551228854080000019e+01 1.314504032930000044e+01 -1.048319959900006637e+02
8.479999999999999760e-01 7.592756686830000490e+01 6.676103701579999772e+00 7.400831381689999944e+01 1.359063755150000041e+01 -1.063175208299998218e+02
8.506666666662500154e-01 7.454802940849999970e+01 6.788651220650000262e+00 7.247946359959999540e+01 1.401960403740000061e+01 -1.054698934300001696e+02
8.533333333337499438e-01 7.314374602060000541e+01 6.878426913840000267e+00 7.093344505870000205e+01 1.443113321089999879e+01 -1.057978954399991807e+02
8.559999999999999831e-01 7.172034056370000599e+01 6.949533570739999888e+00 6.937537228809999590e+01 1.482463467820000069e+01 -1.059818599100001109e+02
8.586666666662500225e-01 7.027977426900000069e+01 6.999477764999999962e+00 6.780940588289999482e+01 1.519944934940000003e+01 -1.051907783100008942e+02
8.613333333337499509e-01 6.882764231730000404e+01 7.029829727020000085e+00 6.624009663159999661e+01 1.555517140779999963e+01 -1.060975899500008666e+02
8.639999999999999902e-01 6.736789957610000101e+01 7.041322767379999625e+00 6.467226855929999374e+01 1.589166262080000003e+01 -1.050687620400004079e+02
8.666666666662500296e-01 6.590263604460000124e+01 7.035389582249999663e+00 6.311053494139999742e+01 1.620878978609999876e+01 -1.058060265999995124e+02
8.693333333337499580e-01 6.443698861219999685e+01 7.011311979470000288e+00 6.155647779369999739e+01 1.650642495820000022e+01 -1.050177560099996583e+02
8.719999999999999973e-01 6.297330464280000228e+01 6.972773069469999641e+00 6.001737412800000016e+01 1.678500769909999946e+01 -1.054033722600005518e+02
8.746666666662500367e-01 6.151584404439999787e+01 6.917790759279999868e+00 5.849198540710000316e+01 1.704442282429999977e+01 -1.049128718899991384e+02
8.773333333337499651e-01 6.006725190120000235e+01 6.850921515219999591e+00 5.698803714390000152e+01 1.728546121159999771e+01 -1.050957712099999242e+02
8.800000000000000044e-01 5.863015020470000138e+01 6.769636013510000438e+00 5.550420605600000101e+01 1.750812838399999904e+01 -1.046655227799993071e+02
8.826666666662500438e-01 5.720813960139999921e+01 6.678784092539999939e+00 5.404412957630000136e+01 1.771299394029999874e+01 -1.046814504499994172e+02
8.853333333337499722e-01 5.580208283260000002e+01 6.576100383800000060e+00 5.261136485629999981e+01 1.790099682150000149e+01 -1.045119015599992167e+02
8.880000000000000115e-01 5.441580098429999879e+01 6.465060563019999762e+00 5.120624735020000173e+01 1.807250616420000000e+01 -1.042407585400007690e+02
8.906666666662500509e-01 5.304967111519999889e+01 6.346837250600000147e+00 4.983073172790000172e+01 1.822817973529999946e+01 -1.044685864300001441e+02
8.933333333337499793e-01 5.170684778439999718e+01 6.220375490970000421e+00 4.848515932219999769e+01 1.836859090759999802e+01 -1.037218301800005094e+02
8.960000000000000187e-01 5.038773970639999789e+01 6.089003520930000413e+00 4.717241447810000210e+01 1.849477334730000067e+01 -1.045054174499995980e+02
8.986666666662500580e-01 4.909461243599999847e+01 5.952572969440000250e+00 4.589165612080000045e+01 1.860716216790000033e+01 -1.033470174599997762e+02
9.013333333337499864e-01 4.782882811729999872e+01 5.813060940559999779e+00 4.464363782950000115e+01 1.870648416230000066e+01 -1.041689006299991149e+02
9.040000000000000258e-01 4.659010605499999969e+01 5.669876241549999918e+00 4.343006876169999941e+01 1.879374597189999818e+01 -1.030319647700004282e+02
9.066666666662500651e-01 4.538042042650000241e+01 5.524652741809999767e+00 4.224928252570000353e+01 1.886933112630000053e+01 -1.038045924500003423e+02
9.093333333337499935e-01 4.419909559650000119e+01 5.378237289480000349e+00 4.110336046209999949e+01 1.893430196050000092e+01 -1.029568886799998637e+02
9.120000000000000329e-01 4.304804531340000295e+01 5.230434080670000263e+00 3.999023992629999924e+01 1.898903485070000130e+01 -1.034350590000003507e+02
9.146666666662500722e-01 4.192722451790000093e+01 5.082958146200000193e+00 3.891197382200000021e+01 1.903450645079999859e+01 -1.025396752300001708e+02
9.173333333337498896e-01 4.083618695220000205e+01 4.935684330840000023e+00 3.786452608399999775e+01 1.907074102829999873e+01 -1.031451546500008618e+02
9.200000000000000400e-01 3.977497972100000112e+01 4.789593544449999740e+00 3.685289746419999801e+01 1.909942332589999836e+01 -1.025199179599992902e+02
9.226666666662500793e-01 3.874398072310000174e+01 4.644491018640000135e+00 3.587082592550000015e+01 1.912012339889999879e+01 -1.026773622399996952e+02
9.253333333337498967e-01 3.774351412149999874e+01 4.501388906629999909e+00 3.492369132150000155e+01 1.913451633109999861e+01 -1.022982303599994651e+02
9.280000000000000471e-01 3.677254472530000129e+01 4.360379884460000355e+00 3.400486131350000107e+01 1.914202236800000279e+01 -1.023680925699993907e+02
9.306666666662500864e-01 3.583062607050000281e+01 4.221793553999999560e+00 3.311942520070000029e+01 1.914420639129999913e+01 -1.020662741800006472e+02
9.333333333337499038e-01 3.491795312709999877e+01 4.085549256900000259e+00 3.226059749089999684e+01 1.914046610850000008e+01 -1.021284298000000348e+02
9.360000000000000542e-01 3.403335875150000334e+01 3.952409368350000118e+00 3.143481500569999909e+01 1.913268018650000002e+01 -1.017386785799991316e+02
9.386666666662500935e-01 3.317703982550000319e+01 3.821634386309999964e+00 3.063282547889999918e+01 1.911955997600000146e+01 -1.018310288299992692e+02
9.413333333337499109e-01 3.234875159730000149e+01 3.694953701709999816e+00 2.986345322680000081e+01 1.910354454550000014e+01 -1.015051478700004566e+02
9.439999999999999503e-01 3.154658607580000051e+01 3.570708954630000154e+00 2.911542663179999835e+01 1.908276408809999936e+01 -1.014136044299993671e+02
9.466666666662501006e-01 3.077118070290000063e+01 3.450031623800000169e+00 2.839890474930000153e+01 1.906008833790000168e+01 -1.013114266100004386e+02
9.493333333337499180e-01 3.002142608040000127e+01 3.332467751939999889e+00 2.770268971469999997e+01 1.903348324199999908e+01 -1.012157564899995918e+02
9.519999999999999574e-01 2.929638776010000001e+01 3.218778977970000010e+00 2.703513513029999871e+01 1.900531006509999798e+01 -1.010746397099997864e+02
9.546666666662501077e-01 2.859594629160000068e+01 3.107939169119999789e+00 2.638715693239999993e+01 1.897406508640000311e+01 -1.010308806699998740e+02
9.573333333337499251e-01 2.791842671579999902e+01 3.001069446809999874e+00 2.576642560330000009e+01 1.894203499730000217e+01 -1.008163244599998052e+02
9.599999999999999645e-01 2.726436613399999942e+01 2.896613028960000058e+00 2.516344923830000013e+01 1.890725768360000103e+01 -1.006537013600002979e+02
9.626666666662500038e-01 2.663242246849999972e+01 2.796909005559999883e+00 2.458559515489999825e+01 1.887201998089999933e+01 -1.007814999299999386e+02
9.653333333337499322e-01 2.602228527440000150e+01 2.699353371029999948e+00 2.402479968689999978e+01 1.883469093289999918e+01 -1.002245991200003772e+02
9.679999999999999716e-01 2.543310159310000174e+01 2.605566156340000106e+00 2.348688085459999897e+01 1.879720485109999828e+01 -1.005469009199999277e+02
9.706666666662500109e-01 2.486382874970000145e+01 2.514403283050000049e+00 2.296560721230000013e+01 1.875818977449999991e+01 -9.991212487000041165e+01
9.733333333337499393e-01 2.431434230209999825e+01 2.427420403669999782e+00 2.246400441500000156e+01 1.871886228249999817e+01 -1.005048070599995498e+02
9.759999999999999787e-01 2.378349448120000176e+01 2.342124744930000002e+00 2.197981430369999956e+01 1.867915685470000042e+01 -9.971875590999982819e+01
9.786666666662500180e-01 2.327122658000000044e+01 2.260719201790000188e+00 2.151332585760000171e+01 1.863943699660000064e+01 -1.003281713299993356e+02
9.813333333337499464e-01 2.277628079180000142e+01 2.181583202360000140e+00 2.106315702570000070e+01 1.859946030440000087e+01 -9.948309696000069380e+01
9.839999999999999858e-01 2.229848459440000141e+01 2.105923946449999917e+00 2.062812425950000161e+01 1.855921802960000022e+01 -1.001996959199998543e+02
9.866666666662500251e-01 2.183702525309999842e+01 2.032985746370000069e+00 2.020974877529999958e+01 1.851947675319999931e+01 -9.928211325000040688e+01
9.893333333337499536e-01 2.139152729299999933e+01 1.962425720509999971e+00 1.980406652810000168e+01 1.847936799120000018e+01 -9.988927858999930720e+01
9.919999999999999929e-01 2.096162591299999889e+01 1.894413884670000048e+00 1.941546766860000162e+01 1.844036366759999979e+01 -9.921430347000062966e+01
9.946666666662500322e-01 2.054585946850000155e+01 1.829155858940000101e+00 1.903607147199999972e+01 1.840025592860000003e+01 -9.967225968999974839e+01
9.973333333337499607e-01 2.014486769759999873e+01 1.765676267089999918e+00 1.867520088479999885e+01 1.836240936949999991e+01 -9.885784888999909015e+01
1.000000000000000000e+00 1.975749867560000084e+01 1.705270711839999898e+00 1.832098736360000046e+01 1.832307708479999775e+01 -9.949914616999961936e+01
