<?xml version="1.0" encoding="utf-8" standalone="no"?>
<!DOCTYPE svg PUBLIC "-//W3C//DTD SVG 1.1//EN"
  "http://www.w3.org/Graphics/SVG/1.1/DTD/svg11.dtd">
<!-- Created with matplotlib (https://matplotlib.org/) -->
<svg height="345.6pt" version="1.1" viewBox="0 0 460.8 345.6" width="460.8pt" xmlns="http://www.w3.org/2000/svg" xmlns:xlink="http://www.w3.org/1999/xlink">
 <metadata>
  <rdf:RDF xmlns:cc="http://creativecommons.org/ns#" xmlns:dc="http://purl.org/dc/elements/1.1/" xmlns:rdf="http://www.w3.org/1999/02/22-rdf-syntax-ns#">
   <cc:Work>
    <dc:type rdf:resource="http://purl.org/dc/dcmitype/StillImage"/>
    <dc:date>2021-02-21T01:45:45.129307</dc:date>
    <dc:format>image/svg+xml</dc:format>
    <dc:creator>
     <cc:Agent>
      <dc:title>Matplotlib v3.3.0, https://matplotlib.org/</dc:title>
     </cc:Agent>
    </dc:creator>
   </cc:Work>
  </rdf:RDF>
 </metadata>
 <defs>
  <style type="text/css">*{stroke-linecap:butt;stroke-linejoin:round;}</style>
 </defs>
 <g id="figure_1">
  <g id="patch_1">
   <path d="M 0 345.6 
L 460.8 345.6 
L 460.8 0 
L 0 0 
z
" style="fill:#ffffff;"/>
  </g>
  <g id="axes_1">
   <g id="patch_2">
    <path d="M 57.6 307.584 
L 414.72 307.584 
L 414.72 41.472 
L 57.6 41.472 
z
" style="fill:#ffffff;"/>
   </g>
   <g id="matplotlib.axis_1">
    <g id="xtick_1">
     <g id="line2d_1">
      <defs>
       <path d="M 0 0 
L 0 3.5 
" id="m5eaf7ee5ac" style="stroke:#000000;stroke-width:0.8;"/>
      </defs>
      <g>
       <use style="stroke:#000000;stroke-width:0.8;" x="73.832727" xlink:href="#m5eaf7ee5ac" y="307.584"/>
      </g>
     </g>
     <g id="text_1">
      <!-- 0.0 -->
      <g transform="translate(65.881165 322.182437)scale(0.1 -0.1)">
       <defs>
        <path d="M 31.78125 66.40625 
Q 24.171875 66.40625 20.328125 58.90625 
Q 16.5 51.421875 16.5 36.375 
Q 16.5 21.390625 20.328125 13.890625 
Q 24.171875 6.390625 31.78125 6.390625 
Q 39.453125 6.390625 43.28125 13.890625 
Q 47.125 21.390625 47.125 36.375 
Q 47.125 51.421875 43.28125 58.90625 
Q 39.453125 66.40625 31.78125 66.40625 
z
M 31.78125 74.21875 
Q 44.046875 74.21875 50.515625 64.515625 
Q 56.984375 54.828125 56.984375 36.375 
Q 56.984375 17.96875 50.515625 8.265625 
Q 44.046875 -1.421875 31.78125 -1.421875 
Q 19.53125 -1.421875 13.0625 8.265625 
Q 6.59375 17.96875 6.59375 36.375 
Q 6.59375 54.828125 13.0625 64.515625 
Q 19.53125 74.21875 31.78125 74.21875 
z
" id="DejaVuSans-48"/>
        <path d="M 10.6875 12.40625 
L 21 12.40625 
L 21 0 
L 10.6875 0 
z
" id="DejaVuSans-46"/>
       </defs>
       <use xlink:href="#DejaVuSans-48"/>
       <use x="63.623047" xlink:href="#DejaVuSans-46"/>
       <use x="95.410156" xlink:href="#DejaVuSans-48"/>
      </g>
     </g>
    </g>
    <g id="xtick_2">
     <g id="line2d_2">
      <g>
       <use style="stroke:#000000;stroke-width:0.8;" x="138.763636" xlink:href="#m5eaf7ee5ac" y="307.584"/>
      </g>
     </g>
     <g id="text_2">
      <!-- 0.2 -->
      <g transform="translate(130.812074 322.182437)scale(0.1 -0.1)">
       <defs>
        <path d="M 19.1875 8.296875 
L 53.609375 8.296875 
L 53.609375 0 
L 7.328125 0 
L 7.328125 8.296875 
Q 12.9375 14.109375 22.625 23.890625 
Q 32.328125 33.6875 34.8125 36.53125 
Q 39.546875 41.84375 41.421875 45.53125 
Q 43.3125 49.21875 43.3125 52.78125 
Q 43.3125 58.59375 39.234375 62.25 
Q 35.15625 65.921875 28.609375 65.921875 
Q 23.96875 65.921875 18.8125 64.3125 
Q 13.671875 62.703125 7.8125 59.421875 
L 7.8125 69.390625 
Q 13.765625 71.78125 18.9375 73 
Q 24.125 74.21875 28.421875 74.21875 
Q 39.75 74.21875 46.484375 68.546875 
Q 53.21875 62.890625 53.21875 53.421875 
Q 53.21875 48.921875 51.53125 44.890625 
Q 49.859375 40.875 45.40625 35.40625 
Q 44.1875 33.984375 37.640625 27.21875 
Q 31.109375 20.453125 19.1875 8.296875 
z
" id="DejaVuSans-50"/>
       </defs>
       <use xlink:href="#DejaVuSans-48"/>
       <use x="63.623047" xlink:href="#DejaVuSans-46"/>
       <use x="95.410156" xlink:href="#DejaVuSans-50"/>
      </g>
     </g>
    </g>
    <g id="xtick_3">
     <g id="line2d_3">
      <g>
       <use style="stroke:#000000;stroke-width:0.8;" x="203.694545" xlink:href="#m5eaf7ee5ac" y="307.584"/>
      </g>
     </g>
     <g id="text_3">
      <!-- 0.4 -->
      <g transform="translate(195.742983 322.182437)scale(0.1 -0.1)">
       <defs>
        <path d="M 37.796875 64.3125 
L 12.890625 25.390625 
L 37.796875 25.390625 
z
M 35.203125 72.90625 
L 47.609375 72.90625 
L 47.609375 25.390625 
L 58.015625 25.390625 
L 58.015625 17.1875 
L 47.609375 17.1875 
L 47.609375 0 
L 37.796875 0 
L 37.796875 17.1875 
L 4.890625 17.1875 
L 4.890625 26.703125 
z
" id="DejaVuSans-52"/>
       </defs>
       <use xlink:href="#DejaVuSans-48"/>
       <use x="63.623047" xlink:href="#DejaVuSans-46"/>
       <use x="95.410156" xlink:href="#DejaVuSans-52"/>
      </g>
     </g>
    </g>
    <g id="xtick_4">
     <g id="line2d_4">
      <g>
       <use style="stroke:#000000;stroke-width:0.8;" x="268.625455" xlink:href="#m5eaf7ee5ac" y="307.584"/>
      </g>
     </g>
     <g id="text_4">
      <!-- 0.6 -->
      <g transform="translate(260.673892 322.182437)scale(0.1 -0.1)">
       <defs>
        <path d="M 33.015625 40.375 
Q 26.375 40.375 22.484375 35.828125 
Q 18.609375 31.296875 18.609375 23.390625 
Q 18.609375 15.53125 22.484375 10.953125 
Q 26.375 6.390625 33.015625 6.390625 
Q 39.65625 6.390625 43.53125 10.953125 
Q 47.40625 15.53125 47.40625 23.390625 
Q 47.40625 31.296875 43.53125 35.828125 
Q 39.65625 40.375 33.015625 40.375 
z
M 52.59375 71.296875 
L 52.59375 62.3125 
Q 48.875 64.0625 45.09375 64.984375 
Q 41.3125 65.921875 37.59375 65.921875 
Q 27.828125 65.921875 22.671875 59.328125 
Q 17.53125 52.734375 16.796875 39.40625 
Q 19.671875 43.65625 24.015625 45.921875 
Q 28.375 48.1875 33.59375 48.1875 
Q 44.578125 48.1875 50.953125 41.515625 
Q 57.328125 34.859375 57.328125 23.390625 
Q 57.328125 12.15625 50.6875 5.359375 
Q 44.046875 -1.421875 33.015625 -1.421875 
Q 20.359375 -1.421875 13.671875 8.265625 
Q 6.984375 17.96875 6.984375 36.375 
Q 6.984375 53.65625 15.1875 63.9375 
Q 23.390625 74.21875 37.203125 74.21875 
Q 40.921875 74.21875 44.703125 73.484375 
Q 48.484375 72.75 52.59375 71.296875 
z
" id="DejaVuSans-54"/>
       </defs>
       <use xlink:href="#DejaVuSans-48"/>
       <use x="63.623047" xlink:href="#DejaVuSans-46"/>
       <use x="95.410156" xlink:href="#DejaVuSans-54"/>
      </g>
     </g>
    </g>
    <g id="xtick_5">
     <g id="line2d_5">
      <g>
       <use style="stroke:#000000;stroke-width:0.8;" x="333.556364" xlink:href="#m5eaf7ee5ac" y="307.584"/>
      </g>
     </g>
     <g id="text_5">
      <!-- 0.8 -->
      <g transform="translate(325.604801 322.182437)scale(0.1 -0.1)">
       <defs>
        <path d="M 31.78125 34.625 
Q 24.75 34.625 20.71875 30.859375 
Q 16.703125 27.09375 16.703125 20.515625 
Q 16.703125 13.921875 20.71875 10.15625 
Q 24.75 6.390625 31.78125 6.390625 
Q 38.8125 6.390625 42.859375 10.171875 
Q 46.921875 13.96875 46.921875 20.515625 
Q 46.921875 27.09375 42.890625 30.859375 
Q 38.875 34.625 31.78125 34.625 
z
M 21.921875 38.8125 
Q 15.578125 40.375 12.03125 44.71875 
Q 8.5 49.078125 8.5 55.328125 
Q 8.5 64.0625 14.71875 69.140625 
Q 20.953125 74.21875 31.78125 74.21875 
Q 42.671875 74.21875 48.875 69.140625 
Q 55.078125 64.0625 55.078125 55.328125 
Q 55.078125 49.078125 51.53125 44.71875 
Q 48 40.375 41.703125 38.8125 
Q 48.828125 37.15625 52.796875 32.3125 
Q 56.78125 27.484375 56.78125 20.515625 
Q 56.78125 9.90625 50.3125 4.234375 
Q 43.84375 -1.421875 31.78125 -1.421875 
Q 19.734375 -1.421875 13.25 4.234375 
Q 6.78125 9.90625 6.78125 20.515625 
Q 6.78125 27.484375 10.78125 32.3125 
Q 14.796875 37.15625 21.921875 38.8125 
z
M 18.3125 54.390625 
Q 18.3125 48.734375 21.84375 45.5625 
Q 25.390625 42.390625 31.78125 42.390625 
Q 38.140625 42.390625 41.71875 45.5625 
Q 45.3125 48.734375 45.3125 54.390625 
Q 45.3125 60.0625 41.71875 63.234375 
Q 38.140625 66.40625 31.78125 66.40625 
Q 25.390625 66.40625 21.84375 63.234375 
Q 18.3125 60.0625 18.3125 54.390625 
z
" id="DejaVuSans-56"/>
       </defs>
       <use xlink:href="#DejaVuSans-48"/>
       <use x="63.623047" xlink:href="#DejaVuSans-46"/>
       <use x="95.410156" xlink:href="#DejaVuSans-56"/>
      </g>
     </g>
    </g>
    <g id="xtick_6">
     <g id="line2d_6">
      <g>
       <use style="stroke:#000000;stroke-width:0.8;" x="398.487273" xlink:href="#m5eaf7ee5ac" y="307.584"/>
      </g>
     </g>
     <g id="text_6">
      <!-- 1.0 -->
      <g transform="translate(390.53571 322.182437)scale(0.1 -0.1)">
       <defs>
        <path d="M 12.40625 8.296875 
L 28.515625 8.296875 
L 28.515625 63.921875 
L 10.984375 60.40625 
L 10.984375 69.390625 
L 28.421875 72.90625 
L 38.28125 72.90625 
L 38.28125 8.296875 
L 54.390625 8.296875 
L 54.390625 0 
L 12.40625 0 
z
" id="DejaVuSans-49"/>
       </defs>
       <use xlink:href="#DejaVuSans-49"/>
       <use x="63.623047" xlink:href="#DejaVuSans-46"/>
       <use x="95.410156" xlink:href="#DejaVuSans-48"/>
      </g>
     </g>
    </g>
    <g id="text_7">
     <!-- x norm. -->
     <g transform="translate(216.956094 335.860562)scale(0.1 -0.1)">
      <defs>
       <path d="M 54.890625 54.6875 
L 35.109375 28.078125 
L 55.90625 0 
L 45.3125 0 
L 29.390625 21.484375 
L 13.484375 0 
L 2.875 0 
L 24.125 28.609375 
L 4.6875 54.6875 
L 15.28125 54.6875 
L 29.78125 35.203125 
L 44.28125 54.6875 
z
" id="DejaVuSans-120"/>
       <path id="DejaVuSans-32"/>
       <path d="M 54.890625 33.015625 
L 54.890625 0 
L 45.90625 0 
L 45.90625 32.71875 
Q 45.90625 40.484375 42.875 44.328125 
Q 39.84375 48.1875 33.796875 48.1875 
Q 26.515625 48.1875 22.3125 43.546875 
Q 18.109375 38.921875 18.109375 30.90625 
L 18.109375 0 
L 9.078125 0 
L 9.078125 54.6875 
L 18.109375 54.6875 
L 18.109375 46.1875 
Q 21.34375 51.125 25.703125 53.5625 
Q 30.078125 56 35.796875 56 
Q 45.21875 56 50.046875 50.171875 
Q 54.890625 44.34375 54.890625 33.015625 
z
" id="DejaVuSans-110"/>
       <path d="M 30.609375 48.390625 
Q 23.390625 48.390625 19.1875 42.75 
Q 14.984375 37.109375 14.984375 27.296875 
Q 14.984375 17.484375 19.15625 11.84375 
Q 23.34375 6.203125 30.609375 6.203125 
Q 37.796875 6.203125 41.984375 11.859375 
Q 46.1875 17.53125 46.1875 27.296875 
Q 46.1875 37.015625 41.984375 42.703125 
Q 37.796875 48.390625 30.609375 48.390625 
z
M 30.609375 56 
Q 42.328125 56 49.015625 48.375 
Q 55.71875 40.765625 55.71875 27.296875 
Q 55.71875 13.875 49.015625 6.21875 
Q 42.328125 -1.421875 30.609375 -1.421875 
Q 18.84375 -1.421875 12.171875 6.21875 
Q 5.515625 13.875 5.515625 27.296875 
Q 5.515625 40.765625 12.171875 48.375 
Q 18.84375 56 30.609375 56 
z
" id="DejaVuSans-111"/>
       <path d="M 41.109375 46.296875 
Q 39.59375 47.171875 37.8125 47.578125 
Q 36.03125 48 33.890625 48 
Q 26.265625 48 22.1875 43.046875 
Q 18.109375 38.09375 18.109375 28.8125 
L 18.109375 0 
L 9.078125 0 
L 9.078125 54.6875 
L 18.109375 54.6875 
L 18.109375 46.1875 
Q 20.953125 51.171875 25.484375 53.578125 
Q 30.03125 56 36.53125 56 
Q 37.453125 56 38.578125 55.875 
Q 39.703125 55.765625 41.0625 55.515625 
z
" id="DejaVuSans-114"/>
       <path d="M 52 44.1875 
Q 55.375 50.25 60.0625 53.125 
Q 64.75 56 71.09375 56 
Q 79.640625 56 84.28125 50.015625 
Q 88.921875 44.046875 88.921875 33.015625 
L 88.921875 0 
L 79.890625 0 
L 79.890625 32.71875 
Q 79.890625 40.578125 77.09375 44.375 
Q 74.3125 48.1875 68.609375 48.1875 
Q 61.625 48.1875 57.5625 43.546875 
Q 53.515625 38.921875 53.515625 30.90625 
L 53.515625 0 
L 44.484375 0 
L 44.484375 32.71875 
Q 44.484375 40.625 41.703125 44.40625 
Q 38.921875 48.1875 33.109375 48.1875 
Q 26.21875 48.1875 22.15625 43.53125 
Q 18.109375 38.875 18.109375 30.90625 
L 18.109375 0 
L 9.078125 0 
L 9.078125 54.6875 
L 18.109375 54.6875 
L 18.109375 46.1875 
Q 21.1875 51.21875 25.484375 53.609375 
Q 29.78125 56 35.6875 56 
Q 41.65625 56 45.828125 52.96875 
Q 50 49.953125 52 44.1875 
z
" id="DejaVuSans-109"/>
      </defs>
      <use xlink:href="#DejaVuSans-120"/>
      <use x="59.179688" xlink:href="#DejaVuSans-32"/>
      <use x="90.966797" xlink:href="#DejaVuSans-110"/>
      <use x="154.345703" xlink:href="#DejaVuSans-111"/>
      <use x="215.527344" xlink:href="#DejaVuSans-114"/>
      <use x="254.890625" xlink:href="#DejaVuSans-109"/>
      <use x="352.302734" xlink:href="#DejaVuSans-46"/>
     </g>
    </g>
   </g>
   <g id="matplotlib.axis_2">
    <g id="ytick_1">
     <g id="line2d_7">
      <defs>
       <path d="M 0 0 
L -3.5 0 
" id="md77344df41" style="stroke:#000000;stroke-width:0.8;"/>
      </defs>
      <g>
       <use style="stroke:#000000;stroke-width:0.8;" x="57.6" xlink:href="#md77344df41" y="270.506076"/>
      </g>
     </g>
     <g id="text_8">
      <!-- 30 -->
      <g transform="translate(37.875 274.305295)scale(0.1 -0.1)">
       <defs>
        <path d="M 40.578125 39.3125 
Q 47.65625 37.796875 51.625 33 
Q 55.609375 28.21875 55.609375 21.1875 
Q 55.609375 10.40625 48.1875 4.484375 
Q 40.765625 -1.421875 27.09375 -1.421875 
Q 22.515625 -1.421875 17.65625 -0.515625 
Q 12.796875 0.390625 7.625 2.203125 
L 7.625 11.71875 
Q 11.71875 9.328125 16.59375 8.109375 
Q 21.484375 6.890625 26.8125 6.890625 
Q 36.078125 6.890625 40.9375 10.546875 
Q 45.796875 14.203125 45.796875 21.1875 
Q 45.796875 27.640625 41.28125 31.265625 
Q 36.765625 34.90625 28.71875 34.90625 
L 20.21875 34.90625 
L 20.21875 43.015625 
L 29.109375 43.015625 
Q 36.375 43.015625 40.234375 45.921875 
Q 44.09375 48.828125 44.09375 54.296875 
Q 44.09375 59.90625 40.109375 62.90625 
Q 36.140625 65.921875 28.71875 65.921875 
Q 24.65625 65.921875 20.015625 65.03125 
Q 15.375 64.15625 9.8125 62.3125 
L 9.8125 71.09375 
Q 15.4375 72.65625 20.34375 73.4375 
Q 25.25 74.21875 29.59375 74.21875 
Q 40.828125 74.21875 47.359375 69.109375 
Q 53.90625 64.015625 53.90625 55.328125 
Q 53.90625 49.265625 50.4375 45.09375 
Q 46.96875 40.921875 40.578125 39.3125 
z
" id="DejaVuSans-51"/>
       </defs>
       <use xlink:href="#DejaVuSans-51"/>
       <use x="63.623047" xlink:href="#DejaVuSans-48"/>
      </g>
     </g>
    </g>
    <g id="ytick_2">
     <g id="line2d_8">
      <g>
       <use style="stroke:#000000;stroke-width:0.8;" x="57.6" xlink:href="#md77344df41" y="225.208117"/>
      </g>
     </g>
     <g id="text_9">
      <!-- 40 -->
      <g transform="translate(37.875 229.007336)scale(0.1 -0.1)">
       <use xlink:href="#DejaVuSans-52"/>
       <use x="63.623047" xlink:href="#DejaVuSans-48"/>
      </g>
     </g>
    </g>
    <g id="ytick_3">
     <g id="line2d_9">
      <g>
       <use style="stroke:#000000;stroke-width:0.8;" x="57.6" xlink:href="#md77344df41" y="179.910159"/>
      </g>
     </g>
     <g id="text_10">
      <!-- 50 -->
      <g transform="translate(37.875 183.709377)scale(0.1 -0.1)">
       <defs>
        <path d="M 10.796875 72.90625 
L 49.515625 72.90625 
L 49.515625 64.59375 
L 19.828125 64.59375 
L 19.828125 46.734375 
Q 21.96875 47.46875 24.109375 47.828125 
Q 26.265625 48.1875 28.421875 48.1875 
Q 40.625 48.1875 47.75 41.5 
Q 54.890625 34.8125 54.890625 23.390625 
Q 54.890625 11.625 47.5625 5.09375 
Q 40.234375 -1.421875 26.90625 -1.421875 
Q 22.3125 -1.421875 17.546875 -0.640625 
Q 12.796875 0.140625 7.71875 1.703125 
L 7.71875 11.625 
Q 12.109375 9.234375 16.796875 8.0625 
Q 21.484375 6.890625 26.703125 6.890625 
Q 35.15625 6.890625 40.078125 11.328125 
Q 45.015625 15.765625 45.015625 23.390625 
Q 45.015625 31 40.078125 35.4375 
Q 35.15625 39.890625 26.703125 39.890625 
Q 22.75 39.890625 18.8125 39.015625 
Q 14.890625 38.140625 10.796875 36.28125 
z
" id="DejaVuSans-53"/>
       </defs>
       <use xlink:href="#DejaVuSans-53"/>
       <use x="63.623047" xlink:href="#DejaVuSans-48"/>
      </g>
     </g>
    </g>
    <g id="ytick_4">
     <g id="line2d_10">
      <g>
       <use style="stroke:#000000;stroke-width:0.8;" x="57.6" xlink:href="#md77344df41" y="134.6122"/>
      </g>
     </g>
     <g id="text_11">
      <!-- 60 -->
      <g transform="translate(37.875 138.411418)scale(0.1 -0.1)">
       <use xlink:href="#DejaVuSans-54"/>
       <use x="63.623047" xlink:href="#DejaVuSans-48"/>
      </g>
     </g>
    </g>
    <g id="ytick_5">
     <g id="line2d_11">
      <g>
       <use style="stroke:#000000;stroke-width:0.8;" x="57.6" xlink:href="#md77344df41" y="89.314241"/>
      </g>
     </g>
     <g id="text_12">
      <!-- 70 -->
      <g transform="translate(37.875 93.11346)scale(0.1 -0.1)">
       <defs>
        <path d="M 8.203125 72.90625 
L 55.078125 72.90625 
L 55.078125 68.703125 
L 28.609375 0 
L 18.3125 0 
L 43.21875 64.59375 
L 8.203125 64.59375 
z
" id="DejaVuSans-55"/>
       </defs>
       <use xlink:href="#DejaVuSans-55"/>
       <use x="63.623047" xlink:href="#DejaVuSans-48"/>
      </g>
     </g>
    </g>
    <g id="ytick_6">
     <g id="line2d_12">
      <g>
       <use style="stroke:#000000;stroke-width:0.8;" x="57.6" xlink:href="#md77344df41" y="44.016282"/>
      </g>
     </g>
     <g id="text_13">
      <!-- 80 -->
      <g transform="translate(37.875 47.815501)scale(0.1 -0.1)">
       <use xlink:href="#DejaVuSans-56"/>
       <use x="63.623047" xlink:href="#DejaVuSans-48"/>
      </g>
     </g>
    </g>
    <g id="text_14">
     <!-- kPa -->
     <g transform="translate(31.795313 183.277219)rotate(-90)scale(0.1 -0.1)">
      <defs>
       <path d="M 9.078125 75.984375 
L 18.109375 75.984375 
L 18.109375 31.109375 
L 44.921875 54.6875 
L 56.390625 54.6875 
L 27.390625 29.109375 
L 57.625 0 
L 45.90625 0 
L 18.109375 26.703125 
L 18.109375 0 
L 9.078125 0 
z
" id="DejaVuSans-107"/>
       <path d="M 19.671875 64.796875 
L 19.671875 37.40625 
L 32.078125 37.40625 
Q 38.96875 37.40625 42.71875 40.96875 
Q 46.484375 44.53125 46.484375 51.125 
Q 46.484375 57.671875 42.71875 61.234375 
Q 38.96875 64.796875 32.078125 64.796875 
z
M 9.8125 72.90625 
L 32.078125 72.90625 
Q 44.34375 72.90625 50.609375 67.359375 
Q 56.890625 61.8125 56.890625 51.125 
Q 56.890625 40.328125 50.609375 34.8125 
Q 44.34375 29.296875 32.078125 29.296875 
L 19.671875 29.296875 
L 19.671875 0 
L 9.8125 0 
z
" id="DejaVuSans-80"/>
       <path d="M 34.28125 27.484375 
Q 23.390625 27.484375 19.1875 25 
Q 14.984375 22.515625 14.984375 16.5 
Q 14.984375 11.71875 18.140625 8.90625 
Q 21.296875 6.109375 26.703125 6.109375 
Q 34.1875 6.109375 38.703125 11.40625 
Q 43.21875 16.703125 43.21875 25.484375 
L 43.21875 27.484375 
z
M 52.203125 31.203125 
L 52.203125 0 
L 43.21875 0 
L 43.21875 8.296875 
Q 40.140625 3.328125 35.546875 0.953125 
Q 30.953125 -1.421875 24.3125 -1.421875 
Q 15.921875 -1.421875 10.953125 3.296875 
Q 6 8.015625 6 15.921875 
Q 6 25.140625 12.171875 29.828125 
Q 18.359375 34.515625 30.609375 34.515625 
L 43.21875 34.515625 
L 43.21875 35.40625 
Q 43.21875 41.609375 39.140625 45 
Q 35.0625 48.390625 27.6875 48.390625 
Q 23 48.390625 18.546875 47.265625 
Q 14.109375 46.140625 10.015625 43.890625 
L 10.015625 52.203125 
Q 14.9375 54.109375 19.578125 55.046875 
Q 24.21875 56 28.609375 56 
Q 40.484375 56 46.34375 49.84375 
Q 52.203125 43.703125 52.203125 31.203125 
z
" id="DejaVuSans-97"/>
      </defs>
      <use xlink:href="#DejaVuSans-107"/>
      <use x="57.910156" xlink:href="#DejaVuSans-80"/>
      <use x="113.712891" xlink:href="#DejaVuSans-97"/>
     </g>
    </g>
   </g>
   <g id="line2d_13">
    <path clip-path="url(#pc7775bcbbb)" d="M 73.832727 281.63352 
L 77.079273 278.621205 
L 80.325818 274.281661 
L 83.572364 269.509521 
L 86.818909 263.31276 
L 90.065455 256.642636 
L 93.312 248.502593 
L 96.558545 239.884656 
L 99.805091 229.830774 
L 103.051636 219.323912 
L 106.298182 207.535119 
L 109.544727 195.372617 
L 112.791273 182.233944 
L 116.037818 168.859721 
L 119.284364 155.007606 
L 122.530909 141.101132 
L 125.777455 127.412089 
L 129.024 113.901973 
L 132.270545 101.472213 
L 135.517091 89.463724 
L 138.763636 79.466465 
L 142.010182 70.123761 
L 145.256727 63.637093 
L 148.503273 57.988438 
L 151.749818 55.775632 
L 154.996364 54.511819 
L 158.242909 56.83334 
L 161.489455 60.135561 
L 164.736 66.7015 
L 167.982545 74.186988 
L 171.229091 84.22275 
L 174.475636 95.055757 
L 177.722182 107.501371 
L 180.968727 120.572097 
L 184.215273 134.276995 
L 187.461818 148.407693 
L 190.708364 162.311902 
L 193.954909 176.44713 
L 197.201455 189.676398 
L 200.448 202.964555 
L 203.694545 214.891507 
L 206.941091 226.741453 
L 210.187636 236.967467 
L 213.434182 247.021349 
L 216.680727 255.347114 
L 219.927273 263.446389 
L 223.173818 269.826607 
L 226.420364 275.957685 
L 229.666909 280.460303 
L 232.913455 284.713781 
L 236.16 287.474691 
L 239.406545 290.006847 
L 242.653091 291.218568 
L 245.899636 292.224182 
L 249.146182 292.097348 
L 252.392727 291.787057 
L 255.639273 290.554953 
L 258.885818 289.152981 
L 262.132364 287.048891 
L 265.378909 284.786258 
L 268.625455 282.057056 
L 271.872 279.164781 
L 275.118545 276.059606 
L 278.365091 272.773239 
L 281.611636 269.54123 
L 284.858182 266.105379 
L 288.104727 262.995675 
L 291.351273 259.661745 
L 294.597818 256.914424 
L 297.844364 253.929288 
L 301.090909 251.752721 
L 304.337455 249.351929 
L 307.584 247.925044 
L 310.830545 246.305642 
L 314.077091 245.737152 
L 317.323636 245.032769 
L 320.570182 245.365709 
L 323.816727 245.628437 
L 327.063273 246.824303 
L 330.309818 248.017904 
L 333.556364 249.974776 
L 336.802909 251.974681 
L 340.049455 254.520426 
L 343.296 257.134119 
L 346.542545 260.060367 
L 349.789091 263.056827 
L 353.035636 266.132558 
L 356.282182 269.255852 
L 359.528727 272.234193 
L 362.775273 275.221594 
L 366.021818 277.857935 
L 369.268364 280.453508 
L 372.514909 282.50777 
L 375.761455 284.453318 
L 379.008 285.680892 
L 382.254545 286.736335 
L 385.501091 286.903937 
L 388.747636 286.826931 
L 391.994182 285.705806 
L 395.240727 284.267596 
L 398.487273 281.63352 
" style="fill:none;stroke:#000000;stroke-linecap:square;"/>
   </g>
   <g id="line2d_14">
    <path clip-path="url(#pc7775bcbbb)" d="M 77.791889 283.708166 
L 85.710214 271.338653 
L 93.628863 253.257066 
L 101.547187 229.374624 
L 109.465512 200.189149 
L 117.383836 167.154253 
L 125.302485 132.794846 
L 133.220809 100.517785 
L 141.139134 74.292079 
L 149.057458 58.058196 
L 156.976107 54.650884 
L 164.894431 64.699783 
L 172.812756 86.371686 
L 180.73108 116.146034 
L 188.649729 149.9519 
L 196.568054 184.023213 
L 204.486378 215.371666 
L 212.404702 242.028608 
L 220.323351 263.038255 
L 228.241676 278.217148 
L 236.16 287.857006 
L 244.078324 292.533114 
L 251.996649 292.98247 
L 259.915298 289.995976 
L 267.833622 284.3822 
L 275.751946 277.046195 
L 283.670271 269.00762 
L 291.58892 261.252156 
L 299.507244 254.604228 
L 307.425569 249.803097 
L 315.343893 247.562207 
L 323.262542 248.318683 
L 331.180866 251.924853 
L 339.099191 257.743829 
L 347.017515 265.026382 
L 354.936164 273.035061 
L 362.854488 280.872061 
L 370.772813 287.473785 
L 378.691137 291.859987 
L 386.609786 293.223908 
L 394.528111 290.778272 
" style="fill:none;stroke:#000000;stroke-linecap:square;"/>
   </g>
   <g id="line2d_15">
    <path clip-path="url(#pc7775bcbbb)" d="M 74.652224 283.833158 
L 77.931462 280.129465 
L 79.571048 278.013475 
L 81.210395 275.595916 
L 82.850014 272.953314 
L 84.489419 270.086586 
L 86.129031 266.970001 
L 89.408049 259.977718 
L 92.687085 251.978684 
L 95.966142 242.969297 
L 99.245208 232.969661 
L 102.524313 222.019484 
L 105.80345 210.183619 
L 109.082627 197.554487 
L 114.001458 177.397027 
L 120.560123 149.167784 
L 127.119008 121.025653 
L 130.398542 107.65571 
L 133.678134 95.14535 
L 136.957781 83.794987 
L 138.597501 78.649245 
L 140.23748 73.896336 
L 141.87721 69.578917 
L 143.517225 65.719629 
L 145.156964 62.353448 
L 146.797005 59.500298 
L 148.436751 57.185996 
L 150.076815 55.425909 
L 151.716564 54.23573 
L 153.356637 53.624443 
L 154.99639 53.597325 
L 156.636463 54.15542 
L 158.276215 55.294084 
L 159.916283 57.005374 
L 161.556028 59.276001 
L 163.196079 62.088647 
L 164.835818 65.423271 
L 166.47584 69.253457 
L 168.115573 73.55464 
L 169.755562 78.29215 
L 171.395285 83.439158 
L 174.674948 94.809628 
L 177.954553 107.376326 
L 181.234103 120.840003 
L 186.153353 142.065906 
L 195.99134 184.932364 
L 200.910204 205.073018 
L 204.189384 217.631705 
L 207.468528 229.3624 
L 210.747646 240.181608 
L 214.026725 250.031978 
L 217.305778 258.879508 
L 220.584812 266.710119 
L 223.863829 273.526583 
L 225.503221 276.558392 
L 227.142834 279.345567 
L 228.782219 281.888818 
L 230.421828 284.194958 
L 232.061207 286.266965 
L 233.70082 288.111486 
L 235.340195 289.733199 
L 236.979805 291.138694 
L 238.61918 292.333804 
L 240.258793 293.325227 
L 241.898172 294.119435 
L 243.537784 294.723446 
L 245.17717 295.143884 
L 246.816782 295.388326 
L 248.456177 295.463113 
L 250.09579 295.376634 
L 251.735198 295.134552 
L 253.374814 294.74633 
L 255.014238 294.216612 
L 256.653854 293.556181 
L 259.932917 291.865556 
L 263.211986 289.734374 
L 266.491101 287.223093 
L 269.770248 284.392932 
L 273.049431 281.30599 
L 277.968285 276.328794 
L 292.725587 261.006502 
L 296.005147 257.945928 
L 299.284765 255.152387 
L 302.564438 252.685859 
L 305.84416 250.60073 
L 309.123921 248.943954 
L 310.763972 248.287624 
L 312.403717 247.753277 
L 314.043785 247.341234 
L 315.683537 247.055666 
L 317.32361 246.896788 
L 318.963363 246.866102 
L 320.603436 246.962938 
L 322.243185 247.186844 
L 323.883249 247.535487 
L 325.522995 248.007274 
L 328.802775 249.30432 
L 332.08252 251.043436 
L 335.362219 253.180043 
L 338.641866 255.661262 
L 341.921458 258.427801 
L 346.840786 262.968395 
L 363.237373 278.782715 
L 366.51655 281.562888 
L 369.7957 284.062739 
L 373.074802 286.219012 
L 376.353878 287.96932 
L 377.993497 288.674802 
L 379.632928 289.252207 
L 381.272543 289.700264 
L 382.911961 290.006162 
L 384.551577 290.168182 
L 386.190975 290.173384 
L 387.830588 290.012752 
L 389.469989 289.686661 
L 392.475547 288.669903 
L 394.661693 287.414049 
L 397.940967 285.21502 
L 397.940967 285.21502 
" style="fill:none;stroke:#000000;stroke-linecap:square;"/>
   </g>
   <g id="line2d_16">
    <path clip-path="url(#pc7775bcbbb)" d="M 73.832727 284.434116 
L 82.157194 272.911162 
L 90.481694 255.234898 
L 98.806161 231.173464 
L 107.130596 201.216429 
L 115.455063 166.911012 
L 123.77953 131.099162 
L 132.103998 97.816835 
L 140.428465 71.704936 
L 148.752932 56.938404 
L 157.077399 56.272392 
L 165.401866 69.909583 
L 173.726334 95.046661 
L 182.050801 127.635028 
L 190.375268 163.265437 
L 198.699735 197.993566 
L 207.024202 228.908997 
L 215.34867 254.271342 
L 223.673137 273.365877 
L 231.997604 286.220504 
L 240.322396 293.337819 
L 248.646863 295.488 
L 256.97133 293.568667 
L 265.295798 288.523267 
L 273.620265 281.313055 
L 281.944732 272.921744 
L 290.269199 264.361788 
L 298.593666 256.658259 
L 306.918134 250.785537 
L 315.242601 247.544052 
L 323.567068 247.400466 
L 331.891535 250.358835 
L 340.216002 255.939539 
L 348.54047 263.286107 
L 356.864937 271.338227 
L 365.189404 278.98228 
L 373.513871 285.132887 
L 381.838338 288.752547 
L 390.162806 288.840552 
L 398.487273 284.434116 
" style="fill:none;stroke:#000000;stroke-linecap:square;"/>
   </g>
   <g id="line2d_17">
    <path clip-path="url(#pc7775bcbbb)" d="M 73.832727 125.139885 
L 77.112066 126.820557 
L 80.391405 118.630074 
L 83.670744 112.97303 
L 86.950083 107.313598 
L 90.229422 101.345184 
L 93.50876 95.483701 
L 96.788099 89.946066 
L 100.067438 84.897386 
L 103.346777 80.296151 
L 106.626115 76.101619 
L 109.905454 72.227842 
L 113.184793 68.750499 
L 116.464132 65.678101 
L 119.743471 63.060989 
L 123.022809 60.829571 
L 126.302148 58.998129 
L 129.581487 57.498314 
L 132.860826 56.376972 
L 136.140165 55.468236 
L 139.419503 54.749638 
L 142.698842 54.28113 
L 145.978181 53.993751 
L 149.25752 53.734778 
L 152.536859 53.568 
L 155.816198 53.707962 
L 159.095536 53.895178 
L 162.374875 54.110701 
L 165.654214 54.531311 
L 168.933553 55.100131 
L 172.212892 55.736074 
L 175.49223 56.551903 
L 178.771569 57.640558 
L 182.050908 59.00669 
L 185.330247 60.637761 
L 188.609586 62.666557 
L 191.888924 65.026554 
L 195.168263 67.831045 
L 198.447602 71.027106 
L 201.726941 74.59948 
L 205.00628 78.623234 
L 208.285618 83.031718 
L 211.564957 87.760612 
L 214.844296 92.868822 
L 218.123635 98.303938 
L 221.402974 104.021446 
L 224.682313 110.009248 
L 227.961651 116.201515 
L 231.24099 122.573262 
L 234.520329 129.104575 
L 237.799671 135.763882 
L 241.07901 142.514012 
L 244.358349 149.23974 
L 247.637687 155.990712 
L 250.917026 162.753226 
L 254.196365 169.441171 
L 257.475704 176.059089 
L 260.755043 182.551718 
L 264.034382 188.870643 
L 267.31372 195.037933 
L 270.593059 200.977628 
L 273.872398 206.657933 
L 277.151737 212.087065 
L 280.431076 217.203932 
L 283.710414 222.004233 
L 286.989753 226.446858 
L 290.269092 230.514189 
L 293.548431 234.195373 
L 296.82777 237.456685 
L 300.107108 240.262405 
L 303.386447 242.606941 
L 306.665786 244.527783 
L 309.945125 245.946048 
L 313.224464 246.825925 
L 316.503802 247.255581 
L 319.783141 247.22163 
L 323.06248 246.616725 
L 326.341819 245.521747 
L 329.621158 243.989933 
L 332.900497 241.956757 
L 336.179835 239.425683 
L 339.459174 236.464579 
L 342.738513 233.091611 
L 346.017852 229.276399 
L 349.297191 225.076074 
L 352.576529 220.493637 
L 355.855868 215.583796 
L 359.135207 210.320567 
L 362.414546 204.772075 
L 365.693885 198.985156 
L 368.973223 192.990438 
L 372.252562 186.791693 
L 375.531901 180.350532 
L 378.81124 173.629447 
L 382.090579 166.738164 
L 385.369917 159.91891 
L 388.649256 153.489345 
L 391.928595 147.686024 
L 395.207934 142.234899 
L 398.487273 136.388786 
" style="fill:none;stroke:#000000;stroke-linecap:square;"/>
   </g>
   <g id="line2d_18">
    <path clip-path="url(#pc7775bcbbb)" d="M 77.791889 283.618023 
L 85.710214 271.252586 
L 93.628863 253.155599 
L 101.547187 229.256396 
L 109.465512 200.059144 
L 117.383836 167.00477 
L 125.302485 132.636303 
L 133.220809 100.412694 
L 141.139134 74.315181 
L 149.057458 58.210398 
L 156.976107 54.834341 
L 164.894431 64.79355 
L 172.812756 86.327294 
L 180.73108 116.007422 
L 188.649729 149.794717 
L 196.568054 183.885054 
L 204.486378 215.251626 
L 212.404702 241.922158 
L 220.323351 262.947659 
L 228.241676 278.134705 
L 236.16 287.769128 
L 244.078324 292.437989 
L 251.996649 292.884627 
L 259.915298 289.895414 
L 267.833622 284.287074 
L 275.751946 276.974625 
L 283.670271 268.964587 
L 291.58892 261.219995 
L 299.507244 254.565271 
L 307.425569 249.746475 
L 315.343893 247.475235 
L 323.262542 248.206344 
L 331.180866 251.828822 
L 339.099191 257.699437 
L 347.017515 265.005092 
L 354.936164 272.977533 
L 362.854488 280.768782 
L 370.772813 287.364164 
L 378.691137 291.762596 
L 386.609786 293.125612 
L 394.528111 290.67771 
" style="fill:none;stroke:#000000;stroke-linecap:square;"/>
   </g>
   <g id="line2d_19">
    <path clip-path="url(#pc7775bcbbb)" d="M 73.832727 283.148736 
L 74.644364 282.558051 
L 76.267636 280.918265 
L 78.702545 278.052263 
L 81.137455 274.68436 
L 83.572364 270.797795 
L 86.007273 266.379432 
L 88.442182 261.419759 
L 90.877091 255.91198 
L 93.312 249.853378 
L 95.746909 243.24667 
L 98.181818 236.100011 
L 101.428364 225.756676 
L 104.674909 214.5332 
L 107.921455 202.50931 
L 111.979636 186.519131 
L 116.849455 166.296763 
L 129.024 115.102822 
L 132.270545 102.532185 
L 135.517091 90.949044 
L 137.952 83.07943 
L 140.386909 76.037862 
L 142.010182 71.856408 
L 143.633455 68.119779 
L 145.256727 64.855608 
L 146.88 62.088809 
L 148.503273 59.84203 
L 150.126545 58.134297 
L 151.749818 56.98237 
L 152.561455 56.618174 
L 153.373091 56.397573 
L 154.184727 56.320114 
L 154.996364 56.387155 
L 155.808 56.59779 
L 156.619636 56.951567 
L 157.431273 57.448033 
L 159.054545 58.863141 
L 160.677818 60.829073 
L 162.301091 63.328161 
L 163.924364 66.340022 
L 165.547636 69.840195 
L 167.170909 73.803314 
L 169.605818 80.554069 
L 172.040727 88.17998 
L 174.475636 96.57188 
L 177.722182 108.751595 
L 180.968727 121.805561 
L 185.838545 142.416585 
L 196.389818 187.538788 
L 200.448 203.865531 
L 203.694545 216.180687 
L 206.941091 227.709471 
L 210.187636 238.367627 
L 213.434182 248.096723 
L 215.869091 254.760959 
L 218.304 260.873918 
L 220.738909 266.432884 
L 223.173818 271.439667 
L 225.608727 275.901063 
L 228.043636 279.827037 
L 230.478545 283.230273 
L 232.913455 286.126171 
L 235.348364 288.532399 
L 236.971636 289.873218 
L 238.594909 291.01065 
L 240.218182 291.951036 
L 241.841455 292.700717 
L 243.464727 293.266035 
L 245.088 293.653786 
L 246.711273 293.870763 
L 248.334545 293.923762 
L 249.957818 293.82003 
L 252.392727 293.385169 
L 254.827636 292.636394 
L 257.262545 291.598618 
L 259.697455 290.295848 
L 262.132364 288.752094 
L 265.378909 286.361721 
L 268.625455 283.646561 
L 272.683636 279.885924 
L 277.553455 274.993292 
L 292.974545 259.094614 
L 297.032727 255.406002 
L 300.279273 252.766036 
L 303.525818 250.463088 
L 305.960727 248.986375 
L 308.395636 247.746117 
L 310.830545 246.756356 
L 313.265455 246.029777 
L 315.700364 245.575439 
L 318.135273 245.397871 
L 320.570182 245.499338 
L 323.005091 245.876217 
L 325.44 246.522619 
L 327.874909 247.429031 
L 330.309818 248.581411 
L 332.744727 249.963905 
L 335.179636 251.557034 
L 338.426182 253.971868 
L 341.672727 256.66755 
L 345.730909 260.339855 
L 351.412364 265.824532 
L 360.340364 274.480972 
L 364.398545 278.122928 
L 367.645091 280.786448 
L 370.891636 283.160967 
L 373.326545 284.715593 
L 375.761455 286.048259 
L 378.196364 287.133598 
L 380.631273 287.947149 
L 383.066182 288.463999 
L 385.501091 288.659686 
L 387.124364 288.599893 
L 388.747636 288.379292 
L 390.370909 287.991088 
L 391.994182 287.428488 
L 393.617455 286.684695 
L 395.240727 285.752463 
L 396.864 284.625903 
L 398.487273 283.448609 
L 398.487273 283.448609 
" style="fill:none;stroke:#000000;stroke-linecap:square;"/>
   </g>
   <g id="line2d_20">
    <path clip-path="url(#pc7775bcbbb)" d="M 73.832727 284.349893 
L 76.538182 281.570891 
L 79.243636 278.226243 
L 81.949091 274.254188 
L 84.654545 269.631495 
L 87.36 264.3413 
L 90.065455 258.371949 
L 92.770909 251.717833 
L 95.476364 244.380515 
L 98.181818 236.369928 
L 100.887273 227.705625 
L 103.592727 218.418053 
L 107.65091 203.414884 
L 111.709092 187.309249 
L 117.119999 164.605713 
L 127.941819 118.475282 
L 132.000001 102.41866 
L 134.705455 92.527769 
L 137.410908 83.479044 
L 140.116365 75.429819 
L 142.821818 68.527923 
L 144.174547 65.554012 
L 145.527272 62.919573 
L 146.88 60.635392 
L 148.232728 58.713794 
L 149.585453 57.166796 
L 150.938182 56.004872 
L 152.29091 55.236487 
L 153.643635 54.867426 
L 154.996364 54.899466 
L 156.349092 55.330892 
L 157.701817 56.160823 
L 159.054545 57.385014 
L 160.407274 58.995416 
L 161.759999 60.981536 
L 163.112727 63.33106 
L 164.465456 66.03027 
L 165.818181 69.065161 
L 167.170909 72.424421 
L 169.876363 80.04636 
L 172.581819 88.741629 
L 175.287273 98.358468 
L 177.992726 108.737181 
L 182.050908 125.375896 
L 187.461818 148.713934 
L 195.578182 183.803581 
L 199.636364 200.482992 
L 203.694545 216.157331 
L 206.399999 225.932554 
L 209.105456 235.107307 
L 211.810909 243.643616 
L 214.516363 251.51497 
L 217.221819 258.705111 
L 219.927273 265.206795 
L 222.632726 271.020602 
L 225.338183 276.153789 
L 228.043636 280.61923 
L 230.74909 284.43446 
L 233.454547 287.6208 
L 236.16 290.202625 
L 238.865453 292.206702 
L 240.218182 293.000974 
L 241.57091 293.661663 
L 242.923635 294.192564 
L 244.276364 294.597537 
L 245.629092 294.880495 
L 246.981817 295.045394 
L 249.687274 295.037045 
L 252.392727 294.604835 
L 255.098181 293.781504 
L 257.803637 292.600078 
L 260.509091 291.093844 
L 263.214544 289.296317 
L 265.920001 287.241248 
L 268.625455 284.962834 
L 272.683636 281.201658 
L 276.741818 277.133498 
L 284.858182 268.568297 
L 290.269092 262.944461 
L 294.327274 258.984681 
L 298.385456 255.385042 
L 301.090909 253.244107 
L 303.796363 251.34826 
L 306.501819 249.726747 
L 309.207273 248.404989 
L 311.912726 247.403868 
L 314.618183 246.739102 
L 317.323636 246.420703 
L 320.02909 246.452665 
L 322.734547 246.832819 
L 325.44 247.552885 
L 328.145453 248.59876 
L 330.85091 249.950972 
L 333.556364 251.585264 
L 336.261817 253.473296 
L 338.967274 255.583393 
L 343.025456 259.089432 
L 347.083637 262.894683 
L 363.316365 278.555637 
L 367.374547 281.946121 
L 370.08 283.961228 
L 372.785453 285.73915 
L 375.49091 287.245194 
L 378.196364 288.445024 
L 380.901817 289.304548 
L 383.607274 289.789979 
L 386.312727 289.86786 
L 387.665456 289.743662 
L 389.018181 289.505095 
L 390.370909 289.14846 
L 391.723637 288.669081 
L 393.076363 288.064448 
L 394.429091 287.327274 
L 395.781819 286.463215 
L 398.487273 284.349916 
L 398.487273 284.349916 
" style="fill:none;stroke:#000000;stroke-linecap:square;"/>
   </g>
   <g id="line2d_21">
    <path clip-path="url(#pc7775bcbbb)" d="M 73.832727 282.140892 
L 75.100909 280.74684 
L 76.369091 279.717584 
L 80.173636 275.256995 
L 83.978182 269.715387 
L 86.514545 265.436584 
L 91.587273 255.185062 
L 96.66 242.750718 
L 100.464545 232.047006 
L 103.000909 224.276605 
L 104.269091 220.435633 
L 105.537273 216.006417 
L 106.805455 212.090013 
L 108.073636 207.294503 
L 109.341818 203.308167 
L 110.61 198.211816 
L 111.878182 194.130173 
L 113.146364 188.832953 
L 114.414545 184.624314 
L 115.682727 179.234012 
L 116.950909 174.880244 
L 118.219091 169.492193 
L 119.487273 165.000383 
L 120.755455 159.688197 
L 122.023636 155.098382 
L 123.291818 149.906931 
L 127.096364 135.635409 
L 129.632727 126.292665 
L 132.169091 117.357286 
L 134.705455 108.942105 
L 137.241818 101.1602 
L 139.778182 94.12317 
L 142.314545 87.938885 
L 143.582727 85.177959 
L 146.119091 80.468304 
L 147.387273 78.525171 
L 148.655455 76.844704 
L 149.923636 75.465915 
L 151.191818 74.3739 
L 152.46 73.590709 
L 153.728182 73.104536 
L 154.996364 72.936901 
L 156.264545 73.065101 
L 157.532727 73.518238 
L 158.800909 74.261655 
L 160.069091 75.325453 
L 161.337273 76.676038 
L 162.605455 78.327517 
L 163.873636 80.265692 
L 165.141818 82.472676 
L 167.678182 87.689354 
L 170.214545 93.887662 
L 172.750909 100.9622 
L 175.287273 108.796056 
L 179.091818 121.708265 
L 182.896364 135.605705 
L 189.237273 159.909677 
L 196.846364 188.986399 
L 200.650909 202.824667 
L 204.455455 215.92092 
L 208.26 228.086509 
L 210.796364 235.625179 
L 213.332727 242.665502 
L 215.869091 249.183212 
L 218.405455 255.161181 
L 220.941818 260.589556 
L 223.478182 265.465571 
L 226.014545 269.792929 
L 228.550909 273.580776 
L 231.087273 276.842441 
L 233.623636 279.59426 
L 236.16 281.854737 
L 238.696364 283.644845 
L 241.232727 284.985407 
L 243.769091 285.899643 
L 246.305455 286.411396 
L 248.841818 286.544743 
L 251.378182 286.323793 
L 253.914545 285.772728 
L 256.450909 284.916023 
L 258.987273 283.778723 
L 261.523636 282.386647 
L 264.06 280.766443 
L 267.864545 277.958334 
L 271.669091 274.813427 
L 278.01 268.989215 
L 281.814545 265.383724 
L 285.619091 261.706336 
L 293.228182 254.826135 
L 297.032727 251.765384 
L 300.837273 249.089374 
L 303.373636 247.547765 
L 305.91 246.228316 
L 308.446364 245.149689 
L 309.714545 244.677077 
L 312.250909 243.983854 
L 314.787273 243.561689 
L 317.323636 243.416173 
L 319.86 243.549371 
L 323.664545 244.326433 
L 324.932727 244.640645 
L 330.005455 246.773359 
L 331.273636 247.557617 
L 332.541818 248.196937 
L 333.81 249.109977 
L 335.078182 249.835954 
L 336.346364 250.868101 
L 337.614545 251.670412 
L 338.882727 252.809416 
L 340.150909 253.677566 
L 341.419091 254.910306 
L 342.687273 255.831661 
L 343.955455 257.146259 
L 345.223636 258.10412 
L 346.491818 259.491189 
L 347.76 260.46393 
L 349.028182 261.916485 
L 350.296364 262.877973 
L 351.564545 264.390407 
L 352.832727 265.311286 
L 354.100909 266.878391 
L 355.369091 267.728195 
L 356.637273 269.344253 
L 357.905455 270.095033 
L 359.173636 271.752108 
L 360.441818 272.384902 
L 361.71 274.067435 
L 362.978182 274.58144 
L 364.246364 276.258317 
L 365.514545 276.677542 
L 366.782727 278.294208 
L 368.050909 278.66685 
L 369.319091 280.14921 
L 370.587273 280.528174 
L 371.855455 281.805316 
L 373.123636 282.220412 
L 374.391818 283.254008 
L 375.66 283.684114 
L 376.928182 284.487597 
L 378.196364 284.872838 
L 379.464545 285.482598 
L 380.732727 285.753895 
L 382.000909 286.206691 
L 383.269091 286.310178 
L 384.537273 286.624051 
L 385.805455 286.51853 
L 387.073636 286.692193 
L 388.341818 286.398468 
L 389.61 286.335589 
L 390.878182 285.911727 
L 392.146364 285.63039 
L 395.950909 283.777204 
L 397.219091 282.735891 
L 398.487273 282.140892 
L 398.487273 282.140892 
" style="fill:none;stroke:#ff0000;stroke-linecap:square;stroke-width:3;"/>
   </g>
   <g id="patch_3">
    <path d="M 57.6 307.584 
L 57.6 41.472 
" style="fill:none;stroke:#000000;stroke-linecap:square;stroke-linejoin:miter;stroke-width:0.8;"/>
   </g>
   <g id="patch_4">
    <path d="M 414.72 307.584 
L 414.72 41.472 
" style="fill:none;stroke:#000000;stroke-linecap:square;stroke-linejoin:miter;stroke-width:0.8;"/>
   </g>
   <g id="patch_5">
    <path d="M 57.6 307.584 
L 414.72 307.584 
" style="fill:none;stroke:#000000;stroke-linecap:square;stroke-linejoin:miter;stroke-width:0.8;"/>
   </g>
   <g id="patch_6">
    <path d="M 57.6 41.472 
L 414.72 41.472 
" style="fill:none;stroke:#000000;stroke-linecap:square;stroke-linejoin:miter;stroke-width:0.8;"/>
   </g>
   <g id="text_15">
    <!-- 5 km -->
    <g transform="translate(221.116875 35.472)scale(0.12 -0.12)">
     <use xlink:href="#DejaVuSans-53"/>
     <use x="63.623047" xlink:href="#DejaVuSans-32"/>
     <use x="95.410156" xlink:href="#DejaVuSans-107"/>
     <use x="153.320312" xlink:href="#DejaVuSans-109"/>
    </g>
   </g>
   <g id="legend_1">
    <g id="patch_7">
     <path d="M 354.099688 64.150125 
L 407.72 64.150125 
Q 409.72 64.150125 409.72 62.150125 
L 409.72 48.472 
Q 409.72 46.472 407.72 46.472 
L 354.099688 46.472 
Q 352.099688 46.472 352.099688 48.472 
L 352.099688 62.150125 
Q 352.099688 64.150125 354.099688 64.150125 
z
" style="fill:#ffffff;opacity:0.8;stroke:#cccccc;stroke-linejoin:miter;"/>
    </g>
    <g id="line2d_22">
     <path d="M 356.099688 54.570438 
L 376.099688 54.570438 
" style="fill:none;stroke:#ff0000;stroke-linecap:square;stroke-width:3;"/>
    </g>
    <g id="line2d_23"/>
    <g id="text_16">
     <!-- tsa1 -->
     <g transform="translate(384.099688 58.070438)scale(0.1 -0.1)">
      <defs>
       <path d="M 18.3125 70.21875 
L 18.3125 54.6875 
L 36.8125 54.6875 
L 36.8125 47.703125 
L 18.3125 47.703125 
L 18.3125 18.015625 
Q 18.3125 11.328125 20.140625 9.421875 
Q 21.96875 7.515625 27.59375 7.515625 
L 36.8125 7.515625 
L 36.8125 0 
L 27.59375 0 
Q 17.1875 0 13.234375 3.875 
Q 9.28125 7.765625 9.28125 18.015625 
L 9.28125 47.703125 
L 2.6875 47.703125 
L 2.6875 54.6875 
L 9.28125 54.6875 
L 9.28125 70.21875 
z
" id="DejaVuSans-116"/>
       <path d="M 44.28125 53.078125 
L 44.28125 44.578125 
Q 40.484375 46.53125 36.375 47.5 
Q 32.28125 48.484375 27.875 48.484375 
Q 21.1875 48.484375 17.84375 46.4375 
Q 14.5 44.390625 14.5 40.28125 
Q 14.5 37.15625 16.890625 35.375 
Q 19.28125 33.59375 26.515625 31.984375 
L 29.59375 31.296875 
Q 39.15625 29.25 43.1875 25.515625 
Q 47.21875 21.78125 47.21875 15.09375 
Q 47.21875 7.46875 41.1875 3.015625 
Q 35.15625 -1.421875 24.609375 -1.421875 
Q 20.21875 -1.421875 15.453125 -0.5625 
Q 10.6875 0.296875 5.421875 2 
L 5.421875 11.28125 
Q 10.40625 8.6875 15.234375 7.390625 
Q 20.0625 6.109375 24.8125 6.109375 
Q 31.15625 6.109375 34.5625 8.28125 
Q 37.984375 10.453125 37.984375 14.40625 
Q 37.984375 18.0625 35.515625 20.015625 
Q 33.0625 21.96875 24.703125 23.78125 
L 21.578125 24.515625 
Q 13.234375 26.265625 9.515625 29.90625 
Q 5.8125 33.546875 5.8125 39.890625 
Q 5.8125 47.609375 11.28125 51.796875 
Q 16.75 56 26.8125 56 
Q 31.78125 56 36.171875 55.265625 
Q 40.578125 54.546875 44.28125 53.078125 
z
" id="DejaVuSans-115"/>
      </defs>
      <use xlink:href="#DejaVuSans-116"/>
      <use x="39.208984" xlink:href="#DejaVuSans-115"/>
      <use x="91.308594" xlink:href="#DejaVuSans-97"/>
      <use x="152.587891" xlink:href="#DejaVuSans-49"/>
     </g>
    </g>
   </g>
  </g>
 </g>
 <defs>
  <clipPath id="pc7775bcbbb">
   <rect height="266.112" width="357.12" x="57.6" y="41.472"/>
  </clipPath>
 </defs>
</svg>
