"length",5000,"x_res:",128,"y_res:",64,"time in secs:","34,7414755821228"
"length",10000,"x_res:",128,"y_res:",64,"time in secs:","43,5006074905396"
"length",20000,"x_res:",128,"y_res:",64,"time in secs:","40,9352097511292"
"length",40000,"x_res:",128,"y_res:",64,"time in secs:","41,6342816352844"
"length",80000,"x_res:",128,"y_res:",64,"time in secs:","41,0845198631287"
"length",160000,"x_res:",128,"y_res:",64,"time in secs:","36,9773054122925"
