<?xml version="1.0" encoding="utf-8" standalone="no"?>
<!DOCTYPE svg PUBLIC "-//W3C//DTD SVG 1.1//EN"
  "http://www.w3.org/Graphics/SVG/1.1/DTD/svg11.dtd">
<!-- Created with matplotlib (https://matplotlib.org/) -->
<svg height="345.6pt" version="1.1" viewBox="0 0 460.8 345.6" width="460.8pt" xmlns="http://www.w3.org/2000/svg" xmlns:xlink="http://www.w3.org/1999/xlink">
 <metadata>
  <rdf:RDF xmlns:cc="http://creativecommons.org/ns#" xmlns:dc="http://purl.org/dc/elements/1.1/" xmlns:rdf="http://www.w3.org/1999/02/22-rdf-syntax-ns#">
   <cc:Work>
    <dc:type rdf:resource="http://purl.org/dc/dcmitype/StillImage"/>
    <dc:date>2021-02-23T13:23:52.155835</dc:date>
    <dc:format>image/svg+xml</dc:format>
    <dc:creator>
     <cc:Agent>
      <dc:title>Matplotlib v3.3.0, https://matplotlib.org/</dc:title>
     </cc:Agent>
    </dc:creator>
   </cc:Work>
  </rdf:RDF>
 </metadata>
 <defs>
  <style type="text/css">*{stroke-linecap:butt;stroke-linejoin:round;}</style>
 </defs>
 <g id="figure_1">
  <g id="patch_1">
   <path d="M 0 345.6 
L 460.8 345.6 
L 460.8 0 
L 0 0 
z
" style="fill:#ffffff;"/>
  </g>
  <g id="axes_1">
   <g id="patch_2">
    <path d="M 57.6 307.584 
L 414.72 307.584 
L 414.72 41.472 
L 57.6 41.472 
z
" style="fill:#ffffff;"/>
   </g>
   <g id="matplotlib.axis_1">
    <g id="xtick_1">
     <g id="line2d_1">
      <defs>
       <path d="M 0 0 
L 0 3.5 
" id="ma527d47c35" style="stroke:#000000;stroke-width:0.8;"/>
      </defs>
      <g>
       <use style="stroke:#000000;stroke-width:0.8;" x="73.832727" xlink:href="#ma527d47c35" y="307.584"/>
      </g>
     </g>
     <g id="text_1">
      <!-- 0.0 -->
      <g transform="translate(65.881165 322.182437)scale(0.1 -0.1)">
       <defs>
        <path d="M 31.78125 66.40625 
Q 24.171875 66.40625 20.328125 58.90625 
Q 16.5 51.421875 16.5 36.375 
Q 16.5 21.390625 20.328125 13.890625 
Q 24.171875 6.390625 31.78125 6.390625 
Q 39.453125 6.390625 43.28125 13.890625 
Q 47.125 21.390625 47.125 36.375 
Q 47.125 51.421875 43.28125 58.90625 
Q 39.453125 66.40625 31.78125 66.40625 
z
M 31.78125 74.21875 
Q 44.046875 74.21875 50.515625 64.515625 
Q 56.984375 54.828125 56.984375 36.375 
Q 56.984375 17.96875 50.515625 8.265625 
Q 44.046875 -1.421875 31.78125 -1.421875 
Q 19.53125 -1.421875 13.0625 8.265625 
Q 6.59375 17.96875 6.59375 36.375 
Q 6.59375 54.828125 13.0625 64.515625 
Q 19.53125 74.21875 31.78125 74.21875 
z
" id="DejaVuSans-48"/>
        <path d="M 10.6875 12.40625 
L 21 12.40625 
L 21 0 
L 10.6875 0 
z
" id="DejaVuSans-46"/>
       </defs>
       <use xlink:href="#DejaVuSans-48"/>
       <use x="63.623047" xlink:href="#DejaVuSans-46"/>
       <use x="95.410156" xlink:href="#DejaVuSans-48"/>
      </g>
     </g>
    </g>
    <g id="xtick_2">
     <g id="line2d_2">
      <g>
       <use style="stroke:#000000;stroke-width:0.8;" x="138.763636" xlink:href="#ma527d47c35" y="307.584"/>
      </g>
     </g>
     <g id="text_2">
      <!-- 0.2 -->
      <g transform="translate(130.812074 322.182437)scale(0.1 -0.1)">
       <defs>
        <path d="M 19.1875 8.296875 
L 53.609375 8.296875 
L 53.609375 0 
L 7.328125 0 
L 7.328125 8.296875 
Q 12.9375 14.109375 22.625 23.890625 
Q 32.328125 33.6875 34.8125 36.53125 
Q 39.546875 41.84375 41.421875 45.53125 
Q 43.3125 49.21875 43.3125 52.78125 
Q 43.3125 58.59375 39.234375 62.25 
Q 35.15625 65.921875 28.609375 65.921875 
Q 23.96875 65.921875 18.8125 64.3125 
Q 13.671875 62.703125 7.8125 59.421875 
L 7.8125 69.390625 
Q 13.765625 71.78125 18.9375 73 
Q 24.125 74.21875 28.421875 74.21875 
Q 39.75 74.21875 46.484375 68.546875 
Q 53.21875 62.890625 53.21875 53.421875 
Q 53.21875 48.921875 51.53125 44.890625 
Q 49.859375 40.875 45.40625 35.40625 
Q 44.1875 33.984375 37.640625 27.21875 
Q 31.109375 20.453125 19.1875 8.296875 
z
" id="DejaVuSans-50"/>
       </defs>
       <use xlink:href="#DejaVuSans-48"/>
       <use x="63.623047" xlink:href="#DejaVuSans-46"/>
       <use x="95.410156" xlink:href="#DejaVuSans-50"/>
      </g>
     </g>
    </g>
    <g id="xtick_3">
     <g id="line2d_3">
      <g>
       <use style="stroke:#000000;stroke-width:0.8;" x="203.694545" xlink:href="#ma527d47c35" y="307.584"/>
      </g>
     </g>
     <g id="text_3">
      <!-- 0.4 -->
      <g transform="translate(195.742983 322.182437)scale(0.1 -0.1)">
       <defs>
        <path d="M 37.796875 64.3125 
L 12.890625 25.390625 
L 37.796875 25.390625 
z
M 35.203125 72.90625 
L 47.609375 72.90625 
L 47.609375 25.390625 
L 58.015625 25.390625 
L 58.015625 17.1875 
L 47.609375 17.1875 
L 47.609375 0 
L 37.796875 0 
L 37.796875 17.1875 
L 4.890625 17.1875 
L 4.890625 26.703125 
z
" id="DejaVuSans-52"/>
       </defs>
       <use xlink:href="#DejaVuSans-48"/>
       <use x="63.623047" xlink:href="#DejaVuSans-46"/>
       <use x="95.410156" xlink:href="#DejaVuSans-52"/>
      </g>
     </g>
    </g>
    <g id="xtick_4">
     <g id="line2d_4">
      <g>
       <use style="stroke:#000000;stroke-width:0.8;" x="268.625455" xlink:href="#ma527d47c35" y="307.584"/>
      </g>
     </g>
     <g id="text_4">
      <!-- 0.6 -->
      <g transform="translate(260.673892 322.182437)scale(0.1 -0.1)">
       <defs>
        <path d="M 33.015625 40.375 
Q 26.375 40.375 22.484375 35.828125 
Q 18.609375 31.296875 18.609375 23.390625 
Q 18.609375 15.53125 22.484375 10.953125 
Q 26.375 6.390625 33.015625 6.390625 
Q 39.65625 6.390625 43.53125 10.953125 
Q 47.40625 15.53125 47.40625 23.390625 
Q 47.40625 31.296875 43.53125 35.828125 
Q 39.65625 40.375 33.015625 40.375 
z
M 52.59375 71.296875 
L 52.59375 62.3125 
Q 48.875 64.0625 45.09375 64.984375 
Q 41.3125 65.921875 37.59375 65.921875 
Q 27.828125 65.921875 22.671875 59.328125 
Q 17.53125 52.734375 16.796875 39.40625 
Q 19.671875 43.65625 24.015625 45.921875 
Q 28.375 48.1875 33.59375 48.1875 
Q 44.578125 48.1875 50.953125 41.515625 
Q 57.328125 34.859375 57.328125 23.390625 
Q 57.328125 12.15625 50.6875 5.359375 
Q 44.046875 -1.421875 33.015625 -1.421875 
Q 20.359375 -1.421875 13.671875 8.265625 
Q 6.984375 17.96875 6.984375 36.375 
Q 6.984375 53.65625 15.1875 63.9375 
Q 23.390625 74.21875 37.203125 74.21875 
Q 40.921875 74.21875 44.703125 73.484375 
Q 48.484375 72.75 52.59375 71.296875 
z
" id="DejaVuSans-54"/>
       </defs>
       <use xlink:href="#DejaVuSans-48"/>
       <use x="63.623047" xlink:href="#DejaVuSans-46"/>
       <use x="95.410156" xlink:href="#DejaVuSans-54"/>
      </g>
     </g>
    </g>
    <g id="xtick_5">
     <g id="line2d_5">
      <g>
       <use style="stroke:#000000;stroke-width:0.8;" x="333.556364" xlink:href="#ma527d47c35" y="307.584"/>
      </g>
     </g>
     <g id="text_5">
      <!-- 0.8 -->
      <g transform="translate(325.604801 322.182437)scale(0.1 -0.1)">
       <defs>
        <path d="M 31.78125 34.625 
Q 24.75 34.625 20.71875 30.859375 
Q 16.703125 27.09375 16.703125 20.515625 
Q 16.703125 13.921875 20.71875 10.15625 
Q 24.75 6.390625 31.78125 6.390625 
Q 38.8125 6.390625 42.859375 10.171875 
Q 46.921875 13.96875 46.921875 20.515625 
Q 46.921875 27.09375 42.890625 30.859375 
Q 38.875 34.625 31.78125 34.625 
z
M 21.921875 38.8125 
Q 15.578125 40.375 12.03125 44.71875 
Q 8.5 49.078125 8.5 55.328125 
Q 8.5 64.0625 14.71875 69.140625 
Q 20.953125 74.21875 31.78125 74.21875 
Q 42.671875 74.21875 48.875 69.140625 
Q 55.078125 64.0625 55.078125 55.328125 
Q 55.078125 49.078125 51.53125 44.71875 
Q 48 40.375 41.703125 38.8125 
Q 48.828125 37.15625 52.796875 32.3125 
Q 56.78125 27.484375 56.78125 20.515625 
Q 56.78125 9.90625 50.3125 4.234375 
Q 43.84375 -1.421875 31.78125 -1.421875 
Q 19.734375 -1.421875 13.25 4.234375 
Q 6.78125 9.90625 6.78125 20.515625 
Q 6.78125 27.484375 10.78125 32.3125 
Q 14.796875 37.15625 21.921875 38.8125 
z
M 18.3125 54.390625 
Q 18.3125 48.734375 21.84375 45.5625 
Q 25.390625 42.390625 31.78125 42.390625 
Q 38.140625 42.390625 41.71875 45.5625 
Q 45.3125 48.734375 45.3125 54.390625 
Q 45.3125 60.0625 41.71875 63.234375 
Q 38.140625 66.40625 31.78125 66.40625 
Q 25.390625 66.40625 21.84375 63.234375 
Q 18.3125 60.0625 18.3125 54.390625 
z
" id="DejaVuSans-56"/>
       </defs>
       <use xlink:href="#DejaVuSans-48"/>
       <use x="63.623047" xlink:href="#DejaVuSans-46"/>
       <use x="95.410156" xlink:href="#DejaVuSans-56"/>
      </g>
     </g>
    </g>
    <g id="xtick_6">
     <g id="line2d_6">
      <g>
       <use style="stroke:#000000;stroke-width:0.8;" x="398.487273" xlink:href="#ma527d47c35" y="307.584"/>
      </g>
     </g>
     <g id="text_6">
      <!-- 1.0 -->
      <g transform="translate(390.53571 322.182437)scale(0.1 -0.1)">
       <defs>
        <path d="M 12.40625 8.296875 
L 28.515625 8.296875 
L 28.515625 63.921875 
L 10.984375 60.40625 
L 10.984375 69.390625 
L 28.421875 72.90625 
L 38.28125 72.90625 
L 38.28125 8.296875 
L 54.390625 8.296875 
L 54.390625 0 
L 12.40625 0 
z
" id="DejaVuSans-49"/>
       </defs>
       <use xlink:href="#DejaVuSans-49"/>
       <use x="63.623047" xlink:href="#DejaVuSans-46"/>
       <use x="95.410156" xlink:href="#DejaVuSans-48"/>
      </g>
     </g>
    </g>
    <g id="text_7">
     <!-- x norm. -->
     <g transform="translate(216.956094 335.860562)scale(0.1 -0.1)">
      <defs>
       <path d="M 54.890625 54.6875 
L 35.109375 28.078125 
L 55.90625 0 
L 45.3125 0 
L 29.390625 21.484375 
L 13.484375 0 
L 2.875 0 
L 24.125 28.609375 
L 4.6875 54.6875 
L 15.28125 54.6875 
L 29.78125 35.203125 
L 44.28125 54.6875 
z
" id="DejaVuSans-120"/>
       <path id="DejaVuSans-32"/>
       <path d="M 54.890625 33.015625 
L 54.890625 0 
L 45.90625 0 
L 45.90625 32.71875 
Q 45.90625 40.484375 42.875 44.328125 
Q 39.84375 48.1875 33.796875 48.1875 
Q 26.515625 48.1875 22.3125 43.546875 
Q 18.109375 38.921875 18.109375 30.90625 
L 18.109375 0 
L 9.078125 0 
L 9.078125 54.6875 
L 18.109375 54.6875 
L 18.109375 46.1875 
Q 21.34375 51.125 25.703125 53.5625 
Q 30.078125 56 35.796875 56 
Q 45.21875 56 50.046875 50.171875 
Q 54.890625 44.34375 54.890625 33.015625 
z
" id="DejaVuSans-110"/>
       <path d="M 30.609375 48.390625 
Q 23.390625 48.390625 19.1875 42.75 
Q 14.984375 37.109375 14.984375 27.296875 
Q 14.984375 17.484375 19.15625 11.84375 
Q 23.34375 6.203125 30.609375 6.203125 
Q 37.796875 6.203125 41.984375 11.859375 
Q 46.1875 17.53125 46.1875 27.296875 
Q 46.1875 37.015625 41.984375 42.703125 
Q 37.796875 48.390625 30.609375 48.390625 
z
M 30.609375 56 
Q 42.328125 56 49.015625 48.375 
Q 55.71875 40.765625 55.71875 27.296875 
Q 55.71875 13.875 49.015625 6.21875 
Q 42.328125 -1.421875 30.609375 -1.421875 
Q 18.84375 -1.421875 12.171875 6.21875 
Q 5.515625 13.875 5.515625 27.296875 
Q 5.515625 40.765625 12.171875 48.375 
Q 18.84375 56 30.609375 56 
z
" id="DejaVuSans-111"/>
       <path d="M 41.109375 46.296875 
Q 39.59375 47.171875 37.8125 47.578125 
Q 36.03125 48 33.890625 48 
Q 26.265625 48 22.1875 43.046875 
Q 18.109375 38.09375 18.109375 28.8125 
L 18.109375 0 
L 9.078125 0 
L 9.078125 54.6875 
L 18.109375 54.6875 
L 18.109375 46.1875 
Q 20.953125 51.171875 25.484375 53.578125 
Q 30.03125 56 36.53125 56 
Q 37.453125 56 38.578125 55.875 
Q 39.703125 55.765625 41.0625 55.515625 
z
" id="DejaVuSans-114"/>
       <path d="M 52 44.1875 
Q 55.375 50.25 60.0625 53.125 
Q 64.75 56 71.09375 56 
Q 79.640625 56 84.28125 50.015625 
Q 88.921875 44.046875 88.921875 33.015625 
L 88.921875 0 
L 79.890625 0 
L 79.890625 32.71875 
Q 79.890625 40.578125 77.09375 44.375 
Q 74.3125 48.1875 68.609375 48.1875 
Q 61.625 48.1875 57.5625 43.546875 
Q 53.515625 38.921875 53.515625 30.90625 
L 53.515625 0 
L 44.484375 0 
L 44.484375 32.71875 
Q 44.484375 40.625 41.703125 44.40625 
Q 38.921875 48.1875 33.109375 48.1875 
Q 26.21875 48.1875 22.15625 43.53125 
Q 18.109375 38.875 18.109375 30.90625 
L 18.109375 0 
L 9.078125 0 
L 9.078125 54.6875 
L 18.109375 54.6875 
L 18.109375 46.1875 
Q 21.1875 51.21875 25.484375 53.609375 
Q 29.78125 56 35.6875 56 
Q 41.65625 56 45.828125 52.96875 
Q 50 49.953125 52 44.1875 
z
" id="DejaVuSans-109"/>
      </defs>
      <use xlink:href="#DejaVuSans-120"/>
      <use x="59.179688" xlink:href="#DejaVuSans-32"/>
      <use x="90.966797" xlink:href="#DejaVuSans-110"/>
      <use x="154.345703" xlink:href="#DejaVuSans-111"/>
      <use x="215.527344" xlink:href="#DejaVuSans-114"/>
      <use x="254.890625" xlink:href="#DejaVuSans-109"/>
      <use x="352.302734" xlink:href="#DejaVuSans-46"/>
     </g>
    </g>
   </g>
   <g id="matplotlib.axis_2">
    <g id="ytick_1">
     <g id="line2d_7">
      <defs>
       <path d="M 0 0 
L -3.5 0 
" id="md8a12ac704" style="stroke:#000000;stroke-width:0.8;"/>
      </defs>
      <g>
       <use style="stroke:#000000;stroke-width:0.8;" x="57.6" xlink:href="#md8a12ac704" y="287.397313"/>
      </g>
     </g>
     <g id="text_8">
      <!-- 0 -->
      <g transform="translate(44.2375 291.196532)scale(0.1 -0.1)">
       <use xlink:href="#DejaVuSans-48"/>
      </g>
     </g>
    </g>
    <g id="ytick_2">
     <g id="line2d_8">
      <g>
       <use style="stroke:#000000;stroke-width:0.8;" x="57.6" xlink:href="#md8a12ac704" y="249.278634"/>
      </g>
     </g>
     <g id="text_9">
      <!-- 5 -->
      <g transform="translate(44.2375 253.077853)scale(0.1 -0.1)">
       <defs>
        <path d="M 10.796875 72.90625 
L 49.515625 72.90625 
L 49.515625 64.59375 
L 19.828125 64.59375 
L 19.828125 46.734375 
Q 21.96875 47.46875 24.109375 47.828125 
Q 26.265625 48.1875 28.421875 48.1875 
Q 40.625 48.1875 47.75 41.5 
Q 54.890625 34.8125 54.890625 23.390625 
Q 54.890625 11.625 47.5625 5.09375 
Q 40.234375 -1.421875 26.90625 -1.421875 
Q 22.3125 -1.421875 17.546875 -0.640625 
Q 12.796875 0.140625 7.71875 1.703125 
L 7.71875 11.625 
Q 12.109375 9.234375 16.796875 8.0625 
Q 21.484375 6.890625 26.703125 6.890625 
Q 35.15625 6.890625 40.078125 11.328125 
Q 45.015625 15.765625 45.015625 23.390625 
Q 45.015625 31 40.078125 35.4375 
Q 35.15625 39.890625 26.703125 39.890625 
Q 22.75 39.890625 18.8125 39.015625 
Q 14.890625 38.140625 10.796875 36.28125 
z
" id="DejaVuSans-53"/>
       </defs>
       <use xlink:href="#DejaVuSans-53"/>
      </g>
     </g>
    </g>
    <g id="ytick_3">
     <g id="line2d_9">
      <g>
       <use style="stroke:#000000;stroke-width:0.8;" x="57.6" xlink:href="#md8a12ac704" y="211.159956"/>
      </g>
     </g>
     <g id="text_10">
      <!-- 10 -->
      <g transform="translate(37.875 214.959175)scale(0.1 -0.1)">
       <use xlink:href="#DejaVuSans-49"/>
       <use x="63.623047" xlink:href="#DejaVuSans-48"/>
      </g>
     </g>
    </g>
    <g id="ytick_4">
     <g id="line2d_10">
      <g>
       <use style="stroke:#000000;stroke-width:0.8;" x="57.6" xlink:href="#md8a12ac704" y="173.041278"/>
      </g>
     </g>
     <g id="text_11">
      <!-- 15 -->
      <g transform="translate(37.875 176.840497)scale(0.1 -0.1)">
       <use xlink:href="#DejaVuSans-49"/>
       <use x="63.623047" xlink:href="#DejaVuSans-53"/>
      </g>
     </g>
    </g>
    <g id="ytick_5">
     <g id="line2d_11">
      <g>
       <use style="stroke:#000000;stroke-width:0.8;" x="57.6" xlink:href="#md8a12ac704" y="134.922599"/>
      </g>
     </g>
     <g id="text_12">
      <!-- 20 -->
      <g transform="translate(37.875 138.721818)scale(0.1 -0.1)">
       <use xlink:href="#DejaVuSans-50"/>
       <use x="63.623047" xlink:href="#DejaVuSans-48"/>
      </g>
     </g>
    </g>
    <g id="ytick_6">
     <g id="line2d_12">
      <g>
       <use style="stroke:#000000;stroke-width:0.8;" x="57.6" xlink:href="#md8a12ac704" y="96.803921"/>
      </g>
     </g>
     <g id="text_13">
      <!-- 25 -->
      <g transform="translate(37.875 100.60314)scale(0.1 -0.1)">
       <use xlink:href="#DejaVuSans-50"/>
       <use x="63.623047" xlink:href="#DejaVuSans-53"/>
      </g>
     </g>
    </g>
    <g id="ytick_7">
     <g id="line2d_13">
      <g>
       <use style="stroke:#000000;stroke-width:0.8;" x="57.6" xlink:href="#md8a12ac704" y="58.685243"/>
      </g>
     </g>
     <g id="text_14">
      <!-- 30 -->
      <g transform="translate(37.875 62.484461)scale(0.1 -0.1)">
       <defs>
        <path d="M 40.578125 39.3125 
Q 47.65625 37.796875 51.625 33 
Q 55.609375 28.21875 55.609375 21.1875 
Q 55.609375 10.40625 48.1875 4.484375 
Q 40.765625 -1.421875 27.09375 -1.421875 
Q 22.515625 -1.421875 17.65625 -0.515625 
Q 12.796875 0.390625 7.625 2.203125 
L 7.625 11.71875 
Q 11.71875 9.328125 16.59375 8.109375 
Q 21.484375 6.890625 26.8125 6.890625 
Q 36.078125 6.890625 40.9375 10.546875 
Q 45.796875 14.203125 45.796875 21.1875 
Q 45.796875 27.640625 41.28125 31.265625 
Q 36.765625 34.90625 28.71875 34.90625 
L 20.21875 34.90625 
L 20.21875 43.015625 
L 29.109375 43.015625 
Q 36.375 43.015625 40.234375 45.921875 
Q 44.09375 48.828125 44.09375 54.296875 
Q 44.09375 59.90625 40.109375 62.90625 
Q 36.140625 65.921875 28.71875 65.921875 
Q 24.65625 65.921875 20.015625 65.03125 
Q 15.375 64.15625 9.8125 62.3125 
L 9.8125 71.09375 
Q 15.4375 72.65625 20.34375 73.4375 
Q 25.25 74.21875 29.59375 74.21875 
Q 40.828125 74.21875 47.359375 69.109375 
Q 53.90625 64.015625 53.90625 55.328125 
Q 53.90625 49.265625 50.4375 45.09375 
Q 46.96875 40.921875 40.578125 39.3125 
z
" id="DejaVuSans-51"/>
       </defs>
       <use xlink:href="#DejaVuSans-51"/>
       <use x="63.623047" xlink:href="#DejaVuSans-48"/>
      </g>
     </g>
    </g>
    <g id="text_15">
     <!-- kPa -->
     <g transform="translate(31.795313 183.277219)rotate(-90)scale(0.1 -0.1)">
      <defs>
       <path d="M 9.078125 75.984375 
L 18.109375 75.984375 
L 18.109375 31.109375 
L 44.921875 54.6875 
L 56.390625 54.6875 
L 27.390625 29.109375 
L 57.625 0 
L 45.90625 0 
L 18.109375 26.703125 
L 18.109375 0 
L 9.078125 0 
z
" id="DejaVuSans-107"/>
       <path d="M 19.671875 64.796875 
L 19.671875 37.40625 
L 32.078125 37.40625 
Q 38.96875 37.40625 42.71875 40.96875 
Q 46.484375 44.53125 46.484375 51.125 
Q 46.484375 57.671875 42.71875 61.234375 
Q 38.96875 64.796875 32.078125 64.796875 
z
M 9.8125 72.90625 
L 32.078125 72.90625 
Q 44.34375 72.90625 50.609375 67.359375 
Q 56.890625 61.8125 56.890625 51.125 
Q 56.890625 40.328125 50.609375 34.8125 
Q 44.34375 29.296875 32.078125 29.296875 
L 19.671875 29.296875 
L 19.671875 0 
L 9.8125 0 
z
" id="DejaVuSans-80"/>
       <path d="M 34.28125 27.484375 
Q 23.390625 27.484375 19.1875 25 
Q 14.984375 22.515625 14.984375 16.5 
Q 14.984375 11.71875 18.140625 8.90625 
Q 21.296875 6.109375 26.703125 6.109375 
Q 34.1875 6.109375 38.703125 11.40625 
Q 43.21875 16.703125 43.21875 25.484375 
L 43.21875 27.484375 
z
M 52.203125 31.203125 
L 52.203125 0 
L 43.21875 0 
L 43.21875 8.296875 
Q 40.140625 3.328125 35.546875 0.953125 
Q 30.953125 -1.421875 24.3125 -1.421875 
Q 15.921875 -1.421875 10.953125 3.296875 
Q 6 8.015625 6 15.921875 
Q 6 25.140625 12.171875 29.828125 
Q 18.359375 34.515625 30.609375 34.515625 
L 43.21875 34.515625 
L 43.21875 35.40625 
Q 43.21875 41.609375 39.140625 45 
Q 35.0625 48.390625 27.6875 48.390625 
Q 23 48.390625 18.546875 47.265625 
Q 14.109375 46.140625 10.015625 43.890625 
L 10.015625 52.203125 
Q 14.9375 54.109375 19.578125 55.046875 
Q 24.21875 56 28.609375 56 
Q 40.484375 56 46.34375 49.84375 
Q 52.203125 43.703125 52.203125 31.203125 
z
" id="DejaVuSans-97"/>
      </defs>
      <use xlink:href="#DejaVuSans-107"/>
      <use x="57.910156" xlink:href="#DejaVuSans-80"/>
      <use x="113.712891" xlink:href="#DejaVuSans-97"/>
     </g>
    </g>
   </g>
   <g id="line2d_14">
    <path clip-path="url(#p10efe8970e)" d="M 73.832727 165.1725 
L 82.157194 146.549109 
L 90.481694 128.748609 
L 98.806161 112.246141 
L 107.130596 97.390263 
L 115.455063 84.519803 
L 123.77953 73.844134 
L 132.103998 65.551774 
L 140.428465 59.759153 
L 148.752932 56.540297 
L 157.077399 55.938922 
L 165.401866 57.962879 
L 173.726334 62.587566 
L 182.050801 69.748465 
L 190.375268 79.353419 
L 198.699735 91.243077 
L 207.024202 105.228119 
L 215.34867 121.033106 
L 223.673137 138.281251 
L 231.997604 156.597658 
L 240.322396 175.465557 
L 248.646863 194.383712 
L 256.97133 212.794743 
L 265.295798 230.149985 
L 273.620265 245.932055 
L 281.944732 259.696688 
L 290.269199 271.008447 
L 298.593666 279.558282 
L 306.918134 285.081029 
L 315.242601 287.394589 
L 323.567068 286.3168 
L 331.891535 282.23491 
L 340.216002 275.068951 
L 348.54047 265.028602 
L 356.864937 252.391045 
L 365.189404 237.505194 
L 373.513871 220.836617 
L 381.838338 202.860933 
L 390.162806 184.123773 
L 398.487273 165.179994 
" style="fill:none;stroke:#000000;stroke-linecap:square;"/>
   </g>
   <g id="line2d_15">
    <path clip-path="url(#p10efe8970e)" d="M 73.832727 165.265067 
L 77.079273 157.999647 
L 80.325818 150.924821 
L 83.572364 143.865241 
L 86.818909 137.053434 
L 90.065455 130.314051 
L 93.312 123.864371 
L 96.558545 117.53667 
L 99.805091 111.544414 
L 103.051636 105.71988 
L 106.298182 100.261285 
L 109.544727 95.012343 
L 112.791273 90.156024 
L 116.037818 85.53604 
L 119.284364 81.335361 
L 122.530909 77.390078 
L 125.777455 73.88316 
L 129.024 70.646884 
L 132.270545 67.860409 
L 135.517091 65.359823 
L 138.763636 63.320474 
L 142.010182 61.570827 
L 145.256727 60.293851 
L 148.503273 59.302765 
L 151.749818 58.788163 
L 154.996364 58.567075 
L 158.242909 58.826282 
L 161.489455 59.371379 
L 164.736 60.39296 
L 167.982545 61.704242 
L 171.229091 63.488196 
L 174.475636 65.561852 
L 177.722182 68.096744 
L 180.968727 70.913715 
L 184.215273 74.176674 
L 187.461818 77.717899 
L 190.708364 81.686053 
L 193.954909 85.928662 
L 197.201455 90.563893 
L 200.448 95.462144 
L 203.694545 100.718709 
L 206.941091 106.223047 
L 210.187636 112.043769 
L 213.434182 118.093203 
L 216.680727 124.398032 
L 219.927273 130.912514 
L 223.173818 137.621402 
L 226.420364 144.501823 
L 229.666909 151.511848 
L 232.913455 158.662912 
L 236.16 165.867343 
L 239.406545 173.167069 
L 242.653091 180.440113 
L 245.899636 187.766523 
L 249.146182 194.986201 
L 252.392727 202.20969 
L 255.639273 209.246398 
L 258.885818 216.237364 
L 262.132364 222.965311 
L 265.378909 229.597961 
L 268.625455 235.891355 
L 271.872 242.039897 
L 275.118545 247.788194 
L 278.365091 253.338274 
L 281.611636 258.427117 
L 284.858182 263.264378 
L 288.104727 267.594659 
L 291.351273 271.707665 
L 294.597818 275.172653 
L 297.844364 278.229771 
L 301.090909 281.671887 
L 304.337455 284.389749 
L 307.584 285.41133 
L 310.830545 286.558702 
L 314.077091 286.028852 
L 317.323636 285.762022 
L 320.570182 286.345237 
L 323.816727 286.14702 
L 327.063273 285.537121 
L 330.309818 284.256334 
L 333.556364 281.161097 
L 336.802909 277.970564 
L 340.049455 274.791466 
L 343.296 271.257864 
L 346.542545 267.18679 
L 349.789091 262.78027 
L 353.035636 257.950634 
L 356.282182 252.785553 
L 359.528727 247.26978 
L 362.775273 241.441434 
L 366.021818 235.342446 
L 369.268364 228.961379 
L 372.514909 222.393531 
L 375.761455 215.577911 
L 379.008 208.655559 
L 382.254545 201.531178 
L 385.501091 194.383926 
L 388.747636 187.080387 
L 391.994182 179.834026 
L 395.240727 172.484745 
L 398.487273 165.265067 
" style="fill:none;stroke:#000000;stroke-linecap:square;"/>
   </g>
   <g id="line2d_16">
    <path clip-path="url(#p10efe8970e)" d="M 73.832727 162.901633 
L 77.095587 155.779265 
L 78.727017 152.312356 
L 80.358447 148.537036 
L 90.147026 128.320993 
L 95.041316 118.934536 
L 96.672746 115.829693 
L 103.198465 104.596195 
L 104.829895 102.064695 
L 106.461324 99.271747 
L 111.355615 92.093039 
L 112.987046 89.818086 
L 119.512765 81.685779 
L 124.407052 76.402019 
L 129.301343 71.891078 
L 134.195633 68.170291 
L 139.089924 65.224975 
L 143.984211 63.03437 
L 147.247071 62.110999 
L 148.878502 61.686669 
L 152.141361 61.264116 
L 155.404221 61.084722 
L 158.66708 61.325693 
L 160.298511 61.533638 
L 165.192802 62.757454 
L 170.087089 64.769685 
L 174.98138 67.591016 
L 176.612808 68.712087 
L 181.507099 72.635665 
L 184.769958 75.64977 
L 186.401389 77.147041 
L 192.927108 84.564082 
L 197.821399 90.915462 
L 202.715686 98.03193 
L 204.347117 100.817269 
L 207.609977 105.886847 
L 214.135695 117.414774 
L 223.924277 136.463524 
L 227.187136 143.42311 
L 228.818564 146.742798 
L 233.712855 157.419862 
L 235.344286 160.984736 
L 236.975714 164.932955 
L 240.238573 171.945671 
L 241.870005 175.917942 
L 245.132864 183.069814 
L 248.395723 191.058193 
L 251.658583 198.209631 
L 253.290014 202.155844 
L 256.552873 209.042883 
L 258.184305 212.952039 
L 261.447164 219.604631 
L 263.078592 223.334011 
L 264.710023 226.646439 
L 267.972883 232.98458 
L 269.604314 236.330555 
L 272.867173 242.325649 
L 274.498601 245.593082 
L 277.761461 251.072173 
L 279.392892 254.136954 
L 282.655751 259.061281 
L 284.287183 261.746374 
L 285.918611 264.079047 
L 287.550042 266.208882 
L 290.812901 270.84317 
L 292.444329 272.45073 
L 294.075761 274.264162 
L 295.707192 276.306481 
L 298.970051 279.049096 
L 300.601479 280.631109 
L 302.232911 281.808016 
L 303.864339 282.745427 
L 305.49577 283.881674 
L 308.758629 285.189425 
L 310.390061 286.502971 
L 312.021489 287.457655 
L 313.65292 286.876035 
L 315.284348 288.526616 
L 316.915779 295.488 
L 318.547207 288.178187 
L 320.178639 287.373622 
L 321.81007 287.224458 
L 323.441498 287.458186 
L 326.704357 284.726594 
L 329.967217 283.368272 
L 331.598648 282.322303 
L 333.230076 281.428352 
L 339.755798 275.38685 
L 341.387226 273.318492 
L 344.650085 269.772416 
L 347.912948 265.096757 
L 349.544376 263.019396 
L 356.070095 252.737369 
L 357.701526 249.637499 
L 360.964385 244.135212 
L 362.595817 240.756702 
L 365.858676 234.765644 
L 369.121535 227.894608 
L 370.752963 224.770765 
L 377.278685 210.939318 
L 378.910113 207.011432 
L 382.172973 200.072041 
L 383.804404 196.086199 
L 391.961554 177.861598 
L 395.224413 170.273625 
L 398.487273 163.449498 
L 398.487273 163.449498 
" style="fill:none;stroke:#000000;stroke-linecap:square;"/>
   </g>
   <g id="line2d_17">
    <path clip-path="url(#p10efe8970e)" d="M 73.832727 165.121741 
L 77.079273 157.834975 
L 80.325818 150.603861 
L 83.572364 143.481767 
L 86.818909 136.499188 
L 90.065455 129.681281 
L 93.312 123.05473 
L 96.558545 116.643931 
L 99.805091 110.470992 
L 103.051636 104.556498 
L 106.298182 98.921032 
L 109.544727 93.580606 
L 112.791273 88.55199 
L 116.037818 83.849669 
L 119.284364 79.485081 
L 122.530909 75.469659 
L 125.777455 71.813316 
L 129.024 68.525198 
L 132.270545 65.611407 
L 135.517091 63.078802 
L 138.763636 60.931958 
L 142.010182 59.175449 
L 145.256727 57.8108 
L 148.503273 56.841061 
L 151.749818 56.266994 
L 154.996364 56.090123 
L 158.242909 56.310449 
L 161.489455 56.927209 
L 164.736 57.939641 
L 167.982545 59.346983 
L 171.229091 61.146947 
L 174.475636 63.336484 
L 177.722182 65.911782 
L 180.968727 68.866742 
L 184.215273 72.196027 
L 187.461818 75.892777 
L 190.708364 79.947079 
L 193.954909 84.349787 
L 197.201455 89.088701 
L 200.448 94.152386 
L 203.694545 99.526357 
L 206.941091 105.19308 
L 210.187636 111.136544 
L 213.434182 117.336928 
L 216.680727 123.772886 
L 219.927273 130.421546 
L 223.173818 137.259274 
L 226.420364 144.260151 
L 229.666909 151.39673 
L 232.913455 158.640803 
L 236.16 165.961877 
L 239.406545 173.33098 
L 242.653091 180.716092 
L 245.899636 188.085195 
L 249.146182 195.404744 
L 252.392727 202.642719 
L 255.639273 209.764812 
L 258.885818 216.738015 
L 262.132364 223.531221 
L 265.378909 230.114393 
L 268.625455 236.459628 
L 271.872 242.540624 
L 275.118545 248.332224 
L 278.365091 253.809116 
L 281.611636 258.946294 
L 284.858182 263.718981 
L 288.104727 268.103315 
L 291.351273 272.076577 
L 294.597818 275.617955 
L 297.844364 278.709837 
L 301.090909 281.338166 
L 304.337455 283.491627 
L 307.584 285.162041 
L 310.830545 286.347151 
L 314.077091 287.066859 
L 317.323636 287.190088 
L 320.570182 286.809315 
L 323.816727 286.008581 
L 327.063273 284.761719 
L 330.309818 283.03893 
L 333.556364 280.839757 
L 336.802909 278.171297 
L 340.049455 275.043659 
L 343.296 271.470414 
L 346.542545 267.46841 
L 349.789091 263.057774 
L 353.035636 258.260844 
L 356.282182 253.101252 
L 359.528727 247.603471 
L 362.775273 241.792583 
L 366.021818 235.693824 
L 369.268364 229.332731 
L 372.514909 222.73576 
L 375.761455 215.93089 
L 379.008 208.94831 
L 382.254545 201.820118 
L 385.501091 194.578331 
L 388.747636 187.257258 
L 391.994182 179.88968 
L 395.240727 172.509141 
L 398.487273 165.121741 
" style="fill:none;stroke:#000000;stroke-linecap:square;"/>
   </g>
   <g id="line2d_18">
    <path clip-path="url(#p10efe8970e)" d="M 73.832727 165.754618 
L 81.949091 147.6568 
L 88.712727 133.140528 
L 94.123636 122.076765 
L 99.534546 111.624791 
L 103.592727 104.248247 
L 107.65091 97.310122 
L 111.709092 90.843692 
L 115.767274 84.878142 
L 119.825456 79.438744 
L 122.530909 76.115603 
L 125.236363 73.041553 
L 127.941819 70.22151 
L 130.647273 67.659836 
L 133.352726 65.360326 
L 136.058183 63.326268 
L 138.763636 61.560474 
L 141.46909 60.065307 
L 144.174547 58.842719 
L 146.88 57.89425 
L 149.585453 57.221097 
L 152.29091 56.824083 
L 154.996364 56.703712 
L 157.701817 56.860143 
L 160.407274 57.29321 
L 163.112727 58.002408 
L 165.818181 58.986891 
L 168.523637 60.245433 
L 171.229091 61.776446 
L 173.934544 63.577912 
L 176.640001 65.647406 
L 179.345455 67.982015 
L 182.050908 70.578369 
L 184.756365 73.432567 
L 187.461818 76.540154 
L 190.167272 79.896099 
L 194.225453 85.383108 
L 198.283635 91.394057 
L 202.341817 97.903332 
L 206.399999 104.881437 
L 210.458181 112.294803 
L 214.516363 120.105686 
L 219.927273 131.065462 
L 225.338183 142.546244 
L 232.101818 157.442223 
L 244.276364 184.976914 
L 253.745456 206.141579 
L 259.156363 217.79324 
L 264.567273 228.940001 
L 268.625455 236.886121 
L 272.683636 244.417969 
L 276.741818 251.486291 
L 280.8 258.044739 
L 284.858182 264.04907 
L 287.563635 267.723405 
L 290.269092 271.121324 
L 292.974545 274.231955 
L 295.679999 277.045199 
L 298.385456 279.552041 
L 301.090909 281.745087 
L 303.796363 283.619338 
L 306.501819 285.173537 
L 309.207273 286.413664 
L 311.912726 287.364591 
L 314.618183 288.130763 
L 315.970908 288.829189 
L 317.323636 291.094734 
L 318.676365 288.605892 
L 320.02909 287.90016 
L 324.087272 286.581749 
L 326.792728 285.436868 
L 329.498182 283.995968 
L 332.203635 282.242345 
L 334.909092 280.173025 
L 337.614545 277.79062 
L 340.319999 275.100865 
L 343.025456 272.111555 
L 345.730909 268.831877 
L 348.436363 265.271987 
L 351.141819 261.442818 
L 355.200001 255.219896 
L 359.258183 248.459729 
L 363.316365 241.207198 
L 367.374547 233.509742 
L 372.785453 222.642988 
L 378.196364 211.208068 
L 384.959999 196.332896 
L 397.134544 168.812925 
L 398.487273 165.754618 
L 398.487273 165.754618 
" style="fill:none;stroke:#000000;stroke-linecap:square;"/>
   </g>
   <g id="line2d_19">
    <path clip-path="url(#p10efe8970e)" d="M 74.644364 162.809279 
L 82.760727 144.85818 
L 89.253818 131.094363 
L 94.123636 121.257838 
L 98.993455 111.926234 
L 103.863273 103.169801 
L 107.109818 97.682572 
L 110.356364 92.49478 
L 113.602909 87.620971 
L 116.849455 83.074107 
L 120.096 78.865622 
L 123.342545 75.005519 
L 126.589091 71.502442 
L 129.835636 68.363812 
L 133.082182 65.595892 
L 136.328727 63.20393 
L 139.575273 61.192194 
L 142.821818 59.56413 
L 146.068364 58.322391 
L 149.314909 57.468929 
L 152.561455 57.005055 
L 155.808 56.931433 
L 159.054545 57.248169 
L 162.301091 57.954752 
L 165.547636 59.050084 
L 168.794182 60.532421 
L 172.040727 62.399344 
L 175.287273 64.647705 
L 178.533818 67.273526 
L 181.780364 70.271933 
L 185.026909 73.637066 
L 188.273455 77.361969 
L 191.52 81.438488 
L 194.766545 85.857182 
L 198.013091 90.607212 
L 201.259636 95.676264 
L 204.506182 101.050449 
L 209.376 109.649504 
L 214.245818 118.840497 
L 219.115636 128.555537 
L 223.985455 138.718305 
L 230.478545 152.81832 
L 238.594909 171.014119 
L 253.204364 203.921867 
L 259.697455 217.984342 
L 264.567273 228.077157 
L 269.437091 237.663321 
L 274.306909 246.642075 
L 277.553455 252.243442 
L 280.8 257.506393 
L 284.046545 262.406296 
L 287.293091 266.920268 
L 290.539636 271.027287 
L 293.786182 274.708284 
L 297.032727 277.946229 
L 300.279273 280.726187 
L 303.525818 283.035382 
L 306.772364 284.863234 
L 308.395636 285.593961 
L 310.018909 286.201398 
L 311.642182 286.684856 
L 313.265455 287.043787 
L 314.888727 287.277786 
L 316.512 287.386592 
L 318.135273 287.370087 
L 319.758545 287.228296 
L 321.381818 286.961386 
L 323.005091 286.569671 
L 324.628364 286.053604 
L 326.251636 285.413782 
L 329.498182 283.765975 
L 332.744727 281.633854 
L 335.991273 279.027259 
L 339.237818 275.958232 
L 342.484364 272.440968 
L 345.730909 268.491765 
L 348.977455 264.128957 
L 352.224 259.372839 
L 355.470545 254.245574 
L 358.717091 248.771091 
L 361.963636 242.974965 
L 366.833455 233.737314 
L 371.703273 223.934153 
L 376.573091 213.667939 
L 383.066182 199.443837 
L 394.429091 173.805611 
L 397.675636 166.46345 
L 397.675636 166.46345 
" style="fill:none;stroke:#000000;stroke-linecap:square;"/>
   </g>
   <g id="line2d_20">
    <path clip-path="url(#p10efe8970e)" d="M 77.791889 174.579748 
L 85.710214 192.583199 
L 93.628863 210.174207 
L 101.547187 226.880404 
L 109.465512 242.250999 
L 117.383836 255.873852 
L 125.302485 267.386379 
L 133.220809 276.485536 
L 141.139134 282.935918 
L 149.057458 286.573492 
L 156.976107 287.305977 
L 164.894431 285.114347 
L 172.812756 280.054634 
L 180.73108 272.256421 
L 188.649729 261.919932 
L 196.568054 249.313627 
L 204.486378 234.770894 
L 212.404702 218.681 
L 220.323351 201.477049 
L 228.241676 183.622261 
L 236.16 165.589839 
L 244.078324 147.844069 
L 251.996649 130.819505 
L 259.915298 114.909531 
L 267.833622 100.452641 
L 275.751946 87.724814 
L 283.670271 76.944852 
L 291.58892 68.274377 
L 299.507244 61.830796 
L 307.425569 57.693395 
L 315.343893 55.909441 
L 323.262542 56.502567 
L 331.180866 59.463626 
L 339.099191 64.759835 
L 347.017515 72.326393 
L 354.936164 82.066478 
L 362.854488 93.8421 
L 370.772813 107.463428 
L 378.691137 122.684217 
L 386.609786 139.196466 
L 394.528111 156.633474 
" style="fill:none;stroke:#000000;stroke-linecap:square;"/>
   </g>
   <g id="line2d_21">
    <path clip-path="url(#p10efe8970e)" d="M 77.791889 174.578985 
L 85.710214 192.582437 
L 93.628863 210.173445 
L 101.547187 226.87987 
L 109.465512 242.250618 
L 117.383836 255.873547 
L 125.302485 267.386226 
L 133.220809 276.48546 
L 141.139134 282.935872 
L 149.057458 286.573484 
L 156.976107 287.305979 
L 164.894431 285.114324 
L 172.812756 280.054565 
L 180.73108 272.256345 
L 188.649729 261.919703 
L 196.568054 249.313322 
L 204.486378 234.770513 
L 212.404702 218.680466 
L 220.323351 201.476287 
L 228.241676 183.621498 
L 236.16 165.589076 
L 244.078324 147.843307 
L 251.996649 130.818743 
L 259.915298 114.910293 
L 267.833622 100.453403 
L 275.751946 87.727101 
L 283.670271 76.946377 
L 291.58892 68.275902 
L 299.507244 61.832321 
L 307.425569 57.693395 
L 315.343893 55.909441 
L 323.262542 56.502567 
L 331.180866 59.465151 
L 339.099191 64.76136 
L 347.017515 72.327155 
L 354.936164 82.068002 
L 362.854488 93.842862 
L 370.772813 107.463428 
L 378.691137 122.683454 
L 386.609786 139.195703 
L 394.528111 156.632711 
" style="fill:none;stroke:#000000;stroke-linecap:square;"/>
   </g>
   <g id="line2d_22">
    <path clip-path="url(#p10efe8970e)" d="M 73.832727 168.304732 
L 85.087418 143.119469 
L 91.147636 130.054566 
L 96.342109 119.324262 
L 101.536582 109.112794 
L 105.865309 101.082171 
L 110.194036 93.539704 
L 113.657018 87.877729 
L 117.12 82.588313 
L 120.582982 77.691009 
L 124.045964 73.200399 
L 127.508945 69.139378 
L 130.106182 66.385593 
L 132.703418 63.887971 
L 135.300655 61.6504 
L 137.897891 59.677621 
L 140.495127 57.97497 
L 143.092364 56.542267 
L 145.6896 55.393918 
L 148.286836 54.52284 
L 150.884073 53.927176 
L 153.481309 53.61449 
L 156.078545 53.593563 
L 158.675782 53.856264 
L 161.273018 54.39392 
L 163.870255 55.213587 
L 166.467491 56.321803 
L 169.064727 57.708588 
L 171.661964 59.371798 
L 174.2592 61.304779 
L 176.856436 63.493942 
L 179.453673 65.954667 
L 182.050909 68.679086 
L 185.513891 72.68324 
L 188.976873 77.110025 
L 192.439855 81.968541 
L 195.902836 87.205185 
L 199.365818 92.802845 
L 203.694545 100.299464 
L 208.023273 108.28567 
L 212.352 116.721823 
L 217.546473 127.348747 
L 223.606691 140.296354 
L 230.532655 155.627582 
L 254.773527 209.861371 
L 260.833745 222.570217 
L 266.028218 232.916674 
L 270.356945 241.054851 
L 274.685673 248.698106 
L 278.148655 254.411266 
L 281.611636 259.740988 
L 285.074618 264.662856 
L 288.5376 269.152793 
L 292.000582 273.187827 
L 294.597818 275.90372 
L 297.195055 278.345714 
L 299.792291 280.507351 
L 302.389527 282.38248 
L 304.986764 283.965993 
L 307.584 285.253463 
L 310.181236 286.241398 
L 312.778473 286.927051 
L 315.375709 287.308579 
L 317.972945 287.384938 
L 320.570182 287.155906 
L 323.167418 286.622108 
L 325.764655 285.785009 
L 328.361891 284.646954 
L 330.959127 283.211016 
L 333.556364 281.481161 
L 336.1536 279.462015 
L 338.750836 277.15904 
L 341.348073 274.5786 
L 343.945309 271.727643 
L 346.542545 268.614413 
L 350.005527 264.070102 
L 353.468509 259.096133 
L 356.931491 253.713953 
L 360.394473 247.951837 
L 364.7232 240.261448 
L 369.051927 232.070058 
L 374.2464 221.677373 
L 379.440873 210.768072 
L 386.366836 195.63258 
L 395.890036 174.188297 
L 398.487273 168.304732 
L 398.487273 168.304732 
" style="fill:none;stroke:#ff0000;stroke-linecap:square;stroke-width:3;"/>
   </g>
   <g id="patch_3">
    <path d="M 57.6 307.584 
L 57.6 41.472 
" style="fill:none;stroke:#000000;stroke-linecap:square;stroke-linejoin:miter;stroke-width:0.8;"/>
   </g>
   <g id="patch_4">
    <path d="M 414.72 307.584 
L 414.72 41.472 
" style="fill:none;stroke:#000000;stroke-linecap:square;stroke-linejoin:miter;stroke-width:0.8;"/>
   </g>
   <g id="patch_5">
    <path d="M 57.6 307.584 
L 414.72 307.584 
" style="fill:none;stroke:#000000;stroke-linecap:square;stroke-linejoin:miter;stroke-width:0.8;"/>
   </g>
   <g id="patch_6">
    <path d="M 57.6 41.472 
L 414.72 41.472 
" style="fill:none;stroke:#000000;stroke-linecap:square;stroke-linejoin:miter;stroke-width:0.8;"/>
   </g>
   <g id="text_16">
    <!-- 5 km -->
    <g transform="translate(221.116875 35.472)scale(0.12 -0.12)">
     <use xlink:href="#DejaVuSans-53"/>
     <use x="63.623047" xlink:href="#DejaVuSans-32"/>
     <use x="95.410156" xlink:href="#DejaVuSans-107"/>
     <use x="153.320312" xlink:href="#DejaVuSans-109"/>
    </g>
   </g>
   <g id="legend_1">
    <g id="patch_7">
     <path d="M 354.099688 64.150125 
L 407.72 64.150125 
Q 409.72 64.150125 409.72 62.150125 
L 409.72 48.472 
Q 409.72 46.472 407.72 46.472 
L 354.099688 46.472 
Q 352.099688 46.472 352.099688 48.472 
L 352.099688 62.150125 
Q 352.099688 64.150125 354.099688 64.150125 
z
" style="fill:#ffffff;opacity:0.8;stroke:#cccccc;stroke-linejoin:miter;"/>
    </g>
    <g id="line2d_23">
     <path d="M 356.099688 54.570438 
L 376.099688 54.570438 
" style="fill:none;stroke:#ff0000;stroke-linecap:square;stroke-width:3;"/>
    </g>
    <g id="line2d_24"/>
    <g id="text_17">
     <!-- tsa1 -->
     <g transform="translate(384.099688 58.070438)scale(0.1 -0.1)">
      <defs>
       <path d="M 18.3125 70.21875 
L 18.3125 54.6875 
L 36.8125 54.6875 
L 36.8125 47.703125 
L 18.3125 47.703125 
L 18.3125 18.015625 
Q 18.3125 11.328125 20.140625 9.421875 
Q 21.96875 7.515625 27.59375 7.515625 
L 36.8125 7.515625 
L 36.8125 0 
L 27.59375 0 
Q 17.1875 0 13.234375 3.875 
Q 9.28125 7.765625 9.28125 18.015625 
L 9.28125 47.703125 
L 2.6875 47.703125 
L 2.6875 54.6875 
L 9.28125 54.6875 
L 9.28125 70.21875 
z
" id="DejaVuSans-116"/>
       <path d="M 44.28125 53.078125 
L 44.28125 44.578125 
Q 40.484375 46.53125 36.375 47.5 
Q 32.28125 48.484375 27.875 48.484375 
Q 21.1875 48.484375 17.84375 46.4375 
Q 14.5 44.390625 14.5 40.28125 
Q 14.5 37.15625 16.890625 35.375 
Q 19.28125 33.59375 26.515625 31.984375 
L 29.59375 31.296875 
Q 39.15625 29.25 43.1875 25.515625 
Q 47.21875 21.78125 47.21875 15.09375 
Q 47.21875 7.46875 41.1875 3.015625 
Q 35.15625 -1.421875 24.609375 -1.421875 
Q 20.21875 -1.421875 15.453125 -0.5625 
Q 10.6875 0.296875 5.421875 2 
L 5.421875 11.28125 
Q 10.40625 8.6875 15.234375 7.390625 
Q 20.0625 6.109375 24.8125 6.109375 
Q 31.15625 6.109375 34.5625 8.28125 
Q 37.984375 10.453125 37.984375 14.40625 
Q 37.984375 18.0625 35.515625 20.015625 
Q 33.0625 21.96875 24.703125 23.78125 
L 21.578125 24.515625 
Q 13.234375 26.265625 9.515625 29.90625 
Q 5.8125 33.546875 5.8125 39.890625 
Q 5.8125 47.609375 11.28125 51.796875 
Q 16.75 56 26.8125 56 
Q 31.78125 56 36.171875 55.265625 
Q 40.578125 54.546875 44.28125 53.078125 
z
" id="DejaVuSans-115"/>
      </defs>
      <use xlink:href="#DejaVuSans-116"/>
      <use x="39.208984" xlink:href="#DejaVuSans-115"/>
      <use x="91.308594" xlink:href="#DejaVuSans-97"/>
      <use x="152.587891" xlink:href="#DejaVuSans-49"/>
     </g>
    </g>
   </g>
  </g>
 </g>
 <defs>
  <clipPath id="p10efe8970e">
   <rect height="266.112" width="357.12" x="57.6" y="41.472"/>
  </clipPath>
 </defs>
</svg>
