length,160000.0,x_res:,250,y_res:,100,time in secs:,370.3968894481659
length,80000.0,x_res:,250,y_res:,100,time in secs:,326.6028118133545
length,40000.0,x_res:,250,y_res:,100,time in secs:,199.70400023460388
length,20000.0,x_res:,250,y_res:,100,time in secs:,119.31639456748962
length,10000.0,x_res:,250,y_res:,100,time in secs:,128.41847038269043
