<?xml version="1.0" encoding="utf-8" standalone="no"?>
<!DOCTYPE svg PUBLIC "-//W3C//DTD SVG 1.1//EN"
  "http://www.w3.org/Graphics/SVG/1.1/DTD/svg11.dtd">
<!-- Created with matplotlib (https://matplotlib.org/) -->
<svg height="345.6pt" version="1.1" viewBox="0 0 460.8 345.6" width="460.8pt" xmlns="http://www.w3.org/2000/svg" xmlns:xlink="http://www.w3.org/1999/xlink">
 <metadata>
  <rdf:RDF xmlns:cc="http://creativecommons.org/ns#" xmlns:dc="http://purl.org/dc/elements/1.1/" xmlns:rdf="http://www.w3.org/1999/02/22-rdf-syntax-ns#">
   <cc:Work>
    <dc:type rdf:resource="http://purl.org/dc/dcmitype/StillImage"/>
    <dc:date>2021-02-23T13:23:55.569786</dc:date>
    <dc:format>image/svg+xml</dc:format>
    <dc:creator>
     <cc:Agent>
      <dc:title>Matplotlib v3.3.0, https://matplotlib.org/</dc:title>
     </cc:Agent>
    </dc:creator>
   </cc:Work>
  </rdf:RDF>
 </metadata>
 <defs>
  <style type="text/css">*{stroke-linecap:butt;stroke-linejoin:round;}</style>
 </defs>
 <g id="figure_1">
  <g id="patch_1">
   <path d="M 0 345.6 
L 460.8 345.6 
L 460.8 0 
L 0 0 
z
" style="fill:#ffffff;"/>
  </g>
  <g id="axes_1">
   <g id="patch_2">
    <path d="M 57.6 307.584 
L 414.72 307.584 
L 414.72 41.472 
L 57.6 41.472 
z
" style="fill:#ffffff;"/>
   </g>
   <g id="matplotlib.axis_1">
    <g id="xtick_1">
     <g id="line2d_1">
      <defs>
       <path d="M 0 0 
L 0 3.5 
" id="m205a579e86" style="stroke:#000000;stroke-width:0.8;"/>
      </defs>
      <g>
       <use style="stroke:#000000;stroke-width:0.8;" x="73.832727" xlink:href="#m205a579e86" y="307.584"/>
      </g>
     </g>
     <g id="text_1">
      <!-- 0.0 -->
      <g transform="translate(65.881165 322.182437)scale(0.1 -0.1)">
       <defs>
        <path d="M 31.78125 66.40625 
Q 24.171875 66.40625 20.328125 58.90625 
Q 16.5 51.421875 16.5 36.375 
Q 16.5 21.390625 20.328125 13.890625 
Q 24.171875 6.390625 31.78125 6.390625 
Q 39.453125 6.390625 43.28125 13.890625 
Q 47.125 21.390625 47.125 36.375 
Q 47.125 51.421875 43.28125 58.90625 
Q 39.453125 66.40625 31.78125 66.40625 
z
M 31.78125 74.21875 
Q 44.046875 74.21875 50.515625 64.515625 
Q 56.984375 54.828125 56.984375 36.375 
Q 56.984375 17.96875 50.515625 8.265625 
Q 44.046875 -1.421875 31.78125 -1.421875 
Q 19.53125 -1.421875 13.0625 8.265625 
Q 6.59375 17.96875 6.59375 36.375 
Q 6.59375 54.828125 13.0625 64.515625 
Q 19.53125 74.21875 31.78125 74.21875 
z
" id="DejaVuSans-48"/>
        <path d="M 10.6875 12.40625 
L 21 12.40625 
L 21 0 
L 10.6875 0 
z
" id="DejaVuSans-46"/>
       </defs>
       <use xlink:href="#DejaVuSans-48"/>
       <use x="63.623047" xlink:href="#DejaVuSans-46"/>
       <use x="95.410156" xlink:href="#DejaVuSans-48"/>
      </g>
     </g>
    </g>
    <g id="xtick_2">
     <g id="line2d_2">
      <g>
       <use style="stroke:#000000;stroke-width:0.8;" x="138.763636" xlink:href="#m205a579e86" y="307.584"/>
      </g>
     </g>
     <g id="text_2">
      <!-- 0.2 -->
      <g transform="translate(130.812074 322.182437)scale(0.1 -0.1)">
       <defs>
        <path d="M 19.1875 8.296875 
L 53.609375 8.296875 
L 53.609375 0 
L 7.328125 0 
L 7.328125 8.296875 
Q 12.9375 14.109375 22.625 23.890625 
Q 32.328125 33.6875 34.8125 36.53125 
Q 39.546875 41.84375 41.421875 45.53125 
Q 43.3125 49.21875 43.3125 52.78125 
Q 43.3125 58.59375 39.234375 62.25 
Q 35.15625 65.921875 28.609375 65.921875 
Q 23.96875 65.921875 18.8125 64.3125 
Q 13.671875 62.703125 7.8125 59.421875 
L 7.8125 69.390625 
Q 13.765625 71.78125 18.9375 73 
Q 24.125 74.21875 28.421875 74.21875 
Q 39.75 74.21875 46.484375 68.546875 
Q 53.21875 62.890625 53.21875 53.421875 
Q 53.21875 48.921875 51.53125 44.890625 
Q 49.859375 40.875 45.40625 35.40625 
Q 44.1875 33.984375 37.640625 27.21875 
Q 31.109375 20.453125 19.1875 8.296875 
z
" id="DejaVuSans-50"/>
       </defs>
       <use xlink:href="#DejaVuSans-48"/>
       <use x="63.623047" xlink:href="#DejaVuSans-46"/>
       <use x="95.410156" xlink:href="#DejaVuSans-50"/>
      </g>
     </g>
    </g>
    <g id="xtick_3">
     <g id="line2d_3">
      <g>
       <use style="stroke:#000000;stroke-width:0.8;" x="203.694545" xlink:href="#m205a579e86" y="307.584"/>
      </g>
     </g>
     <g id="text_3">
      <!-- 0.4 -->
      <g transform="translate(195.742983 322.182437)scale(0.1 -0.1)">
       <defs>
        <path d="M 37.796875 64.3125 
L 12.890625 25.390625 
L 37.796875 25.390625 
z
M 35.203125 72.90625 
L 47.609375 72.90625 
L 47.609375 25.390625 
L 58.015625 25.390625 
L 58.015625 17.1875 
L 47.609375 17.1875 
L 47.609375 0 
L 37.796875 0 
L 37.796875 17.1875 
L 4.890625 17.1875 
L 4.890625 26.703125 
z
" id="DejaVuSans-52"/>
       </defs>
       <use xlink:href="#DejaVuSans-48"/>
       <use x="63.623047" xlink:href="#DejaVuSans-46"/>
       <use x="95.410156" xlink:href="#DejaVuSans-52"/>
      </g>
     </g>
    </g>
    <g id="xtick_4">
     <g id="line2d_4">
      <g>
       <use style="stroke:#000000;stroke-width:0.8;" x="268.625455" xlink:href="#m205a579e86" y="307.584"/>
      </g>
     </g>
     <g id="text_4">
      <!-- 0.6 -->
      <g transform="translate(260.673892 322.182437)scale(0.1 -0.1)">
       <defs>
        <path d="M 33.015625 40.375 
Q 26.375 40.375 22.484375 35.828125 
Q 18.609375 31.296875 18.609375 23.390625 
Q 18.609375 15.53125 22.484375 10.953125 
Q 26.375 6.390625 33.015625 6.390625 
Q 39.65625 6.390625 43.53125 10.953125 
Q 47.40625 15.53125 47.40625 23.390625 
Q 47.40625 31.296875 43.53125 35.828125 
Q 39.65625 40.375 33.015625 40.375 
z
M 52.59375 71.296875 
L 52.59375 62.3125 
Q 48.875 64.0625 45.09375 64.984375 
Q 41.3125 65.921875 37.59375 65.921875 
Q 27.828125 65.921875 22.671875 59.328125 
Q 17.53125 52.734375 16.796875 39.40625 
Q 19.671875 43.65625 24.015625 45.921875 
Q 28.375 48.1875 33.59375 48.1875 
Q 44.578125 48.1875 50.953125 41.515625 
Q 57.328125 34.859375 57.328125 23.390625 
Q 57.328125 12.15625 50.6875 5.359375 
Q 44.046875 -1.421875 33.015625 -1.421875 
Q 20.359375 -1.421875 13.671875 8.265625 
Q 6.984375 17.96875 6.984375 36.375 
Q 6.984375 53.65625 15.1875 63.9375 
Q 23.390625 74.21875 37.203125 74.21875 
Q 40.921875 74.21875 44.703125 73.484375 
Q 48.484375 72.75 52.59375 71.296875 
z
" id="DejaVuSans-54"/>
       </defs>
       <use xlink:href="#DejaVuSans-48"/>
       <use x="63.623047" xlink:href="#DejaVuSans-46"/>
       <use x="95.410156" xlink:href="#DejaVuSans-54"/>
      </g>
     </g>
    </g>
    <g id="xtick_5">
     <g id="line2d_5">
      <g>
       <use style="stroke:#000000;stroke-width:0.8;" x="333.556364" xlink:href="#m205a579e86" y="307.584"/>
      </g>
     </g>
     <g id="text_5">
      <!-- 0.8 -->
      <g transform="translate(325.604801 322.182437)scale(0.1 -0.1)">
       <defs>
        <path d="M 31.78125 34.625 
Q 24.75 34.625 20.71875 30.859375 
Q 16.703125 27.09375 16.703125 20.515625 
Q 16.703125 13.921875 20.71875 10.15625 
Q 24.75 6.390625 31.78125 6.390625 
Q 38.8125 6.390625 42.859375 10.171875 
Q 46.921875 13.96875 46.921875 20.515625 
Q 46.921875 27.09375 42.890625 30.859375 
Q 38.875 34.625 31.78125 34.625 
z
M 21.921875 38.8125 
Q 15.578125 40.375 12.03125 44.71875 
Q 8.5 49.078125 8.5 55.328125 
Q 8.5 64.0625 14.71875 69.140625 
Q 20.953125 74.21875 31.78125 74.21875 
Q 42.671875 74.21875 48.875 69.140625 
Q 55.078125 64.0625 55.078125 55.328125 
Q 55.078125 49.078125 51.53125 44.71875 
Q 48 40.375 41.703125 38.8125 
Q 48.828125 37.15625 52.796875 32.3125 
Q 56.78125 27.484375 56.78125 20.515625 
Q 56.78125 9.90625 50.3125 4.234375 
Q 43.84375 -1.421875 31.78125 -1.421875 
Q 19.734375 -1.421875 13.25 4.234375 
Q 6.78125 9.90625 6.78125 20.515625 
Q 6.78125 27.484375 10.78125 32.3125 
Q 14.796875 37.15625 21.921875 38.8125 
z
M 18.3125 54.390625 
Q 18.3125 48.734375 21.84375 45.5625 
Q 25.390625 42.390625 31.78125 42.390625 
Q 38.140625 42.390625 41.71875 45.5625 
Q 45.3125 48.734375 45.3125 54.390625 
Q 45.3125 60.0625 41.71875 63.234375 
Q 38.140625 66.40625 31.78125 66.40625 
Q 25.390625 66.40625 21.84375 63.234375 
Q 18.3125 60.0625 18.3125 54.390625 
z
" id="DejaVuSans-56"/>
       </defs>
       <use xlink:href="#DejaVuSans-48"/>
       <use x="63.623047" xlink:href="#DejaVuSans-46"/>
       <use x="95.410156" xlink:href="#DejaVuSans-56"/>
      </g>
     </g>
    </g>
    <g id="xtick_6">
     <g id="line2d_6">
      <g>
       <use style="stroke:#000000;stroke-width:0.8;" x="398.487273" xlink:href="#m205a579e86" y="307.584"/>
      </g>
     </g>
     <g id="text_6">
      <!-- 1.0 -->
      <g transform="translate(390.53571 322.182437)scale(0.1 -0.1)">
       <defs>
        <path d="M 12.40625 8.296875 
L 28.515625 8.296875 
L 28.515625 63.921875 
L 10.984375 60.40625 
L 10.984375 69.390625 
L 28.421875 72.90625 
L 38.28125 72.90625 
L 38.28125 8.296875 
L 54.390625 8.296875 
L 54.390625 0 
L 12.40625 0 
z
" id="DejaVuSans-49"/>
       </defs>
       <use xlink:href="#DejaVuSans-49"/>
       <use x="63.623047" xlink:href="#DejaVuSans-46"/>
       <use x="95.410156" xlink:href="#DejaVuSans-48"/>
      </g>
     </g>
    </g>
    <g id="text_7">
     <!-- x norm. -->
     <g transform="translate(216.956094 335.860562)scale(0.1 -0.1)">
      <defs>
       <path d="M 54.890625 54.6875 
L 35.109375 28.078125 
L 55.90625 0 
L 45.3125 0 
L 29.390625 21.484375 
L 13.484375 0 
L 2.875 0 
L 24.125 28.609375 
L 4.6875 54.6875 
L 15.28125 54.6875 
L 29.78125 35.203125 
L 44.28125 54.6875 
z
" id="DejaVuSans-120"/>
       <path id="DejaVuSans-32"/>
       <path d="M 54.890625 33.015625 
L 54.890625 0 
L 45.90625 0 
L 45.90625 32.71875 
Q 45.90625 40.484375 42.875 44.328125 
Q 39.84375 48.1875 33.796875 48.1875 
Q 26.515625 48.1875 22.3125 43.546875 
Q 18.109375 38.921875 18.109375 30.90625 
L 18.109375 0 
L 9.078125 0 
L 9.078125 54.6875 
L 18.109375 54.6875 
L 18.109375 46.1875 
Q 21.34375 51.125 25.703125 53.5625 
Q 30.078125 56 35.796875 56 
Q 45.21875 56 50.046875 50.171875 
Q 54.890625 44.34375 54.890625 33.015625 
z
" id="DejaVuSans-110"/>
       <path d="M 30.609375 48.390625 
Q 23.390625 48.390625 19.1875 42.75 
Q 14.984375 37.109375 14.984375 27.296875 
Q 14.984375 17.484375 19.15625 11.84375 
Q 23.34375 6.203125 30.609375 6.203125 
Q 37.796875 6.203125 41.984375 11.859375 
Q 46.1875 17.53125 46.1875 27.296875 
Q 46.1875 37.015625 41.984375 42.703125 
Q 37.796875 48.390625 30.609375 48.390625 
z
M 30.609375 56 
Q 42.328125 56 49.015625 48.375 
Q 55.71875 40.765625 55.71875 27.296875 
Q 55.71875 13.875 49.015625 6.21875 
Q 42.328125 -1.421875 30.609375 -1.421875 
Q 18.84375 -1.421875 12.171875 6.21875 
Q 5.515625 13.875 5.515625 27.296875 
Q 5.515625 40.765625 12.171875 48.375 
Q 18.84375 56 30.609375 56 
z
" id="DejaVuSans-111"/>
       <path d="M 41.109375 46.296875 
Q 39.59375 47.171875 37.8125 47.578125 
Q 36.03125 48 33.890625 48 
Q 26.265625 48 22.1875 43.046875 
Q 18.109375 38.09375 18.109375 28.8125 
L 18.109375 0 
L 9.078125 0 
L 9.078125 54.6875 
L 18.109375 54.6875 
L 18.109375 46.1875 
Q 20.953125 51.171875 25.484375 53.578125 
Q 30.03125 56 36.53125 56 
Q 37.453125 56 38.578125 55.875 
Q 39.703125 55.765625 41.0625 55.515625 
z
" id="DejaVuSans-114"/>
       <path d="M 52 44.1875 
Q 55.375 50.25 60.0625 53.125 
Q 64.75 56 71.09375 56 
Q 79.640625 56 84.28125 50.015625 
Q 88.921875 44.046875 88.921875 33.015625 
L 88.921875 0 
L 79.890625 0 
L 79.890625 32.71875 
Q 79.890625 40.578125 77.09375 44.375 
Q 74.3125 48.1875 68.609375 48.1875 
Q 61.625 48.1875 57.5625 43.546875 
Q 53.515625 38.921875 53.515625 30.90625 
L 53.515625 0 
L 44.484375 0 
L 44.484375 32.71875 
Q 44.484375 40.625 41.703125 44.40625 
Q 38.921875 48.1875 33.109375 48.1875 
Q 26.21875 48.1875 22.15625 43.53125 
Q 18.109375 38.875 18.109375 30.90625 
L 18.109375 0 
L 9.078125 0 
L 9.078125 54.6875 
L 18.109375 54.6875 
L 18.109375 46.1875 
Q 21.1875 51.21875 25.484375 53.609375 
Q 29.78125 56 35.6875 56 
Q 41.65625 56 45.828125 52.96875 
Q 50 49.953125 52 44.1875 
z
" id="DejaVuSans-109"/>
      </defs>
      <use xlink:href="#DejaVuSans-120"/>
      <use x="59.179688" xlink:href="#DejaVuSans-32"/>
      <use x="90.966797" xlink:href="#DejaVuSans-110"/>
      <use x="154.345703" xlink:href="#DejaVuSans-111"/>
      <use x="215.527344" xlink:href="#DejaVuSans-114"/>
      <use x="254.890625" xlink:href="#DejaVuSans-109"/>
      <use x="352.302734" xlink:href="#DejaVuSans-46"/>
     </g>
    </g>
   </g>
   <g id="matplotlib.axis_2">
    <g id="ytick_1">
     <g id="line2d_7">
      <defs>
       <path d="M 0 0 
L -3.5 0 
" id="m3cf971487b" style="stroke:#000000;stroke-width:0.8;"/>
      </defs>
      <g>
       <use style="stroke:#000000;stroke-width:0.8;" x="57.6" xlink:href="#m3cf971487b" y="294.680915"/>
      </g>
     </g>
     <g id="text_8">
      <!-- 0 -->
      <g transform="translate(44.2375 298.480133)scale(0.1 -0.1)">
       <use xlink:href="#DejaVuSans-48"/>
      </g>
     </g>
    </g>
    <g id="ytick_2">
     <g id="line2d_8">
      <g>
       <use style="stroke:#000000;stroke-width:0.8;" x="57.6" xlink:href="#m3cf971487b" y="243.214112"/>
      </g>
     </g>
     <g id="text_9">
      <!-- 5 -->
      <g transform="translate(44.2375 247.013331)scale(0.1 -0.1)">
       <defs>
        <path d="M 10.796875 72.90625 
L 49.515625 72.90625 
L 49.515625 64.59375 
L 19.828125 64.59375 
L 19.828125 46.734375 
Q 21.96875 47.46875 24.109375 47.828125 
Q 26.265625 48.1875 28.421875 48.1875 
Q 40.625 48.1875 47.75 41.5 
Q 54.890625 34.8125 54.890625 23.390625 
Q 54.890625 11.625 47.5625 5.09375 
Q 40.234375 -1.421875 26.90625 -1.421875 
Q 22.3125 -1.421875 17.546875 -0.640625 
Q 12.796875 0.140625 7.71875 1.703125 
L 7.71875 11.625 
Q 12.109375 9.234375 16.796875 8.0625 
Q 21.484375 6.890625 26.703125 6.890625 
Q 35.15625 6.890625 40.078125 11.328125 
Q 45.015625 15.765625 45.015625 23.390625 
Q 45.015625 31 40.078125 35.4375 
Q 35.15625 39.890625 26.703125 39.890625 
Q 22.75 39.890625 18.8125 39.015625 
Q 14.890625 38.140625 10.796875 36.28125 
z
" id="DejaVuSans-53"/>
       </defs>
       <use xlink:href="#DejaVuSans-53"/>
      </g>
     </g>
    </g>
    <g id="ytick_3">
     <g id="line2d_9">
      <g>
       <use style="stroke:#000000;stroke-width:0.8;" x="57.6" xlink:href="#m3cf971487b" y="191.74731"/>
      </g>
     </g>
     <g id="text_10">
      <!-- 10 -->
      <g transform="translate(37.875 195.546529)scale(0.1 -0.1)">
       <use xlink:href="#DejaVuSans-49"/>
       <use x="63.623047" xlink:href="#DejaVuSans-48"/>
      </g>
     </g>
    </g>
    <g id="ytick_4">
     <g id="line2d_10">
      <g>
       <use style="stroke:#000000;stroke-width:0.8;" x="57.6" xlink:href="#m3cf971487b" y="140.280508"/>
      </g>
     </g>
     <g id="text_11">
      <!-- 15 -->
      <g transform="translate(37.875 144.079726)scale(0.1 -0.1)">
       <use xlink:href="#DejaVuSans-49"/>
       <use x="63.623047" xlink:href="#DejaVuSans-53"/>
      </g>
     </g>
    </g>
    <g id="ytick_5">
     <g id="line2d_11">
      <g>
       <use style="stroke:#000000;stroke-width:0.8;" x="57.6" xlink:href="#m3cf971487b" y="88.813705"/>
      </g>
     </g>
     <g id="text_12">
      <!-- 20 -->
      <g transform="translate(37.875 92.612924)scale(0.1 -0.1)">
       <use xlink:href="#DejaVuSans-50"/>
       <use x="63.623047" xlink:href="#DejaVuSans-48"/>
      </g>
     </g>
    </g>
    <g id="text_13">
     <!-- kPa -->
     <g transform="translate(31.795313 183.277219)rotate(-90)scale(0.1 -0.1)">
      <defs>
       <path d="M 9.078125 75.984375 
L 18.109375 75.984375 
L 18.109375 31.109375 
L 44.921875 54.6875 
L 56.390625 54.6875 
L 27.390625 29.109375 
L 57.625 0 
L 45.90625 0 
L 18.109375 26.703125 
L 18.109375 0 
L 9.078125 0 
z
" id="DejaVuSans-107"/>
       <path d="M 19.671875 64.796875 
L 19.671875 37.40625 
L 32.078125 37.40625 
Q 38.96875 37.40625 42.71875 40.96875 
Q 46.484375 44.53125 46.484375 51.125 
Q 46.484375 57.671875 42.71875 61.234375 
Q 38.96875 64.796875 32.078125 64.796875 
z
M 9.8125 72.90625 
L 32.078125 72.90625 
Q 44.34375 72.90625 50.609375 67.359375 
Q 56.890625 61.8125 56.890625 51.125 
Q 56.890625 40.328125 50.609375 34.8125 
Q 44.34375 29.296875 32.078125 29.296875 
L 19.671875 29.296875 
L 19.671875 0 
L 9.8125 0 
z
" id="DejaVuSans-80"/>
       <path d="M 34.28125 27.484375 
Q 23.390625 27.484375 19.1875 25 
Q 14.984375 22.515625 14.984375 16.5 
Q 14.984375 11.71875 18.140625 8.90625 
Q 21.296875 6.109375 26.703125 6.109375 
Q 34.1875 6.109375 38.703125 11.40625 
Q 43.21875 16.703125 43.21875 25.484375 
L 43.21875 27.484375 
z
M 52.203125 31.203125 
L 52.203125 0 
L 43.21875 0 
L 43.21875 8.296875 
Q 40.140625 3.328125 35.546875 0.953125 
Q 30.953125 -1.421875 24.3125 -1.421875 
Q 15.921875 -1.421875 10.953125 3.296875 
Q 6 8.015625 6 15.921875 
Q 6 25.140625 12.171875 29.828125 
Q 18.359375 34.515625 30.609375 34.515625 
L 43.21875 34.515625 
L 43.21875 35.40625 
Q 43.21875 41.609375 39.140625 45 
Q 35.0625 48.390625 27.6875 48.390625 
Q 23 48.390625 18.546875 47.265625 
Q 14.109375 46.140625 10.015625 43.890625 
L 10.015625 52.203125 
Q 14.9375 54.109375 19.578125 55.046875 
Q 24.21875 56 28.609375 56 
Q 40.484375 56 46.34375 49.84375 
Q 52.203125 43.703125 52.203125 31.203125 
z
" id="DejaVuSans-97"/>
      </defs>
      <use xlink:href="#DejaVuSans-107"/>
      <use x="57.910156" xlink:href="#DejaVuSans-80"/>
      <use x="113.712891" xlink:href="#DejaVuSans-97"/>
     </g>
    </g>
   </g>
   <g id="line2d_12">
    <path clip-path="url(#pce930dd7cb)" d="M 74.644364 91.605409 
L 77.890909 89.412593 
L 81.137455 87.558605 
L 84.384 85.967303 
L 89.253818 83.931441 
L 94.123636 82.162836 
L 102.24 79.494477 
L 113.602909 75.981199 
L 121.719273 73.666768 
L 128.212364 72.041909 
L 133.082182 71.006161 
L 137.952 70.156578 
L 142.821818 69.513088 
L 147.691636 69.089887 
L 152.561455 68.896135 
L 157.431273 68.936505 
L 162.301091 69.211565 
L 167.170909 69.71772 
L 172.040727 70.446902 
L 176.910545 71.385924 
L 181.780364 72.515744 
L 188.273455 74.274333 
L 196.389818 76.769825 
L 207.752727 80.557442 
L 215.869091 83.428764 
L 220.738909 85.319027 
L 225.608727 87.475177 
L 228.855273 89.145481 
L 232.101818 91.077195 
L 235.348364 93.346108 
L 238.594909 96.037112 
L 241.841455 99.24267 
L 245.088 103.060488 
L 246.711273 105.230184 
L 248.334545 107.590256 
L 249.957818 110.152737 
L 251.581091 112.929155 
L 253.204364 115.930328 
L 256.450909 122.645068 
L 259.697455 130.35952 
L 262.944 139.107682 
L 266.190545 148.885747 
L 269.437091 159.643183 
L 272.683636 171.275978 
L 275.930182 183.623069 
L 282.423273 209.545501 
L 287.293091 228.939271 
L 290.539636 241.263384 
L 293.786182 252.757739 
L 297.032727 263.168204 
L 298.656 267.901402 
L 300.279273 272.29161 
L 301.902545 276.321541 
L 303.525818 279.976701 
L 305.149091 283.245043 
L 306.772364 286.116619 
L 308.395636 288.583273 
L 310.018909 290.638398 
L 311.642182 292.276749 
L 313.265455 293.494303 
L 314.888727 294.288163 
L 316.512 294.656485 
L 318.135273 294.598434 
L 319.758545 294.114158 
L 321.381818 293.204782 
L 323.005091 291.872422 
L 324.628364 290.120235 
L 326.251636 287.952483 
L 327.874909 285.374655 
L 329.498182 282.393621 
L 331.121455 279.01783 
L 332.744727 275.257561 
L 334.368 271.125207 
L 335.991273 266.635599 
L 339.237818 256.658143 
L 342.484364 245.504343 
L 345.730909 233.406317 
L 350.600727 214.107145 
L 358.717091 181.45185 
L 361.963636 169.064995 
L 365.210182 157.412684 
L 368.456727 146.653724 
L 371.703273 136.889803 
L 374.949818 128.169134 
L 378.196364 120.493385 
L 381.442909 113.826561 
L 384.689455 108.104379 
L 387.936 103.243247 
L 391.182545 99.148043 
L 394.429091 95.718687 
L 397.675636 92.855208 
L 397.675636 92.855208 
" style="fill:none;stroke:#000000;stroke-linecap:square;"/>
   </g>
   <g id="line2d_13">
    <path clip-path="url(#pce930dd7cb)" d="M 73.832727 93.512624 
L 77.079273 91.613499 
L 80.325818 90.193015 
L 83.572364 88.932079 
L 86.818909 87.974796 
L 90.065455 87.048394 
L 93.312 86.296978 
L 96.558545 85.47351 
L 99.805091 84.747828 
L 103.051636 83.857452 
L 106.298182 83.05457 
L 109.544727 82.009794 
L 112.791273 81.078245 
L 116.037818 79.889362 
L 119.284364 78.849732 
L 122.530909 77.604236 
L 125.777455 76.507993 
L 129.024 75.324256 
L 132.270545 74.269187 
L 135.517091 73.275877 
L 138.763636 72.395795 
L 142.010182 71.680407 
L 145.256727 71.083392 
L 148.503273 70.687097 
L 151.749818 70.440057 
L 154.996364 70.362856 
L 158.242909 70.48123 
L 161.489455 70.764298 
L 164.736 71.196619 
L 167.982545 71.8451 
L 171.229091 72.586222 
L 174.475636 73.522918 
L 177.722182 74.547107 
L 180.968727 75.67423 
L 184.215273 76.878554 
L 187.461818 78.06229 
L 190.708364 79.338667 
L 193.954909 80.476083 
L 197.201455 81.6907 
L 200.448 82.720036 
L 203.694545 83.790545 
L 206.941091 84.691214 
L 210.187636 85.622763 
L 213.434182 86.441086 
L 216.680727 87.310874 
L 219.927273 88.144637 
L 223.173818 89.122506 
L 226.420364 90.156989 
L 229.666909 91.469392 
L 232.913455 92.961929 
L 236.16 94.917668 
L 239.406545 97.197647 
L 242.653091 100.151842 
L 245.899636 103.600117 
L 249.146182 107.964502 
L 252.392727 113.003102 
L 255.639273 119.163678 
L 258.885818 126.173457 
L 262.132364 134.397852 
L 265.378909 143.584676 
L 268.625455 153.90377 
L 271.872 165.19044 
L 275.118545 177.249112 
L 278.365091 190.090079 
L 281.611636 203.09574 
L 284.858182 216.518282 
L 288.104727 229.282049 
L 291.351273 241.917149 
L 294.597818 253.281019 
L 297.844364 263.91406 
L 301.090909 272.802377 
L 304.337455 280.275357 
L 307.584 286.446226 
L 310.830545 290.918691 
L 314.077091 293.162644 
L 317.323636 294.119927 
L 320.570182 293.003097 
L 323.816727 290.615037 
L 327.063273 285.936705 
L 330.309818 279.565115 
L 333.556364 271.978908 
L 336.802909 262.853844 
L 340.049455 252.123016 
L 343.296 240.568719 
L 346.542545 227.856418 
L 349.789091 214.948544 
L 353.035636 201.489976 
L 356.282182 188.381381 
L 359.528727 175.53012 
L 362.775273 163.409689 
L 366.021818 152.133312 
L 369.268364 141.793632 
L 372.514909 132.627394 
L 375.761455 124.418439 
L 379.008 117.449834 
L 382.254545 111.325284 
L 385.501091 106.333005 
L 388.747636 102.020087 
L 391.994182 98.628424 
L 395.240727 95.725697 
L 398.487273 93.512624 
" style="fill:none;stroke:#000000;stroke-linecap:square;"/>
   </g>
   <g id="line2d_14">
    <path clip-path="url(#pce930dd7cb)" d="M 77.791889 98.404029 
L 85.710214 107.663936 
L 93.628863 121.643349 
L 101.547187 141.588794 
L 109.465512 167.707167 
L 117.383836 198.278035 
L 125.302485 229.845713 
L 133.220809 258.2207 
L 141.139134 279.671239 
L 149.057458 291.923838 
L 156.976107 294.325514 
L 164.894431 286.961028 
L 172.812756 270.049521 
L 180.73108 244.746794 
L 188.649729 214.13084 
L 196.568054 182.573867 
L 204.486378 154.013909 
L 212.404702 130.863112 
L 220.323351 113.897595 
L 228.241676 102.496669 
L 236.16 95.19353 
L 244.078324 90.478142 
L 251.996649 87.197648 
L 259.915298 84.390648 
L 267.833622 81.260437 
L 275.751946 77.470422 
L 283.670271 73.195589 
L 291.58892 68.909434 
L 299.507244 65.25735 
L 307.425569 62.843557 
L 315.343893 61.87701 
L 323.262542 62.236248 
L 331.180866 63.920242 
L 339.099191 67.014426 
L 347.017515 71.143093 
L 354.936164 75.491009 
L 362.854488 79.451894 
L 370.772813 82.887817 
L 378.691137 85.877009 
L 386.609786 88.783854 
L 394.528111 92.533726 
" style="fill:none;stroke:#000000;stroke-linecap:square;"/>
   </g>
   <g id="line2d_15">
    <path clip-path="url(#pce930dd7cb)" d="M 77.791889 98.404029 
L 85.710214 107.663936 
L 93.628863 121.643349 
L 101.547187 141.588794 
L 109.465512 167.707167 
L 117.383836 198.277932 
L 125.302485 229.845507 
L 133.220809 258.220597 
L 141.139134 279.671136 
L 149.057458 291.923807 
L 156.976107 294.325512 
L 164.894431 286.960987 
L 172.812756 270.049418 
L 180.73108 244.746691 
L 188.649729 214.13084 
L 196.568054 182.573867 
L 204.486378 154.013909 
L 212.404702 130.863112 
L 220.323351 113.897595 
L 228.241676 102.496669 
L 236.16 95.19353 
L 244.078324 90.478142 
L 251.996649 87.197648 
L 259.915298 84.390648 
L 267.833622 81.260437 
L 275.751946 77.470422 
L 283.670271 73.195589 
L 291.58892 68.909434 
L 299.507244 65.25632 
L 307.425569 62.842527 
L 315.343893 61.87701 
L 323.262542 62.236248 
L 331.180866 63.920242 
L 339.099191 67.013397 
L 347.017515 71.142064 
L 354.936164 75.489979 
L 362.854488 79.451894 
L 370.772813 82.887817 
L 378.691137 85.877009 
L 386.609786 88.783854 
L 394.528111 92.533726 
" style="fill:none;stroke:#000000;stroke-linecap:square;"/>
   </g>
   <g id="line2d_16">
    <path clip-path="url(#pce930dd7cb)" d="M 73.832727 94.710071 
L 76.538182 92.920046 
L 79.243636 91.387158 
L 81.949091 90.060241 
L 86.007273 88.353438 
L 91.418182 86.389855 
L 102.24 82.561456 
L 107.65091 80.347323 
L 113.061817 77.83035 
L 118.472727 75.044544 
L 130.647273 68.577113 
L 134.705455 66.681488 
L 138.763636 65.059583 
L 141.46909 64.16439 
L 144.174547 63.438029 
L 146.88 62.893088 
L 149.585453 62.533737 
L 152.29091 62.348724 
L 156.349092 62.334365 
L 160.407274 62.608508 
L 163.112727 62.99632 
L 165.818181 63.569383 
L 168.523637 64.326305 
L 171.229091 65.255878 
L 175.287273 66.93806 
L 179.345455 68.905986 
L 184.756365 71.834292 
L 196.93091 78.608188 
L 202.341817 81.281714 
L 207.752727 83.647828 
L 213.163637 85.761477 
L 223.985455 89.858183 
L 228.043636 91.662166 
L 230.74909 93.052429 
L 233.454547 94.647457 
L 236.16 96.498275 
L 238.865453 98.659181 
L 241.57091 101.187127 
L 244.276364 104.140817 
L 246.981817 107.579489 
L 249.687274 111.561322 
L 252.392727 116.141311 
L 255.098181 121.368763 
L 257.803637 127.284214 
L 260.509091 133.916061 
L 263.214544 141.276843 
L 265.920001 149.359478 
L 268.625455 158.133765 
L 271.330908 167.543605 
L 275.38909 182.659405 
L 280.8 204.031502 
L 287.563635 230.8979 
L 291.621817 246.027264 
L 294.327274 255.344533 
L 297.032727 263.875978 
L 299.738181 271.502257 
L 302.443637 278.129801 
L 303.796363 281.04667 
L 305.149091 283.687597 
L 306.501819 286.048822 
L 307.854544 288.126781 
L 309.207273 289.934914 
L 310.560001 291.482605 
L 311.912726 292.766547 
L 313.265455 293.783247 
L 314.618183 294.496789 
L 317.323636 295.488 
L 318.676365 294.808142 
L 320.02909 294.259117 
L 321.381818 293.486883 
L 322.734547 292.417695 
L 324.087272 291.073606 
L 325.44 289.452748 
L 326.792728 287.55805 
L 328.145453 285.383132 
L 329.498182 282.921025 
L 330.85091 280.178672 
L 333.556364 273.880926 
L 336.261817 266.558362 
L 338.967274 258.294791 
L 341.672727 249.197985 
L 344.378181 239.40069 
L 348.436363 223.73477 
L 361.963636 170.245128 
L 364.66909 160.52832 
L 367.374547 151.421382 
L 370.08 142.992787 
L 372.785453 135.284038 
L 375.49091 128.312057 
L 378.196364 122.072428 
L 380.901817 116.543082 
L 383.607274 111.688053 
L 386.312727 107.461126 
L 389.018181 103.809021 
L 391.723637 100.674199 
L 394.429091 97.997194 
L 397.134544 95.718419 
L 398.487273 94.710071 
L 398.487273 94.710071 
" style="fill:none;stroke:#000000;stroke-linecap:square;"/>
   </g>
   <g id="line2d_17">
    <path clip-path="url(#pce930dd7cb)" d="M 73.832727 94.253746 
L 77.079273 92.149783 
L 80.325818 90.386531 
L 83.572364 88.890905 
L 87.630545 87.281024 
L 94.123636 84.99281 
L 101.428364 82.385502 
L 106.298182 80.430792 
L 111.168 78.235219 
L 116.037818 75.804956 
L 124.965818 71.018544 
L 130.647273 68.081848 
L 134.705455 66.20228 
L 137.952 64.890906 
L 141.198545 63.789516 
L 144.445091 62.927962 
L 147.691636 62.327859 
L 150.938182 61.991266 
L 154.184727 61.884215 
L 158.242909 61.994354 
L 161.489455 62.305214 
L 164.736 62.872378 
L 167.982545 63.70614 
L 171.229091 64.79106 
L 174.475636 66.099347 
L 178.533818 67.999501 
L 183.403636 70.567694 
L 200.448 79.871863 
L 205.317818 82.12405 
L 210.187636 84.140519 
L 217.492364 86.892964 
L 223.985455 89.401456 
L 228.043636 91.209999 
L 231.290182 92.905316 
L 233.725091 94.374178 
L 236.16 96.055084 
L 238.594909 97.986119 
L 241.029818 100.209485 
L 243.464727 102.769443 
L 245.899636 105.707168 
L 248.334545 109.065892 
L 250.769455 112.887817 
L 253.204364 117.211028 
L 255.639273 122.069494 
L 258.074182 127.491007 
L 260.509091 133.495124 
L 262.944 140.09008 
L 265.378909 147.272787 
L 267.813818 155.021629 
L 271.060364 166.172426 
L 274.306909 178.131253 
L 278.365091 193.918694 
L 289.728 238.763675 
L 292.974545 250.437066 
L 295.409455 258.529295 
L 297.844364 265.94422 
L 300.279273 272.602274 
L 302.714182 278.440977 
L 304.337455 281.85549 
L 305.960727 284.876602 
L 307.584 287.499392 
L 309.207273 289.722644 
L 310.830545 291.545207 
L 312.453818 292.962994 
L 314.077091 293.969975 
L 315.700364 294.559036 
L 316.512 294.692774 
L 317.323636 294.676908 
L 318.946909 294.36508 
L 320.570182 293.707566 
L 322.193455 292.637034 
L 323.816727 291.149551 
L 325.44 289.241718 
L 327.063273 286.913185 
L 328.686545 284.171908 
L 330.309818 281.028625 
L 331.933091 277.493473 
L 334.368 271.480401 
L 336.802909 264.65827 
L 339.237818 257.0909 
L 341.672727 248.859094 
L 344.919273 237.01998 
L 348.977455 221.220392 
L 361.152 172.867228 
L 364.398545 161.068978 
L 367.645091 150.1364 
L 370.08 142.577986 
L 372.514909 135.604234 
L 374.949818 129.226468 
L 377.384727 123.444687 
L 379.819636 118.245511 
L 382.254545 113.605264 
L 384.689455 109.494096 
L 387.124364 105.87495 
L 389.559273 102.707683 
L 391.994182 99.950092 
L 394.429091 97.558944 
L 396.864 95.488949 
L 398.487273 94.253746 
L 398.487273 94.253746 
" style="fill:none;stroke:#000000;stroke-linecap:square;"/>
   </g>
   <g id="line2d_18">
    <path clip-path="url(#pce930dd7cb)" d="M 73.832727 95.314467 
L 75.464157 94.093684 
L 78.727017 92.126829 
L 81.989877 90.460365 
L 88.515596 87.751811 
L 103.198465 82.356742 
L 106.461324 80.987293 
L 111.355615 78.713685 
L 117.881333 75.325625 
L 126.038483 70.775414 
L 127.669915 70.022455 
L 130.932774 68.210628 
L 135.827061 65.944421 
L 137.458493 65.272635 
L 139.089924 64.764349 
L 140.721352 64.124082 
L 143.984211 63.190988 
L 147.247071 62.530144 
L 148.878502 62.2942 
L 157.035652 61.99103 
L 160.298511 62.207067 
L 161.929939 62.518297 
L 163.561371 62.671534 
L 166.82423 63.391596 
L 170.087089 64.383567 
L 171.718521 64.966984 
L 173.349949 65.728827 
L 174.98138 66.291503 
L 179.875671 68.617905 
L 183.13853 70.34088 
L 184.769958 71.39212 
L 186.401389 72.128178 
L 196.189967 77.64227 
L 197.821399 78.298049 
L 202.715686 80.619861 
L 207.609977 82.787941 
L 210.872836 83.92792 
L 227.187136 90.028044 
L 230.449995 91.637174 
L 233.712855 93.514714 
L 236.975714 95.778821 
L 240.238573 98.52791 
L 243.501436 101.848671 
L 245.132864 103.761857 
L 246.764295 105.853684 
L 248.395723 108.145171 
L 250.027155 110.648352 
L 251.658583 113.366509 
L 253.290014 116.319942 
L 256.552873 122.960601 
L 259.815733 130.635361 
L 263.078592 139.358912 
L 266.341451 149.160404 
L 269.604314 159.948546 
L 272.867173 171.633641 
L 276.130033 184.059703 
L 282.655751 210.113296 
L 289.18147 235.827242 
L 292.444329 247.808993 
L 295.707192 258.759935 
L 297.33862 263.8296 
L 298.970051 268.525433 
L 300.601479 272.869163 
L 302.232911 276.88378 
L 303.864339 280.464198 
L 305.49577 283.665025 
L 307.127198 286.540361 
L 308.758629 288.909646 
L 310.390061 290.867642 
L 312.021489 292.470114 
L 313.65292 293.638482 
L 315.284348 294.334212 
L 316.915779 295.424726 
L 318.547207 294.247236 
L 320.178639 294.058269 
L 321.81007 293.077903 
L 323.441498 291.679548 
L 325.072929 289.971907 
L 326.704357 287.794308 
L 328.335789 285.115819 
L 329.967217 282.123762 
L 331.598648 278.736058 
L 333.230076 274.902024 
L 334.861507 270.735098 
L 336.492939 266.225212 
L 339.755798 256.127867 
L 343.018657 244.878839 
L 346.281517 232.735877 
L 351.175807 213.400982 
L 359.332954 180.883038 
L 362.595817 168.651953 
L 365.858676 157.156307 
L 369.121535 146.611768 
L 372.384395 137.083379 
L 375.647254 128.610873 
L 378.910113 121.209206 
L 380.541545 117.884358 
L 383.804404 111.976566 
L 385.435832 109.369803 
L 387.067263 106.975794 
L 388.698695 104.781785 
L 390.330123 102.781054 
L 393.592982 99.299315 
L 395.224413 97.790998 
L 398.487273 95.193962 
L 398.487273 95.193962 
" style="fill:none;stroke:#000000;stroke-linecap:square;"/>
   </g>
   <g id="line2d_19">
    <path clip-path="url(#pce930dd7cb)" d="M 73.832727 94.258677 
L 82.157194 89.51248 
L 90.481694 86.263432 
L 98.806161 83.342022 
L 107.130596 80.07982 
L 115.455063 76.09561 
L 123.77953 71.662908 
L 132.103998 67.389866 
L 140.428465 64.032615 
L 148.752932 62.189908 
L 157.077399 61.937628 
L 165.401866 63.022517 
L 173.726334 65.781498 
L 182.050801 69.839923 
L 190.375268 74.495702 
L 198.699735 79.017287 
L 207.024202 82.852542 
L 215.34867 86.08053 
L 223.673137 89.275229 
L 231.997604 93.307889 
L 240.322396 99.521301 
L 248.646863 109.534178 
L 256.97133 124.903668 
L 265.295798 147.002782 
L 273.620265 175.572961 
L 281.944732 208.246283 
L 290.269199 240.757384 
L 298.593666 268.143972 
L 306.918134 286.489989 
L 315.242601 294.374088 
L 323.567068 291.404381 
L 331.891535 277.636548 
L 340.216002 253.821712 
L 348.54047 222.956435 
L 356.864937 189.44591 
L 365.189404 158.330625 
L 373.513871 132.875732 
L 381.838338 114.383751 
L 390.162806 101.982351 
L 398.487273 94.266314 
" style="fill:none;stroke:#000000;stroke-linecap:square;"/>
   </g>
   <g id="line2d_20">
    <path clip-path="url(#pce930dd7cb)" d="M 73.832727 100.251885 
L 76.429964 98.31819 
L 79.892945 96.066258 
L 84.221673 93.557838 
L 93.744873 88.417747 
L 98.939345 85.363262 
L 102.402327 83.111001 
L 104.999564 81.313609 
L 111.059782 76.630463 
L 123.180218 66.589972 
L 128.374691 62.888395 
L 132.703418 60.141998 
L 136.1664 58.238522 
L 139.629382 56.662113 
L 143.092364 55.422016 
L 146.555345 54.504251 
L 149.152582 54.010737 
L 152.615564 53.638286 
L 155.2128 53.568 
L 157.810036 53.671597 
L 160.407273 53.953125 
L 163.004509 54.406663 
L 165.601745 55.041253 
L 169.064727 56.164372 
L 172.527709 57.614987 
L 175.990691 59.393817 
L 179.453673 61.480212 
L 182.916655 63.783387 
L 186.379636 66.297511 
L 190.708364 69.749624 
L 201.963055 79.080774 
L 205.426036 81.663802 
L 208.889018 84.041981 
L 213.217745 86.743435 
L 218.412218 89.67903 
L 229.666909 95.868734 
L 233.129891 98.084443 
L 235.727127 99.966656 
L 238.324364 102.095019 
L 240.9216 104.527046 
L 243.518836 107.322636 
L 246.116073 110.534865 
L 248.713309 114.241397 
L 251.310545 118.482253 
L 253.907782 123.311953 
L 256.505018 128.780396 
L 259.102255 134.913267 
L 261.699491 141.727956 
L 264.296727 149.215921 
L 266.893964 157.367736 
L 269.4912 166.114788 
L 272.954182 178.578803 
L 277.282909 195.099671 
L 287.671855 235.26278 
L 291.134836 247.564685 
L 293.732073 256.088508 
L 296.329309 263.889988 
L 298.926545 270.891718 
L 301.523782 277.044579 
L 303.255273 280.656074 
L 304.986764 283.866151 
L 306.718255 286.668517 
L 308.449745 289.057815 
L 310.181236 291.029114 
L 311.912727 292.578644 
L 313.644218 293.70312 
L 315.375709 294.400273 
L 317.1072 294.668613 
L 318.838691 294.507594 
L 320.570182 293.917549 
L 322.301673 292.899726 
L 324.033164 291.456185 
L 325.764655 289.589911 
L 327.496145 287.304653 
L 329.227636 284.604867 
L 330.959127 281.495858 
L 332.690618 277.983533 
L 334.422109 274.075369 
L 337.019345 267.494503 
L 339.616582 260.084233 
L 342.213818 251.911137 
L 344.811055 243.06569 
L 348.274036 230.442076 
L 352.602764 213.781926 
L 361.260218 180.189721 
L 364.7232 167.620756 
L 368.186182 155.954646 
L 370.783418 147.905515 
L 373.380655 140.531571 
L 375.977891 133.807786 
L 378.575127 127.79694 
L 381.172364 122.421988 
L 383.7696 117.693737 
L 386.366836 113.539019 
L 388.964073 109.919946 
L 391.561309 106.782588 
L 394.158545 104.035276 
L 397.621527 100.929105 
L 398.487273 100.251885 
L 398.487273 100.251885 
" style="fill:none;stroke:#ff0000;stroke-linecap:square;stroke-width:3;"/>
   </g>
   <g id="patch_3">
    <path d="M 57.6 307.584 
L 57.6 41.472 
" style="fill:none;stroke:#000000;stroke-linecap:square;stroke-linejoin:miter;stroke-width:0.8;"/>
   </g>
   <g id="patch_4">
    <path d="M 414.72 307.584 
L 414.72 41.472 
" style="fill:none;stroke:#000000;stroke-linecap:square;stroke-linejoin:miter;stroke-width:0.8;"/>
   </g>
   <g id="patch_5">
    <path d="M 57.6 307.584 
L 414.72 307.584 
" style="fill:none;stroke:#000000;stroke-linecap:square;stroke-linejoin:miter;stroke-width:0.8;"/>
   </g>
   <g id="patch_6">
    <path d="M 57.6 41.472 
L 414.72 41.472 
" style="fill:none;stroke:#000000;stroke-linecap:square;stroke-linejoin:miter;stroke-width:0.8;"/>
   </g>
   <g id="text_14">
    <!-- 40 km -->
    <g transform="translate(217.299375 35.472)scale(0.12 -0.12)">
     <use xlink:href="#DejaVuSans-52"/>
     <use x="63.623047" xlink:href="#DejaVuSans-48"/>
     <use x="127.246094" xlink:href="#DejaVuSans-32"/>
     <use x="159.033203" xlink:href="#DejaVuSans-107"/>
     <use x="216.943359" xlink:href="#DejaVuSans-109"/>
    </g>
   </g>
   <g id="legend_1">
    <g id="patch_7">
     <path d="M 354.099688 64.150125 
L 407.72 64.150125 
Q 409.72 64.150125 409.72 62.150125 
L 409.72 48.472 
Q 409.72 46.472 407.72 46.472 
L 354.099688 46.472 
Q 352.099688 46.472 352.099688 48.472 
L 352.099688 62.150125 
Q 352.099688 64.150125 354.099688 64.150125 
z
" style="fill:#ffffff;opacity:0.8;stroke:#cccccc;stroke-linejoin:miter;"/>
    </g>
    <g id="line2d_21">
     <path d="M 356.099688 54.570438 
L 376.099688 54.570438 
" style="fill:none;stroke:#ff0000;stroke-linecap:square;stroke-width:3;"/>
    </g>
    <g id="line2d_22"/>
    <g id="text_15">
     <!-- tsa1 -->
     <g transform="translate(384.099688 58.070438)scale(0.1 -0.1)">
      <defs>
       <path d="M 18.3125 70.21875 
L 18.3125 54.6875 
L 36.8125 54.6875 
L 36.8125 47.703125 
L 18.3125 47.703125 
L 18.3125 18.015625 
Q 18.3125 11.328125 20.140625 9.421875 
Q 21.96875 7.515625 27.59375 7.515625 
L 36.8125 7.515625 
L 36.8125 0 
L 27.59375 0 
Q 17.1875 0 13.234375 3.875 
Q 9.28125 7.765625 9.28125 18.015625 
L 9.28125 47.703125 
L 2.6875 47.703125 
L 2.6875 54.6875 
L 9.28125 54.6875 
L 9.28125 70.21875 
z
" id="DejaVuSans-116"/>
       <path d="M 44.28125 53.078125 
L 44.28125 44.578125 
Q 40.484375 46.53125 36.375 47.5 
Q 32.28125 48.484375 27.875 48.484375 
Q 21.1875 48.484375 17.84375 46.4375 
Q 14.5 44.390625 14.5 40.28125 
Q 14.5 37.15625 16.890625 35.375 
Q 19.28125 33.59375 26.515625 31.984375 
L 29.59375 31.296875 
Q 39.15625 29.25 43.1875 25.515625 
Q 47.21875 21.78125 47.21875 15.09375 
Q 47.21875 7.46875 41.1875 3.015625 
Q 35.15625 -1.421875 24.609375 -1.421875 
Q 20.21875 -1.421875 15.453125 -0.5625 
Q 10.6875 0.296875 5.421875 2 
L 5.421875 11.28125 
Q 10.40625 8.6875 15.234375 7.390625 
Q 20.0625 6.109375 24.8125 6.109375 
Q 31.15625 6.109375 34.5625 8.28125 
Q 37.984375 10.453125 37.984375 14.40625 
Q 37.984375 18.0625 35.515625 20.015625 
Q 33.0625 21.96875 24.703125 23.78125 
L 21.578125 24.515625 
Q 13.234375 26.265625 9.515625 29.90625 
Q 5.8125 33.546875 5.8125 39.890625 
Q 5.8125 47.609375 11.28125 51.796875 
Q 16.75 56 26.8125 56 
Q 31.78125 56 36.171875 55.265625 
Q 40.578125 54.546875 44.28125 53.078125 
z
" id="DejaVuSans-115"/>
      </defs>
      <use xlink:href="#DejaVuSans-116"/>
      <use x="39.208984" xlink:href="#DejaVuSans-115"/>
      <use x="91.308594" xlink:href="#DejaVuSans-97"/>
      <use x="152.587891" xlink:href="#DejaVuSans-49"/>
     </g>
    </g>
   </g>
  </g>
 </g>
 <defs>
  <clipPath id="pce930dd7cb">
   <rect height="266.112" width="357.12" x="57.6" y="41.472"/>
  </clipPath>
 </defs>
</svg>
