X,Y,surf vx,surf vy,tauxy integr. above,tauxy dir. above,secinvare integr. above,secinvar dir. above,tauxy integr. below,tauxy dir. below,secinvare integr. below,secinvar dir. below,P integr.,P dir.,
0.0,1000.0,25.0611097749,1.87306738577,76677.8233424,77487.8324702,77680.0361422,77541.5604709,75269.7146742,75942.3263264,77677.2180053,76436.4232196,8964010.43567,9065979.03332
1250.0,1024.53383716,22.7418200342,1.69072722827,76677.8233424,75830.1051833,75857.0681622,75887.5443942,75269.7146742,74599.0133706,75845.4202558,74889.9843654,8712888.93096,8537312.7464
2500.0,1049.00857016,20.6022372522,1.57342035818,74895.0801671,73912.7506434,73943.9927926,73965.7457367,76212.6286981,74685.4321743,73905.9349642,74929.9465438,8526916.85658,8602684.09507
3750.0,1073.36523723,18.5720412362,1.36556060571,72995.9246046,72030.3474714,72065.1636258,72090.7759618,72226.968913,71987.4722611,72035.2483424,72333.5373675,8277989.19368,8086490.18508
5000.0,1097.54516101,16.750881192,1.31480781612,71150.853865,70226.0401053,70194.5862296,70275.1460185,71691.1408202,70592.4987644,70156.3383821,70680.684167,8094457.52934,8149965.4833
6250.0,1121.49008995,15.0776749383,1.06756923888,69362.7194987,68451.9538421,68366.7308819,68510.9405567,68993.6331598,68105.5825396,68327.3791673,68266.7156586,7853290.76407,7657695.23496
7500.0,1145.14233863,13.4633038083,0.969519189953,67517.014148,66529.6964546,66491.8991778,66576.606628,67839.1843405,66743.8039886,66467.4166038,66785.6728644,7675799.16248,7724619.57591
8750.0,1168.4449267,12.0677650352,0.86119499897,65663.3910996,64748.6240609,64661.8022529,64782.5294733,65601.7856682,64916.9006808,64642.1197842,64937.0463332,7440888.93361,7243466.58784
10000.0,1191.34171618,10.7695857416,0.754808511209,63867.2562338,62926.6055385,62939.9567963,62999.8364543,63987.6444988,63111.5726844,62954.350715,63121.3618588,7269931.66105,7315019.99231
11250.0,1213.77754672,9.62639569452,0.676620080122,62104.8615299,61229.3388687,61210.1529719,61251.3352212,62362.3885554,61523.8488007,61253.1723759,61548.7318914,7041223.42825,6838367.23226
12500.0,1235.69836841,8.59046576431,0.582186424918,60383.9059292,59471.0102936,59602.3729589,59543.3718578,60562.4494623,59892.4492035,59700.7953056,59964.2375372,6879101.06472,6920343.17346
13750.0,1257.0513721,7.66157427294,0.513434612133,58699.6090933,57878.1692947,58042.1446605,57898.676618,59093.3971222,58201.319862,58213.5337641,58490.9381285,6659389.77085,6452204.50655
15000.0,1277.78511651,6.83469451188,0.439126733907,57067.8003324,56201.0501647,56547.8093089,56246.7029436,57497.4193384,56893.3738522,56797.0072025,57178.4104372,6507928.62806,6547121.01966
16250.0,1297.84965225,6.09328501687,0.381706558835,55464.7178728,54686.0965026,55191.1860758,54710.1442195,55977.6382354,55136.0935516,55575.2342451,55993.2132744,6299103.79453,6087851.72753
17500.0,1317.19664208,5.44020321297,0.326335078649,53930.6893085,53129.8337011,53851.1288136,53155.5903222,54642.6099494,54078.3564841,54346.6018064,54847.8651723,6159970.53292,6198931.77323
18750.0,1335.77947742,4.85997075502,0.280657359963,52439.2331849,51709.197849,52697.6165878,51735.4652752,53141.4101793,52342.8810846,53391.5936413,54018.2612048,5963689.93817,5747767.70284
20000.0,1353.55339059,4.35149109435,0.239781172521,51016.0037224,50283.0367013,51568.0808574,50299.7590782,51985.0317983,51521.4100951,52427.821509,53143.1658366,5838977.40447,5880866.4456
21250.0,1370.47556268,3.90433214046,0.204189433117,49656.929591,48995.1892827,50604.8220404,49018.105705,50613.2054099,49813.3949312,51719.5394306,52580.8317601,5656210.22407,5434056.03643
22500.0,1386.50522668,3.51478048351,0.173926164994,48364.7163616,47699.5976195,49708.1352251,47712.0805183,49581.3225631,49270.092458,51054.153791,52068.4538522,5548184.67024,5596426.66806
23750.0,1401.60376574,3.175827951,0.146521827947,47154.5494577,46580.5890499,48936.8784444,46597.4132031,48388.9215129,47557.472497,50587.6333023,51743.4683785,5379669.94474,5149621.15224
25000.0,1415.73480615,2.88399969769,0.123748577534,46016.8201398,45424.2564977,48250.5688195,45433.9994906,47492.7432391,47371.1005847,50185.7990056,51503.3006628,5290502.74236,5348556.73929
26250.0,1428.864305,2.63388095249,0.103884573235,44972.5399748,44499.6836569,47682.2866838,44510.9092538,46495.5331459,45621.4664006,49966.3136649,51543.122217,5136707.55748,4896626.17748
27500.0,1440.96063217,2.41772467709,0.0886150201816,43998.0100958,43472.9795897,47118.0331214,43480.2443165,45742.4498243,45821.0198929,49700.8490241,51224.9128339,5068558.0717,5139620.21161
28750.0,1451.99464656,2.23015467036,0.0744856563686,43107.564484,42727.5039978,46754.6148943,42734.6719038,44924.8300222,43991.1628561,49727.4539368,51877.7725058,4929840.70366,4677952.46013
30000.0,1461.93976626,2.06957195559,0.062712736431,42280.1711636,41814.2390082,46198.7610308,41819.0188138,44303.0133171,44575.7864388,49427.2592239,50992.3131798,4884355.16243,4970421.0198
31250.0,1470.77203259,1.93270238314,0.0515907518509,41541.4180191,41259.6980886,46080.0463169,41264.1546646,43650.3546438,42665.3954897,49741.2084038,52636.9881119,4761084.56222,4495585.2387
32500.0,1478.47016787,1.81919993638,0.0424245283549,40875.7665274,40478.3285983,45441.4186109,40480.8904883,43165.7375271,43629.1565532,49245.1596317,50652.1787505,4739868.53046,4842799.25125
33750.0,1485.0156266,1.72539111674,0.0334386961514,40306.4980285,40130.4104684,45631.5768379,40133.0375624,42702.0698866,41695.1832591,49915.1309604,53719.2359734,4632302.43659,4351609.02561
35000.0,1490.3926402,1.65192053088,0.026258023789,39819.7981979,39500.6647848,44833.3304274,39501.664817,42370.5265268,43008.7582337,49076.9324502,50157.7511435,4636623.03933,4758214.25431
36250.0,1494.58825498,1.59501394174,0.0185268997823,39432.5085674,39362.9790188,45385.7075599,39364.3112392,42121.0168866,41141.0210768,50159.2304297,54985.9065981,4544641.07967,4246225.58567
37500.0,1497.59236334,1.55632735452,0.0128129642689,39138.5290512,38909.9395006,44376.673681,38910.1809543,41948.9957151,42719.3267807,48876.9124398,49539.2178093,4575646.56653,4717860.89749
38750.0,1499.3977281,1.53234029497,0.00553881922274,38940.6921367,38970.9748632,45308.6741742,38971.4142312,41916.3669586,41018.0604164,50380.7139041,56217.2308842,4498946.13287,4179187.21228
40000.0,1500.0,1.52539572858,0.000760361314326,38846.075634,38720.1538533,44088.8390304,38720.3093469,41916.3525242,42773.2313789,48642.7883986,48904.9549128,4557913.63986,4724320.41494
41250.0,1499.3977281,1.53235522839,-0.00690877710188,38839.7048772,38958.0177541,45371.6546139,38958.0544478,42095.135946,41330.8707638,50513.3135832,57173.7668697,4495715.0268,4149880.71489
42500.0,1497.59236334,1.55647957925,-0.0112300547959,38945.5506661,38933.2249541,44010.4887887,38933.7374638,42289.2762666,43199.2941249,48430.3108654,48421.5801655,4583832.7619,4779542.78281
43750.0,1494.58825498,1.59517452558,-0.0200961797199,39131.2343138,39326.0302807,45566.1663144,39326.4186425,42671.5740624,42078.8500972,50548.3394604,57679.5803771,4534706.7307,4156436.77792
45000.0,1490.3926402,1.65209539692,-0.0245534306545,39435.8479415,39544.4190962,44184.3032439,39545.5824262,43062.4803612,43987.849276,48323.0763786,48217.9409127,4653184.79165,4883973.56464
46250.0,1485.0156266,1.72566976815,-0.035276093839,39811.6407385,40072.8215483,45893.6146725,40074.6141844,43637.7622148,43251.2281638,50519.1019081,57613.54431,4615621.99177,4198913.17436
47500.0,1478.47016787,1.81947785831,-0.0406112401614,40308.4569251,40538.7383367,44655.8570752,40540.8365834,44224.5923764,45134.323378,48425.5017065,48386.9222082,4765312.61923,5036676.61861
48750.0,1470.77203259,1.93291569303,-0.0537198296769,40866.7901604,41185.4216172,46387.7262742,41189.8130666,44988.3763954,44834.7853605,50527.040339,57006.3712705,4737864.19323,4278680.59006
50000.0,1461.93976626,2.06964158035,-0.060818997596,41541.2507984,41885.4973999,45472.2393514,41888.9159137,45770.4160262,46642.5531823,48851.740199,48990.9005391,4918553.92936,5233388.99307
51250.0,1451.99464656,2.23057427817,-0.0769233240479,42270.1869201,42641.6866261,47113.3503795,42649.6885952,46697.1886236,46773.5855106,50729.112754,56097.3141171,4900125.98967,4396263.60843
52500.0,1440.96063217,2.41793679321,-0.0866830234192,43106.288699,43552.0629827,46660.7236768,43557.3665127,47649.6769713,48473.7480936,49687.872936,50031.2241591,5111078.88971,5470184.37055
53750.0,1428.864305,2.6351848579,-0.106498684467,43990.0675854,44411.0405545,48160.9172874,44423.2145911,48721.9464937,49016.694183,51306.3791332,55281.4850214,5101046.16882,4553287.23954
55000.0,1415.73480615,2.8851911559,-0.121830416695,44972.8288526,45508.4990708,48256.0916919,45516.4841388,49820.3666213,50589.5670567,51014.6260683,51512.1135237,5340663.0713,5742379.96303
56250.0,1401.60376574,3.17818384836,-0.148671489954,46012.7484473,46495.3390365,49666.9431929,46511.8173098,51057.0890132,51581.1666197,52467.6603522,55080.9055463,5338853.08029,4751123.0214
57500.0,1386.50522668,3.51600854011,-0.172010167972,47155.7267306,47782.4159998,50324.873907,47794.1356479,52321.1165031,53052.9259603,52922.4244111,53527.3652839,5604724.50764,6045041.11219
58750.0,1370.47556268,3.90680071072,-0.205758725055,48361.3557531,48913.4881068,51730.3752037,48934.1240723,53725.0789735,54460.9513988,54336.5052747,55905.2977892,5611304.45278,4989691.80184
60000.0,1353.55339059,4.35243589006,-0.238947737368,49656.7708743,50360.1008204,52854.9663389,50376.7581684,55133.5110741,55822.3852108,55391.2587199,56050.3575747,5900504.91682,6373763.62202
61250.0,1335.77947742,4.86278662147,-0.28130339154,51011.9285213,51631.9526685,54340.4613981,51656.6122543,56676.0392429,57596.2929983,56887.774271,57898.785588,5915832.69401,5268088.54204
62500.0,1317.19664208,5.44048468193,-0.327453110519,52438.8920618,53201.4951,55789.7647719,53224.2444601,58208.7299428,58865.4375037,58345.0610857,59041.7391941,6225070.66692,6725100.73891
63750.0,1297.84965225,6.09681111634,-0.380410829348,53925.1691012,54612.1558795,57419.9255112,54640.8591861,59862.1403025,60924.2385503,60006.6975308,60945.8957534,6249276.31541,5582912.0824
65000.0,1277.78511651,6.83515886944,-0.442629432187,55466.2201781,56273.2790549,59052.975162,56302.986091,61500.89355,62145.4590792,61679.5924324,62438.6799419,6575445.345,7097071.69553
66250.0,1257.0513721,7.66732606209,-0.508435495763,57065.4444336,57816.378959,60847.8211048,57849.3255655,63238.9334279,64396.5770419,63525.6505896,64739.6934564,6608128.03123,5929412.12002
67500.0,1235.69836841,8.59784389053,-0.589362201662,58704.4429701,59544.2292912,62557.5398698,59581.3073769,64964.353217,65615.7379663,65278.9781588,66156.0375891,6948473.20154,7487890.68264
68750.0,1213.77754672,9.63777523085,-0.670596713556,60397.117284,61205.0262031,64489.7941721,61242.4945122,66761.0624675,67971.7847631,67269.9923148,68907.9301194,6988733.04992,6302809.68904
70000.0,1191.34171618,10.7933074334,-0.77192380869,62117.9545827,62982.3415758,66217.3071191,63026.7019894,68553.6536025,69225.1605911,69033.235031,70100.8652897,7340711.54082,7894999.33189
71250.0,1168.4449267,12.0734452725,-0.87145635951,63883.6989283,64737.5834076,68227.3436821,64779.8134436,70383.3711739,71610.2524839,71095.0309592,73136.543167,7387353.40727,6698702.1045
72500.0,1145.14233863,13.4861446635,-0.993496681324,65669.3467427,66552.9972296,69954.601427,66604.0787521,72222.9342428,72922.9140014,72848.1946385,74179.1310165,7748463.57546,8315091.12601
73750.0,1121.49008995,15.0372701211,-1.1141355355,67487.7877617,68374.1181578,71973.6705798,68421.2120036,74062.4869728,75274.3421374,74901.6594893,77231.7004122,7800166.52998,7112862.27897
75000.0,1097.54516101,16.7359789206,-1.25547037661,69320.0026182,70218.7179732,73703.4357309,70275.5705175,75927.0736088,76659.2568894,76648.5588586,78293.0375898,8167864.44569,8744514.89777
76250.0,1073.36523723,18.5844331588,-1.39932835056,71171.1565726,72075.6484234,75673.9517676,72127.4851286,77757.4736616,78929.9949816,78632.1948323,81113.7035666,8223248.91189,7540958.01216
77500.0,1049.00857016,20.5917094645,-1.556611435,73030.6261412,73939.8297045,77410.3867846,74001.2209088,79623.5377491,80385.9578727,80377.4530269,82341.7345542,8594943.2074,9179504.42686
78750.0,1024.53383716,22.7562449693,-1.72422445345,74894.7949227,75803.6342228,79296.4549286,75859.8050689,81429.6230972,82546.781189,82256.7659006,84774.6227343,8652587.90289,7978506.14171
80000.0,1000.0,25.0851002971,-1.89212676041,76761.5821567,77675.5812959,81034.6980016,77740.1020907,83273.4869268,84057.8400862,83994.8311499,86231.675839,9025662.58785,9616212.17746
81250.0,975.466162836,27.5735491572,-2.08148071398,78619.2858657,79519.7101472,82822.3637779,79579.4795168,85042.4506252,86096.5795803,85760.0532324,88235.1510373,9084110.78008,8420960.63734
82500.0,950.991429835,30.2242614494,-2.25288680916,80473.3041593,81385.1849623,84547.3123997,81451.3454069,86841.9463498,87634.3989352,87474.9051166,89890.8345332,9455948.322,10050668.636
83750.0,926.634762772,33.0304711986,-2.45857840756,82305.3093254,83185.7267743,86238.1134973,83248.0222856,88561.9144196,89552.1798319,89132.269744,91517.5360986,9513725.26523,8863843.37247
85000.0,902.454838992,35.9878275542,-2.62502861163,84126.6527549,85028.4815691,87928.4158442,85094.7905396,90297.590398,91080.9000394,90802.3869623,93278.3337915,9881717.52631,10478756.9217
86250.0,878.509910048,39.0891959128,-2.83779350474,85914.1932827,86764.2198569,89530.7174347,86827.6625412,91956.594185,92886.2678655,92364.109504,94633.9884673,9937359.32851,9302824.86641
87500.0,854.857661373,42.3206274415,-2.99009699178,87683.437603,88566.5198113,91163.8987214,88631.5391331,93612.3060291,94368.6532105,93967.9891719,96385.1262691,10298916.7123,10896276.0589
88750.0,831.555073304,45.6765659119,-3.19688107388,89408.4187355,90218.8610609,92685.3177313,90281.8464279,95197.8339696,96071.2272493,95444.2856863,97584.6607695,10350992.7621,9733713.99437
90000.0,808.658283817,49.1313562093,-3.32571320486,91106.9379066,91962.1411671,94241.5415837,92024.5112573,96760.6411851,97474.2431841,96963.9823018,99225.9683399,10703567.3838,11299074.4671
91250.0,786.222453285,52.6829003216,-3.51045665289,92752.1396684,93514.9242571,95684.2919802,93575.7537209,98259.739763,99079.7214128,98358.6155702,100360.139487,10750686.0427,10152409.9775
92500.0,764.301631587,56.2927013812,-3.60686489029,94362.3821055,95180.4649587,97147.8186518,95238.9171108,99719.2564634,100378.002104,99780.6506579,101826.232209,11091809.3579,11683177.2476
93750.0,742.948627903,59.9634141499,-3.75197457234,95911.5940459,96619.6260269,98507.2804677,96676.6626754,101118.980997,101885.625246,101089.931732,102945.264774,11132612.9447,10554878.4827
95000.0,722.21488349,63.643884455,-3.80780160737,97417.1905851,98189.0333405,99865.9343754,98242.4198803,102466.430316,103062.269561,102404.188887,104208.700017,11459937.7271,12044869.7257
96250.0,702.150347754,67.3419197971,-3.89614763753,98855.3504832,99502.4614965,101131.714946,99554.2693507,103754.324374,104464.653862,103618.40086,105322.314865,11493095.6086,10937156.0435
97500.0,682.803357918,70.9953268876,-3.90452854895,100241.06741,100957.67384,102375.282056,101005.037435,104981.558275,105509.882262,104816.156596,106384.715048,11804436.6463,12380752.5905
98750.0,664.220522576,74.6164378974,-3.92166648971,101554.213382,102135.138606,103533.437562,102180.582675,106145.953992,106794.438695,105921.944325,107472.805435,11828638.0097,11295364.6394
100000.0,646.446609407,78.135021246,-3.87748635052,102805.901246,103458.374258,104652.011063,103499.033457,107244.618048,107702.995716,106994.1245,108351.202338,12122011.052,12687771.2392
101250.0,629.524437323,81.5663546734,-3.81364795378,103980.81624,104490.888548,105687.237086,104529.204322,108274.667586,108854.208534,107976.662345,109378.07092,12135959.1925,11625755.7795
102500.0,613.494773319,84.8366997091,-3.71362831385,105085.666899,105665.753139,106670.484093,105699.346772,109235.739105,109622.450116,108913.211682,110092.391292,12409612.1682,12963172.5004
103750.0,598.39623426,87.9620943954,-3.5655310197,106109.693317,106544.145988,107567.826722,106575.001616,110121.483198,110624.938273,109757.820074,111019.801082,12412038.9692,11924874.4329
105000.0,584.265193849,90.8713971232,-3.40803124358,107056.690587,107557.894668,108405.39876,107584.385967,110935.547159,111248.180653,110548.284111,111584.286215,12664442.9269,13204312.5124
106250.0,571.135695,93.5795675705,-3.17949446649,107918.196332,108271.530983,109151.295484,108295.035744,111667.936484,112089.413562,111241.434997,112380.409408,12654183.519,12189845.3649
107500.0,559.039367826,96.0257445278,-2.96345198409,108698.05714,109116.206926,109834.234623,109135.829902,112326.27065,112561.635297,111876.417816,112800.884323,12883963.2373,13408502.6962
108750.0,548.005353438,98.2242290492,-2.66545583229,109389.293398,109657.516808,110419.486951,109674.1178,112898.157148,113234.607012,112408.722766,113445.319353,12860062.8546,12418355.1778
110000.0,538.060233744,100.130683949,-2.39626654885,109996.478095,110329.57028,110943.572947,110342.8762,113396.335244,113554.124076,112883.429457,113724.938698,13065977.2795,13573493.8247
111250.0,529.227967408,101.760361224,-2.05325588623,110517.35478,110701.910954,111367.074359,110712.479487,113806.734082,114058.383601,113253.487833,114209.590359,13027626.9224,12608008.3957
112500.0,521.529832134,103.087968122,-1.74806662896,110951.978391,111198.238483,111731.174806,111206.226102,114145.256336,114226.305915,113566.278671,114349.75136,13208719.9563,13698005.8959
113750.0,514.984373403,104.137786798,-1.3869550688,111304.441993,111408.552129,111996.034119,111414.242739,114396.220171,114563.497547,113776.372066,114672.712251,13155151.3407,12756418.7033
115000.0,509.607359798,104.909470766,-1.06992053326,111574.105908,111737.335234,112210.087155,111741.119986,114578.49034,114587.71214,113936.580283,114678.6191,13310902.9106,13781210.0926
116250.0,505.411745018,105.437866978,-0.745277867792,111778.050831,111817.385216,112347.585076,111819.572676,114691.511594,114795.702553,114017.751645,114875.086945,13241555.5913,12862810.1575
117500.0,502.407636664,105.734083288,-0.48526540261,111926.398883,112034.129299,112454.71064,112035.287333,114757.81282,114715.083174,114068.660865,114782.803799,13371473.3432,13821837.6998
118750.0,500.602271897,105.893400799,-0.231192610239,112020.136551,112005.089399,112492.12241,112005.419189,114772.324648,114823.315871,114048.132539,114882.949268,13286086.7956,12927287.4578
120000.0,500.0,105.944964414,-0.0154078187079,112068.288877,112130.801092,112511.341568,112130.829004,114744.033504,114659.888733,114008.881897,114712.961326,13389849.5689,13819293.0679
121250.0,500.602271897,105.887061617,0.209354261617,112073.280003,112014.994664,112464.460022,112015.149792,114674.187422,114687.009033,113901.771538,114734.556444,13288592.98,12950492.2196
122500.0,502.407636664,105.724621175,0.436102162759,112025.919808,112036.737837,112385.472921,112037.295793,114558.905686,114425.714833,113761.398522,114470.757305,13365967.5668,13773775.2139
123750.0,505.411745018,105.414869448,0.716527095883,111921.031279,111804.448684,112232.198235,111806.103913,114376.288635,114327.3966,113544.513465,114369.080949,13249087.4204,12931423.7901
125000.0,509.607359798,104.884500276,1.02460764308,111770.632016,111736.880897,112064.004127,111739.69874,114165.852032,113997.871574,113314.753935,114038.415312,13300332.9233,13686419.4029
126250.0,514.984373403,104.100903394,1.358412153,111573.296531,111408.725424,111807.427546,111413.503115,113894.699058,113791.683829,112993.886813,113831.753179,13167675.4267,12868899.7068
127500.0,521.529832134,103.041489396,1.69416240325,111293.601768,111178.346008,111492.846806,111184.874343,113558.955025,113318.115866,112616.64614,113360.563371,13193155.6216,13557700.5233
128750.0,529.227967408,101.698944192,2.03516120645,110936.922017,110693.648654,111078.674533,110703.036755,113122.182545,112934.058373,112136.933344,112977.852882,13044818.2999,12762650.4988
130000.0,538.060233744,100.06534433,2.36090591248,110496.588859,110298.635232,110602.992614,110310.395053,112629.569312,112312.562893,111598.809772,112362.023044,13045453.2434,13388593.0666
131250.0,548.005353438,98.1516443459,2.66884124686,109974.744551,109647.677331,110023.50454,109662.895329,112018.094201,111742.391512,110953.621448,111794.344118,12881808.5796,12614376.0132
132500.0,559.039367826,95.9603809137,2.9518755059,109366.08984,109082.25704,109377.942295,109100.360612,111362.773358,110962.85513,110246.738795,111026.224588,12858517.9603,13179878.0138
133750.0,571.135695,93.5132852924,3.20290875151,108672.478243,108257.584845,108627.174111,108279.382015,110560.094025,110193.505956,109430.919831,110258.493677,12680294.0267,12426086.8628
135000.0,584.265193849,90.8244938207,3.42712232851,107893.779833,107525.719718,107813.754305,107551.169143,109747.054478,109265.266161,108558.79837,109351.182949,12634190.5388,12933460.4563
136250.0,598.39623426,87.9190476669,3.60406832164,107033.512211,106533.810168,106895.854594,106562.503746,108750.897987,108297.540215,107577.509276,108381.078246,12442259.8969,12199690.4801
137500.0,613.494773319,84.8208215857,3.75890534733,106090.355218,105639.971958,105920.103274,105673.477745,107787.522239,107223.834202,106546.941497,107342.525016,12374699.7407,12651983.7775
138750.0,629.524437323,81.5520617314,3.85126700915,105068.664811,104487.052063,104840.136244,104522.333613,106606.823957,106074.990451,105406.322115,106184.692412,12170000.8538,11937230.3073
140000.0,646.446609407,78.1488456,3.9392058483,103970.464163,103443.669179,103711.968009,103485.663772,105487.373114,104838.507203,104227.918984,104997.968556,12082587.997,12338319.2462
141250.0,664.220522576,74.6244932414,3.94289084291,102794.324068,102131.333711,102476.33099,102172.330616,104159.510319,103563.050986,102935.890635,103712.213456,11866185.7831,11641342.6193
142500.0,682.803357918,71.0300738479,3.97717865517,101554.11304,100962.975712,101210.639413,101013.835448,102850.236286,102117.109488,101624.387448,102315.768535,11760672.2074,11995382.5047
143750.0,702.150347754,67.3622674405,3.88873832387,100232.781913,99484.8716803,99826.1388519,99530.0295172,101450.009681,100790.858851,100189.664462,101003.798139,11533805.9595,11315203.1747
145000.0,722.21488349,63.6918743926,3.89185294554,98865.3405715,98227.8970607,98442.3308991,98288.2431329,99897.624966,99116.3978014,98763.9794979,99341.5428895,11412030.6426,11626137.205
146250.0,742.948627903,59.9880717089,3.70243445703,97411.660061,96572.5836403,96915.529611,96619.7203374,98490.6047748,97713.807115,97194.1863386,98019.7883838,11176110.4547,10962502.2887
147500.0,764.301631587,56.3479805588,3.70839925625,95929.1950956,95263.6052136,95434.2434067,95333.7771553,96723.3738651,96011.3109786,95675.8930317,96258.859558,11039983.6716,11233520.7028
148750.0,786.222453285,52.7033938508,3.40305350964,94358.4071332,93423.8186553,93768.9639946,93471.5717261,95187.3293569,94134.5124659,93972.7029597,94526.2510506,10796508.0576,10587039.78
150000.0,808.658283817,49.1846428605,3.45535335135,92770.1335695,92090.3639027,92216.3006852,92167.9953503,93542.1422588,93062.1385883,92391.3076883,93370.3914167,10648276.01,10821178.2926
151250.0,831.555073304,45.6831502261,2.9983463529,91111.8622089,90096.9762123,90422.7637363,90145.5369981,91407.6467151,90054.7309315,90562.2702056,90470.902376,10398516.9303,10192691.0655
152500.0,854.857661373,42.3331465542,3.16943098321,89403.7671725,88680.9412796,88776.4200278,88758.203688,90495.8710085,90221.3618667,88892.8802164,90615.3298106,10239961.732,10391609.4108
153750.0,878.509910048,39.0575838048,2.59706658359,87658.7095122,86594.3771067,86883.2956701,86647.0244807,87256.8812777,86036.3755104,86967.2671151,86399.1042298,9985140.19154,9779934.3082
155000.0,902.454838992,35.966689043,2.92779843022,85849.5305281,85069.0426622,85187.3040943,85159.9420819,86998.5854539,85863.9809576,85246.1753371,86246.7967966,9819232.78057,9949860.2918
156250.0,926.634762772,33.0851352008,2.12814182023,84232.0034769,83358.9515141,83386.7820212,83398.7635558,83861.7976366,83224.6956149,83430.9802782,83659.7703097,9563746.95308,9361742.77228
157500.0,950.991429835,30.1232264141,2.54349508926,82210.4328698,80987.6937632,81297.2412387,81081.2314616,82973.5761386,82022.0073121,81320.796125,82425.795883,9394057.0352,9510809.81782
158750.0,975.466162836,27.6886025987,1.96868282433,80478.6309429,79952.9407233,79793.0775937,80008.6664904,79647.8671762,78658.3442558,79802.8647033,78944.5445179,9141997.37586,8959661.08288
160000.0,1000.0,25.0611097749,1.87306738577,78753.6309639,77487.4712823,77680.0361422,77541.5010303,80073.3619494,79153.7537959,77677.2180053,79670.0217393,8964010.43567,9065979.03332
