0.00000	23.57005	1.71463	74.11320	-732.75768
0.00400	22.48099	2.02506	78.65350	1096.11001
0.00800	21.62358	1.68871	67.75890	-181.03702
0.01200	20.50788	1.29937	73.28900	-928.87941
0.01600	19.27190	1.19906	68.22590	-1103.67561
0.02000	18.23641	1.51000	69.32639	-837.17161
0.02400	17.38444	1.45633	70.66898	-393.40114
0.02800	16.48467	1.32780	67.92634	504.04608
0.03200	15.50258	1.17422	66.05993	-544.36316
0.03600	14.61120	1.22733	67.95283	-1642.72984
0.04000	13.88188	1.02513	63.55332	-667.20986
0.04400	13.05706	0.85104	65.05378	155.02385
0.04800	12.29082	0.82624	62.32125	-96.81814
0.05200	11.58178	0.80897	61.49340	-627.94655
0.05600	10.89311	0.90438	64.55261	-1167.70625
0.06000	10.37420	0.86127	55.16222	-1051.61160
0.06400	9.79646	0.56096	60.42903	22.67091
0.06800	9.12206	0.58781	57.03605	465.87036
0.07200	8.58288	0.61469	58.03535	-628.65596
0.07600	8.13534	0.63991	56.83976	-1939.74734
0.08000	7.67303	0.51308	54.99738	-604.54071
0.08400	7.14906	0.52565	57.59398	662.02178
0.08800	6.72667	0.50458	49.45403	-322.63011
0.09200	6.34858	0.41367	54.29341	-1107.98316
0.09600	5.96613	0.35799	51.47009	-800.67115
0.10000	5.59406	0.30360	52.65848	-139.91126
0.10400	5.25713	0.33334	49.70006	-127.74672
0.10800	5.00821	0.29496	50.82674	-584.71326
0.11200	4.74632	0.20702	49.45662	-807.76077
0.11600	4.46535	0.20809	47.37332	-683.53372
0.12000	4.22210	0.25920	47.71462	-177.82007
0.12400	4.02746	0.25094	47.84374	-455.35420
0.12800	3.79938	0.15563	46.90862	-393.86101
0.13200	3.57734	0.21620	44.90680	-691.38748
0.13600	3.43391	0.17776	45.79403	-959.54713
0.14000	3.24613	0.08539	44.67295	-405.98910
0.14400	3.03585	0.13603	42.57819	313.64998
0.14800	2.91017	0.20358	43.51888	-429.42078
0.15200	2.79359	0.14724	42.69919	-1313.10692
0.15600	2.63893	0.07411	42.98457	-282.99054
0.16000	2.49781	0.07034	41.85696	-331.19314
0.16400	2.40639	0.09175	41.03664	-1014.40551
0.16800	2.31829	0.08514	39.28208	-373.06030
0.17200	2.22277	0.08074	40.48317	-365.21843
0.17600	2.11701	0.03948	39.94249	-490.63686
0.18000	2.02981	0.10696	37.80081	327.43463
0.18400	1.98262	0.09228	39.53940	-500.60833
0.18800	1.89636	0.02130	38.93905	-696.20692
0.19200	1.81549	0.03767	38.02127	-670.63485
0.19600	1.77024	0.03867	37.65591	-1910.60108
0.20000	1.71424	0.04889	36.05556	-879.54551
0.20400	1.66991	0.06155	37.64865	-693.80737
0.20800	1.62424	0.02157	37.39824	-236.87230
0.21200	1.58405	0.02208	36.77673	513.00061
0.21600	1.55954	0.01192	36.45407	226.63618
0.22000	1.53905	0.01239	36.09183	942.36524
0.22400	1.52445	0.00662	35.85851	38.85524
0.22800	1.51538	0.00866	35.61155	156.18163
0.23200	1.50681	0.00136	35.45772	-257.48377
0.23600	1.50145	0.00510	35.29938	-251.68994
0.24000	1.49649	-0.00066	35.22296	-393.78567
0.24400	1.49502	0.00569	35.13463	-403.52058
0.24800	1.49421	-0.00131	35.12347	-432.96323
0.25200	1.49379	0.00247	35.09724	-435.51790
0.25600	1.49314	-0.00315	35.14538	-444.78780
0.26000	1.49565	0.00327	35.18763	-478.15793
0.26400	1.49872	-0.00425	35.30309	-501.60971
0.26800	1.50278	0.00069	35.40664	-657.80704
0.27200	1.50897	-0.00547	35.59950	-678.77969
0.27600	1.51902	-0.00241	35.78086	-1084.61148
0.28000	1.52826	-0.01323	36.04702	-1045.66718
0.28400	1.54445	-0.00379	36.33069	-1401.70439
0.28800	1.56833	-0.01796	36.72193	-879.61122
0.29200	1.59500	-0.01954	37.11328	-755.39462
0.29600	1.63879	-0.03569	37.70151	-315.98914
0.30000	1.68344	-0.05724	37.58364	377.28222
0.30400	1.73498	-0.04557	36.54718	374.12958
0.30800	1.79360	-0.03478	38.08007	325.85755
0.31200	1.84412	-0.04855	38.56528	-336.07816
0.31600	1.92453	-0.03099	39.45406	-659.50618
0.32000	2.01208	-0.09792	39.66356	-538.65763
0.32400	2.07854	-0.09058	38.96066	-862.53848
0.32800	2.17984	-0.06314	40.50646	-464.60201
0.33200	2.28585	-0.10155	40.81944	-13.79203
0.33600	2.38576	-0.09527	40.13337	-193.76264
0.34000	2.51030	-0.07854	41.96440	-399.21482
0.34400	2.62689	-0.14028	42.30404	-386.15265
0.34800	2.73844	-0.11711	41.73456	-505.31658
0.35200	2.89243	-0.09880	43.65202	-444.63769
0.35600	3.03352	-0.15006	44.14358	-256.65633
0.36000	3.18414	-0.14119	43.88389	-374.31602
0.36400	3.37251	-0.14207	45.67113	-368.74718
0.36800	3.53599	-0.21680	45.71139	-325.10330
0.37200	3.74399	-0.17614	46.67454	-441.46462
0.37600	3.97994	-0.22555	47.37259	-184.11711
0.38000	4.18669	-0.25704	47.78399	-483.10983
0.38400	4.40777	-0.24410	48.44462	-341.32933
0.38800	4.65464	-0.21628	48.85732	-408.22795
0.39200	4.98138	-0.21540	50.67756	-238.26543
0.39600	5.23541	-0.37856	49.29631	-420.67904
0.40000	5.52331	-0.32472	52.65178	-606.02911
0.40400	5.90949	-0.35212	50.34118	-283.28598
0.40800	6.29873	-0.42252	54.79570	-344.70969
0.41200	6.69725	-0.50369	52.08629	-410.59848
0.41600	7.04747	-0.55555	55.64410	-511.45041
0.42000	7.54170	-0.41774	55.62212	-394.52061
0.42400	8.04298	-0.54354	56.77272	25.62187
0.42800	8.47791	-0.60035	58.07083	-439.76660
0.43200	8.96002	-0.60402	57.20293	-501.64098
0.43600	9.52257	-0.59350	60.46036	-514.01701
0.44000	10.13867	-0.68098	58.01130	-178.89613
0.44400	10.70704	-0.81850	62.92008	-414.33454
0.44800	11.34690	-0.82503	59.04926	-386.69538
0.45200	11.98678	-0.94142	63.44922	-488.37894
0.45600	12.74711	-0.84741	64.54325	-583.08905
0.46000	13.51242	-1.01331	62.54742	-183.03176
0.46400	14.26691	-1.05058	67.77642	-114.34092
0.46800	15.14413	-1.13819	63.43090	-384.77180
0.47200	15.95925	-1.29509	67.89968	-777.98633
0.47600	16.88804	-1.24807	69.64580	-572.03481
0.48000	17.87892	-1.36580	67.11115	-160.64896
0.48400	18.76671	-1.50910	71.89292	-89.51170
0.48800	19.83216	-1.39884	72.03050	-209.69110
0.49200	20.93092	-1.55082	70.39581	-371.87431
0.49600	22.00360	-1.63255	75.65994	-1067.65964
0.50000	23.19703	-1.74183	70.86149	-409.74839
0.50400	24.31334	-1.95236	75.60713	51.03459
0.50800	25.56591	-1.89435	77.51956	-209.41057
0.51200	26.88633	-2.03590	74.41611	-398.52549
0.51600	28.07594	-2.19470	79.57892	-767.23506
0.52000	29.47849	-2.07930	79.81838	-592.18688
0.52400	30.91765	-2.23158	77.69671	-24.95319
0.52800	32.30043	-2.35338	83.51279	-5.68153
0.53200	33.81616	-2.45877	78.10120	-369.18126
0.53600	35.20448	-2.71555	83.34217	-944.36662
0.54000	36.77364	-2.54966	84.86870	-643.54695
0.54400	38.43353	-2.70914	81.39207	-11.05384
0.54800	40.03435	-2.82647	88.48555	22.09090
0.55200	41.73981	-2.99435	82.20281	-319.17420
0.55600	43.28635	-3.22562	87.77682	-925.05138
0.56000	45.04914	-3.05075	89.31373	-754.39653
0.56400	46.90840	-3.18457	86.15584	60.35318
0.56800	48.64072	-3.34236	92.70660	176.39338
0.57200	50.49965	-3.43268	87.20676	-435.23637
0.57600	52.14911	-3.72338	93.39419	-1372.98319
0.58000	54.01797	-3.42465	92.92471	-467.45996
0.58400	55.90565	-3.58341	92.57187	747.10145
0.58800	57.74297	-3.50301	95.59112	-295.79951
0.59200	59.62237	-3.66176	93.04113	-1081.65429
0.59600	61.46002	-3.65459	97.46088	-731.76118
0.60000	63.33869	-3.75388	94.08915	498.27067
0.60400	65.18220	-3.78262	99.03149	-184.39538
0.60800	67.06644	-3.82602	95.52336	-1051.62139
0.61200	68.89442	-3.88608	100.38138	-727.75887
0.61600	70.76935	-3.87312	97.40001	693.27721
0.62000	72.54629	-3.97833	101.39122	-299.36554
0.62400	74.36385	-3.86411	99.75590	-1422.74235
0.62800	76.07434	-3.94121	102.10046	-510.39858
0.63200	77.86490	-3.68365	101.98680	1220.52098
0.63600	79.53477	-3.75844	101.92240	-607.30399
0.64000	81.42267	-3.38191	104.03510	-1187.78588
0.64400	83.03593	-3.84691	102.37431	69.45728
0.64800	84.53235	-3.67055	104.82325	-251.73602
0.65200	86.04185	-3.73972	104.85027	-680.37479
0.65600	87.49576	-3.37480	103.94577	168.01938
0.66000	89.11329	-3.22797	106.45187	-244.84246
0.66400	90.48309	-3.27627	106.85308	-1645.53234
0.66800	91.69459	-3.22378	105.09344	-151.17511
0.67200	93.04512	-2.91322	107.74318	-134.03851
0.67600	94.18605	-2.95484	107.73385	-685.32399
0.68000	95.27285	-2.65250	105.20208	904.28057
0.68400	96.44923	-2.44007	108.11919	-587.34894
0.68800	97.45908	-2.38911	109.45529	-931.32561
0.69200	98.30632	-2.38922	108.90818	412.47842
0.69600	99.06005	-2.26006	106.08545	-1715.05804
0.70000	99.91302	-1.93162	109.09333	-200.45060
0.70400	100.57952	-1.96052	110.15324	-497.01548
0.70800	101.09248	-1.80450	109.46111	-476.79363
0.71200	101.46964	-1.64486	106.01803	886.10462
0.71600	101.97381	-0.98062	109.19024	-855.55750
0.72000	102.36961	-0.80967	109.02772	1211.40261
0.72400	102.75815	-0.40184	109.47809	-812.52445
0.72800	103.01022	-0.50165	109.60463	313.17229
0.73200	103.24317	-0.32635	109.83670	-647.48047
0.73600	103.37435	-0.55111	110.14827	-230.67953
0.74000	103.45655	-0.59009	110.67053	-477.91134
0.74400	103.46673	-0.75305	111.34077	-472.86224
0.74800	103.39500	-0.37887	108.71188	-372.27431
0.75200	103.36199	0.08591	104.62925	-514.67672
0.75600	103.44475	0.68313	110.74896	-406.63712
0.76000	103.48174	0.61357	111.31982	-397.37324
0.76400	103.42739	0.61043	110.25765	-600.98699
0.76800	103.33104	0.33758	109.97860	-207.10146
0.77200	103.11215	0.45809	109.54856	-1052.54073
0.77600	102.91325	0.39446	109.53063	-38.35176
0.78000	102.60675	0.64597	109.22202	-1816.90184
0.78400	102.27221	0.72158	108.90467	-30.51104
0.78800	101.74086	1.21779	108.72414	-1573.32709
0.79200	101.24261	1.66598	105.35421	-349.32655
0.79600	100.88759	2.10225	110.09433	-376.66914
0.80000	100.42787	1.83668	109.89266	-712.67506
0.80400	99.53815	2.04429	108.35751	819.58237
0.80800	98.63826	2.26716	105.32152	-1245.48070
0.81200	97.94320	2.66571	109.41207	-82.45716
0.81600	97.14897	2.26748	108.92696	-296.70168
0.82000	95.90732	2.50924	107.39744	-1467.29429
0.82400	94.67806	2.67237	104.04157	-100.44829
0.82800	93.63842	3.16974	108.02790	-719.11443
0.83200	92.50261	2.82506	107.43675	-752.26500
0.83600	90.94328	3.35683	102.28842	918.42620
0.84000	89.70050	3.37228	106.84892	-759.65303
0.84400	88.23446	3.51728	105.70553	-1078.97427
0.84800	86.65416	3.66734	102.39023	287.49982
0.85200	85.10518	3.95800	104.97761	-650.40304
0.85600	83.64021	3.84527	102.81321	-1275.72802
0.86000	82.03934	3.67417	104.52040	395.47895
0.86400	80.21129	3.48983	102.89832	-148.55857
0.86800	78.27703	3.84137	99.80510	-2110.96923
0.87200	76.51581	4.05705	102.08631	-368.33725
0.87600	74.90877	4.13809	100.56733	582.77230
0.88000	73.11920	3.80698	101.48686	-623.42330
0.88400	71.16141	3.96924	97.55885	-1614.87319
0.88800	69.30640	3.86200	100.32629	-176.07044
0.89200	67.47918	3.96768	96.08798	263.96023
0.89600	65.64502	3.71240	98.96760	-666.05811
0.90000	63.74974	3.79942	94.73467	-1450.14383
0.90400	61.93678	3.56896	97.36123	-201.80568
0.90800	60.04311	3.61164	93.67945	335.74428
0.91200	58.23457	3.44541	95.54910	-638.25119
0.91600	56.36723	3.49266	92.15582	-1690.98422
0.92000	54.61312	3.42162	93.77865	-274.00775
0.92400	52.80616	3.35691	92.11689	781.84776
0.92800	50.96017	3.39176	89.67216	-636.29160
0.93200	49.14378	3.52223	94.79550	-1698.77255
0.93600	47.66810	3.40769	82.34085	-818.24520
0.94000	45.93563	2.80100	90.18675	475.32965
0.94400	44.03844	2.92681	86.00588	50.38075
0.94800	42.26094	2.87154	86.26458	-949.69331
0.95200	40.61786	3.25119	91.26497	-1572.94124
0.95600	39.26957	2.83257	76.70732	-1125.10709
0.96000	37.64269	2.47165	85.75522	306.45880
0.96400	35.93372	2.38604	80.58646	983.15028
0.96800	34.28683	2.60099	82.91829	-572.49170
0.97200	32.90137	2.65245	83.87967	-2441.24905
0.97600	31.48112	2.44139	79.18919	-1359.29451
0.98000	30.04924	2.42515	78.72222	194.57782
0.98400	28.71137	2.14982	80.30099	1211.42628
0.98800	27.35117	1.94086	75.07761	-3.80010
0.99200	25.97592	1.71094	78.03760	-1229.08027
0.99600	24.77596	1.81663	74.40948	-2141.81096
1.00000	23.57005	1.71463	74.11320	-733.58481
