0.00000	26.14746	3.77467	74.58581	-534.94977
0.00400	25.01998	3.61831	78.33651	439.65471
0.00800	23.95983	3.43936	69.38998	33.50079
0.01200	22.79933	3.08949	75.24984	-686.46163
0.01600	21.58556	3.08927	70.77259	-1589.02652
0.02000	20.47748	2.94442	69.66618	-823.81528
0.02400	19.40864	3.00734	71.23277	-89.44263
0.02800	18.48822	2.79685	70.56946	92.00904
0.03200	17.58708	2.64378	56.90097	-502.02200
0.03600	16.67207	2.33377	69.78358	-905.73484
0.04000	15.72466	2.23310	65.03018	-802.87210
0.04400	14.83771	1.99507	66.57705	-238.44820
0.04800	13.94561	1.96826	63.84168	139.74157
0.05200	13.14916	1.86418	62.40792	-553.37327
0.05600	12.41012	1.83645	65.24423	-1245.93189
0.06000	11.78765	1.66095	56.76931	-764.58559
0.06400	11.09310	1.48720	62.24308	34.99125
0.06800	10.43297	1.41468	59.08913	-69.14602
0.07200	9.80263	1.28343	59.40514	-637.71936
0.07600	9.20720	1.26492	57.80112	-1145.61761
0.08000	8.65179	1.17570	55.97471	-579.07449
0.08400	8.13701	1.17607	58.68642	24.42274
0.08800	7.70404	1.03843	49.65137	-331.55575
0.09200	7.23024	0.93027	56.10375	-778.73852
0.09600	6.77533	0.86041	52.17198	-749.04922
0.10000	6.36373	0.79876	53.80636	-189.11402
0.10400	6.00270	0.71935	50.55039	-244.06226
0.10800	5.65695	0.61335	52.53584	-681.28256
0.11200	5.28647	0.56936	49.77789	-676.15942
0.11600	4.98163	0.56743	49.41365	-380.61725
0.12000	4.69146	0.52552	48.20024	-324.92539
0.12400	4.45117	0.52451	49.30362	-767.21035
0.12800	4.20350	0.42342	47.78827	-442.76439
0.13200	3.96351	0.44259	46.37015	-335.55968
0.13600	3.75924	0.34014	46.93858	-732.23727
0.14000	3.52902	0.35275	44.86712	-573.37923
0.14400	3.34027	0.31352	44.46386	-82.81924
0.14800	3.15742	0.33184	43.82765	-442.91453
0.15200	3.02269	0.28518	43.89864	-990.27420
0.15600	2.87585	0.22589	44.14870	-262.23353
0.16000	2.72448	0.18770	42.68464	-381.58222
0.16400	2.57933	0.18250	40.95053	-897.30295
0.16800	2.46723	0.19196	40.82905	-340.77800
0.17200	2.37245	0.16193	41.42778	-420.19118
0.17600	2.26542	0.15155	40.07680	-631.07851
0.18000	2.17667	0.15284	39.44856	-111.35203
0.18400	2.10970	0.12900	40.54402	-531.90767
0.18800	2.03660	0.08856	39.78016	-578.97413
0.19200	1.96062	0.08011	38.85579	-453.01104
0.19600	1.89684	0.08475	37.61309	-1129.14554
0.20000	1.84929	0.09984	37.88229	-586.81308
0.20400	1.80998	0.07716	38.85903	-559.51000
0.20800	1.76616	0.05518	38.31533	-411.72882
0.21200	1.72849	0.04012	37.68350	-93.72209
0.21600	1.69710	0.03230	37.31739	-328.91436
0.22000	1.67020	0.02382	36.93412	68.14122
0.22400	1.64764	0.02248	36.65143	-385.51461
0.22800	1.63108	0.01789	36.37930	-224.28038
0.23200	1.61742	0.01542	36.19503	-442.43119
0.23600	1.60676	0.00960	36.00841	-379.87214
0.24000	1.59834	0.00838	35.90332	-461.08660
0.24400	1.59363	0.00383	35.80613	-441.09385
0.24800	1.59064	0.00252	35.78120	-462.77113
0.25200	1.59111	-0.00180	35.75903	-453.96198
0.25600	1.59307	-0.00361	35.81865	-469.86630
0.26000	1.59833	-0.00795	35.87997	-462.25360
0.26400	1.60536	-0.00970	36.02409	-503.55820
0.26800	1.61621	-0.01388	36.16372	-509.16693
0.27200	1.62969	-0.01666	36.40098	-585.97142
0.27600	1.64660	-0.02265	36.62045	-638.82694
0.28000	1.66699	-0.02581	36.95079	-742.32880
0.28400	1.69220	-0.03218	37.25456	-758.90363
0.28800	1.72354	-0.03667	37.67163	-655.10872
0.29200	1.76135	-0.05240	38.16991	-566.49552
0.29600	1.80504	-0.07294	38.96894	-403.20115
0.30000	1.84504	-0.10507	38.75023	-154.67466
0.30400	1.88598	-0.09544	36.89415	-86.39331
0.30800	1.95371	-0.07510	38.93637	-205.51661
0.31200	2.02609	-0.09280	39.57002	-418.11447
0.31600	2.10607	-0.11617	40.63173	-513.01867
0.32000	2.17839	-0.16177	40.69718	-458.09570
0.32400	2.25741	-0.16463	39.26849	-543.93436
0.32800	2.37655	-0.16275	41.59967	-466.40899
0.33200	2.48024	-0.20307	41.80660	-326.96769
0.33600	2.58776	-0.20900	40.41461	-329.92727
0.34000	2.73571	-0.20850	43.03230	-455.02098
0.34400	2.86696	-0.25456	43.34290	-444.57676
0.34800	3.00095	-0.26333	42.07153	-414.28729
0.35200	3.18165	-0.26494	44.83409	-461.03499
0.35600	3.34936	-0.31486	45.33940	-408.34697
0.36000	3.52108	-0.33541	44.28646	-382.19304
0.36400	3.74953	-0.34268	47.04135	-401.67265
0.36800	3.95960	-0.41855	47.06010	-462.67241
0.37200	4.17638	-0.44833	47.39143	-463.08853
0.37600	4.42467	-0.48841	48.73630	-260.48087
0.38000	4.67776	-0.51975	48.51485	-500.96911
0.38400	4.96099	-0.54464	49.91433	-424.09991
0.38800	5.25312	-0.58327	49.46825	-405.72453
0.39200	5.61224	-0.59228	52.31406	-333.66505
0.39600	5.96170	-0.70654	50.68792	-499.89747
0.40000	6.31852	-0.76734	53.71759	-585.48897
0.40400	6.73007	-0.84950	51.85516	-336.54371
0.40800	7.14257	-0.93293	55.79727	-372.64648
0.41200	7.60319	-1.00749	53.48926	-458.14930
0.41600	8.03398	-1.12742	56.73571	-604.59758
0.42000	8.53363	-1.12333	56.53025	-418.81025
0.42400	9.08301	-1.20479	58.45129	-92.68429
0.42800	9.64122	-1.25561	59.06857	-442.64516
0.43200	10.24121	-1.36123	59.06217	-546.63578
0.43600	10.85820	-1.44781	61.47508	-566.90285
0.44000	11.53393	-1.55670	59.65751	-295.87825
0.44400	12.21697	-1.69435	64.19510	-338.45493
0.44800	12.95180	-1.81346	60.40431	-433.59138
0.45200	13.66308	-1.98936	64.47779	-649.99786
0.45600	14.46134	-2.03284	65.48617	-528.49764
0.46000	15.34155	-2.15887	64.37172	-248.99045
0.46400	16.21991	-2.28910	69.01561	-292.47176
0.46800	17.14887	-2.45789	64.65044	-430.13094
0.47200	18.05549	-2.65187	68.88379	-690.26277
0.47600	19.02586	-2.76109	70.77262	-593.76474
0.48000	20.07670	-2.89247	68.61853	-292.19881
0.48400	21.09644	-3.06801	72.83799	-181.63770
0.48800	22.18847	-3.15826	72.84093	-322.11342
0.49200	23.37948	-3.27734	72.12325	-450.91271
0.49600	24.56541	-3.45395	76.69245	-827.27765
0.50000	25.79534	-3.63497	71.90310	-454.20012
0.50400	26.98523	-3.88162	76.35107	-231.23577
0.50800	28.24108	-3.99781	78.38536	-297.62988
0.51200	29.57378	-4.16372	75.61162	-425.60797
0.51600	30.87349	-4.32600	80.15652	-696.63789
0.52000	32.23908	-4.45058	80.25316	-523.21096
0.52400	33.70085	-4.54023	79.12617	-199.96419
0.52800	35.14317	-4.74459	84.14344	-289.76123
0.53200	36.62319	-4.88682	78.75510	-425.90116
0.53600	38.04912	-5.15590	83.53705	-723.82909
0.54000	39.54129	-5.20877	84.98929	-566.52704
0.54400	41.12192	-5.37594	82.45670	-233.72993
0.54800	42.69261	-5.48116	88.74337	-227.09167
0.55200	44.26819	-5.70209	82.34183	-416.49314
0.55600	45.79667	-5.85097	87.57446	-742.60416
0.56000	47.35929	-5.99162	88.96464	-600.86886
0.56400	49.01404	-6.01171	86.86663	-167.99374
0.56800	50.61545	-6.19999	92.42602	-208.25115
0.57200	52.23425	-6.24262	87.21182	-456.78044
0.57600	53.75924	-6.47168	92.76589	-887.62212
0.58000	55.32510	-6.39013	91.98325	-458.02590
0.58400	56.94068	-6.47580	92.76489	118.62573
0.58800	58.54816	-6.38235	94.45772	-366.75321
0.59200	60.14978	-6.48113	93.07187	-712.43229
0.59600	61.70887	-6.43520	96.15903	-640.50515
0.60000	63.26507	-6.51370	93.89756	-12.24566
0.60400	64.76622	-6.49109	97.45488	-310.11063
0.60800	66.26731	-6.52343	95.09464	-689.86936
0.61200	67.70086	-6.50119	98.54743	-637.55300
0.61600	69.13769	-6.46598	96.75842	79.18087
0.62000	70.49773	-6.43298	99.25846	-383.24399
0.62400	71.86295	-6.31668	98.84431	-824.57132
0.62800	73.14911	-6.25489	99.57529	-508.15565
0.63200	74.45541	-6.04371	100.70609	336.47193
0.63600	75.69946	-5.95957	98.96927	-558.08474
0.64000	76.96222	-5.71392	102.89097	-757.38097
0.64400	78.12635	-5.69780	100.73984	-179.89963
0.64800	79.18436	-5.53156	101.85808	-382.10651
0.65200	80.19634	-5.44220	102.91177	-550.35749
0.65600	81.17095	-5.18700	100.36560	-212.72523
0.66000	82.13801	-4.99380	104.37617	-346.17726
0.66400	83.04504	-4.74976	104.65712	-874.72698
0.66800	83.85160	-4.59230	101.22636	-278.24313
0.67200	84.64859	-4.29921	105.32537	-320.47377
0.67600	85.36940	-4.12315	104.98473	-608.74459
0.68000	86.03176	-3.83706	100.90912	155.14555
0.68400	86.67583	-3.61351	105.02126	-542.66775
0.68800	87.26684	-3.36254	106.73397	-679.36119
0.69200	87.75382	-3.21697	106.05966	4.98111
0.69600	88.16170	-2.99063	101.61825	-1011.07876
0.70000	88.54898	-2.75395	105.66287	-351.82026
0.70400	88.88529	-2.49319	106.97115	-483.09503
0.70800	89.14925	-2.24876	106.02056	-463.39882
0.71200	89.36468	-1.93551	101.04930	162.19619
0.71600	89.59528	-1.56983	104.85565	-686.65604
0.72000	89.81502	-1.23928	104.87974	296.61966
0.72400	90.00598	-0.96375	105.56375	-665.39385
0.72800	90.14850	-0.76710	105.90295	-115.09934
0.73200	90.24209	-0.61318	106.20973	-572.01144
0.73600	90.30003	-0.49901	106.55195	-357.94713
0.74000	90.33698	-0.38728	106.92222	-484.09092
0.74400	90.35339	-0.26570	107.11254	-470.01383
0.74800	90.35363	-0.11163	104.87222	-433.17553
0.75200	90.35063	0.06516	102.83284	-487.46623
0.75600	90.35073	0.23611	106.76594	-446.63272
0.76000	90.33800	0.36897	107.13195	-435.49468
0.76400	90.30677	0.49284	106.63298	-546.82185
0.76800	90.25396	0.60665	106.26611	-345.49597
0.77200	90.17048	0.76088	105.95047	-768.24923
0.77600	90.03976	0.94478	105.56078	-252.94651
0.78000	89.86305	1.21364	105.04646	-1145.49726
0.78400	89.65132	1.51429	104.63144	-238.66298
0.78800	89.42332	1.88716	102.59395	-1027.37016
0.79200	89.20155	2.19237	104.03468	-441.26080
0.79600	88.95238	2.47620	106.87539	-426.74168
0.80000	88.63530	2.69230	105.88797	-588.83549
0.80400	88.25636	2.96594	102.85240	105.52696
0.80800	87.85669	3.14665	104.56977	-917.35006
0.81200	87.38320	3.34253	106.67996	-262.64984
0.81600	86.82004	3.51175	105.26945	-385.34880
0.82000	86.16982	3.78284	102.41971	-995.17755
0.82400	85.51211	4.01508	102.94616	-291.15430
0.82800	84.78500	4.25693	105.18434	-585.89833
0.83200	84.00812	4.50210	103.16524	-656.05575
0.83600	83.16021	4.74736	101.47531	33.00816
0.84000	82.30421	5.00055	104.46851	-617.09241
0.84400	81.33674	5.19241	101.39693	-731.18412
0.84800	80.39502	5.48144	101.97041	-187.52038
0.85200	79.38659	5.52825	101.78072	-554.77332
0.85600	78.36895	5.73178	101.08202	-853.41067
0.86000	77.20030	5.64874	103.01701	-113.69542
0.86400	75.94682	5.98545	99.77506	-299.47388
0.86800	74.67809	5.96606	99.39798	-1331.63977
0.87200	73.39475	6.32849	99.32353	-390.92504
0.87600	72.13375	6.21047	99.48141	-66.01221
0.88000	70.76971	6.47830	99.78413	-527.16856
0.88400	69.40617	6.33983	96.54592	-1057.02171
0.88800	67.98037	6.56736	98.51127	-267.11170
0.89200	66.58186	6.36898	95.18166	-212.50447
0.89600	65.07936	6.52501	97.83005	-565.66384
0.90000	63.59775	6.33932	93.95041	-963.09367
0.90400	62.06151	6.46213	96.16338	-287.76161
0.90800	60.57214	6.24526	93.43885	-196.50212
0.91200	58.99247	6.28915	94.86446	-538.09903
0.91600	57.43166	6.10139	92.91490	-1061.57547
0.92000	55.78954	6.17128	93.56297	-351.04675
0.92400	54.15801	6.12246	90.68379	75.69868
0.92800	52.56751	6.26225	89.10822	-569.24746
0.93200	51.08765	6.11696	93.99497	-1141.93324
0.93600	49.64562	5.98373	83.02965	-676.06032
0.94000	48.02918	5.69180	91.67976	38.37485
0.94400	46.33817	5.78484	85.63911	-174.46357
0.94800	44.71719	5.70894	85.91567	-759.90247
0.95200	43.26061	5.75290	90.87226	-1232.89305
0.95600	41.85531	5.37820	77.58870	-847.71082
0.96000	40.29484	5.23735	87.59952	115.99678
0.96400	38.67582	5.06967	82.16273	363.88036
0.96800	37.11017	5.14911	81.84666	-789.88857
0.97200	35.61915	5.03875	84.65377	-1858.24713
0.97600	34.30218	5.01472	78.89444	-727.48705
0.98000	33.04416	4.60136	62.31697	73.99840
0.98400	31.66444	4.35446	81.01574	912.94102
0.98800	30.25237	3.99715	76.84375	-152.27687
0.99200	28.84821	3.87126	79.50522	-1226.95759
0.99600	27.47280	3.70178	75.42607	-1614.60683
1.00000	26.14746	3.77467	74.58581	-535.77690
