X,Y,surf vx,surf vy,basal vx,tau integr.,tau dir.,P integr.,P dir.,
0.0,20.0,16.1838372576,1.04478200754,15.1971881748,14915.4031599,14901.3388243,8845490.64442,178.34818897
80.0,20.0,16.1470529911,1.03416537483,15.1719984773,15227.7323112,15250.5261506,8722086.36996,-183.994837714
160.0,20.0,16.0428124616,1.02254834854,15.014329818,15479.9551841,15462.4291312,8843418.05929,211.930675011
240.0,20.0,16.0001366966,1.00612692383,14.9672445489,15762.6774558,15780.804496,8723759.77465,-164.131417532
320.0,20.0,15.8853023401,0.9906020717,14.8274543412,16008.8596571,15998.3791476,8840721.6929,208.942262529
400.0,20.0,15.8317729533,0.983353760682,14.7524239041,18177.6921788,16277.054562,8727563.98927,-138.53807936
480.0,20.0,15.7213187466,0.979020913393,14.583091499,18390.2435068,16447.2127376,8838202.20365,193.073785607
560.0,20.0,15.6777897194,0.973675231395,14.5566004258,16753.3055826,16771.0491165,8726705.66772,-187.088909365
640.0,20.0,15.5743359554,0.977715463336,14.4565898817,17290.1502555,17004.9759813,8834386.24085,150.592188378
720.0,20.0,15.556240573,0.96668743059,14.4524189465,19424.2942846,17348.3088291,8729597.62622,-165.01486276
800.0,20.0,15.4527044546,0.95275083489,14.3245992691,17550.6979181,17539.3633647,8835662.34233,233.403149369
880.0,20.0,15.4371989462,0.932809838946,14.2510731605,17772.5747637,17785.7708628,8734578.52782,-98.3841786527
960.0,20.0,15.3318733965,0.90465728842,14.1251972363,17973.9002019,17963.9993741,8828622.2765,201.746643732
1040.0,20.0,15.3032436152,0.874179252978,14.0624423994,18200.7551577,18212.4467177,8738042.1703,-133.770723408
1120.0,20.0,15.182806715,0.85522421175,13.9572187752,18414.3058375,18401.0994619,8827299.61604,172.316516837
1200.0,20.0,15.158376538,0.833683932118,13.9237893628,18669.8862855,18677.3109691,8739783.05971,-158.908196709
1280.0,20.0,15.033612547,0.819296161857,13.8660385157,20958.3436871,18915.8805193,8826773.13337,158.649814471
1360.0,20.0,15.0128092915,0.817657360306,13.8181403966,19420.4098064,19162.0143689,8742209.71883,-151.034990905
1440.0,20.0,14.9123356602,0.802334668495,13.7729955039,19403.1291895,19406.5135213,8821340.45871,154.509038196
1520.0,20.0,14.8966041078,0.791254239451,13.7075567035,19603.9638868,19615.3628399,8746938.99747,-87.3090907586
1600.0,20.0,14.8115095981,0.773565398971,13.5953543653,19769.4486717,19751.4547054,8819469.19826,171.418705653
1680.0,20.0,14.8049670718,0.742553136466,13.5708111887,19988.7234633,20006.1061112,8745222.48695,-128.483200789
1760.0,20.0,14.7135364648,0.709421268581,13.487550106,20180.3116921,20168.3320567,8814794.19643,128.064031088
1840.0,20.0,14.695109376,0.678996573677,13.4576784952,20390.5314962,20403.7165443,8747989.42067,-135.135218976
1920.0,20.0,14.602061401,0.643434696725,13.3817821296,20579.1810514,20562.3126606,8816329.56058,119.408007288
2000.0,20.0,14.5682345307,0.619641110268,13.370227559,22830.9792864,20813.3027956,8746631.14647,-102.880145963
2080.0,20.0,14.4793523608,0.599908217337,13.2711334374,24718.681268,20921.7102562,8817993.03224,149.311159069
2160.0,20.0,14.4501426777,0.583729268089,13.2786669496,21166.0807918,21190.1004408,8751251.54291,-82.9194980406
2240.0,20.0,14.3695784169,0.571708203015,13.1924457846,21314.7016394,21304.3424129,8814821.27117,190.23810953
2320.0,20.0,14.3506283808,0.565707493182,13.146633878,21464.7705616,21473.1297619,8756002.40146,-55.1162344358
2400.0,20.0,14.2928239423,0.545971604946,13.083499174,21628.0694571,21608.2804743,8811886.25009,119.616744748
2480.0,20.0,14.2732012326,0.533214100178,13.1050228706,21857.3546751,21876.3780764,8754729.93523,-117.052756968
2560.0,20.0,14.2307347368,0.510246457928,13.0632081557,22043.24216,22032.650161,8809113.86264,108.825782379
2640.0,20.0,14.2119909289,0.477588574977,13.0511387654,23958.7010494,22231.9672028,8759197.09344,-42.2104950971
2720.0,20.0,14.1564062207,0.451222988559,12.9443512522,24043.5420409,22263.5891341,8807965.06717,162.837634289
2800.0,20.0,14.1384340771,0.42009851071,12.9418417814,22444.8201256,22464.5626857,8759232.63826,-57.797852974
2880.0,20.0,14.0746201835,0.388955361363,12.8804285478,22575.7022346,22557.6033534,8808554.37662,114.70100267
2960.0,20.0,14.0476312633,0.371233446535,12.8870525902,22739.7094958,22761.916219,8758659.24543,-77.0542609297
3040.0,20.0,13.9954832148,0.352130375777,12.8254188516,24590.4057913,22838.8426557,8804234.93296,83.0231703072
3120.0,20.0,13.9729984233,0.332351707217,12.8349334512,24753.2616098,23035.3104679,8761091.05207,-99.6983309773
3200.0,20.0,13.9220395146,0.322202316856,12.7987331842,23147.2413524,23142.5751968,8804830.28085,91.0864089321
3280.0,20.0,13.9149956298,0.308283431876,12.7764737668,23261.9396493,23267.4954056,8763054.47732,-68.3366315973
3360.0,20.0,13.8711744351,0.291472778289,12.7403596562,23362.5378815,23359.8770886,8801962.79476,77.3092484673
3440.0,20.0,13.8654098112,0.279848561136,12.7165129351,23465.3230165,23467.0867312,8765022.50917,-75.496002966
3520.0,20.0,13.834846729,0.262771008743,12.6960110975,23577.2974448,23572.8119746,8798762.26981,29.0341706802
3600.0,20.0,13.8321775716,0.241016332576,12.6938565192,23700.9807222,23705.8332906,8767305.51516,-90.0173359286
3680.0,20.0,13.7980260541,0.224522729701,12.6773170261,23804.0944951,23804.1042703,8799045.91981,39.491920188
3760.0,20.0,13.8032965536,0.200867479734,12.6576150052,23878.8792212,23889.2127896,8769686.39265,-50.9656714772
3840.0,20.0,13.7644109785,0.17713040658,12.6077837993,26058.7266858,23909.4684896,8794943.39366,36.4746401896
3920.0,20.0,13.763467033,0.160015391306,12.6108881656,27850.9881728,24022.5271993,8773865.56153,-57.705274113
4000.0,20.0,13.7298205283,0.138074484894,12.5868482268,25791.4585036,24076.1953604,8794441.89586,39.7722344935
4080.0,20.0,13.7224358035,0.121132304958,12.5927471342,24168.8039325,24179.6157394,8775476.33065,-30.1742921701
4160.0,20.0,13.6908203609,0.110032616967,12.5660009125,24225.6354706,24212.8238256,8795111.01436,46.9438340955
4240.0,20.0,13.6915838874,0.0945618520339,12.581978947,24303.2242787,24320.6682823,8775998.81496,-35.4457826402
4320.0,20.0,13.6582387811,0.0843823253014,12.5482457141,24340.0604457,24324.785445,8791694.55665,28.8480327844
4400.0,20.0,13.66425289,0.0777660368027,12.5614366217,24393.8289926,24412.1445862,8778585.07855,-16.8136768424
4480.0,20.0,13.640555652,0.0650545277767,12.5190726893,24406.9620512,24383.8456334,8789940.77922,36.8488303801
4560.0,20.0,13.6434418075,0.0577328480601,12.5494603702,24464.3487891,24489.4347335,8781342.40591,-12.6337683058
4640.0,20.0,13.6276370924,0.0520151106438,12.5067673481,24711.2070727,24444.7556734,8789390.82955,20.7371083087
4720.0,20.0,13.639071485,0.0407111488205,12.553521719,28111.1610754,24567.2063521,8779874.2671,-32.5031546005
4800.0,20.0,13.6230877971,0.0326971755309,12.5081919084,26459.4208002,24501.686106,8788956.57969,20.8346492169
4880.0,20.0,13.6413484323,0.0238119256799,12.538836452,26438.561484,24577.2474543,8782603.96363,-26.2905389668
4960.0,20.0,13.6335025099,0.00679650992756,12.5189418184,24561.7452652,24545.9785854,8788436.5701,8.44458642232
5040.0,20.0,13.6460089083,-0.00878162669483,12.5447984929,24570.9196122,24596.6761725,8784318.62007,8.77712280338
5120.0,20.0,13.6381529932,-0.023349593348,12.4929922656,24516.6897524,24487.3696319,8786203.01962,14.7855746335
5200.0,20.0,13.654205077,-0.0458250531807,12.536453639,26233.3165598,24557.0435441,8788161.35519,-18.9809726081
5280.0,20.0,13.6343792522,-0.0603588396326,12.5291040772,26226.8163182,24519.3828163,8784631.66215,-10.6649159456
5360.0,20.0,13.6552964256,-0.0759366140051,12.5590854467,24525.6420378,24547.0016862,8789574.90315,12.9080472058
5440.0,20.0,13.6365935253,-0.0934068322831,12.5255568157,26354.0076141,24442.7872425,8784580.08826,-11.2807200966
5520.0,20.0,13.6535804516,-0.106062889156,12.5853789031,24715.6230614,24512.9659403,8792011.26035,26.8014809127
5600.0,20.0,13.6392556463,-0.118104968174,12.5331707651,24386.4429647,24357.2026718,8785250.00692,7.09208348384
5680.0,20.0,13.6592751197,-0.13350281853,12.5766132304,24357.4208981,24379.7416107,8790937.3038,0.00885478672706
5760.0,20.0,13.6398894242,-0.13957239968,12.5583961343,24295.8023518,24275.0825275,8784642.97644,-35.1264554696
5840.0,20.0,13.6709384685,-0.148677381022,12.6028466187,26148.0893299,24283.763064,8792242.7152,28.8597020659
5920.0,20.0,13.6539094436,-0.156487564616,12.574036819,24644.4769823,24143.6572708,8784835.83442,-11.232406204
6000.0,20.0,13.692244347,-0.162911967245,12.6107049092,25994.1469215,24121.8416656,8795929.55919,43.6346444589
6080.0,20.0,13.6846020494,-0.172004275847,12.5989236389,24026.0618181,23999.7490335,8780389.92218,-60.3166828464
6160.0,20.0,13.7306535373,-0.186245593809,12.6760320365,24006.635566,24038.8492343,8797496.15274,15.7871649703
6240.0,20.0,13.7201018478,-0.195745218533,12.6545340889,23912.2465766,23883.4936649,8777778.30319,-69.8549621649
6320.0,20.0,13.7766626858,-0.211794560664,12.7266459057,23867.8822256,23896.6757198,8800173.90944,17.4559982347
6400.0,20.0,13.763478808,-0.230022097808,12.7083214462,23755.3701292,23732.6885036,8776831.05234,-66.1013696051
6480.0,20.0,13.8169133707,-0.241916900497,12.7628216108,23666.6956894,23696.8769648,8800342.55332,35.5009030203
6560.0,20.0,13.8148688591,-0.261818883004,12.7214706043,23506.232596,23476.1628003,8773556.04963,-63.2012193873
6640.0,20.0,13.86522409,-0.282000166714,12.7805037823,23411.2182258,23433.2724887,8802687.30968,32.9952804017
6720.0,20.0,13.8605501534,-0.298780275515,12.7702651149,23274.810823,23256.1904209,8773811.73725,-68.5951339504
6800.0,20.0,13.9174186258,-0.319968068089,12.8250717869,23174.8299169,23189.8655178,8804046.38046,23.7379954473
6880.0,20.0,13.9069936221,-0.342641524443,12.8369622552,23056.163147,23038.9855635,8768871.10787,-103.559602479
6960.0,20.0,13.9585575976,-0.353225381211,12.9032431065,22948.7411702,22977.3237199,8808157.39149,67.6697304292
7040.0,20.0,13.9616391341,-0.371142450448,12.8709641928,23008.2596659,22733.4548042,8768310.5671,-69.9830832077
7120.0,20.0,14.0101239893,-0.382850178124,12.9412403046,24571.1080148,22663.6979393,8809809.10598,63.9478381684
7200.0,20.0,14.0214994707,-0.390519668833,12.9291724196,22712.8791842,22442.7129546,8768901.57769,-80.7324786681
7280.0,20.0,14.0860562993,-0.404485341374,13.0002914213,24274.4345707,22358.8404215,8810644.92864,72.2372619505
7360.0,20.0,14.0994704686,-0.417383362863,12.9867227522,22146.9308371,22122.4953756,8766402.70017,-86.3950623827
7440.0,20.0,14.1717098926,-0.434237249832,13.0607892613,22006.6066733,22028.3258038,8813890.22936,80.3144006814
7520.0,20.0,14.1908086431,-0.455807319256,13.0617455682,21827.4645888,21803.9242196,8763691.07546,-94.9784247694
7600.0,20.0,14.2582759783,-0.47815931404,13.1499949062,21697.8270848,21717.7537635,8815453.37835,82.9261008752
7680.0,20.0,14.2788038941,-0.498107755544,13.1642807842,21512.8448543,21502.004373,8763986.9648,-64.3519962731
7760.0,20.0,14.3541426841,-0.525392102038,13.2136059547,21326.4093277,21337.5906205,8819392.92361,128.875713735
7840.0,20.0,14.3654807859,-0.547151153491,13.2289770375,21119.5221961,21110.8515415,8760245.65522,-88.324476306
7920.0,20.0,14.4469972763,-0.568294139259,13.2840321384,22719.6839835,20941.4675069,8819039.7775,101.227236408
8000.0,20.0,14.4607809312,-0.59267129173,13.3182336643,24766.3807542,20732.5423548,8758367.77119,-119.12791246
8080.0,20.0,14.5349575809,-0.607153807366,13.3833401583,22791.5656321,20564.9486357,8822789.85399,138.696481399
8160.0,20.0,14.5628933469,-0.619767739818,13.3848546678,20318.2738249,20292.9998831,8758647.86975,-108.91780858
8240.0,20.0,14.6526589396,-0.639969454489,13.4948269209,20159.6488392,20178.9893839,8821038.77493,109.086257257
8320.0,20.0,14.6777199333,-0.654252631633,13.5300919519,19955.1010552,19945.7687657,8758032.34617,-101.221398799
8400.0,20.0,14.7835109757,-0.677762432741,13.5992968418,19740.1746126,19756.8656867,8822823.1399,152.133735686
8480.0,20.0,14.8080056354,-0.708826905666,13.6076104357,19492.5383725,19472.6649718,8754521.99331,-117.57537361
8560.0,20.0,14.8978373113,-0.730826784288,13.7105369454,19558.5853272,19317.9074922,8826006.55616,109.82157665
8640.0,20.0,14.9279673057,-0.756707725025,13.7476793868,21112.3511103,19064.1763956,8750342.61231,-141.936099592
8720.0,20.0,15.0138592581,-0.777787804042,13.8560674232,18887.5594927,18901.6714767,8827340.50268,116.908688937
8800.0,20.0,15.0461219584,-0.796538551529,13.9003742749,20502.0914112,18645.1389672,8749516.44912,-104.587202822
8880.0,20.0,15.1378022959,-0.812234664809,13.9569474446,20248.7447971,18400.7216158,8833054.65325,171.235216338
8960.0,20.0,15.1793126545,-0.833502933659,14.0061253535,18149.806335,18139.6249227,8745639.3523,-140.853953616
9040.0,20.0,15.2670331722,-0.845248355455,14.1137689014,17927.6393434,17948.3060907,8833943.51787,140.825505277
9120.0,20.0,15.3243978592,-0.864512184309,14.1294412474,19533.688325,17634.5236848,8744940.34447,-138.812850798
9200.0,20.0,15.4121907565,-0.882352531029,14.2451958024,19306.3251716,17440.1623235,8836902.47908,139.220791726
9280.0,20.0,15.4710730645,-0.899405557012,14.307724155,17183.7310134,17174.6760423,8741288.28514,-166.233293222
9360.0,20.0,15.5655077992,-0.924778037968,14.4264764174,16954.4316011,16969.1188713,8836972.76022,123.276355242
9440.0,20.0,15.6106206028,-0.942863048754,14.4771417381,16687.356718,16679.1608846,8738841.19347,-170.061787177
9520.0,20.0,15.7043008944,-0.959938126182,14.5718177583,16421.0596824,16433.6610545,8840186.30724,153.189597528
9600.0,20.0,15.7495526258,-0.974674479838,14.608882541,16130.7468044,16119.4779602,8737027.19966,-178.065890658
9680.0,20.0,15.8403933056,-0.985015519494,14.7210774257,15871.5407944,15881.9744138,8842122.26658,131.102181627
9760.0,20.0,15.8861768734,-0.984504247445,14.7864068548,17536.7863309,15590.9071231,8734627.67523,-195.693254132
9840.0,20.0,15.9978598762,-0.996116765894,14.8854695718,19688.7817988,15328.2871926,8844403.44007,148.782519934
9920.0,20.0,16.0367144053,-0.999730595654,14.9457415642,17462.1276291,15023.3518794,8732290.8427,-191.476988897
10000.0,20.0,16.1582961858,-1.00898880269,15.0552292863,14753.063105,14761.4148169,8849841.83154,143.038136385
10080.0,20.0,16.1989983025,-1.02557603404,15.1329386672,14479.4650017,14467.1251345,8728842.70749,-232.788062019
10160.0,20.0,16.3071870968,-1.03742211858,15.3109150034,14242.0028995,14257.5828563,8850080.66864,124.3343729
10240.0,20.0,16.3431989218,-1.0471632639,15.3833022395,13947.9479,13947.9890133,8725481.37787,-181.964121528
10320.0,20.0,16.4513134603,-1.05595710881,15.4503548917,13905.7935898,13629.6496512,8855488.23798,183.198009172
10400.0,20.0,16.4813524206,-1.05672183548,15.5022255785,15519.5560038,13296.5394639,8724237.66581,-203.869771499
10480.0,20.0,16.5918884163,-1.05500175367,15.6422173106,13024.7642933,13033.3527593,8856226.99299,145.80313465
10560.0,20.0,16.628663043,-1.05586709021,15.7371232734,12735.041313,12732.0463661,8718637.17255,-221.284835202
10640.0,20.0,16.7331282987,-1.04752764182,15.8695563602,12440.8290983,12453.332386,8859083.13531,162.065827304
10720.0,20.0,16.7779745667,-1.04126345491,15.9124891656,12113.2878975,12104.9801815,8716655.37206,-197.783892785
10800.0,20.0,16.8841361206,-1.03288125451,16.0324027185,11804.5764824,11811.8357617,8862665.42389,178.967437548
10880.0,20.0,16.9317787708,-1.02512177625,16.1125641446,11495.6094167,11488.4763953,8714451.84163,-202.390374143
10960.0,20.0,17.040409124,-1.02114124257,16.2705153277,11199.2440547,11216.3592149,8865122.9994,187.299683822
11040.0,20.0,17.0843488401,-1.02143830483,16.2948749912,10860.1727857,10851.425885,8711610.70313,-187.793078117
11120.0,20.0,17.1741013073,-1.00991633442,16.4178189177,10541.9181616,10551.7284355,8867459.31926,182.757821505
11200.0,20.0,17.2232150383,-1.00194523331,16.4810312587,10517.7366066,10214.1883925,8707108.97601,-212.566708437
11280.0,20.0,17.3058086321,-0.987148426193,16.6377821784,12248.9379765,9931.35558386,8870879.41479,192.088968913
11360.0,20.0,17.3584212969,-0.965865317254,16.6458034719,9565.32293496,9560.15759469,8704046.80429,-172.403962944
11440.0,20.0,17.4530145659,-0.955335064214,16.7206892292,11335.7476946,9231.65893323,8872858.69177,201.333565039
11520.0,20.0,17.4971425207,-0.939475763134,16.7769240882,11013.1140371,8893.72018593,8703068.00097,-208.914081146
11600.0,20.0,17.5897880886,-0.924173660064,16.9850195197,8617.45285065,8633.30215794,8873760.30939,173.183385809
11680.0,20.0,17.6323496321,-0.909959800525,17.0243019571,8293.86301213,8288.87129629,8700089.96398,-184.286539917
11760.0,20.0,17.7217245543,-0.897978833473,17.1414044349,7973.88067791,7984.46519415,8876608.22604,197.42662441
11840.0,20.0,17.7534613188,-0.876735962697,17.1540344348,7636.77952849,7632.25181482,8699326.17617,-167.039898697
11920.0,20.0,17.8498055513,-0.866425407808,17.2567117177,7316.17707854,7326.03870427,8879797.02305,190.313460467
12000.0,20.0,17.8660206545,-0.847719481532,17.2830014795,6997.39114218,6990.14828643,8695545.02835,-196.615725497
12080.0,20.0,17.9607479375,-0.827622460552,17.4842111492,6711.45363238,6724.46822575,8881771.06532,160.901325093
12160.0,20.0,17.9759837328,-0.806673645768,17.5095517014,6396.93121603,6395.90290691,8691051.44938,-174.601958017
12240.0,20.0,18.0678894581,-0.783808450952,17.5869506157,8276.51105697,6090.27550587,8884887.67055,170.518264882
12320.0,20.0,18.0819457323,-0.758188615403,17.6566573067,7976.49405484,5786.57838857,8691698.19266,-171.651628718
12400.0,20.0,18.1776950252,-0.738695258788,17.7752944454,5492.80065259,5503.20386404,8886839.94227,179.871514358
12480.0,20.0,18.1847835487,-0.714103909106,17.7429301442,5178.1964969,5176.61022201,8685973.87141,-147.379898704
12560.0,20.0,18.2793231495,-0.690681981732,17.800821551,7336.02834371,4886.17646226,8890301.17203,157.34500289
12640.0,20.0,18.2859171844,-0.673274682625,17.8861662807,4919.52092475,4608.9116002,8683301.07783,-167.399715409
12720.0,20.0,18.3662940268,-0.648944226101,18.0430737987,4343.53420097,4351.93231836,8893882.13043,144.70492734
12800.0,20.0,18.3728347014,-0.628401735801,18.0385529406,4062.12330897,4063.34397881,8681340.99416,-141.115752264
12880.0,20.0,18.4426022223,-0.606232460796,18.061678142,3787.1454259,3789.87833631,8896144.32059,145.301312556
12960.0,20.0,18.4426160721,-0.575117502882,18.0902006693,3521.72879122,3524.25135139,8679246.84808,-131.959005263
13040.0,20.0,18.5206460188,-0.547108692925,18.146840827,3270.30421591,3271.90139115,8897055.14637,119.798006071
13120.0,20.0,18.5218495614,-0.522324487252,18.2430193426,3033.81920737,3035.86628557,8678192.30805,-135.131559361
13200.0,20.0,18.5897232844,-0.49233291225,18.4071024299,2808.94123335,2813.17704358,8896655.90589,104.586551898
13280.0,20.0,18.593849079,-0.467099949812,18.4521234865,2578.580995,2581.91679507,8674102.35771,-108.086928686
13360.0,20.0,18.6557433416,-0.444310102999,18.4361915933,2350.9215753,2351.15695066,8904674.80461,105.820293818
13440.0,20.0,18.6522574798,-0.415166986519,18.508493831,2137.67204464,2140.09549346,8673025.77781,-94.7749472701
13520.0,20.0,18.718173216,-0.390581285795,18.5671628263,1933.84785086,1937.24089084,8904384.6348,96.6269623205
13600.0,20.0,18.7121966311,-0.371797760801,18.5338891117,1730.95579117,1732.65864464,8669169.79705,-75.8146918664
13680.0,20.0,18.7670005453,-0.350091540591,18.5032656904,1540.96062711,1541.52458518,8908792.02025,78.0881791532
13760.0,20.0,18.760314715,-0.333286570737,18.562798386,1364.74362055,1367.19654484,8667267.69138,-70.9796404512
13840.0,20.0,18.8065082671,-0.313682795876,18.5910203726,4063.90276399,1200.15699929,8907315.32969,61.9699648126
13920.0,20.0,18.7949207647,-0.290735622728,18.7466364917,3918.87449627,1050.62727575,8673783.08758,-54.6559158724
14000.0,20.0,18.8460825985,-0.266383101796,18.8677284868,906.065927632,908.639832145,8908600.05278,54.6623995854
14080.0,20.0,18.8362723184,-0.24355414972,18.7720995294,765.278019942,765.461418949,8662687.28818,-40.0240924707
14160.0,20.0,18.8785733718,-0.220536727246,18.7369722181,638.477667577,638.799603775,8922752.36878,42.8054504609
14240.0,20.0,18.8718123567,-0.20611994384,18.8071043399,524.09941597,525.303253536,8658100.64557,-34.2628755656
14320.0,20.0,18.9032574056,-0.18938945014,18.8402753432,747.507989303,421.670584067,8923348.63582,27.4696486381
14400.0,20.0,18.8970445371,-0.173501810956,18.9494967424,2892.57293619,330.564101209,8661331.42051,-22.2256315071
14480.0,20.0,18.9299759034,-0.163865149566,18.817116031,2557.74656823,246.828859364,8927370.65902,17.2544219971
14560.0,20.0,18.9138637766,-0.151901611984,19.1159399558,2488.63567239,179.715466189,8655246.80551,-13.0622462955
14640.0,20.0,18.9462074866,-0.138228565885,18.867202582,120.909866897,118.924625516,8951524.45689,9.43804340126
14720.0,20.0,18.929594709,-0.129538609037,20.0875282125,75.0296589224,76.6043290277,8620709.26075,-5.93341077722
14800.0,20.0,18.9490671628,-0.114598712845,17.9839816808,2586.49036134,34.8012830565,8808577.20848,0.584916613979
14880.0,20.0,18.9322346504,-0.0978664662941,19.2219575688,2679.8793978,13.3902531065,8786519.13981,-0.0659595179487
14960.0,20.0,18.9526796229,-0.0844312974725,18.7461610775,2344.433235,1.45152129887,8844655.04643,0.0248399252514
15040.0,20.0,18.9260027059,-0.0661305523173,19.3691361275,2.47409939302,1.49977930948,8731770.84093,-0.0262675794659
15120.0,20.0,18.9432934521,-0.0441923016232,18.8234169477,349.976056106,13.1176232093,8861035.81545,0.264058810659
15200.0,20.0,18.9174339099,-0.022448280901,20.3464814246,2680.48391009,39.3624846283,8759111.92531,-0.152284421819
15280.0,20.0,18.9290539463,0.00529844926482,17.6704710498,70.9129732475,67.4295863908,8631614.54316,-5.488702979
15360.0,20.0,18.9030762491,0.0366008840995,19.138759338,118.95468939,120.533915157,8942103.02574,8.9056967154
15440.0,20.0,18.92043583,0.0621011669375,18.5465699285,176.486654096,174.169835011,8656600.68043,-11.2700019645
15520.0,20.0,18.8896399425,0.0915232854546,19.0380398696,247.922667542,249.592016739,8920785.58364,16.4652245069
15600.0,20.0,18.9067637664,0.118844635562,18.7462343078,328.55328704,326.854903359,8658871.57965,-20.7369193591
15680.0,20.0,18.8761385051,0.145490074928,18.9364058178,422.090973411,423.701144046,8923499.86493,26.6653272208
15760.0,20.0,18.8880482154,0.176176344816,18.8114559854,2872.5686796,525.126749557,8658935.75514,-31.9050056873
15840.0,20.0,18.8622977151,0.204549012583,18.939732874,2989.30618462,645.175664385,8917808.11595,39.0614189384
15920.0,20.0,18.8737978127,0.229865392088,18.8330582923,768.645589304,768.055772471,8659904.86516,-41.1801421243
16000.0,20.0,18.8426414139,0.256561745645,18.8483811448,905.088837387,907.558758192,8911288.8205,53.3508222336
16080.0,20.0,18.856905003,0.278314676628,18.7482107076,1050.49477949,1050.59026531,8665691.63989,-53.4433562485
16160.0,20.0,18.8159067682,0.301341389887,18.7371207212,1207.77614675,1209.38338504,8908171.75258,60.4371572366
16240.0,20.0,18.8276141262,0.326380768504,18.733120183,1379.18038192,1379.87033749,8662188.15439,-72.8643357736
16320.0,20.0,18.7880086611,0.348428404874,18.7638389051,1559.66023752,1563.20222363,8904400.81151,78.8816555195
16400.0,20.0,18.7960647492,0.367054651941,18.6707650138,1745.01495785,1745.67913201,8666775.82425,-78.8985243774
16480.0,20.0,18.7489706866,0.388339309434,18.6198957477,1940.64827416,1942.38375001,8899742.38175,93.2321990228
16560.0,20.0,18.7573180991,0.404330803908,18.6159536199,2148.4625899,2152.36358223,8669770.52811,-93.5330684128
16640.0,20.0,18.6975776325,0.420070924844,18.4928685665,2676.82024917,2358.69018418,8895240.35615,109.484417536
16720.0,20.0,18.6967058335,0.44069073062,18.4551438424,5094.34959102,2582.33339054,8671617.86658,-108.032595917
16800.0,20.0,18.6358556573,0.457885242816,18.3987672128,2810.88511923,2813.16183244,8895214.99448,120.285036927
16880.0,20.0,18.6219840317,0.477595890746,18.3668818817,3050.23309259,3055.00936427,8674426.8338,-118.405487844
16960.0,20.0,18.5524315173,0.503867792122,18.2589120339,3293.83973141,3292.1671682,8893252.58288,121.343298977
17040.0,20.0,18.5398207292,0.529193388646,18.2981778665,5824.79934585,3564.98283849,8677078.31855,-136.307908485
17120.0,20.0,18.4605639253,0.562236091514,18.1519262943,8312.93505045,3809.15686551,8888708.55696,150.418773643
17200.0,20.0,18.4538289546,0.596804712017,18.1043095862,6308.53047489,4078.10770181,8678784.74812,-140.929534351
17280.0,20.0,18.3816813982,0.628125698084,17.9901917961,6813.4850922,4339.5588225,8890141.30089,149.907697615
17360.0,20.0,18.3772063538,0.659160552051,18.0865805808,4960.01351429,4660.03899049,8678495.0061,-162.025263503
17440.0,20.0,18.3104372838,0.682684031468,17.9205545605,4922.66292708,4920.2632306,8888464.71547,176.348548076
17520.0,20.0,18.303610052,0.702624073087,17.8782381641,5207.64221842,5216.4106247,8682254.45126,-154.079724612
17600.0,20.0,18.2288320492,0.717924382285,17.7106429513,5488.56075759,5483.52606431,8885461.81242,184.318553931
17680.0,20.0,18.2150818045,0.731655156863,17.7249576679,5797.12515031,5809.09643157,8682246.66211,-174.561550909
17760.0,20.0,18.1322643929,0.738141294474,17.5811854061,6090.95694345,6089.14652504,8885576.99229,185.308593405
17840.0,20.0,18.0958055955,0.752483819688,17.5333795733,8834.96494064,6405.29487457,8684363.19804,-187.019101227
17920.0,20.0,18.0043031515,0.769250468585,17.4475474959,7023.13147288,6711.67626418,8879002.45805,185.917356506
18000.0,20.0,17.960771688,0.790179689963,17.4400021766,7041.46712887,7053.21148038,8690831.73926,-190.492446652
18080.0,20.0,17.8653266105,0.822585515817,17.30592441,7354.1025991,7346.88237188,8876480.38312,189.915955841
18160.0,20.0,17.8400969039,0.852940136029,17.315349803,7692.11952549,7705.30046353,8692575.60323,-195.593136049
18240.0,20.0,17.7519683527,0.878289811325,17.1664172545,10373.2035587,7998.16341561,8875033.27993,235.506397949
18320.0,20.0,17.7275311947,0.90205627058,17.0608223706,8604.21865992,8306.66343767,8694845.68528,-184.927122812
18400.0,20.0,17.6461514588,0.917097825833,16.9593004919,8622.84244318,8621.28710019,8870073.78166,197.533387225
18480.0,20.0,17.6203534688,0.919908600565,16.9188460521,8959.83646521,8968.87082233,8699457.6174,-208.874910647
18560.0,20.0,17.5186143042,0.929108976099,16.8062376163,9281.76764446,9279.41564752,8869472.96881,214.053443686
18640.0,20.0,17.4922430858,0.927404090056,16.7533338755,9617.96412922,9623.48332535,8699739.56341,-212.594578062
18720.0,20.0,17.3652033665,0.935708222894,16.6798962788,9956.46840015,9957.0446901,8868427.77055,206.317071563
18800.0,20.0,17.3313181909,0.946104929599,16.6202697804,10291.5871399,10299.8400256,8702078.8498,-198.338941515
18880.0,20.0,17.2015211011,0.96356645527,16.4984959866,10898.6665455,10605.3742891,8864862.2773,229.698830231
18960.0,20.0,17.1746120641,0.983282241671,16.4129531425,13216.7127923,10929.7010955,8706657.34531,-178.515146665
19040.0,20.0,17.0553609375,1.00670496508,16.2531186897,11211.3547497,11206.0267111,8860500.57306,231.535515844
19120.0,20.0,17.048745974,1.01630002894,16.179092081,11529.5720108,11536.1494401,8707235.14481,-209.864785206
19200.0,20.0,16.9265447536,1.02466411412,16.0868486696,11855.3819242,11852.3913386,8858401.62983,193.632623713
19280.0,20.0,16.9226202774,1.02569318034,16.0380169188,12192.4194149,12201.1415841,8709257.92512,-218.880673116
19360.0,20.0,16.7988806553,1.0149894053,15.9354039168,12505.2454837,12506.6679273,8856576.91594,217.439666558
19440.0,20.0,16.7729151441,1.01003716089,15.8335735579,13090.9279093,12809.1272478,8712497.99331,-193.331874744
19520.0,20.0,16.6405545613,1.00369347796,15.7385475978,15359.60082,13114.7237233,8854119.44853,189.837758354
19600.0,20.0,16.6045166254,1.00165818998,15.6953823889,13443.9841208,13461.5437126,8713353.6302,-183.269541905
19680.0,20.0,16.4620501614,1.00782805567,15.5306663881,13709.3895792,13702.122021,8850632.98122,237.013635845
19760.0,20.0,16.4280377046,1.02714465509,15.4360627355,13988.7840567,13995.8456557,8719086.01934,-183.310227748
19840.0,20.0,16.313681702,1.03252813361,15.3243054638,16474.0624307,14271.2488722,8845550.89299,180.457039627
19920.0,20.0,16.2774000923,1.04678791364,15.3107946938,14896.2345141,14636.4325288,8719668.50718,-211.857212116
20000.0,20.0,16.1838372576,1.04478200754,15.1971881748,14915.4031599,14901.3388243,8845490.64442,178.34818897
