X,Y,surf vx,surf vy,basal vx,tau integr.,tau dir.,P integr.,P dir.,
0.0,20.0,14.8541408326,0.296966740146,14.1039328663,13826.9326507,13827.4700953,8824006.4422,34.269445089
20.0,20.0,14.863574038,0.293835321965,14.0871594897,14161.3642676,14158.0631258,8723953.06526,-27.1834393109
40.0,20.0,14.8492066599,0.290322915786,14.0898545631,14501.526856,14507.7247405,8833874.11408,35.6860752666
60.0,20.0,14.8589352159,0.286409041438,14.0661682858,14831.0502709,14829.2364829,8712574.81936,-36.8502779392
80.0,20.0,14.8442584449,0.284854825871,14.0597803869,15160.7623761,15167.5527993,8819890.91457,29.8195990053
100.0,20.0,14.8590520832,0.279267827915,14.0184435036,17376.7582515,15466.1988115,8709324.19839,-39.409901384
120.0,20.0,14.8410001289,0.276622171745,14.0319882584,17720.964096,15823.6041337,8844639.0328,43.9045277238
140.0,20.0,14.8607698727,0.268492809781,14.0186761817,16148.4455001,16149.2950691,8751168.04113,-14.4568712619
160.0,20.0,14.8352543026,0.265997111956,14.0284227173,16484.5600033,16500.0493197,8787470.5297,13.6756055445
180.0,20.0,14.8627391697,0.256145854504,13.9722744176,16792.9110944,16770.4882885,8723820.26106,-28.9632018095
200.0,20.0,14.8268336053,0.251272083422,13.9874231969,17117.0984769,17123.7291109,8847103.00351,64.7580003787
220.0,20.0,14.8579771283,0.244264271331,13.9596887786,17421.5000876,17421.5923486,8738759.62312,-13.9206375197
240.0,20.0,14.8179177281,0.240019863844,13.9595354686,17738.6649617,17751.1351386,8802469.02065,32.281235186
260.0,20.0,14.8508581801,0.234604951763,13.9182696615,18036.3419103,18024.8212463,8732438.26796,-34.7418307804
280.0,20.0,14.8108487692,0.230608757225,13.9278733988,18354.6393942,18360.8785831,8814977.30432,37.8898445817
300.0,20.0,14.8431657847,0.227266260008,13.9041920326,18653.5789514,18649.7111252,8754736.59502,-26.6495723633
320.0,20.0,14.8067970734,0.222645454923,13.9177767955,18972.9406657,18985.1348084,8788956.1618,13.2064426665
340.0,20.0,14.8357270063,0.22000545495,13.8773326541,19259.4431969,19242.9338581,8744535.70852,-24.6086247938
360.0,20.0,14.8040804493,0.215811765229,13.8811230996,19550.804326,19557.7751012,8832345.40451,53.5827207967
380.0,20.0,14.8313762556,0.211721533524,13.8714751217,19840.4195114,19849.63778,8735480.08262,-45.1626045286
400.0,20.0,14.8014519362,0.206647728548,13.8495463069,20122.1946254,20119.2490865,8785503.00393,18.8129321266
420.0,20.0,14.82687215,0.202762196053,13.8240979408,20390.1222097,20378.681352,8775030.80673,-20.2741222176
440.0,20.0,14.7995246777,0.196360207641,13.8462862631,20687.2857476,20703.9446044,8799902.78599,19.6222049144
460.0,20.0,14.8206092966,0.191899388502,13.8126988154,20947.2852728,20941.1160492,8740526.61331,-34.8063442619
480.0,20.0,14.7944661223,0.186984445446,13.8019674554,21207.4447073,21207.2795597,8821121.97898,25.0252326793
500.0,20.0,14.8134306083,0.184645484157,13.7980555787,21732.4425027,21478.8561016,8737836.57196,-42.0739834534
520.0,20.0,14.7918003427,0.178412978652,13.8023851471,23751.2364515,21758.1201439,8807374.3616,14.0759524909
540.0,20.0,14.8065065427,0.176549857051,13.7746845735,21993.8335088,21981.3212811,8761690.77893,-16.4926645338
560.0,20.0,14.7891750005,0.170198326724,13.7942538483,22260.6770522,22274.4319712,8795108.11744,16.5709704299
580.0,20.0,14.800256312,0.169227637131,13.7578623815,22485.5216578,22471.3368106,8759789.20773,-5.84106113559
600.0,20.0,14.7898244014,0.16195858742,13.7635646768,22718.1010992,22730.8158562,8806240.13831,36.300301618
620.0,20.0,14.7953183827,0.160019856019,13.7352921448,22937.1077436,22927.8604408,8756690.70834,-22.6852092709
640.0,20.0,14.7906347177,0.152919192502,13.7464226049,23173.5076366,23184.4442252,8801605.17687,29.4829775329
660.0,20.0,14.7920937959,0.148784264834,13.7203447003,23379.329204,23371.8634535,8760907.83977,-22.3658333426
680.0,20.0,14.7895943192,0.143636286741,13.7302387174,23606.7229584,23614.0215047,8790052.51124,16.4629539224
700.0,20.0,14.7907005995,0.137740913561,13.7121024601,23805.4699427,23801.4395756,8771210.44538,-14.7907702265
720.0,20.0,14.7860139375,0.133934244613,13.7159998995,24019.5073046,24020.3268686,8793080.27973,5.84429450824
740.0,20.0,14.7887157943,0.128685546149,13.7139295131,24219.7261569,24222.1217338,8763682.86695,-6.01747577428
760.0,20.0,14.7819076138,0.126507725411,13.6905700675,24385.6217586,24379.181153,8798906.42451,32.7947514739
780.0,20.0,14.7887975798,0.120993695501,13.6952064062,24569.2508325,24578.8197876,8767104.70946,-13.4412747068
800.0,20.0,14.7784403078,0.118168341933,13.6737800588,24734.0478236,24724.4728626,8798085.12025,26.0103194924
820.0,20.0,14.7898169593,0.113255671772,13.6793283872,24896.3668277,24911.4874083,8771763.11576,-0.968695331708
840.0,20.0,14.7776092509,0.107832407277,13.6474304945,25038.8207539,25022.7500036,8793387.26899,7.34623408175
860.0,20.0,14.7886031663,0.103533121995,13.6715365094,25207.0324474,25229.2291603,8773041.78747,-3.58620553954
880.0,20.0,14.7779276316,0.0962288362984,13.620353533,25310.3499722,25289.0207759,8792902.22174,16.8554863413
900.0,20.0,14.7843118786,0.0928887414462,13.649217332,25469.8378889,25489.6228688,8770130.32879,-20.5549622642
920.0,20.0,14.7779842086,0.0855460563372,13.6180249174,25586.5919515,25570.4019164,8793266.42614,14.111336543
940.0,20.0,14.7798219846,0.083029572917,13.6332421268,25716.7404307,25730.4367276,8770233.65821,-6.71715210085
960.0,20.0,14.7789073776,0.0756615542435,13.5997763511,25803.8187928,25790.6584445,8792483.15928,27.8187591851
980.0,20.0,14.776027464,0.0735464215814,13.6121598132,25919.2713354,25929.7079696,8778263.69795,-10.6226928245
1000.0,20.0,14.7811032305,0.0677174113215,13.5936206214,26009.9969805,26001.9149924,8793850.91308,28.2014574223
1020.0,20.0,14.7768107558,0.0625001417397,13.5980734792,26104.1617153,26109.9248468,8775614.15652,-1.93339504837
1040.0,20.0,14.7821007644,0.0572363299182,13.5921684877,26190.0959378,26190.0102881,8793383.45785,17.6381123735
1060.0,20.0,14.7784340169,0.0499169296141,13.591931431,26275.3882452,26272.8293455,8771954.8319,-8.20148710492
1080.0,20.0,14.7805255969,0.0455517382498,13.5971394235,26347.9894424,26358.0566289,8794438.40879,26.6128915131
1100.0,20.0,14.7797547523,0.0374799749837,13.5749946106,26392.7067915,26381.9056158,8777700.65106,-11.3523812918
1120.0,20.0,14.7774816789,0.0337396538505,13.5998897171,26476.3177292,26488.9317549,8789232.1562,4.0967270041
1140.0,20.0,14.7806125644,0.0265554188098,13.5866888698,26524.4745246,26513.5128118,8786353.31822,-8.78601761321
1160.0,20.0,14.7753135221,0.0230148298783,13.6013461815,26572.6049423,26584.1298296,8789365.24754,19.6668578785
1180.0,20.0,14.7821132909,0.0164031586299,13.5808413466,26591.608357,26577.6223681,8778790.4162,-5.0095411545
1200.0,20.0,14.7747751469,0.0125087785186,13.6062784066,26877.1244657,26652.6667306,8786998.02062,17.8064412471
1220.0,20.0,14.7847104658,0.00489072964805,13.574705545,28531.9129413,26607.6139892,8790577.92816,3.14277962612
1240.0,20.0,14.7734001768,0.00111824566658,13.6068254247,26662.9990843,26678.9987611,8786330.00801,-7.62799487033
1260.0,20.0,14.7872035999,-0.00646217447885,13.5910708209,26660.5287645,26648.1074088,8782987.02097,5.13404061585
1280.0,20.0,14.7720817229,-0.0111632107383,13.6034705119,26649.8420336,26664.0049216,8790738.10491,15.8698486245
1300.0,20.0,14.7877753002,-0.0177227317637,13.5821871933,26618.8760385,26605.4672576,8790829.77152,-9.63647423333
1320.0,20.0,14.7702055014,-0.0217491600367,13.61432424,26627.0932539,26643.1479002,8783892.93001,-4.20530240013
1340.0,20.0,14.7895274962,-0.0268574628894,13.5939232463,26581.2864008,26569.6070331,8790580.66082,0.961925557382
1360.0,20.0,14.7701368278,-0.0332576546888,13.6159312786,28470.2976481,26570.5807397,8779677.77925,-12.8811026961
1380.0,20.0,14.7910701716,-0.0376720736229,13.6092046073,26761.2920229,26507.0773423,8789838.8792,-9.37774208463
1400.0,20.0,14.7713301591,-0.044540929864,13.6294167802,26478.220405,26487.6678532,8785846.37074,7.37048491877
1420.0,20.0,14.7928786353,-0.0498764062069,13.6073452802,26387.1930462,26377.8291808,8792035.80009,20.1468394162
1440.0,20.0,14.7713547397,-0.0569368906766,13.6199793245,26319.4542396,26327.0425899,8788608.53197,0.317157656384
1460.0,20.0,14.7920475351,-0.0601825332232,13.6078308767,28139.4268756,26220.204141,8791043.66085,26.4786390586
1480.0,20.0,14.7741704715,-0.0697508036069,13.6143265657,26622.773302,26141.1383368,8788226.69633,-12.2778396711
1500.0,20.0,14.7859182524,-0.070078393826,13.6141082338,27961.3624068,26041.0770477,8795601.38538,10.1125952069
1520.0,20.0,14.7782145904,-0.0781933043995,13.6271335352,25955.3551066,25958.2595328,8784940.05785,-29.0819243803
1540.0,20.0,14.7828089882,-0.0810975684042,13.6354397585,25859.4170424,25858.2618919,8795680.69054,5.87570450491
1560.0,20.0,14.7796968658,-0.0873136221094,13.6437394352,25747.3485891,25750.2594656,8780475.91667,-18.012768867
1580.0,20.0,14.7810143463,-0.0901943400871,13.6443890802,25623.5504458,25619.8996204,8802534.28736,6.85539898715
1600.0,20.0,14.7818726891,-0.0957516229906,13.6591654669,25504.0496768,25508.1977694,8779913.45917,-18.596868728
1620.0,20.0,14.7815332065,-0.0998013885062,13.6569932717,25359.1699425,25357.0509195,8800152.73188,17.5223492102
1640.0,20.0,14.7836725478,-0.105368622548,13.6610488635,26955.6141632,25209.8822056,8780699.85534,-13.5513156554
1660.0,20.0,14.7814927771,-0.108953612235,13.6706383403,26810.4659118,25065.3029593,8801348.23808,8.97590414304
1680.0,20.0,14.7866156541,-0.115389882264,13.6768931961,24906.6310445,24907.0559743,8781772.02551,-9.12253317327
1700.0,20.0,14.7803447311,-0.118636711912,13.6776895826,24728.7014627,24731.5306666,8803448.53086,19.9570935883
1720.0,20.0,14.7878297147,-0.122252173615,13.6850798186,24563.4212611,24560.6859048,8773475.21601,-34.2182975518
1740.0,20.0,14.7832022857,-0.127667315955,13.7081220666,24400.6260385,24410.3983727,8807547.6329,12.1583064618
1760.0,20.0,14.7870666083,-0.129635467743,13.6989006023,24206.6466771,24195.616779,8768885.85094,-31.586786304
1780.0,20.0,14.787055702,-0.135145320095,13.7359858772,24043.982259,24055.3261573,8806494.55579,0.308759299271
1800.0,20.0,14.7879557308,-0.138016936257,13.7278587196,23841.5329882,23828.7918338,8776593.83035,-16.7520400094
1820.0,20.0,14.7900039303,-0.144033877897,13.7500847094,23636.9022611,23648.1739653,8803919.83392,27.3897968335
1840.0,20.0,14.7874717017,-0.144742297619,13.7339446182,23406.8345132,23395.0184198,8776789.42291,-15.0391030512
1860.0,20.0,14.79631702,-0.151525446101,13.7665179746,23202.8985941,23218.3136127,8811900.94052,18.3372183115
1880.0,20.0,14.7886827701,-0.154218587119,13.7536377397,22970.0891994,22958.4945567,8772687.82868,-27.4865096577
1900.0,20.0,14.8003463207,-0.158887779901,13.7893840992,22760.2657919,22773.4034528,8816097.33364,9.96196767729
1920.0,20.0,14.7919554212,-0.161559190462,13.7829004173,22520.4542579,22512.2797043,8771434.91022,-33.0983056891
1940.0,20.0,14.8059415143,-0.167850860784,13.8125404389,22299.350389,22303.948607,8812501.95998,3.32276553288
1960.0,20.0,14.7941224639,-0.171505140803,13.8166834392,22048.7126771,22048.341517,8775526.45551,-16.1537466143
1980.0,20.0,14.8085191263,-0.175169540775,13.8151492506,23581.478803,21778.2461781,8819005.24898,17.3228136597
2000.0,20.0,14.7984733951,-0.180675697856,13.8359955604,23334.3475122,21537.8988354,8762294.93056,-37.6440586272
2020.0,20.0,14.8105138077,-0.185135821968,13.8323991246,21261.2774975,21254.0468305,8827746.90228,28.1863181008
2040.0,20.0,14.8012509295,-0.189252522959,13.8522877261,23004.0786205,21001.1133675,8769347.2478,-27.3030203426
2060.0,20.0,14.8147469807,-0.195963436008,13.8502481159,21231.2855056,20709.8552141,8806781.09029,10.3473790908
2080.0,20.0,14.8018470702,-0.199024707229,13.8802202382,22469.6423133,20461.4059175,8781061.28623,-16.0502606797
2100.0,20.0,14.8191272885,-0.205546156297,13.8550015644,20137.2014117,20127.1912466,8818233.06038,26.5038815999
2120.0,20.0,14.8031795272,-0.20853615171,13.8920685278,19866.1152552,19879.1003794,8758096.39159,-43.9123632679
2140.0,20.0,14.8260697584,-0.217179013576,13.8767970171,19563.3710184,19551.5674386,8830885.63757,25.9027643888
2160.0,20.0,14.7992413155,-0.218563180523,13.9090466719,19272.6205633,19286.9506777,8760388.43071,-37.3365749905
2180.0,20.0,14.8351879129,-0.224701301951,13.8998980902,18973.8887221,18960.7374308,8820262.74428,-0.305892057275
2200.0,20.0,14.7986828151,-0.228757756837,13.945353578,20540.9904224,18704.9318287,8764651.05436,-30.2317820319
2220.0,20.0,14.8403822457,-0.233173843187,13.9118711721,20207.9805642,18339.7120075,8832936.74101,11.3207987608
2240.0,20.0,14.7990528295,-0.235789700727,13.9660833428,18070.3339718,18086.7945347,8753719.302,-46.4884953675
2260.0,20.0,14.845962594,-0.23863878859,13.9334633573,17731.5557532,17717.9639951,8832759.94659,26.9863519744
2280.0,20.0,14.8052705622,-0.245395100602,13.9684800211,17422.2515063,17432.6889825,8749578.81918,-48.7549257609
2300.0,20.0,14.8451832759,-0.243892654928,13.9671584846,17107.6674038,17098.6842542,8846319.56598,11.8573204744
2320.0,20.0,14.8165119991,-0.251487246113,14.0050650113,16800.2747278,16809.89305,8751222.41906,-40.4560694479
2340.0,20.0,14.8448781044,-0.252671020716,13.9916163597,16465.4232524,16456.7654164,8840660.60886,17.478245469
2360.0,20.0,14.8235116437,-0.257441372171,14.0278666572,16151.7737323,16159.9942637,8749798.77,-44.9193667444
2380.0,20.0,14.8477729746,-0.25989940548,14.0147266081,15811.6079341,15804.0612858,8845617.64948,26.5054792428
2400.0,20.0,14.8298619101,-0.265765381103,14.047489965,15493.2873374,15498.3020854,8748546.09223,-49.4325211389
2420.0,20.0,14.8477524361,-0.267039671711,14.0559728138,15163.9502684,15163.4270976,8844946.9995,24.775497252
2440.0,20.0,14.8348970681,-0.271444141009,14.0640108073,16744.6666042,14827.0010422,8742014.42139,-44.0105899689
2460.0,20.0,14.8494083287,-0.27317775233,14.0855677512,16417.4647474,14503.287644,8853752.58878,30.6103553245
2480.0,20.0,14.8384899966,-0.277437612741,14.0954670397,14167.8121627,14166.433845,8743766.99831,-32.2853532368
2500.0,20.0,14.8492426496,-0.276551150927,14.1088742046,13830.2160107,13832.3206208,8854095.69373,35.4803384069
2520.0,20.0,14.8442451691,-0.280487484056,14.1157003069,13493.8430888,13491.2514713,8738034.4766,-37.2825379139
2540.0,20.0,14.8524994803,-0.282171600572,14.1358738764,13157.9364056,13162.4901885,8857186.34992,38.2640329596
2560.0,20.0,14.8485367292,-0.285429536442,14.129783374,12816.3262236,12809.366301,8739837.69977,-39.093387626
2580.0,20.0,14.8571337548,-0.287412600716,14.1782800727,12770.4311618,12505.2940316,8856873.59757,30.5932623719
2600.0,20.0,14.8548061293,-0.29252589847,14.1655988319,14316.3480753,12147.3671832,8740250.46231,-40.2450380174
2620.0,20.0,14.8611095608,-0.294877094253,14.2156014046,11835.7811695,11843.2375484,8861659.98473,23.6054446731
2640.0,20.0,14.861202982,-0.298684870014,14.2113441572,11500.0006428,11494.2786359,8729396.77768,-38.7105524364
2660.0,20.0,14.8680664739,-0.303153271604,14.2377164161,11166.0223786,11170.9809162,8867545.57615,32.79219123
2680.0,20.0,14.8659273453,-0.306222934739,14.2285582333,10827.8163915,10821.2344352,8723232.1519,-39.9545192584
2700.0,20.0,14.8738679744,-0.309398457267,14.2694978499,10505.6756218,10510.7130673,8873774.64065,33.5585408966
2720.0,20.0,14.8722265615,-0.311681024999,14.2584559752,10168.864767,10163.4137365,8739711.52473,-31.4381388123
2740.0,20.0,14.881295625,-0.319358030728,14.3095579653,9853.7419852,9861.8333872,8864240.51401,21.0475953638
2760.0,20.0,14.8707218695,-0.315702586066,14.2992387795,9523.84812542,9519.74372027,8723676.79646,-37.306833626
2780.0,20.0,14.8916991855,-0.32217977966,14.3189530936,9197.18660224,9200.09311509,8866161.51162,24.717308112
2800.0,20.0,14.8737026902,-0.322222471067,14.3248625397,8876.80623261,8874.28108973,8717361.98303,-45.483853327
2820.0,20.0,14.8970805284,-0.326089150581,14.3483597648,8561.24252757,8561.65239111,8870989.4326,28.3641594243
2840.0,20.0,14.8763001997,-0.323558769744,14.3504223463,8241.52631862,8239.32245745,8720130.22597,-34.942874413
2860.0,20.0,14.9066035563,-0.329586513738,14.3719642611,7930.80542493,7931.23424739,8870893.67949,28.8237882106
2880.0,20.0,14.8774193466,-0.327517075348,14.3829645831,7620.65165302,7620.5682399,8717430.95241,-31.8617434598
2900.0,20.0,14.9125690898,-0.330991999568,14.380658815,7308.85589808,7306.75081305,8878813.93584,34.0903340541
2920.0,20.0,14.8788932399,-0.327507617481,14.4081804757,7008.79406681,7011.82528342,8709176.30488,-34.7133658235
2940.0,20.0,14.9214478861,-0.333528544717,14.3988722982,6705.72477767,6703.04049026,8877082.19344,31.5459476059
2960.0,20.0,14.8764419723,-0.326046954874,14.4337938308,6415.60461407,6419.11509982,8703781.61693,-39.4197049324
2980.0,20.0,14.9332492035,-0.333230721058,14.4225923458,6124.03163509,6118.86715161,8878628.42137,29.0783262876
3000.0,20.0,14.8752375265,-0.327885549375,14.4668743351,5843.53551469,5846.70686714,8700460.91743,-32.3033798326
3020.0,20.0,14.9368945129,-0.330801651024,14.4433259445,5556.67074117,5551.97192208,8893132.86586,34.6716924737
3040.0,20.0,14.8772219136,-0.324262228714,14.4858831644,5283.93593322,5287.64340547,8695909.2657,-30.2766635186
3060.0,20.0,14.9411211781,-0.328355691823,14.4646813376,5009.84230533,5005.33118674,8891141.5832,32.463331139
3080.0,20.0,14.8744260943,-0.321277627889,14.518861035,4748.82627411,4754.23658975,8702240.40762,-30.0731415341
3100.0,20.0,14.9474767281,-0.323214212291,14.4842759092,4484.89821793,4479.66638167,8878334.67906,25.9179866086
3120.0,20.0,14.8729250819,-0.317591721082,14.541156093,4234.79649389,4239.21811664,8696040.07923,-28.0469297918
3140.0,20.0,14.9532818903,-0.320227520942,14.4877875688,3979.36849794,3972.84826513,8888045.11746,28.0352244173
3160.0,20.0,14.8699929899,-0.312642710727,14.5703204127,3744.02808135,3749.72680203,8698383.49998,-27.3413622604
3180.0,20.0,14.9609282879,-0.312440576267,14.5095660237,3502.50903823,3495.99982967,8884238.84236,27.0829497747
3200.0,20.0,14.8587728831,-0.307242417126,14.590089142,3277.62655643,3282.75226749,8702658.82612,-23.7365028568
3220.0,20.0,14.970763636,-0.304267760725,14.5320116113,3049.59704058,3044.94625241,8885264.52392,23.5756400916
3240.0,20.0,14.8494235573,-0.298739633982,14.6103043744,2838.27825534,2842.5557263,8690181.88317,-25.8662895752
3260.0,20.0,14.980385418,-0.293997022473,14.5511459088,2624.84759568,2620.24280169,8889780.95751,21.0988797749
3280.0,20.0,14.8445446999,-0.291188254822,14.6372851505,2427.50753549,2431.26749418,8685847.85574,-25.6815044165
3300.0,20.0,14.9776133737,-0.276071541162,14.5831485431,2230.61742751,2225.82999976,8898810.8648,18.5453423114
3320.0,20.0,14.8526287042,-0.280707716377,14.691928923,2048.86627637,2052.42313433,8677406.46913,-23.0192750099
3340.0,20.0,14.9655737065,-0.261976703559,14.621689325,1865.26514497,1861.10125267,8901710.94968,18.6417361997
3360.0,20.0,14.8595239154,-0.260997081993,14.7125578536,1695.80113768,1698.07885585,8676293.77977,-20.1246122653
3380.0,20.0,14.9605433002,-0.244302902696,14.6595768138,1529.61241605,1525.92847786,8904934.1221,17.6075994042
3400.0,20.0,14.8682040577,-0.24491367892,14.7453811308,1374.1791014,1375.99514747,8672443.40217,-14.3974285516
3420.0,20.0,14.9539616915,-0.228488371408,14.666334014,1222.03866687,1218.96478377,8910971.44986,17.0335205753
3440.0,20.0,14.8709151876,-0.222795369381,14.7537183871,1082.51283113,1083.85385775,8664769.67218,-12.2462261325
3460.0,20.0,14.9544327922,-0.211979887653,14.6718483753,946.945848853,944.892899777,8917532.91751,15.9585739632
3480.0,20.0,14.8661839542,-0.20254098973,14.7815482223,824.483818022,826.41471885,8652193.39223,-14.368975604
3500.0,20.0,14.9511392856,-0.18779378507,14.6562819572,707.928403734,703.493546877,8917438.08989,12.700735618
3520.0,20.0,14.8676770512,-0.178539717224,14.8650217781,601.730672355,604.549344561,8683519.77517,-6.2458181534
3540.0,20.0,14.9479496483,-0.165333916351,14.6873946066,501.384828327,498.555947489,8869416.54959,5.99500074616
3560.0,20.0,14.8654077376,-0.150737373669,14.8042611216,411.600453779,411.761989045,8698831.39633,-3.23939546124
3580.0,20.0,14.9494079638,-0.13931425367,14.7086603313,629.534045167,327.890310441,8890081.35374,5.45755211692
3600.0,20.0,14.8625638255,-0.12683399101,14.8150989722,2620.58324505,257.303748067,8687375.33005,-2.91511931894
3620.0,20.0,14.9451312873,-0.109449335634,14.7159921268,193.293700163,192.156141611,8896963.82903,3.62393406388
3640.0,20.0,14.8628172422,-0.0928205176838,14.8234109538,139.246009992,138.670620907,8668041.0791,-2.60246046615
3660.0,20.0,14.9502305183,-0.0832423533781,14.8172870359,93.8018808853,92.9003191582,8943025.14158,2.94509687467
3680.0,20.0,14.8563978633,-0.0633371490348,15.170472377,57.0972921243,57.6100222543,8629684.30265,-2.46004628643
3700.0,20.0,14.9528495926,-0.0481807793214,14.312620767,29.2267917264,27.6898165677,8757919.96447,-0.158481843163
3720.0,20.0,14.858857275,-0.034030796527,14.7264931508,10.9634736321,10.259467877,8860801.21127,0.10426834238
3740.0,20.0,14.9519017069,-0.0193201838706,14.6683779997,1.89185125649,1.13545941813,8812422.53675,0.00410570178729
3760.0,20.0,14.8565082685,-0.00133193810302,14.8277179931,1.9063932586,1.14778710976,8744918.41761,-0.00310582259806
3780.0,20.0,14.9537576529,0.0140708759787,14.6319338162,11.042525122,10.1928841203,8848774.03409,0.0593509356072
3800.0,20.0,14.8601984151,0.0276567123036,15.1506822557,29.3280161416,29.3117758837,8777020.18934,-0.214479398628
3820.0,20.0,14.9514323339,0.0465084931098,14.280773783,56.1532425242,54.2430286596,8633305.88381,-2.44835437328
3840.0,20.0,14.8665449902,0.0588334195522,14.6406553213,92.1515131572,91.7690744234,8931252.48818,2.50649399415
3860.0,20.0,14.9515334191,0.0723601450092,14.5484788556,137.380637742,136.11038282,8672999.27952,-2.84909228061
3880.0,20.0,14.8654451681,0.0882290653061,14.7941339493,192.39489861,193.15914834,8898953.70663,3.15007787269
3900.0,20.0,14.9524165519,0.105222151708,14.5134395689,254.784281202,252.171315448,8642253.25411,-5.92059303426
3920.0,20.0,14.873368432,0.115553405527,14.6585142107,326.985976923,326.914549127,8931040.95655,8.71955819198
3940.0,20.0,14.9518141476,0.129103471449,14.609365402,407.444228508,406.388236355,8673681.87871,-5.4156833602
3960.0,20.0,14.872986466,0.146602926369,14.6822108759,497.344598915,498.478475958,8902421.70798,9.21974621943
3980.0,20.0,14.9618273731,0.153398743569,14.5446380534,594.257882885,591.601074901,8657040.0329,-9.24972521058
4000.0,20.0,14.8701758325,0.168649937848,14.6628361774,702.100096793,703.798436098,8913759.89197,12.4345976028
4020.0,20.0,14.9644150752,0.17746184546,14.543687746,816.042551773,813.062280416,8653610.48799,-12.4885227829
4040.0,20.0,14.8677572731,0.194609638369,14.6182839073,940.253475359,941.512876985,8913752.46782,17.8428921033
4060.0,20.0,14.9698115308,0.199052366535,14.5286355776,1069.53131722,1067.34161302,8667452.81963,-13.0390106215
4080.0,20.0,14.8644673657,0.216453908647,14.592052962,1211.20231367,1212.8286573,8900184.87882,18.2432244004
4100.0,20.0,14.9722721245,0.223950135097,14.5288704648,1358.27864832,1355.83638644,8676404.13201,-16.2098073221
4120.0,20.0,14.8684934165,0.23318748443,14.5910743138,1517.0489476,1518.84581424,8892894.55066,19.4877246845
4140.0,20.0,14.9681403238,0.243470011848,14.5417081675,1681.97445815,1678.35439519,8681423.61931,-19.6571862705
4160.0,20.0,14.8699176984,0.255886870049,14.6114936272,2151.85846865,1859.97910324,8893129.67296,25.9541663203
4180.0,20.0,14.9734140297,0.261386486977,14.5141855718,4356.11833088,2027.57202139,8680758.71078,-21.7918142554
4200.0,20.0,14.8681248321,0.272226430616,14.6069240828,2225.03522225,2229.56182085,8887512.29669,23.9705822388
4220.0,20.0,14.9762550568,0.28094024188,14.5028507897,2414.20042438,2408.88704998,8676515.86596,-22.9171013492
4240.0,20.0,14.87200859,0.28801163877,14.5590520901,2619.15620676,2621.80014533,8886743.77146,28.2150314114
4260.0,20.0,14.9800535037,0.2925176561,14.507859468,2825.69606445,2822.57659801,8684213.63633,-22.9192868201
4280.0,20.0,14.8723333433,0.296512388376,14.521541938,3040.81524731,3042.94211172,8878947.54473,33.6446237901
4300.0,20.0,14.9772256864,0.305816962938,14.4610594444,3257.71275439,3253.70582823,8688748.99122,-22.4715885419
4320.0,20.0,14.8802912728,0.302566465361,14.5009390123,3490.2010779,3494.0517612,8882907.41053,34.4789361691
4340.0,20.0,14.9667228731,0.312373347507,14.4454741429,3721.39752447,3717.56972764,8688521.92048,-25.1568970529
4360.0,20.0,14.8860278601,0.31063938214,14.4764543165,3967.00716176,3969.84468882,8877962.03673,34.6198040998
4380.0,20.0,14.9569728384,0.317685145372,14.4409993109,4212.0729418,4210.00423631,8694805.79837,-26.7013375091
4400.0,20.0,14.8867118069,0.316672032376,14.4624747045,4469.32276898,4472.9696233,8873473.22087,29.5788096145
4420.0,20.0,14.9480337137,0.323948605538,14.4202414408,4724.97848233,4721.97297196,8681615.95332,-32.1242162843
4440.0,20.0,14.8847691667,0.324954446093,14.426455823,4991.41084046,4992.086494,8874373.52326,31.0226398273
4460.0,20.0,14.9420634466,0.331186400683,14.4105953604,5262.50007087,5260.18117749,8692972.8379,-31.7648420657
4480.0,20.0,14.8814731797,0.335246409265,14.4271898149,5542.99544911,5545.73925162,8870621.92261,32.1422714594
4500.0,20.0,14.9395480634,0.341735548058,14.3873708437,5819.64818451,5814.54609726,8694858.84215,-29.2977297561
4520.0,20.0,14.8849856355,0.34100959644,14.4099707889,6109.26678212,6113.59753246,8860121.27292,36.9408906227
4540.0,20.0,14.9357270952,0.346607649116,14.3570684595,6389.97093215,6384.85191743,8706207.70149,-25.2109020686
4560.0,20.0,14.8873344742,0.346944643524,14.3786068576,6689.70530533,6693.63287697,8857201.97571,34.1977376565
4580.0,20.0,14.9356202819,0.348276986527,14.3529571827,6987.84370706,6984.89999131,8698303.28471,-29.0290353439
4600.0,20.0,14.8881149386,0.346067741552,14.3417359043,7285.03057215,7287.09223121,8857878.71358,44.8954687171
4620.0,20.0,14.9315047089,0.346942065782,14.3151027942,7587.04126147,7584.63957125,8702816.42928,-34.7626095555
4640.0,20.0,14.8858348349,0.344502307634,14.3317930684,7905.08898184,7909.12793081,8847673.4293,36.3211420775
4660.0,20.0,14.9258141563,0.343128181202,14.2904397871,8211.015208,8204.83645389,8708717.74694,-28.7400641347
4680.0,20.0,14.8797854683,0.34086484476,14.3145118043,8538.38599068,8541.51053256,8858424.48273,35.6666614356
4700.0,20.0,14.9159229127,0.340148847429,14.299996054,8858.52663556,8858.7211677,8703179.77509,-26.2248853546
4720.0,20.0,14.8728068586,0.337825144307,14.274556045,9172.26494401,9171.69021286,8847553.69418,41.6252638514
4740.0,20.0,14.9044303253,0.338780796379,14.259809537,9494.05278162,9493.44483499,8707750.76678,-30.3460741687
4760.0,20.0,14.8660792278,0.338168995432,14.2465387604,9821.31461155,9818.56229344,8854768.27164,44.8731078417
4780.0,20.0,14.8977335182,0.338216960114,14.2491690943,10149.3486346,10156.7606098,8722950.75577,-25.4431998694
4800.0,20.0,14.862092477,0.33528231464,14.2210906758,10478.2176374,10474.9987698,8823054.76438,22.5476157038
4820.0,20.0,14.8890897125,0.338367414822,14.2234858349,10816.4439615,10817.3119091,8711543.73628,-29.9007914352
4840.0,20.0,14.8657952863,0.332583331619,14.1877633634,11140.5877209,11131.8887006,8858023.75822,46.8425980728
4860.0,20.0,14.8843981575,0.33125251188,14.2090150536,11481.4355402,11492.3086534,8724587.45392,-22.530103474
4880.0,20.0,14.8676265883,0.325291908247,14.1788685995,11815.271067,11812.63508,8829250.84736,23.5945791411
4900.0,20.0,14.88093439,0.321633033659,14.1852531744,12159.0093552,12164.2069817,8700167.71145,-38.0803410334
4920.0,20.0,14.8665587124,0.315737496909,14.1432660974,12485.9601794,12474.4326867,8833712.23692,34.5634500803
4940.0,20.0,14.8766664122,0.310181769916,14.1597585277,12831.2854627,12836.4543409,8728147.50043,-20.7693776886
4960.0,20.0,14.8606523322,0.306006231786,14.1312636031,13158.9665163,13158.2420166,8830619.75415,45.283455026
4980.0,20.0,14.8707617604,0.301196496778,14.1165010036,13490.26661,13491.9735184,8714697.36853,-28.4061130972
5000.0,20.0,14.8541408326,0.296966740146,14.1039328663,13826.9326507,13827.4700953,8824006.4422,34.269445089
