0.0000000	10.8160824	4.9275208	26.2373774	108.8912374
0.0039062	10.8354928	4.9324258	26.4890142	81.4142558
0.0078125	10.8548759	4.9341325	26.9220851	110.2512033
0.0117188	10.8741465	4.9331918	27.2369547	80.1550251
0.0156250	10.8933264	4.9290882	27.6009775	111.2203014
0.0195312	10.9123623	4.9222830	27.9737711	78.8918245
0.0234375	10.9312904	4.9123543	28.4061894	111.5733036
0.0273438	10.9500360	4.8996668	28.8378506	77.5687432
0.0312500	10.9686394	4.8838836	29.3379059	111.1012569
0.0351562	10.9870504	4.8652826	29.8322387	76.4233909
0.0390625	11.0052769	4.8436061	30.3985720	109.9103102
0.0429688	11.0232650	4.8191018	30.9603185	75.7627808
0.0468750	11.0410270	4.7915790	31.5903727	107.9841960
0.0507812	11.0585746	4.7612374	32.2182712	75.6316539
0.0546875	11.0759124	4.7278182	32.9088022	105.2842870
0.0585938	11.0929735	4.6915804	33.6091584	75.9876827
0.0625000	11.1098196	4.6522831	34.3595537	101.8883445
0.0664062	11.1262989	4.6100928	35.1317398	76.7256133
0.0703125	11.1425559	4.5650305	35.9396784	97.8854707
0.0742188	11.1584987	4.5169574	36.7810722	77.5168923
0.0781250	11.1741103	4.4660396	37.6491815	93.5098039
0.0820312	11.1893812	4.4121912	38.5601117	78.2834742
0.0859375	11.2043356	4.3555383	39.4851281	89.0472088
0.0898438	11.2189002	4.2959364	40.4591265	78.7998873
0.0937500	11.2331535	4.2336541	41.4388885	84.6029539
0.0976562	11.2470307	4.1683643	42.4685541	78.9784974
0.1015625	11.2605018	4.1004742	43.4995005	80.3695288
0.1054688	11.2736496	4.0297531	44.5794832	78.7500252
0.1093750	11.2864775	3.9563910	45.6616078	76.4361039
0.1132812	11.2988603	3.8801116	46.7794043	77.9370814
0.1171875	11.3108071	3.8013801	47.8994074	72.7101310
0.1210938	11.3223971	3.7198064	49.0957640	76.7646276
0.1250000	11.3334659	3.6357196	50.2176368	68.9482055
0.1289062	11.3440629	3.5491337	51.3873977	74.9504952
0.1328125	11.3543168	3.4602132	52.5773234	66.4808445
0.1367188	11.3640971	3.3687276	53.7728681	72.4844487
0.1406250	11.3734602	3.2749667	54.9752363	63.7193644
0.1445312	11.3824167	3.1788288	56.1778194	69.9674712
0.1484375	11.3909823	3.0804893	57.3750659	61.0074605
0.1523438	11.3990746	2.9798236	58.5712539	67.3102168
0.1562500	11.4066904	2.8771379	59.7568915	58.1766650
0.1601562	11.4138432	2.7723517	60.9365430	64.5553097
0.1640625	11.4205673	2.6657089	62.0934041	55.4805400
0.1679688	11.4268749	2.5571629	63.2415015	61.8094764
0.1718750	11.4328116	2.4469199	64.3573518	52.9661545
0.1757812	11.4384009	2.3348701	65.4546101	59.0857719
0.1796875	11.4435712	2.2212377	66.5157527	50.6568896
0.1835938	11.4484805	2.1060526	67.5524972	56.4135428
0.1875000	11.4530239	1.9892894	68.5442032	48.5774510
0.1914062	11.4571685	1.8710980	69.5013225	53.8593416
0.1953125	11.4609454	1.7516101	70.4087868	46.7003036
0.1992188	11.4643133	1.6307980	71.2757070	51.2856267
0.2031250	11.4672058	1.5089707	72.0916504	44.9635242
0.2070312	11.4698086	1.3862001	72.8554858	48.8293859
0.2109375	11.4720012	1.2624807	73.5595623	43.2997565
0.2148438	11.4738625	1.1381091	74.2049528	46.3589544
0.2187500	11.4754751	1.0131002	74.7815936	41.6717254
0.2226562	11.4768363	0.8875263	75.2917928	44.1023941
0.2265625	11.4780592	0.7614700	75.7248888	40.3511039
0.2304688	11.4789967	0.6348649	76.1028218	42.0336889
0.2343750	11.4798056	0.5079196	76.4080203	39.2655585
0.2382812	11.4802278	0.3805222	76.6439156	39.8764368
0.2421875	11.4804632	0.2531760	76.8025561	38.0278177
0.2460938	11.4806871	0.1255332	76.8851903	37.3515261
0.2500000	11.4804427	-0.0023871	76.8835195	36.6479387
0.2539062	11.4797860	-0.1298980	76.8002273	34.8569128
0.2578125	11.4792803	-0.2568836	76.6460806	35.2678056
0.2617188	11.4790621	-0.3838897	76.4181224	32.4862151
0.2656250	11.4785659	-0.5109599	76.1267616	34.0960501
0.2695312	11.4778660	-0.6375073	75.7560872	30.1232346
0.2734375	11.4771534	-0.7638448	75.3178346	32.5739526
0.2773438	11.4761621	-0.8897341	74.7966330	27.6256499
0.2812500	11.4750295	-1.0152713	74.2186311	30.8506685
0.2851562	11.4735234	-1.1402512	73.5721202	25.1586505
0.2890625	11.4717711	-1.2646059	72.8693148	29.1051101
0.2929688	11.4696430	-1.3882571	72.1101032	22.7976924
0.2968750	11.4672001	-1.5110241	71.2978742	27.4089054
0.3007812	11.4643971	-1.6329764	70.4348379	20.3881991
0.3046875	11.4610976	-1.7538517	69.5294347	25.6063401
0.3085938	11.4574038	-1.8734819	68.5751758	17.9236589
0.3125000	11.4533328	-1.9918135	67.5823069	23.6869313
0.3164062	11.4488689	-2.1087408	66.5441630	15.3293894
0.3203125	11.4440684	-2.2241355	65.4758714	21.5467900
0.3242188	11.4388309	-2.3380906	64.3703552	12.6636381
0.3281250	11.4331878	-2.4502509	63.2490618	19.2792561
0.3320312	11.4271872	-2.5607678	62.1003210	10.0637555
0.3359375	11.4207840	-2.6694162	60.9405937	16.9449261
0.3398438	11.4139666	-2.7762692	59.7576269	7.5338861
0.3437500	11.4067404	-2.8810557	58.5725421	14.4315444
0.3476562	11.3990662	-2.9839920	57.3723730	4.9762695
0.3515625	11.3908826	-3.0846228	56.1679347	11.7756915
0.3554688	11.3823376	-3.1831424	54.9628702	2.3795143
0.3593750	11.3733584	-3.2793473	53.7626000	8.9486523
0.3632812	11.3638407	-3.3733857	52.5712979	-0.4330232
0.3671875	11.3538944	-3.4647740	51.3846819	6.0632037
0.3710938	11.3435538	-3.5539534	50.1983499	-3.2052655
0.3750000	11.3326591	-3.6404979	49.0151275	3.0188434
0.3789062	11.3213933	-3.7244464	47.8746088	-6.2171854
0.3828125	11.3097202	-3.8055994	46.7708337	0.2562449
0.3867188	11.2977421	-3.8842472	45.6520664	-8.5635805
0.3906250	11.2853486	-3.9602308	44.5594245	-2.6424551
0.3945312	11.2725547	-4.0335080	43.4970715	-11.0622334
0.3984375	11.2594759	-4.1040281	42.4555768	-5.3520538
0.4023438	11.2459292	-4.1719482	41.4389798	-13.5445217
0.4062500	11.2319792	-4.2369113	40.4520974	-8.0630836
0.4101562	11.2177058	-4.2991571	39.4961025	-15.9461166
0.4140625	11.2030509	-4.3585335	38.5640412	-10.5187936
0.4179688	11.1880372	-4.4150865	37.6707182	-18.3440388
0.4218750	11.1726928	-4.4686839	36.8000806	-12.6991750
0.4257812	11.1570387	-4.5194718	35.9691451	-20.8005036
0.4296875	11.1410715	-4.5672704	35.1604499	-14.5587057
0.4335938	11.1248421	-4.6122030	34.3971486	-23.3156133
0.4375000	11.1083447	-4.6541853	33.6548134	-16.1198969
0.4414062	11.0915206	-4.6933288	32.9552268	-25.8504985
0.4453125	11.0744785	-4.7293794	32.2803220	-17.4422075
0.4492188	11.0571875	-4.7626924	31.6426466	-28.3424417
0.4531250	11.0396237	-4.7929152	31.0363978	-18.5916410
0.4570312	11.0218738	-4.8203197	30.4633593	-30.5884285
0.4609375	11.0038332	-4.8447112	29.9267579	-19.6008516
0.4648438	10.9856355	-4.8661436	29.4150407	-32.4633775
0.4687500	10.9672417	-4.8846507	28.9446339	-20.5822355
0.4726562	10.9486883	-4.9002074	28.4946855	-33.9706699
0.4765625	10.9299591	-4.9128559	28.0832786	-21.6194614
0.4804688	10.9111155	-4.9225108	27.6936134	-35.1987397
0.4843750	10.8921226	-4.9293296	27.3426250	-22.8290344
0.4882812	10.8730338	-4.9331172	27.0134131	-36.3060751
0.4921875	10.8538545	-4.9341318	26.7175843	-24.1398495
0.4960938	10.8345951	-4.9321532	26.4473848	-37.1970999
0.5000000	10.8152489	-4.9274125	26.1949209	-25.3670765
0.5039062	10.7958519	-4.9196908	25.9856949	-38.0291200
0.5078125	10.7764085	-4.9092317	25.8305227	-26.1503880
0.5117188	10.7569435	-4.8958072	25.6713312	-37.6778303
0.5156250	10.7374550	-4.8797008	25.5413106	-26.8761471
0.5195312	10.7179546	-4.8606523	25.4339109	-37.1423441
0.5234375	10.6984790	-4.8389188	25.3536127	-27.4577849
0.5273438	10.6790068	-4.8142785	25.2900615	-36.4699647
0.5312500	10.6596131	-4.7869727	25.2546367	-27.9281707
0.5351562	10.6402620	-4.7568705	25.2382385	-35.5702798
0.5390625	10.6209964	-4.7240870	25.2470647	-28.1222262
0.5429688	10.6018380	-4.6885354	25.2739068	-34.5016626
0.5468750	10.5827896	-4.6503527	25.3198279	-27.9924227
0.5507812	10.5638729	-4.6094779	25.3863761	-33.4307293
0.5546875	10.5451369	-4.5659931	25.4650457	-27.4951223
0.5585938	10.5265780	-4.5199203	25.5697067	-32.4790305
0.5625000	10.5081644	-4.4712851	25.6800888	-26.6058512
0.5664062	10.4900098	-4.4200591	25.8191589	-31.6649790
0.5703125	10.4720495	-4.3664217	25.9615691	-25.3767247
0.5742188	10.4543074	-4.3102182	26.1278663	-30.9558741
0.5781250	10.4368630	-4.2516271	26.2999139	-23.8248326
0.5820312	10.4196793	-4.1906288	26.4935413	-30.1338130
0.5859375	10.4027478	-4.1272756	26.6954838	-21.9809803
0.5898438	10.3861609	-4.0615297	26.9109553	-29.0913172
0.5937500	10.3698947	-3.9935844	27.1348630	-19.9893044
0.5976562	10.3539493	-3.9233424	27.3667747	-27.8096872
0.6015625	10.3383472	-3.8509553	27.6050675	-17.9818442
0.6054688	10.3231132	-3.7763116	27.8505010	-26.4012927
0.6093750	10.3082921	-3.6996450	28.1006360	-16.0638697
0.6132812	10.2937951	-3.6208779	28.3585322	-25.0153097
0.6171875	10.2797040	-3.5400747	28.6184048	-14.2272610
0.6210938	10.2660780	-3.4572684	28.8809996	-23.6131201
0.6250000	10.2528627	-3.3726022	29.1544971	-12.3364192
0.6289062	10.2400815	-3.2860289	29.4564583	-22.3391911
0.6328125	10.2277509	-3.1976913	29.7556225	-9.8262421
0.6367188	10.2158902	-3.1075606	30.0426800	-20.1224581
0.6406250	10.2044534	-3.0157908	30.3284376	-7.1998460
0.6445312	10.1934776	-2.9222763	30.6119661	-17.8266647
0.6484375	10.1830391	-2.8272051	30.8976192	-4.4960925
0.6523438	10.1730384	-2.7306101	31.1715014	-15.4902235
0.6562500	10.1635180	-2.6325155	31.4547837	-1.8764678
0.6601562	10.1545135	-2.5330010	31.7213422	-12.8988986
0.6640625	10.1459997	-2.4321424	32.0013270	0.6536288
0.6679688	10.1379724	-2.3299749	32.2582516	-9.9110590
0.6718750	10.1304476	-2.2265474	32.5278511	3.0392547
0.6757812	10.1234201	-2.1219741	32.7719115	-6.5138433
0.6796875	10.1169031	-2.0162496	33.0223884	5.2589398
0.6835938	10.1109004	-1.9095244	33.2514423	-2.7701638
0.6875000	10.1053454	-1.8018059	33.4794991	7.4313249
0.6914062	10.1003197	-1.6931299	33.6953088	1.1923903
0.6953125	10.0957813	-1.5836794	33.8985391	9.6005971
0.6992188	10.0916603	-1.4734174	34.0957887	5.1559808
0.7031250	10.0880516	-1.3624147	34.2693747	12.0033902
0.7070312	10.0848861	-1.2508234	34.4476542	9.0646784
0.7109375	10.0821222	-1.1386239	34.5915458	14.8196342
0.7148438	10.0797969	-1.0258968	34.7417232	12.7153220
0.7187500	10.0778829	-0.9127435	34.8506229	18.0925708
0.7226562	10.0763177	-0.7992260	34.9666320	15.9633988
0.7265625	10.0751166	-0.6853754	35.0427632	21.7928159
0.7304688	10.0742200	-0.5713035	35.1234133	18.7372475
0.7343750	10.0736182	-0.4570311	35.1706132	25.8633766
0.7382812	10.0732365	-0.3426738	35.2140661	21.0414446
0.7421875	10.0730349	-0.2282275	35.2346562	30.1194234
0.7460938	10.0729622	-0.1137639	35.2479218	23.0868610
0.7500000	10.0729419	0.0007067	35.2795177	34.6483642
0.7539062	10.0729684	0.1151856	35.2569890	25.0565141
0.7578125	10.0730689	0.2296696	35.2258667	38.6581214
0.7617188	10.0732966	0.3441163	35.1545245	28.5254741
0.7656250	10.0736900	0.4584941	35.0906069	42.4134522
0.7695312	10.0743225	0.5727659	34.9840250	32.0439490
0.7734375	10.0752448	0.6868409	34.8886443	45.7053743
0.7773438	10.0764707	0.8006673	34.7481995	35.8270835
0.7812500	10.0780342	0.9141724	34.6240340	48.2947896
0.7851562	10.0799698	1.0273162	34.4579124	39.9876425
0.7890625	10.0823025	1.1399987	34.3074966	50.2632479
0.7929688	10.0850605	1.2521845	34.1225875	44.5645965
0.7968750	10.0882197	1.3637516	33.9464066	51.6884713
0.8007812	10.0918384	1.4747514	33.7416389	49.4970756
0.8046875	10.0959560	1.5849603	33.5354594	52.6773546
0.8085938	10.1004923	1.6944068	33.3120916	54.6764952
0.8125000	10.1055163	1.8030312	33.0822094	53.4894475
0.8164062	10.1110762	1.9107402	32.8471547	59.9670170
0.8203125	10.1170653	2.0173935	32.5938673	54.1700298
0.8242188	10.1235616	2.1231297	32.3452510	65.0601165
0.8281250	10.1305893	2.2276500	32.0774541	54.8361342
0.8320312	10.1380847	2.3310580	31.8212641	69.9405318
0.8359375	10.1460690	2.4331898	31.5444206	55.6918144
0.8398438	10.1545852	2.5341106	31.2778050	74.5137148
0.8437500	10.1635916	2.6335551	30.9922376	56.7242075
0.8476562	10.1730875	2.7316916	30.7145348	78.7938889
0.8515625	10.1830722	2.8282278	30.4260389	57.8798199
0.8554688	10.1935426	2.9233754	30.1431689	82.8562441
0.8593750	10.2045268	3.0167809	29.8576478	59.0932235
0.8632812	10.2159366	3.1086312	29.5722848	86.6678537
0.8671875	10.2278005	3.1986974	29.2939320	60.1168656
0.8710938	10.2401943	3.2871287	29.0127676	90.3228652
0.8750000	10.2530015	3.3735194	28.7749109	61.0645648
0.8789062	10.2661796	3.4582324	28.5074412	94.0061754
0.8828125	10.2798429	3.5409049	28.2068503	61.7420998
0.8867188	10.2939430	3.6217139	27.9473009	98.3745978
0.8906250	10.3083817	3.7003154	27.6757636	62.3695942
0.8945312	10.3232084	3.7770993	27.4410427	102.1201455
0.8984375	10.3384643	3.8515828	27.1789550	63.0292365
0.9023438	10.3540752	3.9240655	26.9707069	105.1460243
0.9062500	10.3699935	3.9941504	26.7244070	63.7720731
0.9101562	10.3862871	4.0622353	26.5444408	107.2428134
0.9140625	10.4029004	4.1277630	26.3170624	65.0527991
0.9179688	10.4197960	4.1912131	26.1658649	108.3306808
0.9218750	10.4369735	4.2520836	25.9644157	67.2056102
0.9257812	10.4544455	4.3107878	25.8314780	108.2712525
0.9296875	10.4721715	4.3667885	25.6600427	70.3739952
0.9335938	10.4901370	4.4205849	25.5462739	107.0069134
0.9375000	10.5083053	4.4716100	25.4173756	74.5879936
0.9414062	10.5267253	4.5203981	25.3264273	104.6692277
0.9453125	10.5452913	4.5662658	25.2411318	79.5378493
0.9492188	10.5640444	4.6099299	25.1738070	101.3674008
0.9531250	10.5829808	4.6505765	25.1384214	84.8400244
0.9570312	10.6020116	4.6889269	25.1035928	97.6178997
0.9609375	10.6211866	4.7242864	25.1174917	90.2337283
0.9648438	10.6404677	4.7572718	25.1189002	93.8267506
0.9687500	10.6598359	4.7871875	25.1771146	95.3224931
0.9726562	10.6792648	4.8147146	25.2202088	90.3306488
0.9765625	10.6987851	4.8391375	25.3215469	99.8456360
0.9804688	10.7183177	4.8610836	25.4180957	87.3448729
0.9843750	10.7378809	4.8799497	25.5661279	103.6810590
0.9882812	10.7574727	4.8962836	25.7168636	84.7502562
0.9921875	10.7770409	4.9094560	25.9459127	106.7204593
0.9960938	10.7965896	4.9200823	26.0492165	82.3735887
1.0000000	10.8160824	4.9275208	26.2296592	108.8912374
