0.0000000	28.0474830	3.9722064	79.4297661	74.0615280
0.0039062	26.8025210	3.8024730	78.5432960	69.6226451
0.0078125	25.5880335	3.6394181	77.1689525	71.1528975
0.0117188	24.4068561	3.4718083	76.2766726	71.3127668
0.0156250	23.2561954	3.3159791	75.3543300	72.5722545
0.0195312	22.1506754	3.1654915	74.4551177	72.4152979
0.0234375	21.0826314	3.0138045	73.5300470	73.0492059
0.0273438	20.0499803	2.8655090	72.6156207	72.6994175
0.0312500	19.0570365	2.7217971	71.6986704	73.7238709
0.0351562	18.0957967	2.5732292	70.7765076	72.7707337
0.0390625	17.1726504	2.4395770	69.8504690	74.3841392
0.0429688	16.2821910	2.2974846	68.9320363	73.0099681
0.0468750	15.4302516	2.1787157	68.0368256	75.1059528
0.0507812	14.6135195	2.0457335	67.1132153	73.2557247
0.0546875	13.8330776	1.9383085	66.2160482	75.4000043
0.0585938	13.0895305	1.8133318	65.2993407	73.5928558
0.0625000	12.3781335	1.7117228	64.4225831	75.8279115
0.0664062	11.7002558	1.5961007	63.5297024	74.1178535
0.0703125	11.0538343	1.5068610	62.6520179	75.9189396
0.0742188	10.4429794	1.4020043	61.7680033	74.5712196
0.0781250	9.8589924	1.3169622	60.9059616	76.1749442
0.0820312	9.3072875	1.2230673	60.0456228	75.0392434
0.0859375	8.7813024	1.1453207	59.1948124	76.4342347
0.0898438	8.2868450	1.0625460	58.3600170	75.4167006
0.0937500	7.8155628	0.9895489	57.5327712	76.4400459
0.0976562	7.3739830	0.9181859	56.7388169	75.9030265
0.1015625	6.9534000	0.8513065	55.9159481	76.3517320
0.1054688	6.5601219	0.7932567	55.1190716	76.3302714
0.1093750	6.1898648	0.7327803	54.3197782	76.7459917
0.1132812	5.8371452	0.6804481	53.5386471	76.4378914
0.1171875	5.5054859	0.6337082	52.7409635	76.4766091
0.1210938	5.1962656	0.5945836	52.0112834	75.4037893
0.1250000	4.9112507	0.5565607	51.3542174	78.0957599
0.1289062	4.6464660	0.5154497	50.7371704	78.4356621
0.1328125	4.3983269	0.4722454	50.0932237	76.4827672
0.1367188	4.1652142	0.4313648	49.4301090	76.8692241
0.1406250	3.9444428	0.3919613	48.7924358	77.6159758
0.1445312	3.7373838	0.3600014	48.1412015	77.3808067
0.1484375	3.5458717	0.3297108	47.5207018	77.5983293
0.1523438	3.3669597	0.3007658	46.9035588	76.8230370
0.1562500	3.1972471	0.2745630	46.3286154	77.8406690
0.1601562	3.0424794	0.2548837	45.7910283	77.4096376
0.1640625	2.8986882	0.2334572	45.2796239	78.5811347
0.1679688	2.7679877	0.2173213	44.8027090	77.7878515
0.1718750	2.6485828	0.1973794	44.3978198	78.4672876
0.1757812	2.5381033	0.1805953	43.9300079	78.3423155
0.1796875	2.4356002	0.1643462	43.4605710	77.0453258
0.1835938	2.3414178	0.1495827	43.1102290	79.1162866
0.1875000	2.2562837	0.1372987	42.7119445	78.0059285
0.1914062	2.1802553	0.1224088	42.3996739	78.4487147
0.1953125	2.1090752	0.1091837	42.1322765	78.1132271
0.1992188	2.0474235	0.1012362	41.8919907	77.9561089
0.2031250	1.9976264	0.0934263	41.5721463	79.0506668
0.2070312	1.9502168	0.0845200	41.2997165	79.3289129
0.2109375	1.9196155	0.0853761	41.1119299	79.8539057
0.2148438	1.8907714	0.0640542	40.7664958	78.6699532
0.2187500	1.8626887	0.0532935	40.7196673	82.4335653
0.2226562	1.8340843	0.0315769	40.8333976	76.5728069
0.2265625	1.8046259	0.0278727	40.7992690	77.0002913
0.2304688	1.8008375	0.0132306	41.0173208	77.1784947
0.2343750	1.8035127	-0.0320759	41.2426045	80.0118697
0.2382812	1.8058443	-0.0857355	40.8515811	72.8801412
0.2421875	1.7860940	-0.1581216	39.9325068	65.1811462
0.2460938	1.7487628	-0.1759110	39.4127233	65.4031951
0.2500000	1.7357947	-0.1734754	39.5095850	76.6692398
0.2539062	1.7393493	-0.1834409	39.2380553	77.9011454
0.2578125	1.7402601	-0.2123341	38.8474158	65.9366852
0.2617188	1.7098074	-0.2132180	39.2573348	65.0586082
0.2656250	1.6941331	-0.1505082	40.1627796	67.3724734
0.2695312	1.7069663	-0.1093767	40.9030415	76.6242239
0.2734375	1.7404957	-0.0740303	41.0027150	79.0573863
0.2773438	1.8007920	-0.0650929	40.5893264	76.1330861
0.2812500	1.8366611	-0.0825424	40.4464407	75.3107601
0.2851562	1.8619717	-0.0810513	40.7834404	76.7519195
0.2890625	1.8934790	-0.0781937	41.2547987	74.9148590
0.2929688	1.9354306	-0.0580842	41.7187220	77.1611457
0.2968750	1.9914100	-0.0575422	42.0364783	79.0669151
0.3007812	2.0526420	-0.0639702	42.1902893	77.9231848
0.3046875	2.1209608	-0.0843271	42.3933466	77.2961664
0.3085938	2.1926124	-0.1049136	42.6848885	77.9924859
0.3125000	2.2731470	-0.1291488	43.1200479	75.4045572
0.3164062	2.3554391	-0.1509072	43.5584487	75.6260758
0.3203125	2.4433438	-0.1678089	43.9502327	74.3972013
0.3242188	2.5420973	-0.1816662	44.3908827	75.8813868
0.3281250	2.6541452	-0.1977106	44.8408418	74.6840186
0.3320312	2.7768337	-0.2176931	45.3178400	75.3615243
0.3359375	2.9070870	-0.2397701	45.8240649	73.6728363
0.3398438	3.0486434	-0.2604739	46.3698222	75.3199975
0.3437500	3.2005406	-0.2856689	46.9409529	73.2962438
0.3476562	3.3646739	-0.3084931	47.5256187	74.7113653
0.3515625	3.5406630	-0.3368024	48.0986901	72.9738534
0.3554688	3.7312178	-0.3617087	48.6987445	73.8136027
0.3593750	3.9375103	-0.3952592	49.3351714	73.2244241
0.3632812	4.1563827	-0.4283414	49.9988767	72.9756237
0.3671875	4.3917703	-0.4638518	50.6580039	72.5298810
0.3710938	4.6432806	-0.4998489	51.3752849	70.8610593
0.3750000	4.9161816	-0.5362489	52.1195678	73.1327446
0.3789062	5.2095239	-0.5807118	52.8846935	72.3306965
0.3828125	5.5190279	-0.6321277	53.6186354	70.7507263
0.3867188	5.8449556	-0.6867874	54.3591120	70.5383893
0.3906250	6.1920809	-0.7418311	55.1385465	71.6988835
0.3945312	6.5598195	-0.8013102	55.9180124	69.8668553
0.3984375	6.9555797	-0.8598527	56.7142041	71.2040635
0.4023438	7.3721490	-0.9309937	57.5169816	68.6766921
0.4062500	7.8150903	-0.9958382	58.3481011	70.7498172
0.4101562	8.2832892	-1.0743136	59.1847713	67.9019893
0.4140625	8.7800294	-1.1463985	60.0312689	70.3076127
0.4179688	9.3028976	-1.2339484	60.8947047	67.1732373
0.4218750	9.8566586	-1.3130841	61.7691347	69.7010288
0.4257812	10.4391615	-1.4096609	62.6367721	66.4727349
0.4296875	11.0552240	-1.4971847	63.5176698	68.7983955
0.4335938	11.7010057	-1.6060351	64.3999977	65.8607173
0.4375000	12.3803864	-1.7048330	65.3142952	68.0926748
0.4414062	13.0906321	-1.8243828	66.2169229	65.3226302
0.4453125	13.8371875	-1.9296023	67.1238707	67.1247906
0.4492188	14.6163801	-2.0590386	68.0242765	64.7086941
0.4531250	15.4306543	-2.1740081	68.9529112	66.3131622
0.4570312	16.2802255	-2.3124115	69.8580105	64.1753793
0.4609375	17.1641941	-2.4360238	70.7673662	65.3588855
0.4648438	18.0872523	-2.5789332	71.6773878	63.4567244
0.4687500	19.0469507	-2.7113485	72.5978378	64.5311330
0.4726562	20.0476368	-2.8619547	73.5351920	62.8914738
0.4765625	21.0815877	-3.0081378	74.4343779	63.7264895
0.4804688	22.1551550	-3.1610156	75.3641568	62.2503761
0.4843750	23.2641620	-3.3185127	76.2648556	63.0703217
0.4882812	24.4002168	-3.4788779	77.2023769	60.6161582
0.4921875	25.5794332	-3.6274612	78.0766976	61.2758251
0.4960938	26.7923690	-3.7930229	78.9850575	58.3325278
0.5000000	28.0464179	-3.9453128	79.8939349	64.1118755
0.5039062	29.3298436	-4.1204185	80.7780734	61.1007305
0.5078125	30.6478524	-4.2759212	81.6453445	59.4882436
0.5117188	31.9921779	-4.4569018	82.5193163	57.5792871
0.5156250	33.3695944	-4.6086900	83.4129355	60.3506316
0.5195312	34.7674711	-4.7866529	84.2657606	57.7665039
0.5234375	36.2053302	-4.9213892	85.1162923	60.2221294
0.5273438	37.6638087	-5.0995407	85.9581516	56.8154470
0.5312500	39.1510916	-5.2298002	86.7840141	59.6912684
0.5351562	40.6560483	-5.4052635	87.6127327	55.8506968
0.5390625	42.1855783	-5.5288860	88.4074154	59.3516485
0.5429688	43.7253441	-5.6993358	89.2256404	54.8373594
0.5468750	45.2852282	-5.8094929	90.0026582	59.1415555
0.5507812	46.8496039	-5.9670474	90.7736959	53.7057090
0.5546875	48.4357042	-6.0535787	91.5277697	58.9300272
0.5585938	50.0225995	-6.1990276	92.2713130	52.6099872
0.5625000	51.6229470	-6.2698743	93.0291303	58.9460474
0.5664062	53.2164438	-6.4018621	93.7345059	51.6444574
0.5703125	54.8187771	-6.4455795	94.4557718	58.7012030
0.5742188	56.4147021	-6.5526631	95.1150793	50.7474896
0.5781250	58.0101856	-6.5767643	95.8296942	58.4697523
0.5820312	59.5947825	-6.6613477	96.4537283	50.3025795
0.5859375	61.1711940	-6.6657749	97.1209355	57.9089217
0.5898438	62.7343647	-6.7244082	97.7150267	50.0748171
0.5937500	64.2791124	-6.7113581	98.3434498	57.1497819
0.5976562	65.8065870	-6.7406529	98.9382571	50.0060132
0.6015625	67.3080379	-6.7075603	99.5052386	56.1845150
0.6054688	68.7897629	-6.7002246	100.0642636	49.6751203
0.6093750	70.2402583	-6.6475644	100.6039510	54.7787618
0.6132812	71.6607852	-6.6078068	101.1515826	48.6359508
0.6171875	73.0495328	-6.5254437	101.6527068	52.7628238
0.6210938	74.4056947	-6.4550756	102.1646199	49.2072404
0.6250000	75.7232111	-6.3502093	102.5997461	55.8416665
0.6289062	77.0087075	-6.2504660	103.0273511	52.9127737
0.6328125	78.2444620	-6.1323441	103.4644793	51.2611335
0.6367188	79.4373086	-6.0047059	103.8953820	49.4178719
0.6406250	80.5841419	-5.8589346	104.3156784	50.2255140
0.6445312	81.6843848	-5.7038059	104.6994773	50.5682804
0.6484375	82.7378037	-5.5319338	105.0416983	50.4939735
0.6523438	83.7432313	-5.3525522	105.3944841	50.9890685
0.6562500	84.6979020	-5.1611834	105.6884021	50.4317313
0.6601562	85.6000386	-4.9633433	106.0259398	50.8671744
0.6640625	86.4523784	-4.7518997	106.2624860	50.4266883
0.6679688	87.2478373	-4.5390521	106.5816596	50.2659843
0.6718750	87.9955268	-4.3073970	106.7910480	50.8431748
0.6757812	88.6839200	-4.0824145	107.0574845	49.2155915
0.6796875	89.3312963	-3.8303278	107.2407172	51.6391890
0.6835938	89.9170909	-3.6031590	107.4595541	47.8438454
0.6875000	90.4604955	-3.3424500	107.6548321	53.0281486
0.6914062	90.9414976	-3.1162253	107.8112453	46.5441543
0.6953125	91.3856984	-2.8432552	107.9899105	54.3958133
0.6992188	91.7742696	-2.6166896	108.0800781	45.3489456
0.7031250	92.1254141	-2.3474261	108.2723963	55.7251834
0.7070312	92.4249452	-2.1292397	108.3169644	44.8287907
0.7109375	92.6893925	-1.8721448	108.4846117	56.4067110
0.7148438	92.9096699	-1.6666328	108.5074524	44.7432398
0.7187500	93.0951723	-1.4333203	108.6553325	56.1741724
0.7226562	93.2427955	-1.2447715	108.6995378	44.9975963
0.7265625	93.3570039	-1.0384754	108.8037243	54.9512480
0.7304688	93.4421861	-0.8622542	108.8388480	45.2694521
0.7343750	93.4970944	-0.6786762	108.9231419	52.9734046
0.7382812	93.5324196	-0.5059365	108.9668497	45.5725771
0.7421875	93.5467425	-0.3303025	109.0189221	50.8291234
0.7460938	93.5554455	-0.1529082	109.0447952	48.9045759
0.7500000	93.5544751	0.0183905	108.9919072	53.8356046
0.7539062	93.5426200	0.1977819	108.9493397	54.4452399
0.7578125	93.5335572	0.3798892	108.8959241	48.7210237
0.7617188	93.5199070	0.5578933	108.8658825	51.2872807
0.7656250	93.4865483	0.7340209	108.8118000	45.6719393
0.7695312	93.4341989	0.9246074	108.7683668	53.5751300
0.7734375	93.3532954	1.1064187	108.6732279	46.1349889
0.7773438	93.2433606	1.3203721	108.6370430	56.1442579
0.7812500	93.1001929	1.5117555	108.5207677	46.8046138
0.7851562	92.9193026	1.7488812	108.4905242	58.0805984
0.7890625	92.7038616	1.9493061	108.3287710	47.4311149
0.7929688	92.4426183	2.2024648	108.2899811	58.9408147
0.7968750	92.1441242	2.4097890	108.1071247	48.3643346
0.8007812	91.7937659	2.6742926	108.0202366	58.8959941
0.8046875	91.4074437	2.8841261	107.8148962	49.5815221
0.8085938	90.9632517	3.1462210	107.6768159	58.2786770
0.8125000	90.4791676	3.3545525	107.4820020	51.4817902
0.8164062	89.9308460	3.6133288	107.2837606	57.6100074
0.8203125	89.3446577	3.8281343	107.0735228	53.5546316
0.8242188	88.6958374	4.0764163	106.8045501	56.8307740
0.8281250	88.0052685	4.2883042	106.5975357	55.7577885
0.8320312	87.2510626	4.5214907	106.2758111	56.5947341
0.8359375	86.4541880	4.7303964	106.0313931	57.5293821
0.8398438	85.5993628	4.9433831	105.6695816	56.7869478
0.8437500	84.6975290	5.1388258	105.3867061	58.7405847
0.8476562	83.7414572	5.3302773	105.0210070	57.3316806
0.8515625	82.7356479	5.5093690	104.6755270	59.4394894
0.8554688	81.6818471	5.6819849	104.2748732	57.9038877
0.8593750	80.5782001	5.8367831	103.8960846	59.4150081
0.8632812	79.4270435	5.9892078	103.4894100	58.0153164
0.8671875	78.2317747	6.1236807	103.0709952	58.4391499
0.8710938	76.9956954	6.2519299	102.6285561	59.3796687
0.8750000	75.7166447	6.3563483	102.1408339	62.2517302
0.8789062	74.4059167	6.4589906	101.6136466	64.8586926
0.8828125	73.0495611	6.5235311	101.1250807	59.3138261
0.8867188	71.6612686	6.6052105	100.5975390	62.3939009
0.8906250	70.2369241	6.6395870	100.0996853	58.8069638
0.8945312	68.7848313	6.7006141	99.5240742	64.9131514
0.8984375	67.3040267	6.7054984	98.9557109	59.7436133
0.9023438	65.8050755	6.7469881	98.3486685	67.0413894
0.9062500	64.2774896	6.7129848	97.7335903	59.8378622
0.9101562	62.7377636	6.7382446	97.1177581	68.8666797
0.9140625	61.1769058	6.6663896	96.4433063	59.5668504
0.9179688	59.6061568	6.6747426	95.8269415	70.3587225
0.9218750	58.0204128	6.5689373	95.1136191	59.5441372
0.9257812	56.4263304	6.5638562	94.4732927	71.5615469
0.9296875	54.8307870	6.4284743	93.7081836	59.6223847
0.9335938	53.2280512	6.4036263	93.0429275	72.4147581
0.9375000	51.6312621	6.2410029	92.2609012	60.4521773
0.9414062	50.0244612	6.1997525	91.5696241	72.8142424
0.9453125	48.4372025	6.0275264	90.7614277	61.7671323
0.9492188	46.8439303	5.9676239	90.0121450	72.4509421
0.9531250	45.2783878	5.7863021	89.2106773	63.5755977
0.9570312	43.7076047	5.7072119	88.4149806	72.0387452
0.9609375	42.1751882	5.5265621	87.6067543	65.4178135
0.9648438	40.6409321	5.4213992	86.7641586	71.4933663
0.9687500	39.1499057	5.2414261	85.9551275	67.1587284
0.9726562	37.6598940	5.1067516	85.0997544	71.0084331
0.9765625	36.2099464	4.9322438	84.2732230	68.6396977
0.9804688	34.7728213	4.7801031	83.3726720	70.7635137
0.9843750	33.3670696	4.6071404	82.5539651	69.3203859
0.9882812	31.9837581	4.4556041	81.6591166	69.7229926
0.9921875	30.6420590	4.2932648	80.7881482	68.5390359
0.9960938	29.3246986	4.1317315	80.3390849	72.3937942
1.0000000	28.0474830	3.9722064	79.4034548	74.0615280
