0.00000	17.89365	1.36192	16.77013	16.44446	-22.31711
0.00400	17.42957	1.34639	16.42704	16.51311	-85.13329
0.00800	17.00207	1.25291	15.77318	16.24453	-23.73681
0.01200	16.50114	1.20591	15.60360	16.45448	-92.20493
0.01600	16.10344	1.20572	15.01798	16.20647	-23.29036
0.02000	15.69298	1.14080	14.56325	16.07213	-77.84075
0.02400	15.22250	1.14156	14.20424	16.01863	-42.81479
0.02800	14.90001	1.13994	13.93247	16.05037	-74.49624
0.03200	14.50432	1.09966	13.49779	15.88127	-26.75907
0.03600	14.13244	1.10888	13.29670	15.95997	-80.83496
0.04000	13.84875	1.08466	12.90905	15.81119	-29.33674
0.04400	13.51716	1.05565	12.67234	15.81518	-76.22910
0.04800	13.31517	0.98735	12.33586	15.69007	-37.05383
0.05200	13.02991	0.90437	12.07590	15.63925	-80.32873
0.05600	12.77858	0.84332	11.67968	15.39791	-34.46888
0.06000	12.49635	0.81743	11.75276	15.76467	-67.45204
0.06400	12.28973	0.77754	11.35272	15.48850	-41.73015
0.06800	12.03760	0.75395	11.33725	15.72428	-74.94571
0.07200	11.87005	0.77220	11.18122	15.75483	-34.42729
0.07600	11.69794	0.73785	10.99482	15.73336	-70.11269
0.08000	11.52967	0.69687	10.80171	15.69345	-44.90786
0.08400	11.35883	0.66587	10.72033	15.80328	-65.86908
0.08800	11.23391	0.62871	10.41396	15.57423	-41.93268
0.09200	11.09468	0.54240	10.37179	15.72572	-75.88855
0.09600	10.88744	0.53205	10.25655	15.76166	-33.95783
0.10000	10.81465	0.49795	10.03371	15.61978	-69.80878
0.10400	10.60337	0.43884	9.99882	15.76217	-47.39301
0.10800	10.49529	0.42664	9.93987	15.86182	-64.46971
0.11200	10.35581	0.38869	9.73755	15.72529	-40.80995
0.11600	10.22246	0.36849	9.68808	15.82423	-60.11253
0.12000	10.12664	0.34056	9.56263	15.79407	-49.10227
0.12400	10.00983	0.29399	9.49933	15.85690	-65.38531
0.12800	9.88329	0.27509	9.37090	15.80569	-38.16706
0.13200	9.78333	0.28921	9.28898	15.82348	-66.59131
0.13600	9.70087	0.26887	9.21653	15.85117	-47.22846
0.14000	9.59840	0.26400	9.18610	15.94522	-59.00125
0.14400	9.52450	0.28433	9.02657	15.80884	-44.30125
0.14800	9.48339	0.24692	9.00029	15.89688	-65.75475
0.15200	9.36876	0.23394	8.95559	15.94758	-47.73714
0.15600	9.33176	0.24778	8.89495	15.96384	-63.64942
0.16000	9.28416	0.21885	8.81457	15.93848	-45.24124
0.16400	9.21849	0.21032	8.82438	16.07028	-61.72446
0.16800	9.18793	0.19507	8.73593	16.01792	-44.59184
0.17200	9.12901	0.17465	8.66395	15.98882	-56.49846
0.17600	9.09514	0.18240	8.65713	16.07432	-53.04804
0.18000	9.08370	0.16495	8.64374	16.14264	-58.91855
0.18400	9.04595	0.12223	8.58454	16.11982	-52.33751
0.18800	8.97624	0.13456	8.64237	16.31156	-62.10423
0.19200	8.98002	0.13297	8.44931	16.02328	-46.62536
0.19600	8.91202	0.12681	8.53224	16.25414	-59.85294
0.20000	8.91026	0.15805	8.49439	16.24808	-49.53623
0.20400	8.91359	0.15120	8.50262	16.32605	-53.78283
0.20800	8.91021	0.12875	8.46908	16.31877	-47.44691
0.21200	8.88562	0.10298	8.49995	16.43016	-62.27048
0.21600	8.85776	0.09126	8.41083	16.30454	-45.44154
0.22000	8.84685	0.08256	8.39916	16.32346	-61.19656
0.22400	8.84002	0.06014	8.41598	16.39207	-51.23406
0.22800	8.82373	0.03087	8.37222	16.33790	-53.17253
0.23200	8.79543	0.01700	8.38844	16.39571	-54.74126
0.23600	8.78798	0.00879	8.41090	16.46011	-50.91421
0.24000	8.78006	-0.01257	8.30572	16.26978	-49.34688
0.24400	8.75805	-0.02947	8.38875	16.44523	-58.50022
0.24800	8.74232	-0.02784	8.41058	16.49069	-44.78269
0.25200	8.74303	-0.03388	8.32505	16.32301	-53.56396
0.25600	8.72298	-0.04964	8.32388	16.31632	-58.27523
0.26000	8.69265	-0.01764	8.36384	16.38372	-51.49007
0.26400	8.74287	0.00003	8.26816	16.18089	-53.54599
0.26800	8.75541	-0.03277	8.41926	16.45612	-53.85565
0.27200	8.74751	-0.03069	8.33668	16.26892	-44.01612
0.27600	8.77873	-0.04368	8.37042	16.30403	-55.26246
0.28000	8.75932	-0.04699	8.45265	16.42709	-52.91906
0.28400	8.79200	-0.03479	8.37732	16.23942	-52.89772
0.28800	8.79862	-0.02550	8.42411	16.28487	-62.07932
0.29200	8.85015	-0.00788	8.48891	16.35683	-49.53616
0.29600	8.89223	-0.01283	8.44961	16.22489	-49.18653
0.30000	8.93242	-0.02721	8.46242	16.18691	-50.15397
0.30400	8.95342	-0.00937	8.60743	16.39670	-48.33373
0.30800	9.04690	-0.01179	8.57985	16.27199	-45.64111
0.31200	9.08911	-0.05085	8.64067	16.30814	-60.49874
0.31600	9.13322	-0.06825	8.76769	16.46313	-45.37738
0.32000	9.17542	-0.08878	8.71443	16.27409	-57.35431
0.32400	9.21786	-0.10009	8.84090	16.41528	-45.65691
0.32800	9.26860	-0.11308	8.82035	16.27728	-54.47385
0.33200	9.31390	-0.10826	8.88249	16.28634	-50.53855
0.33600	9.39625	-0.12041	8.96795	16.33252	-59.32894
0.34000	9.42917	-0.14533	9.06556	16.39263	-43.08291
0.34400	9.46200	-0.12508	9.03471	16.21462	-58.96734
0.34800	9.52972	-0.10218	9.18490	16.35632	-44.64514
0.35200	9.60439	-0.07433	9.19911	16.24886	-55.24340
0.35600	9.72050	-0.10146	9.20308	16.11872	-42.75516
0.36000	9.74838	-0.13721	9.32124	16.17998	-57.52348
0.36400	9.84633	-0.13420	9.31003	16.01533	-39.16583
0.36800	9.93469	-0.20652	9.36372	15.95061	-62.15890
0.37200	9.95519	-0.23198	9.49184	16.01041	-33.22366
0.37600	10.08940	-0.24738	9.48551	15.83401	-64.88964
0.38000	10.15242	-0.31129	9.67994	15.98679	-38.82137
0.38400	10.21581	-0.30996	9.69210	15.83064	-63.06625
0.38800	10.29452	-0.28761	9.82571	15.86731	-36.39261
0.39200	10.42815	-0.27768	9.85105	15.72070	-64.82037
0.39600	10.55623	-0.27704	10.02813	15.80940	-32.63451
0.40000	10.73605	-0.35036	10.00552	15.57573	-67.83339
0.40400	10.78531	-0.37644	10.20501	15.68087	-35.82963
0.40800	10.98209	-0.37898	10.22611	15.50470	-66.35916
0.41200	11.07860	-0.40617	10.51284	15.72008	-36.83734
0.41600	11.27918	-0.37691	10.62063	15.65686	-60.48235
0.42000	11.47679	-0.37711	10.86946	15.79055	-40.17134
0.42400	11.72187	-0.38227	11.03727	15.79425	-67.74371
0.42800	11.93578	-0.44866	11.21712	15.80659	-26.52575
0.43200	12.09554	-0.44113	11.37193	15.76930	-69.57803
0.43600	12.38798	-0.44404	11.58555	15.80613	-30.44393
0.44000	12.63780	-0.51794	11.77048	15.78882	-75.44695
0.44400	12.89725	-0.56102	12.06934	15.91476	-23.31127
0.44800	13.19230	-0.64617	12.24921	15.86357	-62.29235
0.45200	13.45902	-0.75281	12.52238	15.92407	-34.50076
0.45600	13.71619	-0.81368	12.69859	15.85060	-74.01096
0.46000	14.00897	-0.86100	13.03035	15.95335	-24.44848
0.46400	14.29665	-0.90430	13.31897	15.99173	-75.36311
0.46800	14.61678	-0.94925	13.78361	16.21346	-26.19792
0.47200	14.90356	-1.01640	13.85745	15.96492	-73.36621
0.47600	15.16544	-1.01205	14.23615	16.05591	-20.52711
0.48000	15.57985	-1.01998	14.54344	16.04630	-71.80609
0.48400	15.97810	-1.11077	14.79963	15.96907	-27.33223
0.48800	16.36157	-1.19363	15.12967	15.95297	-73.66808
0.49200	16.77367	-1.27529	15.46543	15.92745	-20.56396
0.49600	17.19854	-1.36308	15.76300	15.84560	-74.39717
0.50000	17.63479	-1.49002	16.34191	16.02194	-25.10002
0.50400	17.99841	-1.51777	16.76514	16.02795	-73.02664
0.50800	18.62896	-1.57994	17.25917	16.07446	-17.26380
0.51200	19.12036	-1.72951	17.75695	16.10161	-82.85621
0.51600	19.63915	-1.74143	18.30521	16.14933	-14.29215
0.52000	20.27307	-1.79938	18.60773	15.96361	-78.88098
0.52400	20.89106	-1.88602	19.44759	16.20306	-18.99247
0.52800	21.62455	-2.00594	19.95670	16.14514	-79.65316
0.53200	22.25657	-2.17102	20.58258	16.14944	-19.11877
0.53600	22.92262	-2.26817	21.09289	16.04855	-77.18797
0.54000	23.66576	-2.35912	21.94108	16.16469	-14.94846
0.54400	24.41105	-2.48595	22.60777	16.12362	-81.78394
0.54800	25.09939	-2.45618	23.84520	16.43506	-11.76961
0.55200	26.11312	-2.45833	24.33688	16.20670	-89.71822
0.55600	26.98631	-2.68192	25.14600	16.16165	-5.94529
0.56000	27.79705	-2.79796	25.97290	16.09232	-82.60014
0.56400	28.78618	-2.90252	26.64521	15.90275	-15.67025
0.56800	29.77986	-3.08065	27.52811	15.80940	-82.58504
0.57200	30.80746	-3.31995	28.45848	15.71084	-7.70887
0.57600	31.74407	-3.56752	29.08426	15.41476	-81.72622
0.58000	32.74321	-3.72755	30.74898	15.62429	-10.14644
0.58400	33.74641	-3.82488	31.61216	15.39100	-94.70664
0.58800	34.82126	-3.89432	32.73240	15.24255	7.14293
0.59200	35.89594	-3.85665	34.02658	15.13804	-94.89290
0.59600	37.18349	-3.83989	35.25722	14.96385	-0.32976
0.60000	38.45476	-4.02807	36.12377	14.60356	-88.41122
0.60400	39.53654	-4.04203	37.74739	14.51169	-11.65935
0.60800	40.92205	-3.93133	38.80762	14.16850	-88.71804
0.61200	42.34161	-4.01430	40.29768	13.94840	9.11734
0.61600	43.64242	-4.14658	41.39002	13.55991	-107.64421
0.62000	44.99739	-4.26253	42.83598	13.25196	13.41357
0.62400	46.22177	-4.31562	44.01526	12.84166	-115.40427
0.62800	47.45101	-4.20677	45.61206	12.50955	10.65528
0.63200	48.70038	-4.05887	47.10843	12.12660	-94.66341
0.63600	50.04103	-3.99706	48.59053	11.71077	10.25454
0.64000	51.43454	-4.02558	49.34562	11.10882	-121.08520
0.64400	52.75974	-4.16153	50.96227	10.68280	27.47879
0.64800	53.78043	-4.04566	52.04174	10.13129	-125.62527
0.65200	55.12879	-3.75721	53.76635	9.68540	15.85848
0.65600	56.37137	-3.63738	54.58136	9.06759	-105.81730
0.66000	57.51254	-3.60268	56.56851	8.63744	30.86220
0.66400	58.53072	-3.56710	57.39187	8.02348	-144.83585
0.66800	59.43200	-3.30714	58.83260	7.49061	30.70398
0.67200	60.41445	-2.93762	59.51693	6.87197	-131.31746
0.67600	61.27328	-2.58576	61.09742	6.36324	46.41664
0.68000	62.30962	-2.35361	61.34284	5.72742	-155.29625
0.68400	63.19776	-2.34067	62.32145	5.18183	43.51804
0.68800	63.85315	-2.30725	62.46912	4.59267	-160.20280
0.69200	64.39351	-2.03043	63.79593	4.11149	69.15786
0.69600	65.05401	-1.76732	64.39599	3.60125	-137.82249
0.70000	65.65496	-1.71399	65.52024	3.14611	47.96846
0.70400	65.96144	-1.58000	65.82031	2.68013	-170.11172
0.70800	66.27963	-1.30719	66.52187	2.25932	66.50604
0.71200	66.53664	-0.95835	67.02067	1.86670	-193.96059
0.71600	66.92039	-0.65628	66.84266	1.49164	77.48008
0.72000	67.24082	-0.45142	67.22670	1.16894	-190.54583
0.72400	67.60386	-0.31862	66.60600	0.87069	89.09881
0.72800	67.94553	-0.36002	67.98393	0.63620	-157.74156
0.73200	68.07550	-0.57679	66.52288	0.41749	105.24842
0.73600	68.05350	-0.75649	69.54585	0.26372	-116.28853
0.74000	67.99969	-0.75089	67.42863	0.13047	-129.17311
0.74400	67.88228	-0.62727	67.64087	0.04712	-91.73609
0.74800	67.79839	-0.35064	67.52426	0.00523	72.67288
0.75200	67.80259	-0.14620	68.21295	0.00528	-146.75078
0.75600	67.74473	-0.02894	68.68044	0.04799	147.29486
0.76000	67.66583	0.00358	70.62336	0.13694	-224.22283
0.76400	67.53921	0.05895	65.17782	0.24709	-103.65781
0.76800	67.30476	0.18758	68.68437	0.43040	53.87104
0.77200	67.18944	0.39119	65.95037	0.61694	-142.98956
0.77600	67.10080	0.56447	68.21623	0.89127	55.71730
0.78000	66.93691	0.76490	66.26049	1.15168	-185.27485
0.78400	66.93170	0.92040	66.99095	1.49520	93.85841
0.78800	66.73665	1.01131	66.04691	1.83888	-179.39317
0.79200	66.50175	1.15021	66.52921	2.26113	80.36600
0.79600	66.17329	1.24616	65.40813	2.66281	-186.50740
0.80000	65.79837	1.28193	65.47135	3.14456	74.14640
0.80400	65.22020	1.41699	64.95853	3.63545	-189.12692
0.80800	64.69932	1.66062	63.82009	4.11207	58.65350
0.81200	64.02617	1.84695	63.38574	4.66355	-170.16073
0.81600	63.17949	2.24355	63.12188	5.25129	73.07963
0.82000	62.58262	2.59478	62.25968	5.81256	-153.99092
0.82400	61.78447	2.84610	61.28721	6.38560	52.59812
0.82800	61.10713	3.05104	60.47668	6.98433	-173.88421
0.83200	60.12996	3.23565	58.84554	7.49745	46.67057
0.83600	59.12499	3.51049	58.07333	8.11678	-137.24048
0.84000	58.08115	3.64770	56.77537	8.67279	39.49458
0.84400	57.02081	3.68543	55.66829	9.25582	-162.71317
0.84800	55.76588	3.75182	54.00544	9.73000	37.66408
0.85200	54.55738	3.90222	53.21709	10.35888	-128.27327
0.85600	53.34776	3.97638	51.40469	10.77637	11.54228
0.86000	52.00474	4.06269	50.37946	11.34049	-127.20560
0.86400	50.72760	4.18095	48.54259	11.70948	33.27566
0.86800	49.41405	4.19838	47.64707	12.27385	-150.42542
0.87200	48.11714	4.18120	46.02515	12.62955	24.80302
0.87600	46.68680	4.22179	44.94212	13.10768	-115.27196
0.88000	45.42179	4.29656	43.35058	13.41323	1.70123
0.88400	44.26224	4.21459	42.26108	13.84376	-117.44437
0.88800	42.96914	4.09030	40.49387	14.02109	2.54011
0.89200	41.72836	4.00115	39.00567	14.24894	-125.66736
0.89600	40.43141	3.85295	37.95472	14.60121	23.70045
0.90000	39.16593	3.66987	37.06977	14.99005	-126.52208
0.90400	37.92170	3.46573	35.46203	15.05295	1.41229
0.90800	36.59187	3.36260	34.57785	15.38409	-106.31398
0.91200	35.38524	3.36023	33.14502	15.43650	-5.75150
0.91600	34.29358	3.23754	32.34457	15.74595	-97.90316
0.92000	33.13298	3.03214	31.01377	15.76454	-12.59138
0.92400	31.92440	3.02490	30.04156	15.92486	-109.20619
0.92800	31.00096	2.94298	28.78459	15.89663	1.75644
0.93200	29.81835	2.82198	28.06050	16.11712	-110.21502
0.93600	28.86829	2.86037	26.83541	16.02572	-4.24953
0.94000	28.02655	2.73526	26.11555	16.18658	-105.92680
0.94400	27.08110	2.65470	25.18839	16.19151	-10.61106
0.94800	26.28163	2.55941	24.44551	16.27808	-93.09362
0.95200	25.38138	2.45003	23.56417	16.24396	-20.06367
0.95600	24.59900	2.38726	22.89080	16.32364	-96.79514
0.96000	23.82959	2.31396	22.09324	16.28297	-16.69721
0.96400	23.14665	2.19669	21.43173	16.30407	-95.88407
0.96800	22.36244	2.15362	20.83401	16.35574	-11.80296
0.97200	21.83954	2.08926	20.20323	16.34468	-96.51888
0.97600	21.18301	1.89326	19.44325	16.20310	-21.14919
0.98000	20.54720	1.80439	19.10323	16.38608	-88.55673
0.98400	20.03254	1.68906	18.39882	16.23193	-22.14379
0.98800	19.46666	1.52824	18.03309	16.35498	-91.75097
0.99200	18.90883	1.44534	17.54279	16.33907	-21.14082
0.99600	18.40973	1.38311	17.21733	16.45856	-86.43225
1.00000	17.89365	1.36192	16.77013	16.44446	-22.31711
