X,Y,surf vx,surf vy,tauxy integr.,tauxy dir.,secinvare integr.,secinvar dir.,P integr.,P dir.,
0.0,1000.0,29.7504938579,7.02970802814,74860.0040151,64719.3598266,76189.2791446,67949.0632988,8487164.68443,8487164.68443
160.0,1012.56504772,28.6466778781,6.74842178307,77201.5186982,71862.9476788,79596.72803,73035.4103563,8792277.90005,8792277.90005
320.0,1025.12215909,27.5338233033,6.5873480177,73878.5497225,84745.793755,76215.4482706,87879.7047624,8476123.5362,8476123.5362
480.0,1037.66340276,26.4084687457,6.32415610754,76395.1977636,79306.9414902,77008.9075189,79968.6022595,8037443.66569,8037443.66569
640.0,1050.18085743,25.2998482224,6.22421971726,73094.5824992,68115.949502,73874.7996374,69842.8620935,7526549.12608,7526549.12608
800.0,1062.66661678,24.2509776707,5.98478182569,70861.6697578,62306.4568541,72019.4063243,63950.9606732,7719352.01455,7719352.01455
960.0,1075.11279456,23.2419505633,5.84632687964,71669.0391561,58998.7433836,73721.976596,60281.7428443,8005770.64422,8005770.64422
1120.0,1087.51152949,22.2796167996,5.5331431765,70076.3689252,91401.4028093,74350.3866486,92870.6252934,7925431.0643,7925431.0643
1280.0,1099.85499026,21.298412694,5.34753591908,60264.909707,77874.1367089,67266.6659893,82165.5743048,7610811.79168,7610811.79168
1440.0,1112.13538047,20.3406123913,5.04692100894,72225.3485334,71459.5418333,73126.5823999,72585.8589586,7354280.3528,7354280.3528
1600.0,1124.34494358,19.3815164095,4.88346224333,67353.8440076,68843.3754953,68456.0873759,70838.4840543,7202025.68477,7202025.68477
1760.0,1136.47596776,18.4625292078,4.59238779397,67814.4590917,63759.3820968,68626.817951,64354.823692,7329469.84963,7329469.84963
1920.0,1148.52079079,17.5605895181,4.42767200406,66478.2092224,73995.5477288,67948.8805754,75327.1256636,7438332.548,7438332.548
2080.0,1160.4718049,16.7086109093,4.13159550075,63875.6136922,68200.184083,65265.2108275,70406.936705,7033694.62106,7033694.62106
2240.0,1172.32146159,15.853509084,3.95649031021,66776.056831,65594.9924073,67708.0141248,66463.9675381,6736941.58684,6736941.58684
2400.0,1184.06227634,15.0405849524,3.68312078606,63092.9072344,66208.8675504,64152.4203314,68103.0654217,6714961.25537,6714961.25537
2560.0,1195.68683342,14.2263752362,3.52751921211,64065.5860158,62962.7572407,64912.3159907,63678.306851,6931188.9583,6931188.9583
2720.0,1207.1877905,13.4650539419,3.29820803896,62506.1214131,64522.2048705,63426.0509963,66240.6347007,6714529.60179,6714529.60179
2880.0,1218.55788333,12.7191971622,3.15874352315,61593.060633,60123.1313252,62204.3666718,60679.3905915,6478468.77031,6478468.77031
3040.0,1229.78993031,12.033714038,2.95036770508,60618.2431489,64703.6348003,61704.7308471,65792.1141442,6163519.17004,6163519.17004
3200.0,1240.87683705,11.3761721489,2.79702663324,58296.6566932,59922.7094899,59472.7732945,61771.0690915,6319508.30818,6319508.30818
3360.0,1251.81160082,10.7534612189,2.58475978834,60511.7942352,59022.9012851,61557.1376157,59840.4120595,6486684.64312,6486684.64312
3520.0,1262.58731498,10.1524260484,2.43260809079,56274.2666964,61172.2349051,57469.6796918,63133.0209619,6186187.16768,6186187.16768
3680.0,1273.19717337,9.57366063331,2.23402934116,58660.4976347,57796.3328059,59308.9799493,58379.1179083,5882260.90102,5882260.90102
3840.0,1283.63447456,9.02713297159,2.10390522241,55181.8078198,57287.5276823,56039.6236033,58867.9119682,5854631.59862,5854631.59862
4000.0,1293.89262615,8.50951065313,1.90906651501,56554.3835713,54336.6042842,57228.986911,54823.1069479,6033641.25245,6033641.25245
4160.0,1303.96514885,8.00975649169,1.79231263414,53910.9987291,59362.6965518,54839.5871975,60753.8202677,5862390.03378,5862390.03378
4320.0,1313.84568065,7.52926398378,1.62624546551,56025.5501466,57617.1372215,56230.8324038,57864.3549923,5516759.08869,5516759.08869
4480.0,1323.52798078,7.06840342777,1.55598137711,52178.8111465,51880.3792941,52741.014988,52193.2937916,5538419.05166,5538419.05166
4640.0,1333.00593372,6.65562434755,1.42140963215,53027.8766643,54432.6961841,53576.7297981,54894.0756393,5554285.08154,5554285.08154
4800.0,1342.27355296,6.26193978443,1.3552960469,50996.1762608,51343.0212424,51701.1578621,51868.6215199,5496016.65582,5496016.65582
4960.0,1351.3249849,5.90900827441,1.23378262956,52013.5911847,53545.8443576,52636.9636099,54125.7111447,5127768.29641,5127768.29641
5120.0,1360.15451244,5.57156328508,1.16068651104,50071.0706102,49106.6457021,50667.2699006,49597.2722399,5292530.9976,5292530.9976
5280.0,1368.75655868,5.26372285018,1.04547279778,50369.8322993,53363.5816564,51043.0026957,54435.1537772,5253525.64891,5253525.64891
5440.0,1377.12569037,4.95563683516,0.979155198756,50154.1248476,51881.0800055,50363.870038,52107.6142577,5043229.4246,5043229.4246
5600.0,1385.25662139,4.66969851593,0.897088831392,46847.3193077,46982.6497204,47398.2977466,47248.4691891,4967104.6771,4967104.6771
5760.0,1393.14421607,4.41111216334,0.847204088713,48057.952142,49807.3692742,48584.4576627,50251.6880807,5045619.73108,5045619.73108
5920.0,1400.78349244,4.17987883953,0.761492951128,46450.4479386,45835.0244775,47037.1827978,46244.7827045,4908579.02529,4908579.02529
6080.0,1408.16962536,3.96648115501,0.699058177291,46814.8459344,48845.3471999,47453.331253,50047.660915,4676681.66579,4676681.66579
6240.0,1415.2979496,3.76136047156,0.609659126224,47456.7989529,47980.611068,47611.0286547,48179.1676611,4868883.03416,4868883.03416
6400.0,1422.16396275,3.55034406188,0.569740048748,45413.9747913,47233.4133659,45512.6628875,47333.1817302,4738274.12915,4738274.12915
6560.0,1428.7633281,3.36931501557,0.520550922636,42674.5537376,42424.6292272,43026.9723348,42590.6207257,4434521.25779,4434521.25779
6720.0,1435.09187733,3.2059813658,0.483404298393,44376.2671468,44715.537991,44804.206652,45062.7671976,4590380.70622,4590380.70622
6880.0,1441.14561322,3.06295944715,0.438501674987,44242.2269561,46443.6147383,44373.9955973,46529.3721723,4559029.24893,4559029.24893
7040.0,1446.92071208,2.9243550531,0.40153285932,41576.0747336,40460.5856897,41942.235243,40726.791825,4471781.97439,4471781.97439
7200.0,1452.41352623,2.8176508957,0.360731983187,43764.3664066,44641.2150443,44151.0001922,44866.6487359,4551664.2015,4551664.2015
7360.0,1457.62058631,2.70727815849,0.2994057137,43577.3988255,44700.5753692,43681.7811306,44822.097756,4402873.8318,4402873.8318
7520.0,1462.53860342,2.60172033941,0.272267677732,42324.4788424,43264.9214748,42368.1131428,43324.6466077,4319766.54854,4319766.54854
7680.0,1467.16447123,2.50017698688,0.234135644289,41291.4118938,43489.5545925,41333.5190582,43540.5278325,4198822.38992,4198822.38992
7840.0,1471.49526795,2.41614866911,0.23298086024,39187.9191776,35622.3533322,39456.0099668,35671.4494691,3995104.68929,3995104.68929
8000.0,1475.52825815,2.35750074948,0.19461617369,41600.7445703,42453.100081,41881.3951744,42614.9960036,4082747.22665,4082747.22665
8160.0,1479.26089451,2.30257987483,0.165120154851,41875.2802708,42440.3228125,41945.7808774,42539.2154887,4178053.63152,4178053.63152
8320.0,1482.69081942,2.25108117974,0.123705157481,41150.2717624,42046.0067628,41164.3038515,42053.9898019,4223081.54876,4223081.54876
8480.0,1485.81586646,2.2016016324,0.101663968921,40401.3980543,41016.8657458,40406.9322014,41025.07363,4273804.96925,4273804.96925
8640.0,1488.63406178,2.16227030724,0.0760513592003,39936.5594466,41342.8413113,39938.9415462,41343.0769432,4281698.92214,4281698.92214
8800.0,1491.14362536,2.12957884044,0.0626739197129,39520.3823845,38598.9036838,39522.6818578,38604.8379211,4262935.30003,4262935.30003
8960.0,1493.3429721,2.10326879006,0.0481524359961,39233.5115461,37952.1828514,39234.6809138,37952.8350411,4195350.80885,4195350.80885
9120.0,1495.23071285,2.0804668746,0.0385933754579,38963.9077484,38388.9226881,38964.9844038,38391.3876119,4126674.69887,4126674.69887
9280.0,1496.80565526,2.06279210145,0.0296216718118,38774.5913448,37772.4683914,38775.1403333,37772.7936126,4096366.62504,4096366.62504
9440.0,1498.06680457,2.04840453886,0.0210462625309,38604.9687593,38260.8486252,38605.4404055,38261.7919919,4054393.43636,4054393.43636
9600.0,1499.01336421,2.03813593125,0.0146362895464,38496.6713754,37685.5868677,38496.9060741,37685.6874826,4044151.68533,4044151.68533
9760.0,1499.64473632,2.03105063827,0.00627196926767,38412.3883998,38194.1799975,38412.5976434,38194.4784646,4025150.69497,4025150.69497
9920.0,1499.9605221,2.02743159312,0.000799947376066,38377.0590297,37653.0804205,38377.1686693,37653.1339286,4025512.97039,4025512.97039
10080.0,1499.9605221,2.02719993931,-0.00781094296781,38363.2490477,38143.1258634,38363.3766587,38143.1877439,4018636.79789,4018636.79789
10240.0,1499.64473632,2.02997003143,-0.0130889117981,38409.3986988,37670.882443,38409.5508735,37670.976455,4027374.8715,4027374.8715
10400.0,1499.01336421,2.03636513432,-0.0218609054565,38478.8681754,38200.3576302,38479.0857685,38200.4546632,4015589.79517,4015589.79517
10560.0,1498.06680457,2.04587986237,-0.0271879345509,38602.3349793,37729.2413238,38602.5951702,37729.4710072,4037031.88572,4037031.88572
10720.0,1496.80565526,2.05967560343,-0.0365983028939,38749.1264849,38281.9060203,38749.5245315,38282.0982948,3996888.33947,3996888.33947
10880.0,1495.23071285,2.07713162283,-0.0433083157343,38959.2573329,37871.9595453,38959.7841003,37872.7026163,4041215.81218,4041215.81218
11040.0,1493.3429721,2.09933375773,-0.0550799929708,39194.8974318,38435.4480868,39195.7057813,38435.8701645,3943389.935,3943389.935
11200.0,1491.14362536,2.1257572229,-0.065836328594,39524.0036107,38097.7778439,39525.2225435,38099.8041249,4025347.47586,4025347.47586
11360.0,1488.63406178,2.15798952648,-0.0838335224143,39906.4543263,40726.9179948,39908.7274752,40727.9142292,3924619.78403,3924619.78403
11520.0,1485.81586646,2.19883196212,-0.103020039414,40421.4929564,41573.0178439,40425.8211115,41575.4170725,4084868.17513,4084868.17513
11680.0,1482.69081942,2.24761380108,-0.132353553318,41107.8170771,41478.3046356,41124.862011,41484.1918613,4109276.02367,4109276.02367
11840.0,1479.26089451,2.30056661868,-0.164334534225,41876.6139542,43249.0153994,41953.6454078,43286.9226509,4226959.79326,4226959.79326
12000.0,1475.52825815,2.35562444853,-0.201968104783,41383.6697797,41065.870843,41647.0477365,41160.5962199,4421562.36495,4421562.36495
12160.0,1471.49526795,2.41642890293,-0.227627778544,39358.9834474,36284.395788,39573.7626991,36663.0930084,4422585.44635,4422585.44635
12320.0,1467.16447123,2.50360792783,-0.240922831982,41314.0121933,44103.8917174,41347.9055863,44116.5176751,4479491.04174,4479491.04174
12480.0,1462.53860342,2.60587601836,-0.2679292024,42334.8086839,42771.062437,42377.6372549,42834.8901153,4363999.81935,4363999.81935
12640.0,1457.62058631,2.71616856683,-0.304926027182,43661.5059967,45653.8432133,43769.1835488,45681.2743853,4361165.4601,4361165.4601
12800.0,1452.41352623,2.82626239937,-0.358804925175,43536.9054484,43311.4704651,43916.3610801,43467.4095127,4497452.50144,4497452.50144
12960.0,1446.92071208,2.94031254775,-0.403566829713,41840.8111871,40664.7311886,42169.9680082,41254.1629557,4434047.14946,4434047.14946
13120.0,1441.14561322,3.07796649679,-0.441570847687,44256.3648836,47064.6021135,44416.2540248,47067.7653793,4546371.01884,4546371.01884
13280.0,1435.09187733,3.2288745373,-0.483927342561,44477.0248993,43723.6743889,44873.0596951,44029.5562408,4689355.47033,4689355.47033
13440.0,1428.7633281,3.38704431217,-0.533307534945,43106.9549737,42315.6121838,43428.9392218,42814.3179626,4682474.3822,4682474.3822
13600.0,1422.16396275,3.56824531204,-0.571645699275,45751.3265041,49141.572067,45932.720882,49147.5990762,4726108.01717,4726108.01717
13760.0,1415.2979496,3.76334450956,-0.629030939552,46098.8467837,45671.7539743,46537.8032096,45985.4081497,4813493.99758,4813493.99758
13920.0,1408.16962536,3.96523512135,-0.683290769533,44817.83275,43561.1190733,45172.9704859,44143.194058,4841787.43743,4841787.43743
14080.0,1400.78349244,4.19337461923,-0.740981836063,47692.4676238,50724.9138306,47883.1447252,50731.4740818,4906148.80573,4906148.80573
14240.0,1393.14421607,4.44057283724,-0.802211277611,48251.6827411,47338.7154745,48717.6843033,47701.3437447,5036665.35492,5036665.35492
14400.0,1385.25662139,4.69813769148,-0.883130256331,47107.3718301,45635.7329344,47481.3379582,46283.4816495,5056999.59147,5056999.59147
14560.0,1377.12569037,4.98201768696,-0.950750168116,50342.865908,53257.4027804,50540.3948456,53266.8475371,5135992.53564,5135992.53564
14720.0,1368.75655868,5.28515320923,-1.04678062023,50450.7147501,53294.7386225,51131.4734884,54244.6000242,5246890.63079,5246890.63079
14880.0,1360.15451244,5.59227558351,-1.14121976807,50110.9567714,48670.9938535,50717.4883531,49841.0173689,5263956.17716,5263956.17716
15040.0,1351.3249849,5.92478885884,-1.24197185019,52170.0630888,54029.8165009,52821.0479,54036.6565667,5410841.2242,5410841.2242
15200.0,1342.27355296,6.27645899108,-1.33927224997,50993.6702794,51297.6697543,51740.9804802,52588.3385633,5408115.78626,5408115.78626
15360.0,1333.00593372,6.66556320933,-1.43376181023,53053.8703902,54344.2179718,53617.4083892,54358.1752727,5598331.24898,5598331.24898
15520.0,1323.52798078,7.07775462148,-1.5401996324,52189.5453654,51170.1949228,52763.2805158,52226.5721677,5605604.0737,5605604.0737
15680.0,1313.84568065,7.53250921704,-1.64228413363,56002.4488875,58237.015061,56215.6843923,58254.833697,5703890.19406,5703890.19406
15840.0,1303.96514885,8.01277659438,-1.77644872437,53994.3273444,59382.1439908,54886.6617597,60373.311739,5757923.59964,5757923.59964
16000.0,1293.89262615,8.50332106708,-1.92808657841,56666.3600786,54146.095063,57324.8403042,55611.8778495,5818489.23227,5818489.23227
16160.0,1283.63447456,9.01600879909,-2.08851572139,55259.3909897,58023.8895118,56206.3132344,58928.4888088,6004549.44974,6004549.44974
16320.0,1273.19717337,9.54660297616,-2.25812004356,58789.1182346,57708.2716135,59584.7012118,59248.8733611,6024205.41493,6024205.41493
16480.0,1262.58731498,10.1057747119,-2.41956782732,56482.3648001,62150.949706,57959.0393437,63309.8462488,6151308.2652,6151308.2652
16640.0,1251.81160082,10.6843588201,-2.59943133335,58918.2973731,55733.062804,60428.7219431,58464.5945862,6192248.47244,6192248.47244
16800.0,1240.87683705,11.2896403018,-2.75599658098,59075.8435671,55805.7426015,59745.7159383,57018.1788278,6356888.19578,6356888.19578
16960.0,1229.78993031,11.9495537056,-2.91094521714,61789.9489563,61808.9658486,62610.8083339,62791.0305178,6603012.8143,6603012.8143
17120.0,1218.55788333,12.6415864384,-3.06814338302,61621.097397,61278.0897278,62467.0989574,62799.322846,6521387.80972,6521387.80972
17280.0,1207.1877905,13.3785609544,-3.23756268207,62415.9638789,64383.0460472,63378.9912485,65413.2232068,6636808.70625,6636808.70625
17440.0,1195.68683342,14.1270695738,-3.43539950688,63960.793611,62461.9666396,64842.9091076,64217.1120256,6680883.83173,6680883.83173
17600.0,1184.06227634,14.9181355449,-3.6234821362,62822.1166352,65866.1763042,63911.040551,66899.3098468,6919047.70629,6919047.70629
17760.0,1172.32146159,15.718507933,-3.85607861231,66829.457468,65422.599769,67725.0067271,67207.5897422,6939729.58296,6939729.58296
17920.0,1160.4718049,16.5559623346,-4.06103931961,62903.0274489,70255.2601079,64676.5499346,71569.4327934,7062989.17333,7062989.17333
18080.0,1148.52079079,17.3987790094,-4.31764752215,66123.7104826,74322.2905979,67809.5195338,76192.8065937,7064639.24724,7064639.24724
18240.0,1136.47596776,18.2714465269,-4.52334305283,67529.1460213,62939.603744,68294.9934449,64600.6465426,7251147.09109,7251147.09109
18400.0,1124.34494358,19.1817953446,-4.76217158586,67131.9684737,69734.4264667,68225.4668966,70848.4462009,7472778.41125,7472778.41125
18560.0,1112.13538047,20.1286231683,-4.95694746231,71212.7290028,70069.4212298,72102.9873255,71757.2743522,7510459.34434,7510459.34434
18720.0,1099.85499026,21.0965517939,-5.20653767556,66727.0519936,74904.5920885,68658.6538169,76302.4703175,7585575.1195,7585575.1195
18880.0,1087.51152949,22.0772887324,-5.42675705069,70021.2369105,78898.1927927,71792.3650267,80766.4245345,7594924.35528,7594924.35528
19040.0,1075.11279456,23.0661860594,-5.68863857921,72431.1370842,67755.1654768,73304.3672424,69631.47072,7738834.42808,7738834.42808
19200.0,1062.66661678,24.0845812049,-5.89273620057,70414.6133811,76999.3471137,72210.6331366,78432.9044794,8010522.59624,8010522.59624
19360.0,1050.18085743,25.1282739524,-6.13429527223,73359.352932,81086.5407289,75202.5635382,83305.9751444,8132287.85855,8132287.85855
19520.0,1037.66340276,26.1887476173,-6.32941892649,73870.3797484,69267.6649078,74696.1630565,70952.1753078,8209908.79669,8209908.79669
19680.0,1025.12215909,27.2809631621,-6.55200137896,73916.7446572,76247.4804603,75059.4601037,77444.2086473,8287480.332,8287480.332
19840.0,1012.56504772,28.3943916262,-6.73643714278,77744.5752075,76640.725665,78697.0060318,78426.8455096,8187015.58275,8187015.58275
20000.0,1000.0,29.5230179756,-6.96311023873,72868.0764796,81734.0435295,74940.2557049,83231.0271879,8470304.36178,8470304.36178
20160.0,987.434952278,30.6457575117,-7.16776691279,76203.9638856,85911.8243672,78109.160702,87928.9324022,8664632.41542,8664632.41542
20320.0,974.87784091,31.7655269155,-7.40041582438,78727.5355241,73533.1118251,79650.6190896,75560.0622111,8746963.49266,8746963.49266
20480.0,962.336597236,32.8958800254,-7.58687873535,76135.491673,83405.5615987,78069.3206347,84939.9878334,8849701.82343,8849701.82343
20640.0,949.819142574,34.038441063,-7.78414752893,79168.4723642,87640.6141744,81119.2476186,89984.0591667,8834148.62008,8834148.62008
20800.0,937.333383218,35.1882180799,-7.94606473616,79792.2246838,74698.0068496,80654.0554281,76493.410546,9023663.98012,9023663.98012
20960.0,924.88720544,36.3501632026,-8.10898606805,79483.2273941,82067.3955605,80682.5443495,83315.0651635,9278376.26666,9278376.26666
21120.0,912.488470512,37.5221983345,-8.24785260687,83536.6834391,82458.6103101,84525.0724249,84337.7014937,9286179.49331,9286179.49331
21280.0,900.145009743,38.6955669061,-8.39489327664,78117.7271335,87760.4681686,80279.2637974,89345.5268692,9374835.18803,9374835.18803
21440.0,887.864619525,39.8580419449,-8.53630206483,81571.8168904,92078.981578,83579.668288,94286.3411144,9360152.6696,9360152.6696
21600.0,875.655056418,41.0023895761,-8.67764253371,83443.413567,77428.2056397,84318.3221117,79458.4944091,9544807.31551,9544807.31551
21760.0,863.524032241,42.1453974247,-8.7942201643,81789.1792962,85386.4228793,83106.472315,86693.6680561,9814350.79137,9814350.79137
21920.0,851.479209211,43.2843672326,-8.8968338558,86997.8625977,85601.5194273,88019.1482285,87622.9542285,9866278.2434,9866278.2434
22080.0,839.528195096,44.4149823568,-8.98879304187,80549.3640018,90934.1754507,82849.8554205,92576.0673448,9918235.02876,9918235.02876
22240.0,827.678538413,45.524065817,-9.07388638716,84452.7125177,95529.8169688,86511.9316849,97781.2756109,9870311.72387,9870311.72387
22400.0,815.937723658,46.6084414358,-9.15233365548,86260.8256762,79977.6600158,87154.1217427,82031.9237263,10061713.0996,10061713.0996
22560.0,804.313166581,47.6783326703,-9.19567070487,85130.0147737,88308.6383658,86407.8724062,89605.9183219,10384309.3566,10384309.3566
22720.0,792.812209503,48.7362848512,-9.23049952078,89467.1759703,88277.8960504,90518.8751743,90313.7725407,10406868.4845,10406868.4845
22880.0,781.442116675,49.7770272386,-9.23227823204,84400.3301652,93850.2598227,86582.1413004,95477.6117551,10428803.2346,10428803.2346
23040.0,770.210069689,50.7946018686,-9.23916570857,88273.8891966,97754.0623768,90390.9587698,100367.752782,10322037.6791,10322037.6791
23200.0,759.123162949,51.781224055,-9.21039250018,88081.4202676,82576.4215498,88929.5528824,84298.6657299,10638056.9222,10638056.9222
23360.0,748.188399182,52.7534137791,-9.17286004226,89662.9232137,90363.915946,90836.7821324,91746.9581588,11039903.0027,11039903.0027
23520.0,737.412685019,53.7085292358,-9.09395504522,90082.7101842,89175.8513176,91167.6702365,91273.6817482,10861296.9887,10861296.9887
23680.0,726.802826633,54.6529471918,-9.01151841867,89711.8880196,92389.3352703,91019.5863248,93790.4695941,10821927.2762,10821927.2762
23840.0,716.365525437,55.5659473167,-8.91097450851,91299.7239838,89488.8871305,92445.8383548,91846.93095,10900526.1229,10900526.1229
24000.0,706.107373854,56.4558140998,-8.80871910245,90082.1684313,92844.3184424,91454.3191425,94278.7343388,11350836.9624,11350836.9624
24160.0,696.034851153,57.3041256652,-8.70022739807,92208.1147852,90407.7921431,93370.8329478,92807.167766,11248408.9222,11248408.9222
24320.0,686.154319355,58.1268947127,-8.57592468884,90882.0526734,93681.772425,92237.0590761,95094.269638,11199881.3738,11199881.3738
24480.0,676.472019215,58.9062899465,-8.45036804208,92882.9605584,91353.679799,94035.1408066,93705.8263285,11253874.9841,11253874.9841
24640.0,666.994066283,59.6589546691,-8.29714005931,92184.5296071,94400.8497502,93520.3900236,95840.807415,11753682.0073,11753682.0073
24800.0,657.726447036,60.3702511861,-8.14792720815,93095.8097691,91395.076348,94294.153761,93848.2285358,11553013.9729,11553013.9729
24960.0,648.675015101,61.056226597,-7.95992125651,93944.7116489,94592.7859169,95137.4580228,95983.6899971,11487704.8594,11487704.8594
25120.0,639.845487556,61.7055416224,-7.78004444311,92927.5898021,92255.2169331,94098.1236879,94537.9053262,11653497.3917,11653497.3917
25280.0,631.243441321,62.3309492069,-7.55705165063,95114.0420088,97726.9716166,96031.8551269,97747.0473549,12222200.0944,12222200.0944
25440.0,622.874309632,62.9252104318,-7.34721074772,92484.357614,90336.2058447,93375.2545677,92119.6800485,11785757.0556,11785757.0556
25600.0,614.743378612,63.4944463492,-7.10008883706,97332.0848442,101065.404395,97624.2275932,101094.448632,11789380.6605,11789380.6605
25760.0,606.855783932,64.0324352164,-6.87343485677,94986.2233469,101544.940083,96141.5500959,103121.883512,12142954.2241,12142954.2241
25920.0,599.216507565,64.5339248058,-6.62260743477,94741.1451906,91980.2852115,95622.2972759,93829.5748818,12091870.7908,12091870.7908
26080.0,591.830374641,64.9968560122,-6.38877237644,96584.2031561,100096.079373,97419.5425221,100111.541991,12114298.2214,12114298.2214
26240.0,584.702050402,65.4264148378,-6.12930766159,93253.5281458,91374.6039446,94078.0090335,93018.72584,12308673.8463,12308673.8463
26400.0,577.836037249,65.8271161629,-5.87365925218,97713.0616201,101935.795179,97981.1307685,101948.896691,12315177.8306,12315177.8306
26560.0,571.236671903,66.2012637664,-5.59686176391,97661.5368967,96487.8465761,98474.4510859,97085.2639951,12139864.9008,12139864.9008
26720.0,564.908122665,66.5470623033,-5.32857756672,94120.189463,90739.1407755,94690.69786,91836.6427158,12467641.8404,12467641.8404
26880.0,558.854386783,66.8630755575,-5.04826974145,98206.8241621,103647.272215,98454.557387,103652.36929,12494072.2685,12494072.2685
27040.0,553.079287924,67.1522912027,-4.77281068278,97687.5226843,96911.2009934,98442.1405086,97431.1146675,12416083.5708,12416083.5708
27200.0,547.586473767,67.4126052752,-4.49170941788,93571.0377032,90060.5515512,94090.920523,91066.7294536,12848109.8648,12848109.8648
27360.0,542.37941369,67.6488626286,-4.21222516886,97674.0915983,101324.324098,97767.6993487,101360.235082,12532935.6362,12532935.6362
27520.0,537.461396583,67.8586836462,-3.93246156456,99555.7713343,100226.894655,99757.9432083,100522.105978,12495463.5803,12495463.5803
27680.0,532.835528772,68.0434690842,-3.65595752599,98754.4593278,99648.3428841,99419.9290704,99757.1085601,12917596.8881,12917596.8881
27840.0,528.504732054,68.2000984585,-3.38241076035,94104.9462458,92359.8257818,94655.6087671,93438.0961411,12426662.7731,12426662.7731
28000.0,524.471741852,68.3346795983,-3.10397115489,97896.4616588,101579.619895,97985.1000795,101631.085918,12786859.5526,12786859.5526
28160.0,520.739105491,68.4503516204,-2.82564012661,99209.8976726,101129.336045,99395.3408507,101400.729619,12743119.047,12743119.047
28320.0,517.309180583,68.5497292921,-2.54211688893,97994.7785053,99680.9337601,98551.9084632,99772.575736,12811025.2816,12811025.2816
28480.0,514.184133543,68.6336630645,-2.26113127909,93275.8217464,88499.5876572,93724.4754328,89201.4100968,13151071.8017,13151071.8017
28640.0,511.365938216,68.7078362291,-1.9751860769,96191.7487721,96509.0908673,96236.0026351,96529.9311061,12761851.4147,12761851.4147
28800.0,508.856374636,68.7747521974,-1.69688631559,96599.1933433,96586.0867023,96623.8358779,96668.8289449,13267286.256,13267286.256
28960.0,506.657027896,68.8325195162,-1.42712745711,97526.2892738,99017.4593303,97532.0277142,99022.0806027,12802745.4885,12802745.4885
29120.0,504.769287152,68.8796862493,-1.17529810703,98005.8910336,98573.2720303,98009.3026254,98582.647339,13087624.2143,13087624.2143
29280.0,503.19434474,68.9145628229,-0.941285633586,98417.3374572,99188.0777752,98418.6722597,99188.2539887,12871068.3159,12871068.3159
29440.0,501.933195428,68.9434567414,-0.720638903543,98788.8222564,99346.6848062,98789.9163365,99348.9173479,12986245.8789,12986245.8789
29600.0,500.986635786,68.9649942456,-0.508849362498,98970.462589,99453.0069651,98971.1074758,99453.1982012,12927994.6933,12927994.6933
29760.0,500.35526368,68.9805056764,-0.30165290785,99182.3416922,99721.5844242,99182.9908939,99722.6068657,12942523.1409,12942523.1409
29920.0,500.039477898,68.9877804239,-0.100487277201,99125.1138938,99450.1257127,99125.6576615,99450.3821913,12957967.5818,12957967.5818
30080.0,500.039477898,68.9885426394,0.102811484614,99139.4987549,99536.2399017,99140.3196951,99536.9399311,12938136.0908,12938136.0908
30240.0,500.35526368,68.9810089514,0.303277781283,99090.1203854,99497.4315191,99090.7360563,99498.4594406,12943826.2973,12943826.2973
30400.0,500.986635786,68.9671422477,0.512717906316,99028.184019,99676.7633513,99028.6853712,99676.883369,12956542.2298,12956542.2298
30560.0,501.933195428,68.9454928106,0.722313448061,98725.2057102,99126.1026485,98725.8310438,99127.2806923,12868382.1876,12868382.1876
30720.0,503.19434474,68.9183713141,0.94718670048,98469.5932088,99406.9823406,98470.4276134,99406.9901272,12980975.363,12980975.363
30880.0,504.769287152,68.8835721888,1.17711388897,97965.5468224,98414.0972699,97968.2708413,98419.9845302,12712454.2919,12712454.2919
31040.0,506.657027896,68.8384250243,1.43623566022,97565.1985817,99086.7978108,97570.5062865,99093.3119419,12996963.3956,12996963.3956
31200.0,508.856374636,68.782448609,1.69718987614,96562.2143901,96721.9384917,96590.6602427,96797.4362831,12453677.2209,12453677.2209
31360.0,511.365938216,68.7177875716,1.98648396571,96252.0302595,95936.3853622,96307.5322538,95981.2633528,12963984.4176,12963984.4176
31520.0,514.184133543,68.6464374445,2.2593784318,92986.0087839,88271.9651118,93528.6819451,88339.5774786,12473813.0807,12473813.0807
31680.0,517.309180583,68.5645754307,2.55325072981,98325.1321882,101200.055054,98927.4142096,101520.750852,12793489.101,12793489.101
31840.0,520.739105491,68.469159359,2.8208573398,99280.6927208,100784.903018,99457.6995864,101062.929635,12768370.1508,12768370.1508
32000.0,524.471741852,68.3549093909,3.11374415562,97876.9889143,101043.759985,97981.5788767,101188.643312,12679659.7502,12679659.7502
32160.0,528.504732054,68.2251699698,3.37365293963,93827.2639032,92377.5375344,94495.7705015,92768.5775521,12943274.3651,12943274.3651
32320.0,532.835528772,68.0694803766,3.66208776518,99077.3215772,101209.39794,99809.4037952,101710.768899,12381487.9318,12381487.9318
32480.0,537.461396583,67.89029933,3.91983824972,99647.2641361,99695.0069604,99838.6602624,100000.000145,12727800.4383,12727800.4383
32640.0,542.37941369,67.6810794234,4.21440016412,97636.3985835,101053.928508,97747.10171,101182.489918,12621360.6676,12621360.6676
32800.0,547.586473767,67.4514789467,4.47434657878,93338.7710655,89728.1181892,93956.0725642,90080.1011227,12172939.303,12172939.303
32960.0,553.079287924,67.1910359548,4.7689859304,97948.4410495,98428.6890541,98768.9382458,98978.7050727,12555277.3072,12555277.3072
33120.0,558.854386783,66.9090827402,5.02657435061,98324.0036963,103244.510324,98561.2928876,103452.499283,12342113.2806,12342113.2806
33280.0,564.908122665,66.594133141,5.31745229817,93777.9053748,89756.2875929,94460.8340891,90157.1548248,12264379.8484,12264379.8484
33440.0,571.236671903,66.2553274118,5.57051854037,98152.1566071,98524.7816359,99012.5749801,99086.0836263,12480033.8961,12480033.8961
33600.0,577.836037249,65.8816264375,5.85463058293,97754.9506695,100918.703456,98014.523449,101210.869105,12192411.5997,12192411.5997
33760.0,584.702050402,65.4871454389,6.09782391507,93176.8845809,91914.2009882,94049.5258948,92378.383177,12074022.5585,12074022.5585
33920.0,591.830374641,65.0602247449,6.36166536472,96663.0168768,100642.500208,97535.6622382,101353.992628,12148101.2858,12148101.2858
34080.0,599.216507565,64.6033117507,6.58587659221,94755.3515789,92088.3005391,95673.2949769,92781.55608,12033352.4113,12033352.4113
34240.0,606.855783932,64.1051230486,6.8361032247,94984.2998743,102264.168559,96184.8046109,104151.14733,11835272.4788,11835272.4788
34400.0,614.743378612,63.572242316,7.05683118706,97442.8745817,100171.921763,97715.8703705,100497.741349,12063416.1309,12063416.1309
34560.0,622.874309632,63.0055439071,7.30085247048,92509.8766439,90982.6046361,93361.2995584,91461.6851099,11916483.0582,11916483.0582
34720.0,631.243441321,62.4168143198,7.50848881834,95219.872347,97993.0186795,96095.0564302,98727.8851051,11331058.9983,11331058.9983
34880.0,639.845487556,61.7938537527,7.72616274035,93117.9031355,92957.8834658,94118.89918,93698.447376,11738768.0567,11738768.0567
35040.0,648.675015101,61.1490333962,7.90789378556,93929.2668909,94856.7775082,94974.9564501,97048.7295525,11783904.372,11783904.372
35200.0,657.726447036,60.4667020784,8.08864118425,93328.9370941,92769.0453382,94308.3599355,93466.36304,11505710.6027,11505710.6027
35360.0,666.994066283,59.7610888911,8.24449696834,92278.6497076,94072.1269884,93406.7455946,96345.9566859,11167016.7138,11167016.7138
35520.0,676.472019215,59.015011579,8.3858572972,93057.3546995,92542.5956843,94045.9417706,93250.8125993,11483123.921,11483123.921
35680.0,686.154319355,58.2440023243,8.51804140642,91124.2629722,93395.4832083,92303.0906977,95721.3778193,11399288.9659,11399288.9659
35840.0,696.034851153,57.4316578447,8.6248111087,92460.7415946,91601.9415785,93449.9070339,92303.7797368,11125037.4858,11125037.4858
36000.0,706.107373854,56.5926883082,8.74098839545,90326.5902183,92917.0205923,91519.2738806,95239.7594128,10869912.7298,10869912.7298
36160.0,716.365525437,55.7167479037,8.81726128201,91645.9373321,91670.00014,92629.1623477,92371.9623524,11123485.7772,11123485.7772
36320.0,726.802826633,54.8151874963,8.92108641911,89904.6243093,90648.1965207,91055.4603732,93062.812857,11043961.955,11043961.955
36480.0,737.412685019,53.8802477839,8.97085950225,90126.1600445,88082.2039631,91302.74936,88932.6669249,10778197.5421,10778197.5421
36640.0,748.188399182,52.9231398589,9.06432953461,90146.1603494,93612.7692663,91373.3234115,95906.246876,10418777.8313,10418777.8313
36800.0,759.123162949,51.9485531178,9.08239220786,89322.5158718,89674.3547688,90001.3015996,90219.5044711,10659832.8369,10659832.8369
36960.0,770.210069689,50.962210228,9.14019584775,88297.5700618,88852.4063477,89410.1212383,90583.5429074,10764375.172,10764375.172
37120.0,781.442116675,49.9617688993,9.09858728088,85992.5521553,83137.2747508,87373.6989528,85145.124928,10409726.9808,10409726.9808
37280.0,792.812209503,48.9233429505,9.11217997675,88954.2762191,84500.9232912,90844.4983199,85694.6075597,10132694.7954,10132694.7954
37440.0,804.313166581,47.8611855849,9.05258484009,85403.7208856,96473.7861565,87314.0822707,99075.9373017,10094485.6863,10094485.6863
37600.0,815.937723658,46.7562996424,9.0667289948,88884.2500835,92865.0253366,89382.9400084,93392.9528731,10332219.1777,10332219.1777
37760.0,827.678538413,45.6694482035,9.00256372415,84536.8592132,77602.7454198,85312.124989,79253.6915992,10130387.1248,10130387.1248
37920.0,839.528195096,44.5607504286,8.97012149605,83230.8160771,72423.5078386,84740.129137,73877.1103885,9821101.63335,9821101.63335
38080.0,851.479209211,43.4665921933,8.8606065683,86772.0682749,80079.9347212,89505.4752723,81183.1507004,9474745.9886,9474745.9886
38240.0,863.524032241,42.3085446775,8.78925107347,79445.6099606,94762.4992383,83136.0386333,98520.2238062,9550538.86052,9550538.86052
38400.0,875.655056418,41.1584891489,8.70609890464,86425.837933,89981.2140102,86997.4394832,90585.553137,9855912.65612,9855912.65612
38560.0,887.864619525,39.9869735851,8.63697309362,81778.6331165,75726.1633427,82673.3979414,77671.4131749,9777385.01882,9777385.01882
38720.0,900.145009743,38.868588902,8.53598770435,80497.6667783,70048.307657,81818.5009227,71520.8123032,9243197.80709,9243197.80709
38880.0,912.488470512,37.7429748746,8.37207838786,82298.3930534,66034.4272691,84774.9367977,67243.2995893,8744009.06078,8744009.06078
39040.0,924.88720544,36.654590533,8.19517282497,76078.3402013,104385.11699,82804.5712726,106242.766253,8999318.01728,8999318.01728
39200.0,937.333383218,35.5189794072,7.9506459246,70659.6876785,88498.6697794,74385.4324827,93492.1741021,9288942.84772,9288942.84772
39360.0,949.819142574,34.3824654031,7.76809327029,86897.8416742,87450.882164,88035.2923959,87545.9494355,9651036.80788,9651036.80788
39520.0,962.336597236,33.1976766805,7.52137840952,76547.2900566,82756.3563327,77921.6230333,84738.157127,8930260.50085,8930260.50085
39680.0,974.87784091,32.0207910508,7.38987833969,80091.8353881,82375.7164364,80591.7357218,82732.2051795,8388598.4479,8388598.4479
39840.0,987.434952278,30.8605424794,7.17174472941,76348.4683748,72034.4293739,77153.6148635,73845.6009904,8056464.04865,8056464.04865
40000.0,1000.0,29.7504938579,7.02970802814,74860.0040151,66180.6794831,76189.2791446,67595.688337,8487164.68443,8487164.68443
