X,Y,surf vx,surf vy,tau integr.,tau dir.,P integr.,P dir.,
0.0,0.0,16.2808248545,1.11460461746,14950.5349981,14943.1091803,8848364.62294,236.977147672
80.0,0.0,16.2367665395,1.10973089007,15230.8177371,15241.9248812,8715737.46965,-169.914887238
160.0,0.0,16.1426454421,1.10000474905,15498.2265822,15489.539218,8843838.05977,210.12725513
240.0,0.0,16.0965859055,1.08450343907,15791.3594922,15800.5245637,8722208.84307,-188.038604494
320.0,0.0,15.9985742885,1.06575023368,16063.4797624,16062.872923,8841267.99493,220.659042572
400.0,0.0,15.9430417002,1.04581276239,18222.7461774,16314.2753751,8727483.16816,-108.304620258
480.0,0.0,15.8394905274,1.0306449675,18425.5572356,16487.7680372,8841460.6673,240.14922841
560.0,0.0,15.7850076384,1.01416195623,16769.8528896,16778.6148186,8730300.05282,-163.705616657
640.0,0.0,15.682572059,0.998590034855,17307.7431311,17037.4093875,8834451.2527,186.097855638
720.0,0.0,15.6269511829,0.982802228973,19411.1181414,17321.4821722,8731290.44818,-156.315364279
800.0,0.0,15.5204551683,0.974024180161,17551.994897,17551.3634779,8833723.24903,223.328215825
880.0,0.0,15.4762591186,0.969585949883,17770.5252645,17778.2036401,8734122.06316,-113.668595725
960.0,0.0,15.3843167387,0.961757813499,17980.2934698,17974.0609705,8828083.78505,174.144344619
1040.0,0.0,15.354248454,0.941992190832,18212.0562964,18221.9136725,8739211.37322,-165.012034317
1120.0,0.0,15.2602816489,0.920251172193,18429.5320498,18418.7959227,8824205.18114,153.891901192
1200.0,0.0,15.2308980601,0.892761232316,18672.1054058,18681.8499184,8740674.9035,-164.734089787
1280.0,0.0,15.131553339,0.866208958642,20937.1973254,18889.782121,8825442.28012,151.596388144
1360.0,0.0,15.1046004782,0.840603816259,19387.6584308,19139.1623148,8738079.52708,-158.733046397
1440.0,0.0,15.0063197373,0.806336987107,19337.0918364,19329.9379055,8822348.84507,137.313034353
1520.0,0.0,14.9674589379,0.772168117783,19548.8887105,19562.2148286,8744351.65156,-150.604227782
1600.0,0.0,14.8602434201,0.749635288849,19735.0369313,19717.8023084,8820313.82857,127.494509285
1680.0,0.0,14.8252773356,0.728024874917,19968.5936057,19982.6569797,8745097.24588,-172.288072867
1760.0,0.0,14.7186046112,0.713035956911,20167.1939047,20163.620345,8820318.49385,132.41861078
1840.0,0.0,14.6939751,0.698084184102,20348.6243834,20353.9199635,8748487.29228,-123.993064814
1920.0,0.0,14.5987824719,0.682603390646,20529.1446058,20517.5638099,8819023.95679,110.255870436
2000.0,0.0,14.5823515937,0.665415140263,22777.5573103,20754.0046321,8746898.7297,-140.399454556
2080.0,0.0,14.4934214635,0.650454545179,24682.3619214,20896.1365846,8818970.69274,110.843967852
2160.0,0.0,14.4909789915,0.630236060175,21131.7292935,21147.2123032,8747178.04712,-139.219223713
2240.0,0.0,14.4074687536,0.6033664722,21301.7988425,21299.9597714,8814940.53452,133.541608003
2320.0,0.0,14.4007137329,0.578056745005,21457.6060221,21456.8380133,8750984.18158,-114.762425522
2400.0,0.0,14.3209899158,0.549218550556,21641.5813175,21630.3638275,8810175.05971,81.1367434531
2480.0,0.0,14.3082618225,0.524186187481,21852.9080272,21869.8326367,8753610.46997,-115.693011556
2560.0,0.0,14.2305997228,0.497391023706,22000.2854437,21993.1549771,8811088.60586,136.140796685
2640.0,0.0,14.2160247272,0.473482222263,23893.5339862,22145.319589,8758329.27471,-65.9413857242
2720.0,0.0,14.1402959147,0.447486050968,24033.2196368,22274.6224296,8807648.57121,144.225746854
2800.0,0.0,14.1210806665,0.428529519875,22431.4358555,22437.4113134,8761901.83446,-35.6685441133
2880.0,0.0,14.0520677023,0.412507641291,22572.2265329,22561.889207,8808489.93884,146.954177204
2960.0,0.0,14.0388000015,0.397976868351,22724.4013038,22741.7071246,8762821.18818,-17.1811480011
3040.0,0.0,13.9781471842,0.382240229176,24564.5282694,22816.0860514,8805379.31439,144.698304345
3120.0,0.0,13.9683582134,0.368654656556,24712.2208989,22993.9814744,8763873.22647,-37.6421073087
3200.0,0.0,13.9171493363,0.351968204194,23099.9074217,23092.839682,8802140.45578,131.049281116
3280.0,0.0,13.9085738311,0.339846892026,23210.0512807,23227.1588357,8763112.32939,-19.9918889935
3360.0,0.0,13.8708830894,0.322482825968,23287.2608462,23266.8338313,8799313.15315,87.279541661
3440.0,0.0,13.8629985666,0.306992136679,23408.6455345,23433.938273,8763491.0073,-51.8987145172
3520.0,0.0,13.8306573314,0.290380017781,23472.6098643,23448.0076612,8800220.96461,80.7245474838
3600.0,0.0,13.8271105024,0.271206033511,23586.1804355,23606.3749794,8767095.35472,-51.1583254709
3680.0,0.0,13.7959468245,0.252391068827,23654.4516318,23639.9073747,8799929.49123,83.8601722617
3760.0,0.0,13.7956497901,0.232043403186,23737.2799962,23756.4902075,8769725.60251,-46.7798368693
3840.0,0.0,13.7655036272,0.21203337122,25915.5541896,23762.9519563,8795551.44446,50.279939677
3920.0,0.0,13.7658757613,0.192919170884,27712.8408027,23898.6603847,8773848.70756,-55.2748769485
4000.0,0.0,13.7383636857,0.174264557164,25642.1325069,23919.4904213,8794314.69724,38.6291835662
4080.0,0.0,13.7408427437,0.154703995363,24037.7065527,24056.1453674,8772865.21388,-65.8110135375
4160.0,0.0,13.711909372,0.137009385677,24098.141103,24083.0667297,8794805.01887,21.6212075253
4240.0,0.0,13.7159552155,0.118958723614,24180.1506737,24200.0809373,8773141.30226,-78.3313343881
4320.0,0.0,13.6877276618,0.102730693935,24217.4066071,24201.8990214,8792172.89819,-10.0505948204
4400.0,0.0,13.6950931655,0.0859008132848,24274.470728,24290.3347181,8778118.38711,-67.6399131981
4480.0,0.0,13.6680705093,0.0697719551429,24306.4404215,24281.9531342,8791049.95667,-18.5541653837
4560.0,0.0,13.6748468876,0.0547851221025,24389.0451679,24415.0373611,8780873.58477,-60.923459227
4640.0,0.0,13.6502080877,0.0428608929566,24635.7979615,24379.497815,8792789.45077,17.4021388239
4720.0,0.0,13.6603502085,0.0294657999971,28010.2284437,24448.812081,8779208.56398,-69.0399734549
4800.0,0.0,13.6369879424,0.0182715672802,26402.8721963,24463.2861952,8789934.51443,-24.9763600613
4880.0,0.0,13.6512619978,0.00742985016712,26379.8731052,24510.8320441,8782809.56943,-37.2754032623
4960.0,0.0,13.6306417067,-0.00421542553058,24503.7485708,24495.1282387,8789375.48222,-6.11906960275
5040.0,0.0,13.6458739188,-0.0137448666483,24506.2647919,24522.022563,8782850.77135,-16.1997326319
5120.0,0.0,13.6297252735,-0.023195173213,24467.1579304,24449.9574692,8786664.36224,-3.90504675972
5200.0,0.0,13.6491935478,-0.0336474664828,26173.7037072,24482.5942403,8786361.03663,-37.5746642501
5280.0,0.0,13.6345909583,-0.0451222624574,26188.2867896,24497.0466906,8787544.95563,-14.8980475373
5360.0,0.0,13.6542882473,-0.053578319219,24468.1516236,24476.7109279,8790261.14776,21.0331580469
5440.0,0.0,13.6462105793,-0.065322544348,26298.4217793,24399.8396414,8786482.34359,-9.31409824697
5520.0,0.0,13.6661930147,-0.0757533107409,24653.7259863,24434.4621802,8791295.29341,2.73865320217
5600.0,0.0,13.6617724393,-0.0858923258822,24357.5570222,24347.5092603,8783097.38023,-7.50221717389
5680.0,0.0,13.6858387727,-0.0974000908293,24309.4971438,24317.0287713,8790122.50195,2.74413599363
5760.0,0.0,13.6836886835,-0.110160790386,24248.4437824,24242.3869796,8784299.94952,-26.7865969779
5840.0,0.0,13.7075945003,-0.121386237224,26070.6944693,24193.1960852,8791144.02756,31.3919367185
5920.0,0.0,13.7104285525,-0.133688450067,24583.9741378,24090.0996337,8782406.68664,-31.4837682411
6000.0,0.0,13.7362668254,-0.147690539668,25944.2998296,24066.2742782,8794524.89421,42.6611043577
6080.0,0.0,13.740630532,-0.161060630243,23986.9045452,23969.7915157,8780899.73175,-34.7046525981
6160.0,0.0,13.7706327409,-0.176659163576,23960.4505624,23976.6848374,8797322.13642,24.7509440847
6240.0,0.0,13.7732721424,-0.190786098847,23894.7403029,23885.2051171,8779148.94837,-45.8793776276
6320.0,0.0,13.8083738442,-0.20793168536,23820.1881138,23836.9001574,8803112.7526,66.7039574148
6400.0,0.0,13.80915231,-0.221030855202,23700.3013906,23684.3883451,8776014.09773,-42.9068114745
6480.0,0.0,13.8522800798,-0.2388222096,23607.6567404,23629.6599779,8801618.46831,43.91825286
6560.0,0.0,13.8538751186,-0.254658955047,23472.8456216,23448.2404875,8771331.49966,-76.6485054347
6640.0,0.0,13.9010457056,-0.273380744031,23395.1762997,23412.603536,8801481.66506,38.6452563101
6720.0,0.0,13.9025936678,-0.287560232603,23267.8009152,23258.4196294,8774194.37348,-34.1832281286
6800.0,0.0,13.9588105358,-0.308006071356,23137.2293178,23146.5713832,8805816.29738,81.2480178029
6880.0,0.0,13.9589861162,-0.325872707268,23006.8436954,22986.0740496,8768643.32404,-74.7336838604
6960.0,0.0,14.0205820408,-0.344815259585,22915.4781039,22945.0419723,8810118.08062,90.2064420669
7040.0,0.0,14.0231738575,-0.367140616682,22985.6465312,22714.4310295,8769000.134,-36.6381887346
7120.0,0.0,14.0842465525,-0.386661438311,24547.4923055,22635.2506234,8812081.72817,91.7812220143
7200.0,0.0,14.0901013185,-0.407064814938,22698.964178,22437.1550642,8770338.03882,-49.244666957
7280.0,0.0,14.1544537325,-0.427475131871,24249.2036597,22325.8908126,8811777.46727,101.809909301
7360.0,0.0,14.1639414457,-0.450364180841,22128.8825065,22114.7440702,8766953.39881,-66.6919351731
7440.0,0.0,14.226143013,-0.468580214796,21969.9344601,21986.176917,8813567.66548,101.281710128
7520.0,0.0,14.2447074158,-0.491231689687,21793.9799259,21771.0905931,8762414.01925,-116.657412157
7600.0,0.0,14.3067783532,-0.510511991984,21673.8155701,21699.5538075,8816127.91753,68.3837151319
7680.0,0.0,14.331185591,-0.532558205302,21481.4082927,21465.7495741,8762043.92348,-93.5218999293
7760.0,0.0,14.3999278131,-0.554110698011,21298.2774558,21314.7660124,8819224.13281,105.278484816
7840.0,0.0,14.4288812632,-0.575024705424,21086.3318491,21071.0458757,8758083.23555,-121.804023248
7920.0,0.0,14.5010158352,-0.597162651835,22694.5609978,20924.0196062,8818552.79273,80.436769201
8000.0,0.0,14.5336697466,-0.619882550901,24738.6700659,20695.5176634,8756041.00341,-153.174986509
8080.0,0.0,14.6102392442,-0.646001634643,22787.2187958,20571.5868893,8822844.07268,118.630565865
8160.0,0.0,14.6433629628,-0.670149978559,20289.8006529,20265.5229796,8761334.6039,-96.7559523396
8240.0,0.0,14.7238366033,-0.697353572582,20101.0947845,20111.510049,8822536.81494,88.2780287485
8320.0,0.0,14.7549320928,-0.722277590731,19922.5173993,19912.0881226,8757826.05758,-168.195142867
8400.0,0.0,14.8405266853,-0.750895648868,19749.8565479,19770.9827304,8823299.02966,103.689753493
8480.0,0.0,14.865682548,-0.774946205471,19515.2332588,19497.2540672,8753089.00784,-142.380204035
8560.0,0.0,14.9567076947,-0.800095189396,19566.0584601,19328.1782406,8828721.02901,116.208836029
8640.0,0.0,14.9801453761,-0.818631705553,21091.6050641,19039.3222705,8750904.95521,-145.001091653
8720.0,0.0,15.0782301049,-0.842126442416,18860.4608826,18874.7496596,8828880.23712,105.045764204
8800.0,0.0,15.0999369021,-0.85609877406,20488.7154491,18626.0555074,8748329.4853,-149.747865705
8880.0,0.0,15.2052267104,-0.873000690444,20271.4631266,18429.037407,8833467.17963,135.596373484
8960.0,0.0,15.2294435368,-0.888130557204,18186.8348065,18175.2295274,8744151.2403,-164.800011106
9040.0,0.0,15.3419064164,-0.901481731069,17965.6595222,17989.3688268,8833758.21548,148.023967835
9120.0,0.0,15.3710410525,-0.916949190173,19558.7947897,17655.6056283,8744611.48098,-131.45150651
9200.0,0.0,15.4902753112,-0.934952766734,19328.9486243,17460.2736103,8837554.89029,153.769411466
9280.0,0.0,15.5178749454,-0.952304683854,17212.4856447,17205.2683678,8740517.51565,-158.302152287
9360.0,0.0,15.6421668448,-0.969498919896,16984.6395264,16996.814368,8840887.86278,147.847703938
9440.0,0.0,15.6728250874,-0.987978457571,16733.5609522,16721.9191094,8736992.73205,-171.64578224
9520.0,0.0,15.7910302543,-1.0040908597,16481.463513,16506.1352713,8844799.9557,205.107832172
9600.0,0.0,15.8218652546,-1.02041272892,16160.6468491,16139.5803578,8736753.06499,-136.263307024
9680.0,0.0,15.9396380667,-1.03486344741,15898.508806,15912.9337241,8843368.01492,165.24103014
9760.0,0.0,15.9693728931,-1.0470291067,17573.0886942,15618.5548209,8732637.15912,-192.520617191
9840.0,0.0,16.0856345046,-1.05264930677,19750.6632374,15394.9125668,8846674.66424,182.178189947
9920.0,0.0,16.1232985169,-1.06102929751,17519.4055103,15070.0854984,8730217.50418,-167.456478764
10000.0,0.0,16.2399126301,-1.06509288074,14811.3469406,14832.6902665,8850235.67877,204.156294561
10080.0,0.0,16.2834555763,-1.07146290995,14499.3909261,14478.9360739,8729743.27334,-180.892358114
10160.0,0.0,16.4025975198,-1.07890467881,14249.9189946,14266.8972112,8851324.89203,151.544971519
10240.0,0.0,16.4464749748,-1.08235121253,13967.7465455,13963.7801902,8725135.29659,-199.027281068
10320.0,0.0,16.5682940143,-1.09154090664,13954.6824508,13683.7260382,8852782.3554,182.406203793
10400.0,0.0,16.6064050437,-1.09618339851,15577.2565344,13351.5678429,8723246.66405,-204.189894176
10480.0,0.0,16.7312609047,-1.10462125169,13072.4877875,13083.9262472,8857973.67535,173.295134018
10560.0,0.0,16.7617876505,-1.11006751709,12766.1871237,12760.8494134,8717979.31373,-214.630129746
10640.0,0.0,16.8809978914,-1.11216325659,12465.6123946,12478.9761044,8859940.09774,174.869844442
10720.0,0.0,16.9089684714,-1.11022052841,12137.4143861,12129.6556525,8713940.84093,-215.90593378
10800.0,0.0,17.0283891228,-1.10911376793,11839.0573033,11841.5864579,8861974.9092,157.871886038
10880.0,0.0,17.0500822385,-1.10095689357,11553.1633173,11553.9919132,8712938.87804,-230.717466792
10960.0,0.0,17.1717604665,-1.08895045595,11249.1553612,11263.1721391,8866383.22103,199.023799607
11040.0,0.0,17.1995105892,-1.07871276342,10904.6136929,10897.5402056,8710405.01625,-202.708109944
11120.0,0.0,17.3158537174,-1.06168588168,10584.4668022,10591.4657976,8866115.02294,183.068996563
11200.0,0.0,17.3533581613,-1.04755082934,10564.8281427,10266.5938268,8706781.30843,-231.196578439
11280.0,0.0,17.4698272223,-1.03432700287,12293.4684,9965.69577199,8873579.25725,185.319956739
11360.0,0.0,17.5055194477,-1.0201971779,9628.31442839,9628.1836148,8701940.6553,-209.1996189
11440.0,0.0,17.6193364233,-1.00533978983,11406.7132522,9300.76216144,8872791.68075,214.760182025
11520.0,0.0,17.6519909582,-0.992931262819,11069.8748121,8946.30754433,8704050.52766,-212.05005563
11600.0,0.0,17.7575802224,-0.978020271572,8663.631132,8675.69106104,8875152.22011,172.182038214
11680.0,0.0,17.7868316705,-0.961512016624,8352.17133424,8351.56849963,8700359.88986,-213.645127839
11760.0,0.0,17.8853572705,-0.944696626413,8036.16827335,8044.26529684,8879139.31445,192.186897162
11840.0,0.0,17.9086286288,-0.925015524041,7709.5678798,7706.37293836,8696253.07197,-196.413793725
11920.0,0.0,18.0010377804,-0.901337441849,7394.34904798,7406.13979664,8880928.94512,195.921331628
12000.0,0.0,18.0249581695,-0.875657347407,7068.21586947,7061.06154607,8695520.25091,-202.430078438
12080.0,0.0,18.1202660679,-0.848314871348,6770.86397236,6784.69279506,8883843.64799,177.866421793
12160.0,0.0,18.1447721303,-0.820579823032,6448.87777491,6445.44671326,8690314.25836,-187.607905043
12240.0,0.0,18.237815544,-0.79247645956,8338.1401278,6149.06092712,8887777.19963,174.269837555
12320.0,0.0,18.2620414737,-0.763681187715,8035.98777935,5838.56322179,8688906.96889,-185.420995196
12400.0,0.0,18.355055069,-0.738375351411,5548.08369285,5560.55227697,8888041.83507,181.933738398
12480.0,0.0,18.375953715,-0.711837033487,5234.02322962,5230.07862882,8684859.18599,-165.179018057
12560.0,0.0,18.4654876582,-0.68769451637,7406.10604068,4950.99296838,8891578.40708,164.165016565
12640.0,0.0,18.4812197319,-0.666925174754,4971.42183863,4656.80542981,8682143.77872,-170.190747074
12720.0,0.0,18.5598564235,-0.642155825345,4391.1712408,4400.97735738,8895746.69377,150.91666428
12800.0,0.0,18.5739360222,-0.619717584292,4108.20955936,4108.00271764,8681977.49978,-149.751102576
12880.0,0.0,18.6470131955,-0.596007798345,3833.97427627,3839.58406192,8895617.78657,155.761921466
12960.0,0.0,18.6562783183,-0.571948793794,3563.00563176,3562.51389061,8675919.68048,-134.740503468
13040.0,0.0,18.7203205576,-0.546066443872,3312.43292134,3317.98626865,8899141.16205,131.881844252
13120.0,0.0,18.7288101348,-0.521261259581,3065.5135499,3065.09131532,8679026.7402,-128.93715664
13200.0,0.0,18.7853055732,-0.494472335268,2835.02239556,2841.12463484,8897066.63858,117.421876551
13280.0,0.0,18.7936015298,-0.467880002209,2599.19609972,2600.80641973,8673819.96827,-109.215552246
13360.0,0.0,18.8482668429,-0.441875517927,2372.13888951,2374.60097139,8905582.5535,110.770409159
13440.0,0.0,18.8520127084,-0.417026258255,2155.68607265,2156.70356761,8672077.83589,-98.9668775329
13520.0,0.0,18.9032658214,-0.391579402644,1953.58794488,1957.7875104,8903731.07632,96.1003596825
13600.0,0.0,18.9050229189,-0.368486082513,1750.92816788,1752.62504562,8668375.65481,-79.9585232806
13680.0,0.0,18.9546216131,-0.343195888116,1559.16552781,1560.71223226,8908554.72325,81.9114553712
13760.0,0.0,18.9560772173,-0.318628583793,1378.15370589,1379.8590047,8669655.77124,-70.9011122159
13840.0,0.0,19.0013405196,-0.293020208837,4084.31241213,1211.93827329,8904327.7657,63.2950543569
13920.0,0.0,19.0007168182,-0.268720985515,3938.30318676,1061.2583963,8671123.18765,-56.5989819121
14000.0,0.0,19.0392001989,-0.246089705924,915.043045387,917.45720294,8909936.2474,55.502911614
14080.0,0.0,19.0372519888,-0.226728208924,773.64816927,773.961732723,8662365.52032,-41.8353532613
14160.0,0.0,19.0718125788,-0.208606405841,646.56206633,646.806093396,8921504.87524,42.1975151687
14240.0,0.0,19.0705262482,-0.195509362726,530.969046898,532.385062845,8659123.72644,-33.4413203301
14320.0,0.0,19.0989696609,-0.181570697805,753.388258297,426.019945561,8922552.44096,28.5548005101
14400.0,0.0,19.0949801964,-0.170186041809,2905.79071455,334.317485708,8663100.54572,-21.8130031038
14480.0,0.0,19.1202064481,-0.159558791904,2568.22349724,249.51165212,8925027.04873,17.9534946314
14560.0,0.0,19.1126361529,-0.151601199651,2497.9527407,181.167403177,8658630.95451,-12.3575156653
14640.0,0.0,19.128816794,-0.141049100639,121.656895932,119.581098112,8950235.66988,9.5302027259
14720.0,0.0,19.1201012929,-0.131161784931,75.5128835739,77.1168769108,8621974.13812,-5.88934630196
14800.0,0.0,19.131417492,-0.120696433847,2591.51898405,35.0158302683,8810254.53706,0.601575216111
14880.0,0.0,19.1168413516,-0.105281998222,2687.62963388,13.4986203583,8782392.43389,-0.10378518585
14960.0,0.0,19.1293962891,-0.0929676026193,2351.4911695,1.46532230827,8847221.94994,0.0226838936346
15040.0,0.0,19.1055828826,-0.0735855491354,2.49410648206,1.51435327712,8730853.44295,-0.0264136260161
15120.0,0.0,19.1181046967,-0.0549513312254,350.8236723,13.1936461939,8860988.49989,0.261968495114
15200.0,0.0,19.0904595824,-0.0308186053381,2686.72723419,39.6539319741,8759533.51449,-0.246248680807
15280.0,0.0,19.1045472726,-0.00639182032718,71.5954565118,68.0942915145,8633829.55732,-5.70629810979
15360.0,0.0,19.0722265475,0.0208663024604,120.255073979,121.802568471,8940189.74352,8.37572846774
15440.0,0.0,19.0853444211,0.0508711989116,178.659501214,176.24096938,8658900.59851,-11.6944257009
15520.0,0.0,19.0542311493,0.0808785057576,251.371944501,253.096322203,8919086.57104,15.9313567213
15600.0,0.0,19.0683000432,0.1117333404,332.988281663,331.225078784,8659467.4136,-20.480468252
15680.0,0.0,19.0385914377,0.141908641086,426.977969206,428.758379573,8924226.69123,28.4094630719
15760.0,0.0,19.052938978,0.170106807626,2884.09916381,529.740083198,8658782.91038,-30.6389050669
15840.0,0.0,19.0200733998,0.19929191549,3001.35390609,650.774603262,8917173.36438,40.9278657466
15920.0,0.0,19.0341363438,0.225199655135,773.967864906,773.440936432,8659548.66681,-40.3201954262
16000.0,0.0,18.9969410079,0.253939512243,911.145707985,912.755916034,8909798.7001,53.059981117
16080.0,0.0,19.0127989904,0.279691514211,1061.14681529,1062.10139062,8665932.08235,-56.563073253
16160.0,0.0,18.9716312285,0.304324422479,1220.43180654,1222.35568562,8909995.39795,64.059140971
16240.0,0.0,18.984093497,0.330729623261,1391.16933396,1391.82677343,8661194.60147,-70.9196747633
16320.0,0.0,18.9401604632,0.355713661202,1570.63505918,1574.22567383,8903727.70763,84.4323145853
16400.0,0.0,18.9498179867,0.378534005839,1755.65809894,1756.60025627,8666260.89881,-78.5545952783
16480.0,0.0,18.896375036,0.403459561268,1950.99048912,1952.75280886,8899123.03041,97.105383322
16560.0,0.0,18.9052724096,0.426677640537,2162.0725011,2165.43478714,8667528.1487,-101.741584511
16640.0,0.0,18.8478741779,0.446925922764,2699.07451499,2381.21297235,8897987.71566,107.184644938
16720.0,0.0,18.8511412872,0.46725554508,5127.52149391,2607.19890922,8667705.51731,-114.135171352
16800.0,0.0,18.7905495561,0.48884957842,2840.19484311,2843.58312824,8897964.1276,124.548900365
16880.0,0.0,18.7910369478,0.508451692871,3080.69061213,3084.39721237,8675328.0268,-120.104181335
16960.0,0.0,18.7206431638,0.531431480271,3323.44792901,3325.78123977,8893741.22491,137.806937439
17040.0,0.0,18.7187820034,0.554527771398,5848.15326861,3579.70451009,8676709.6837,-134.129412545
17120.0,0.0,18.6426363055,0.574525654697,8343.54429783,3836.08624293,8890481.27687,156.447870082
17200.0,0.0,18.630100301,0.598787050678,6338.69812826,4099.96933546,8678108.83049,-156.101273791
17280.0,0.0,18.5481291498,0.622688514997,6863.38465359,4389.3817344,8892200.33149,152.675996671
17360.0,0.0,18.5300275873,0.652450120504,4995.30272473,4687.4545671,8679613.80712,-166.231944347
17440.0,0.0,18.4482884708,0.680754401738,4962.10835224,4966.33520822,8886750.30168,181.691969067
17520.0,0.0,18.4275963717,0.710340529675,5241.76692456,5244.44204722,8681503.0219,-164.962607959
17600.0,0.0,18.3441627215,0.740779632273,5532.44387741,5533.47947243,8886629.79122,181.503809173
17680.0,0.0,18.322177994,0.76718845707,5843.10980905,5848.53111068,8682313.95917,-195.719603412
17760.0,0.0,18.2388580861,0.796337848636,6154.72390491,6159.89590962,8882943.31537,181.345781727
17840.0,0.0,18.2215523619,0.825870433904,8899.89185414,6460.63982417,8684635.54783,-186.11712254
17920.0,0.0,18.1402040895,0.850920532136,7076.52117655,6765.50242957,8879549.38694,197.86958764
18000.0,0.0,18.1215473312,0.870960021454,7091.66647511,7101.8157633,8689261.67908,-199.655115814
18080.0,0.0,18.0363551832,0.88925229346,7404.41474724,7402.17367154,8877696.60993,201.269104905
18160.0,0.0,18.0127143405,0.901096181932,7734.26074455,7741.45580192,8692200.11821,-213.029622917
18240.0,0.0,17.9176100515,0.914974036716,10440.708522,8060.62871742,8875112.7323,212.780977474
18320.0,0.0,17.8871183879,0.928968450464,8687.82651533,8392.64202797,8692769.73407,-208.741640451
18400.0,0.0,17.783564654,0.937784499329,8705.86568867,8705.01690022,8873193.34529,209.716830139
18480.0,0.0,17.7392372543,0.951241930911,9032.20072398,9040.99857725,8696527.64951,-206.227686431
18560.0,0.0,17.6302418603,0.969054372035,9341.1189561,9339.42134145,8871432.4539,237.712567702
18640.0,0.0,17.5876107853,0.990984883998,9667.2522491,9671.12606317,8698378.25683,-217.67590241
18720.0,0.0,17.4825640353,1.01192734282,10006.7021946,10008.656955,8869029.42601,210.388555021
18800.0,0.0,17.4444897757,1.03003324689,10347.1748306,10353.2228428,8701515.01608,-222.354339352
18880.0,0.0,17.3390062681,1.04796378324,10966.9915303,10677.2085779,8864990.45462,228.819127934
18960.0,0.0,17.3040524087,1.06560689832,13286.1509054,10993.1427038,8706245.14061,-186.669933646
19040.0,0.0,17.2071212641,1.0810893514,11278.1426155,11273.1294715,8860297.52555,237.29718144
19120.0,0.0,17.1801120314,1.08762207695,11599.8512562,11605.6623627,8705506.00764,-216.930792897
19200.0,0.0,17.0777098791,1.08525752561,11925.2832573,11926.4907522,8859909.92639,215.416400269
19280.0,0.0,17.0343162355,1.08440487148,12244.925003,12251.2816274,8709918.668,-208.13172314
19360.0,0.0,16.9248145783,1.08425542488,12554.4452084,12551.282456,8854897.80481,221.270634963
19440.0,0.0,16.8740267929,1.08515809473,13151.6793213,12878.1543855,8710157.62922,-191.885297804
19520.0,0.0,16.761837352,1.08368326192,15400.6640582,13150.1468511,8859053.1276,224.768666327
19600.0,0.0,16.7071487763,1.08577747808,13476.8423931,13490.5314683,8711597.90873,-199.004355051
19680.0,0.0,16.5899999923,1.08665563935,13763.8212766,13760.2036696,8852852.43868,231.489189074
19760.0,0.0,16.5331441999,1.09946891992,14058.5404751,14062.1868855,8716633.05046,-199.60264402
19840.0,0.0,16.4296382953,1.10721310486,16559.5475026,14360.3915506,8847164.48519,205.875530963
19920.0,0.0,16.3798107146,1.11372414187,14958.4299767,14694.3431095,8719557.95748,-181.112967214
20000.0,0.0,16.2808248545,1.11460461746,14950.5349981,14943.1091803,8848364.62294,236.977147672
