<?xml version="1.0" encoding="UTF-8"?>
<!DOCTYPE svg PUBLIC "-//W3C//DTD SVG 1.1//EN" "http://www.w3.org/Graphics/SVG/1.1/DTD/svg11.dtd">
<svg width="160mm" height="90mm" viewBox="0 0 16000 9000" version="1.1" xmlns="http://www.w3.org/2000/svg" xmlns:xlink="http://www.w3.org/1999/xlink" stroke-width="28.222" stroke-linejoin="round" xml:space="preserve">
 <path fill="rgb(255,255,255)" stroke="none" d="M 8000,8999 L 0,8999 0,0 15999,0 15999,8999 8000,8999 Z"/>
 <path fill="none" stroke="rgb(179,179,179)" stroke-linejoin="round" d="M 6835,8157 L 958,8157 958,387 12712,387 12712,8157 6835,8157 Z"/>
 <path fill="none" stroke="rgb(179,179,179)" stroke-linejoin="round" d="M 12712,8156 L 958,8156"/>
 <path fill="none" stroke="rgb(179,179,179)" stroke-linejoin="round" d="M 12712,6860 L 958,6860"/>
 <path fill="none" stroke="rgb(179,179,179)" stroke-linejoin="round" d="M 12712,5565 L 958,5565"/>
 <path fill="none" stroke="rgb(179,179,179)" stroke-linejoin="round" d="M 12712,4271 L 958,4271"/>
 <path fill="none" stroke="rgb(179,179,179)" stroke-linejoin="round" d="M 12712,2976 L 958,2976"/>
 <path fill="none" stroke="rgb(179,179,179)" stroke-linejoin="round" d="M 12712,1681 L 958,1681"/>
 <path fill="none" stroke="rgb(179,179,179)" stroke-linejoin="round" d="M 12712,386 L 958,386"/>
 <path fill="none" stroke="rgb(179,179,179)" stroke-linejoin="round" d="M 958,8306 L 958,8156"/>
 <path fill="none" stroke="rgb(179,179,179)" stroke-linejoin="round" d="M 958,8306 L 958,8156"/>
 <path fill="none" stroke="rgb(179,179,179)" stroke-linejoin="round" d="M 2133,8306 L 2133,8156"/>
 <path fill="none" stroke="rgb(179,179,179)" stroke-linejoin="round" d="M 2133,8306 L 2133,8156"/>
 <path fill="none" stroke="rgb(179,179,179)" stroke-linejoin="round" d="M 3309,8306 L 3309,8156"/>
 <path fill="none" stroke="rgb(179,179,179)" stroke-linejoin="round" d="M 3309,8306 L 3309,8156"/>
 <path fill="none" stroke="rgb(179,179,179)" stroke-linejoin="round" d="M 4484,8306 L 4484,8156"/>
 <path fill="none" stroke="rgb(179,179,179)" stroke-linejoin="round" d="M 4484,8306 L 4484,8156"/>
 <path fill="none" stroke="rgb(179,179,179)" stroke-linejoin="round" d="M 5660,8306 L 5660,8156"/>
 <path fill="none" stroke="rgb(179,179,179)" stroke-linejoin="round" d="M 5660,8306 L 5660,8156"/>
 <path fill="none" stroke="rgb(179,179,179)" stroke-linejoin="round" d="M 6835,8306 L 6835,8156"/>
 <path fill="none" stroke="rgb(179,179,179)" stroke-linejoin="round" d="M 6835,8306 L 6835,8156"/>
 <path fill="none" stroke="rgb(179,179,179)" stroke-linejoin="round" d="M 8010,8306 L 8010,8156"/>
 <path fill="none" stroke="rgb(179,179,179)" stroke-linejoin="round" d="M 8010,8306 L 8010,8156"/>
 <path fill="none" stroke="rgb(179,179,179)" stroke-linejoin="round" d="M 9185,8306 L 9185,8156"/>
 <path fill="none" stroke="rgb(179,179,179)" stroke-linejoin="round" d="M 9185,8306 L 9185,8156"/>
 <path fill="none" stroke="rgb(179,179,179)" stroke-linejoin="round" d="M 10361,8306 L 10361,8156"/>
 <path fill="none" stroke="rgb(179,179,179)" stroke-linejoin="round" d="M 10361,8306 L 10361,8156"/>
 <path fill="none" stroke="rgb(179,179,179)" stroke-linejoin="round" d="M 11536,8306 L 11536,8156"/>
 <path fill="none" stroke="rgb(179,179,179)" stroke-linejoin="round" d="M 11536,8306 L 11536,8156"/>
 <path fill="none" stroke="rgb(179,179,179)" stroke-linejoin="round" d="M 12712,8306 L 12712,8156"/>
 <path fill="none" stroke="rgb(179,179,179)" stroke-linejoin="round" d="M 12712,8306 L 12712,8156"/>
 <path fill="none" stroke="rgb(179,179,179)" stroke-linejoin="round" d="M 958,8156 L 12712,8156"/>
 <path fill="none" stroke="rgb(179,179,179)" stroke-linejoin="round" d="M 808,8156 L 958,8156"/>
 <path fill="none" stroke="rgb(179,179,179)" stroke-linejoin="round" d="M 808,8156 L 958,8156"/>
 <path fill="none" stroke="rgb(179,179,179)" stroke-linejoin="round" d="M 808,6860 L 958,6860"/>
 <path fill="none" stroke="rgb(179,179,179)" stroke-linejoin="round" d="M 808,6860 L 958,6860"/>
 <path fill="none" stroke="rgb(179,179,179)" stroke-linejoin="round" d="M 808,5565 L 958,5565"/>
 <path fill="none" stroke="rgb(179,179,179)" stroke-linejoin="round" d="M 808,5565 L 958,5565"/>
 <path fill="none" stroke="rgb(179,179,179)" stroke-linejoin="round" d="M 808,4271 L 958,4271"/>
 <path fill="none" stroke="rgb(179,179,179)" stroke-linejoin="round" d="M 808,4271 L 958,4271"/>
 <path fill="none" stroke="rgb(179,179,179)" stroke-linejoin="round" d="M 808,2976 L 958,2976"/>
 <path fill="none" stroke="rgb(179,179,179)" stroke-linejoin="round" d="M 808,2976 L 958,2976"/>
 <path fill="none" stroke="rgb(179,179,179)" stroke-linejoin="round" d="M 808,1681 L 958,1681"/>
 <path fill="none" stroke="rgb(179,179,179)" stroke-linejoin="round" d="M 808,1681 L 958,1681"/>
 <path fill="none" stroke="rgb(179,179,179)" stroke-linejoin="round" d="M 808,386 L 958,386"/>
 <path fill="none" stroke="rgb(179,179,179)" stroke-linejoin="round" d="M 808,386 L 958,386"/>
 <path fill="none" stroke="rgb(179,179,179)" stroke-linejoin="round" d="M 958,8156 L 958,386"/>
 <path fill="none" stroke="rgb(0,69,134)" stroke-width="80" stroke-linejoin="round" d="M 958,6495 L 963,6504 970,6516 970,6516 970,6516 970,6516 977,6529 982,6536 985,6542 992,6554 994,6556 1000,6567 1006,6577 1007,6579 1015,6592 1018,6596 1022,6604 1030,6616 1037,6629 1041,6636 1045,6642 1053,6654 1053,6655 1061,6667 1065,6674 1068,6679 1076,6691 1077,6693 1084,6704 1089,6712 1092,6716 1100,6729 1101,6731 1108,6741 1113,6749 1116,6754 1125,6767 1125,6768 1133,6779 1137,6786 1141,6792 1150,6804 1158,6817 1161,6822 1167,6829 1173,6839 1175,6842 1184,6854 1185,6857 1193,6867 1197,6874 1201,6879 1209,6891 1210,6892 1219,6904 1221,6908 1228,6917 1233,6924 1237,6929 1245,6941 1246,6942 1246,6942 1246,6942 1255,6955 1257,6957 1264,6967 1269,6973 1274,6979 1281,6990 1283,6992 1292,7004 1293,7005 1293,7005 1293,7005 1302,7017 1305,7021 1312,7030 1317,7036 1322,7042 1329,7052 1331,7054 1341,7067 1351,7080 1353,7082 1361,7092 1365,7097 1372,7104 1377,7111 1382,7117 1389,7126 1392,7130 1401,7140 1403,7142 1413,7154 1413,7155 1413,7154 1413,7154 1424,7167 1425,7168 1425,7168 1425,7168 1435,7180 1437,7182 1446,7192 1449,7195 1457,7205 1461,7209 1468,7217 1473,7222 1480,7230 1485,7235 1491,7242 1497,7248 1503,7255 1509,7261 1515,7267 1521,7274 1527,7280 1533,7286 1538,7292 1545,7298 1551,7305 1557,7311 1563,7317 1569,7323 1576,7330 1581,7335 1588,7342 1593,7346 1601,7355 1605,7358 1615,7367 1617,7369 1628,7380 1629,7381 1629,7381 1629,7381 1641,7392 1653,7403 1655,7405 1664,7414 1669,7417 1677,7424 1683,7430 1689,7435 1697,7442 1700,7445 1711,7455 1712,7456 1725,7466 1726,7467 1737,7476 1741,7480 1749,7486 1757,7492 1761,7496 1772,7505 1785,7515 1788,7517 1797,7524 1804,7530 1808,7533 1821,7542 1833,7551 1837,7555 1844,7560 1855,7568 1856,7569 1868,7577 1872,7580 1880,7586 1890,7592 1892,7594 1905,7603 1908,7605 1916,7611 1927,7617 1928,7618 1940,7626 1946,7630 1952,7634 1964,7642 1965,7642 1976,7649 1986,7655 1988,7657 2000,7664 2006,7668 2012,7671 2024,7678 2027,7680 2036,7685 2048,7692 2049,7693 2060,7699 2071,7705 2072,7706 2084,7712 2094,7718 2096,7719 2108,7725 2118,7730 2120,7731 2132,7737 2142,7743 2144,7744 2156,7750 2167,7755 2168,7755 2180,7761 2192,7767 2193,7768 2204,7773 2216,7778 2220,7780 2228,7784 2240,7789 2248,7793 2252,7794 2264,7799 2276,7804 2277,7805 2288,7810 2300,7815 2308,7818 2312,7819 2324,7824 2336,7829 2339,7830 2348,7834 2359,7838 2372,7843 2372,7843 2384,7847 2396,7851 2407,7855 2408,7856 2419,7860 2432,7864 2443,7868 2456,7872 2468,7876 2479,7879 2482,7880 2492,7883 2503,7887 2516,7891 2522,7893 2527,7894 2539,7898 2552,7901 2563,7905 2565,7905 2576,7908 2587,7911 2599,7915 2611,7918 2612,7918 2623,7921 2636,7924 2647,7927 2659,7930 2661,7930 2661,7930 2661,7930 2671,7933 2683,7936 2696,7938 2707,7941 2715,7943 2719,7944 2731,7946 2743,7949 2755,7952 2767,7954 2773,7955 2779,7957 2791,7959 2803,7961 2815,7964 2827,7966 2837,7968 2839,7968 2851,7970 2863,7973 2875,7975 2887,7977 2899,7979 2909,7980 2911,7981 2923,7983 2935,7985 2947,7987 2959,7988 2971,7990 2983,7992 2990,7993 2995,7994 3007,7995 3019,7997 3031,7999 3043,8000 3055,8002 3067,8003 3079,8005 3084,8005 3091,8006 3103,8008 3115,8009 3127,8010 3139,8012 3150,8013 3163,8014 3174,8016 3187,8017 3197,8018 3198,8018 3210,8019 3223,8020 3234,8021 3247,8022 3259,8024 3270,8025 3283,8026 3294,8027 3307,8028 3318,8028 3330,8029 3342,8030 3343,8030 3354,8031 3366,8032 3378,8033 3390,8034 3402,8034 3414,8035 3426,8036 3438,8037 3450,8037 3462,8038 3474,8039 3486,8039 3498,8040 3510,8040 3522,8041 3534,8042 3546,8042 3558,8043 3566,8043 3570,8043 3582,8044 3594,8044 3606,8044 3618,8045 3630,8045 3642,8046 3654,8046 3666,8046 3678,8047 3690,8047 3702,8047 3714,8047 3726,8048 3738,8048 3750,8048 3762,8048 3774,8049 3786,8049 3797,8049 3810,8049 3822,8049 3834,8049 3846,8049 3857,8049 3870,8049 3881,8049 3894,8049 3905,8049 3917,8049 3930,8049 3941,8049 3954,8049 3965,8049 3977,8049 3990,8049 4001,8049 4014,8049 4025,8048 4037,8048 4049,8048 4061,8048 4074,8048 4085,8047 4097,8047 4109,8047 4121,8046 4133,8046 4145,8046 4157,8045 4169,8045 4181,8045 4193,8044 4205,8044 4217,8043 4228,8043 4229,8043 4241,8042 4253,8042 4265,8041 4277,8041 4289,8040 4301,8040 4313,8039 4325,8038 4337,8038 4349,8037 4361,8036 4373,8036 4385,8035 4397,8034 4409,8033 4421,8032 4433,8032 4445,8031 4451,8030 4456,8030 4469,8029 4481,8028 4493,8027 4504,8026 4517,8025 4528,8024 4541,8023 4553,8022 4564,8021 4577,8020 4588,8019 4597,8018 4600,8017 4613,8016 4624,8015 4637,8014 4648,8012 4661,8011 4672,8010 4685,8008 4696,8007 4708,8006 4710,8005 4721,8004 4732,8003 4745,8001 4756,8000 4768,7998 4780,7996 4792,7995 4804,7993 4816,7991 4828,7989 4840,7988 4852,7986 4864,7984 4876,7982 4886,7980 4888,7980 4900,7978 4912,7976 4924,7974 4936,7972 4948,7969 4957,7968 4960,7967 4972,7965 4984,7963 4996,7960 5008,7958 5020,7956 5021,7955 5021,7955 5021,7955 5032,7953 5044,7951 5056,7948 5068,7945 5080,7943 5092,7940 5104,7937 5116,7934 5128,7932 5133,7930 5140,7929 5152,7926 5164,7923 5176,7920 5183,7918 5187,7916 5200,7913 5212,7910 5224,7907 5229,7905 5236,7903 5248,7900 5259,7896 5272,7893 5272,7893 5284,7889 5295,7886 5307,7882 5313,7880 5319,7878 5332,7874 5343,7870 5351,7868 5355,7866 5368,7862 5379,7858 5388,7855 5391,7854 5404,7849 5415,7845 5422,7843 5427,7841 5439,7836 5451,7832 5455,7830 5463,7827 5475,7822 5487,7818 5499,7813 5511,7808 5517,7805 5523,7802 5535,7797 5546,7792 5547,7792 5559,7787 5571,7781 5574,7780 5583,7776 5595,7770 5601,7767 5607,7765 5619,7759 5627,7755 5631,7753 5643,7747 5653,7742 5655,7741 5667,7735 5677,7730 5679,7729 5691,7723 5700,7718 5703,7716 5715,7710 5723,7705 5727,7703 5739,7697 5746,7692 5751,7690 5763,7683 5768,7680 5775,7676 5787,7669 5789,7667 5799,7661 5809,7655 5811,7654 5822,7647 5829,7642 5835,7639 5847,7631 5849,7630 5859,7623 5868,7617 5870,7616 5882,7608 5886,7605 5895,7599 5905,7592 5906,7591 5919,7583 5923,7580 5931,7574 5940,7567 5942,7566 5955,7557 5957,7555 5966,7548 5974,7542 5978,7539 5991,7530 6002,7521 6007,7517 6014,7511 6023,7505 6026,7502 6038,7492 6050,7482 6053,7480 6062,7472 6069,7467 6074,7462 6083,7455 6086,7452 6098,7442 6098,7442 6110,7431 6112,7430 6122,7421 6126,7417 6134,7410 6140,7405 6146,7399 6154,7392 6158,7388 6167,7380 6170,7377 6181,7367 6182,7366 6193,7355 6194,7354 6206,7342 6207,7342 6218,7331 6219,7329 6230,7318 6232,7317 6242,7306 6244,7305 6254,7294 6256,7292 6266,7282 6268,7280 6278,7269 6280,7267 6290,7257 6292,7254 6302,7244 6304,7242 6314,7231 6315,7229 6326,7217 6327,7216 6338,7204 6349,7192 6350,7191 6360,7179 6362,7177 6371,7167 6374,7163 6382,7154 6386,7149 6392,7142 6398,7135 6403,7129 6410,7121 6413,7117 6422,7106 6423,7104 6434,7091 6444,7079 6446,7077 6454,7067 6458,7062 6464,7054 6470,7047 6474,7041 6482,7031 6483,7029 6493,7017 6494,7016 6503,7004 6505,7000 6512,6991 6518,6984 6522,6979 6530,6968 6531,6967 6540,6954 6541,6952 6549,6941 6553,6936 6558,6929 6565,6919 6567,6917 6576,6904 6577,6903 6585,6891 6589,6886 6594,6879 6601,6868 6603,6867 6612,6854 6613,6851 6620,6841 6625,6834 6629,6829 6637,6816 6646,6804 6649,6798 6654,6791 6661,6780 6662,6779 6671,6766 6673,6762 6679,6754 6685,6744 6687,6741 6695,6729 6697,6725 6703,6716 6709,6707 6711,6704 6719,6691 6721,6688 6727,6679 6733,6669 6735,6666 6742,6654 6745,6649 6750,6641 6757,6629 6758,6629 6766,6616 6769,6610 6773,6604 6781,6591 6781,6590 6788,6578 6793,6571 6796,6566 6803,6554 6805,6550 6811,6541 6817,6530 6818,6529 6825,6516 6829,6509 6833,6503 6840,6491 6841,6489 6847,6479 6853,6468 6854,6466 6861,6453 6865,6447 6868,6441 6875,6428 6877,6425 6882,6416 6889,6404 6889,6403 6896,6391 6901,6382 6903,6378 6910,6366 6913,6361 6917,6353 6924,6341 6925,6339 6930,6328 6937,6316 6944,6303 6949,6294 6951,6291 6957,6278 6961,6272 6964,6266 6970,6253 6973,6249 6977,6241 6984,6228 6985,6226 6990,6216 6997,6203 6997,6203 7003,6190 7009,6179 7009,6178 7016,6166 7021,6156 7022,6153 7029,6141 7033,6132 7035,6128 7041,6116 7045,6109 7048,6103 7054,6090 7057,6085 7060,6078 7066,6065 7069,6061 7073,6053 7079,6040 7081,6036 7085,6028 7091,6015 7093,6012 7097,6003 7103,5990 7105,5987 7109,5978 7115,5965 7117,5962 7121,5953 7127,5940 7129,5937 7133,5927 7139,5915 7141,5912 7145,5903 7151,5890 7153,5887 7157,5877 7163,5865 7165,5861 7169,5853 7174,5840 7177,5836 7180,5828 7186,5815 7189,5810 7192,5802 7198,5790 7201,5784 7203,5778 7209,5765 7213,5758 7215,5753 7221,5740 7225,5731 7226,5728 7232,5715 7236,5705 7237,5703 7243,5690 7249,5678 7249,5677 7255,5665 7260,5652 7261,5651 7266,5640 7271,5627 7272,5625 7277,5615 7282,5602 7284,5598 7288,5590 7293,5577 7296,5570 7299,5565 7304,5552 7308,5543 7310,5540 7315,5527 7320,5515 7326,5502 7331,5490 7332,5487 7337,5478 7342,5465 7344,5460 7348,5452 7353,5440 7356,5432 7358,5428 7364,5415 7368,5404 7369,5402 7374,5389 7380,5377 7380,5375 7385,5365 7390,5352 7392,5347 7395,5340 7401,5327 7404,5319 7406,5315 7411,5302 7416,5290 7421,5277 7427,5265 7428,5261 7432,5252 7437,5239 7440,5232 7442,5227 7447,5215 7452,5203 7453,5202 7458,5190 7463,5177 7464,5174 7468,5165 7473,5152 7476,5145 7478,5140 7483,5127 7488,5115 7488,5115 7493,5102 7499,5089 7500,5086 7504,5077 7509,5064 7512,5056 7514,5052 7519,5039 7524,5027 7524,5026 7529,5014 7534,5002 7536,4996 7539,4989 7544,4977 7548,4966 7549,4964 7554,4951 7559,4939 7560,4936 7564,4927 7569,4914 7572,4906 7574,4902 7579,4889 7584,4877 7584,4876 7589,4864 7593,4852 7596,4845 7598,4839 7603,4827 7608,4815 7608,4814 7613,4802 7618,4789 7620,4784 7623,4777 7628,4764 7632,4754 7633,4752 7638,4739 7643,4726 7644,4723 7647,4714 7652,4701 7656,4692 7657,4689 7662,4676 7667,4664 7668,4661 7672,4651 7676,4639 7680,4630 7681,4626 7686,4613 7691,4601 7692,4599 7696,4589 7701,4576 7704,4568 7705,4564 7710,4551 7715,4539 7716,4537 7720,4526 7725,4514 7728,4506 7729,4501 7734,4490 7739,4477 7740,4475 7744,4465 7749,4452 7752,4444 7753,4440 7758,4427 7763,4415 7764,4413 7768,4402 7773,4389 7776,4381 7777,4377 7782,4365 7787,4352 7788,4350 7791,4340 7796,4327 7800,4318 7801,4315 7806,4302 7810,4290 7812,4287 7815,4277 7820,4264 7824,4255 7825,4252 7829,4239 7834,4227 7836,4223 7839,4214 7844,4202 7848,4192 7848,4190 7853,4177 7858,4164 7860,4160 7862,4152 7867,4139 7872,4128 7872,4127 7877,4115 7881,4102 7884,4096 7886,4089 7891,4077 7896,4064 7900,4052 7905,4039 7908,4033 7910,4027 7915,4014 7919,4001 7920,4001 7924,3989 7929,3976 7931,3969 7933,3964 7938,3951 7943,3939 7943,3937 7947,3927 7952,3914 7955,3905 7957,3902 7962,3889 7966,3877 7967,3874 7971,3864 7976,3851 7979,3842 7980,3839 7985,3826 7990,3814 7991,3810 7995,3801 7999,3789 8002,3778 8003,3777 8008,3764 8012,3752 8014,3746 8017,3739 8022,3726 8026,3715 8027,3714 8031,3701 8036,3689 8038,3683 8041,3676 8046,3664 8050,3651 8055,3639 8060,3626 8062,3620 8064,3614 8069,3601 8074,3589 8074,3588 8079,3576 8084,3563 8086,3557 8088,3551 8093,3539 8098,3526 8098,3525 8103,3513 8107,3501 8110,3494 8112,3489 8117,3476 8122,3464 8122,3462 8127,3451 8131,3438 8134,3431 8136,3426 8141,3413 8146,3401 8146,3400 8151,3388 8155,3376 8158,3369 8160,3364 8165,3351 8170,3339 8170,3338 8175,3326 8180,3313 8182,3307 8184,3301 8189,3289 8194,3276 8194,3275 8199,3263 8204,3251 8206,3245 8209,3238 8214,3226 8218,3214 8218,3214 8223,3200 8228,3188 8230,3183 8233,3176 8238,3163 8242,3153 8243,3151 8248,3138 8253,3126 8254,3122 8258,3113 8263,3101 8266,3092 8267,3088 8273,3075 8277,3063 8278,3062 8282,3051 8287,3038 8290,3032 8292,3026 8297,3013 8302,3002 8302,3001 8307,2988 8312,2976 8314,2972 8317,2963 8323,2950 8326,2942 8327,2938 8333,2926 8338,2913 8338,2912 8343,2901 8348,2888 8350,2883 8353,2876 8358,2863 8362,2854 8363,2850 8368,2838 8373,2826 8374,2824 8379,2813 8384,2800 8386,2795 8389,2788 8394,2775 8398,2766 8399,2763 8405,2750 8410,2738 8410,2738 8415,2725 8420,2713 8422,2709 8426,2700 8431,2688 8434,2681 8436,2675 8442,2662 8446,2652 8447,2650 8452,2637 8457,2625 8458,2625 8463,2612 8468,2600 8470,2597 8474,2587 8479,2575 8482,2569 8484,2563 8490,2550 8494,2541 8495,2538 8501,2525 8506,2514 8506,2512 8512,2500 8517,2488 8518,2487 8523,2475 8528,2463 8530,2460 8534,2450 8540,2437 8542,2433 8545,2425 8551,2413 8554,2407 8557,2400 8562,2387 8566,2381 8568,2375 8574,2362 8578,2354 8580,2350 8585,2337 8590,2329 8591,2325 8597,2313 8601,2303 8603,2300 8609,2287 8613,2278 8615,2275 8621,2262 8625,2252 8627,2250 8633,2237 8637,2227 8639,2225 8645,2212 8649,2203 8651,2200 8657,2187 8661,2178 8663,2175 8669,2162 8673,2154 8675,2150 8682,2137 8685,2130 8688,2125 8694,2112 8697,2106 8701,2099 8707,2087 8709,2083 8714,2074 8720,2062 8721,2059 8726,2050 8733,2037 8733,2037 8740,2025 8745,2014 8746,2012 8753,2000 8757,1991 8760,1987 8766,1975 8769,1969 8773,1962 8780,1950 8781,1947 8787,1937 8793,1925 8794,1925 8801,1912 8805,1904 8808,1900 8815,1887 8817,1883 8822,1874 8829,1862 8837,1849 8841,1842 8844,1837 8851,1824 8853,1822 8859,1812 8865,1801 8866,1799 8874,1787 8877,1782 8882,1774 8889,1762 8890,1762 8898,1749 8901,1744 8905,1737 8913,1724 8921,1712 8925,1706 8930,1699 8937,1688 8938,1687 8946,1674 8949,1670 8955,1661 8961,1652 8963,1649 8972,1637 8973,1635 8981,1624 8985,1618 8990,1612 8997,1602 8999,1599 9008,1586 9009,1585 9017,1574 9021,1569 9027,1562 9033,1554 9037,1549 9045,1538 9046,1537 9056,1524 9057,1523 9057,1523 9057,1523 9066,1511 9069,1508 9077,1499 9081,1494 9087,1486 9093,1480 9098,1474 9105,1466 9109,1461 9117,1452 9120,1449 9129,1439 9131,1437 9141,1426 9143,1424 9153,1413 9155,1411 9165,1401 9167,1399 9177,1389 9180,1387 9189,1378 9192,1374 9201,1366 9206,1361 9213,1355 9220,1349 9225,1344 9234,1336 9237,1334 9249,1324 9261,1314 9264,1311 9273,1304 9280,1299 9285,1295 9297,1286 9309,1277 9314,1274 9321,1269 9332,1261 9333,1261 9345,1253 9351,1249 9356,1246 9368,1238 9372,1236 9381,1231 9393,1224 9394,1224 9404,1218 9417,1212 9417,1211 9428,1206 9441,1200 9443,1199 9453,1194 9465,1189 9472,1186 9476,1184 9488,1180 9500,1175 9504,1174 9512,1171 9524,1167 9536,1163 9541,1161 9548,1159 9561,1156 9572,1152 9584,1149 9587,1149 9596,1147 9608,1144 9621,1141 9632,1139 9644,1137 9650,1136 9656,1135 9668,1134 9680,1132 9692,1131 9704,1130 9716,1129 9728,1128 9740,1128 9752,1127 9764,1127 9776,1127 9788,1127 9800,1127 9812,1128 9824,1128 9836,1129 9848,1130 9860,1131 9872,1132 9884,1134 9896,1136 9900,1136 9908,1138 9920,1140 9932,1142 9944,1144 9955,1147 9963,1149 9968,1150 9980,1153 9992,1156 10004,1160 10009,1161 10016,1163 10028,1167 10040,1171 10046,1174 10052,1176 10064,1180 10076,1185 10078,1186 10088,1190 10099,1195 10107,1199 10112,1201 10124,1207 10133,1211 10135,1213 10148,1219 10156,1224 10159,1226 10172,1233 10178,1236 10183,1239 10196,1247 10199,1249 10208,1255 10218,1262 10219,1262 10231,1271 10236,1274 10243,1279 10254,1287 10255,1288 10267,1297 10270,1299 10279,1306 10286,1312 10291,1316 10301,1324 10303,1326 10315,1336 10316,1337 10327,1346 10330,1349 10339,1357 10344,1362 10351,1368 10357,1374 10363,1380 10370,1387 10375,1392 10383,1399 10387,1403 10395,1412 10399,1416 10407,1424 10411,1429 10419,1437 10423,1441 10430,1449 10435,1455 10441,1462 10447,1468 10452,1474 10459,1482 10463,1487 10471,1497 10473,1499 10483,1511 10484,1512 10494,1524 10495,1526 10504,1537 10507,1541 10514,1550 10519,1557 10523,1562 10531,1573 10532,1575 10542,1587 10543,1588 10551,1600 10555,1605 10560,1612 10567,1621 10569,1625 10578,1637 10579,1638 10587,1650 10591,1656 10595,1662 10603,1674 10604,1675 10612,1687 10615,1691 10620,1700 10627,1710 10628,1712 10636,1725 10639,1728 10645,1738 10650,1747 10652,1750 10660,1762 10663,1766 10668,1775 10675,1786 10675,1787 10683,1800 10686,1805 10691,1812 10698,1825 10699,1826 10706,1837 10710,1846 10713,1850 10720,1863 10722,1866 10727,1875 10735,1888 10742,1900 10746,1908 10749,1912 10756,1925 10758,1930 10763,1938 10770,1950 10770,1951 10776,1962 10782,1973 10783,1975 10790,1987 10794,1996 10797,2000 10803,2012 10806,2018 10810,2025 10816,2037 10818,2041 10823,2050 10830,2063 10830,2064 10836,2075 10842,2088 10849,2100 10854,2111 10855,2112 10862,2126 10866,2135 10868,2138 10874,2150 10878,2159 10880,2162 10887,2176 10890,2183 10892,2188 10899,2201 10902,2208 10905,2213 10911,2225 10914,2232 10917,2238 10923,2250 10926,2257 10929,2263 10935,2275 10938,2283 10941,2288 10947,2300 10950,2308 10952,2313 10958,2325 10962,2334 10964,2338 10970,2350 10974,2360 10975,2363 10981,2376 10986,2386 10987,2388 10993,2400 10998,2412 10998,2413 11004,2426 11010,2438 11010,2439 11015,2451 11021,2463 11022,2466 11026,2476 11032,2488 11034,2493 11037,2500 11043,2513 11046,2520 11048,2525 11054,2538 11058,2547 11059,2550 11065,2563 11070,2575 11070,2575 11076,2588 11081,2601 11082,2602 11087,2614 11092,2626 11094,2630 11097,2638 11103,2651 11106,2658 11108,2663 11113,2676 11118,2687 11118,2688 11124,2701 11129,2713 11130,2715 11134,2726 11140,2738 11142,2744 11145,2751 11150,2764 11154,2773 11155,2776 11160,2789 11166,2801 11166,2801 11171,2814 11176,2826 11178,2830 11181,2839 11186,2851 11190,2860 11191,2863 11196,2876 11202,2889 11202,2889 11207,2901 11212,2913 11214,2919 11217,2926 11222,2938 11226,2948 11227,2951 11232,2963 11237,2977 11238,2979 11242,2988 11247,3001 11250,3008 11252,3014 11257,3026 11262,3038 11262,3039 11267,3051 11272,3064 11274,3068 11277,3076 11282,3089 11286,3099 11287,3101 11292,3114 11297,3126 11298,3129 11302,3139 11306,3151 11310,3160 11311,3164 11316,3176 11321,3189 11322,3190 11326,3202 11331,3214 11334,3221 11336,3226 11341,3239 11345,3251 11346,3252 11350,3264 11355,3277 11358,3282 11360,3289 11365,3302 11370,3314 11374,3326 11379,3339 11381,3344 11384,3351 11389,3364 11393,3375 11394,3377 11399,3389 11404,3402 11405,3407 11408,3414 11413,3426 11418,3438 11418,3439 11423,3452 11427,3464 11429,3469 11432,3477 11437,3489 11441,3501 11442,3502 11446,3514 11451,3527 11453,3532 11456,3539 11461,3552 11465,3564 11470,3577 11475,3589 11477,3595 11480,3602 11484,3614 11489,3627 11494,3639 11499,3652 11501,3659 11503,3664 11508,3677 11513,3690 11513,3690 11518,3702 11522,3714 11525,3722 11527,3727 11532,3739 11537,3752 11537,3754 11541,3765 11546,3777 11549,3785 11551,3789 11556,3802 11560,3814 11561,3817 11565,3827 11570,3840 11573,3849 11574,3852 11579,3865 11584,3877 11585,3881 11589,3890 11593,3902 11597,3913 11598,3915 11603,3927 11607,3940 11609,3945 11612,3952 11617,3965 11621,3976 11621,3977 11626,3990 11631,4002 11633,4008 11636,4015 11640,4027 11645,4040 11650,4052 11654,4065 11657,4072 11659,4077 11664,4090 11668,4102 11669,4104 11673,4115 11678,4128 11681,4136 11683,4140 11687,4152 11692,4165 11693,4167 11697,4177 11702,4190 11705,4199 11706,4202 11711,4215 11716,4228 11717,4231 11721,4240 11725,4252 11729,4262 11730,4265 11735,4277 11739,4290 11741,4294 11744,4303 11749,4315 11753,4326 11754,4327 11758,4340 11763,4353 11765,4357 11768,4365 11773,4378 11777,4389 11778,4390 11782,4403 11787,4415 11789,4420 11792,4428 11797,4440 11801,4452 11801,4453 11806,4465 11811,4478 11813,4483 11816,4490 11820,4502 11825,4514 11825,4514 11830,4527 11835,4539 11837,4545 11839,4552 11844,4564 11849,4576 11849,4577 11854,4590 11859,4602 11861,4607 11864,4614 11869,4627 11873,4638 11873,4639 11878,4652 11883,4665 11885,4669 11888,4677 11893,4690 11897,4700 11897,4702 11902,4715 11907,4727 11909,4731 11912,4740 11917,4752 11921,4761 11922,4765 11927,4777 11932,4789 11933,4792 11937,4802 11942,4815 11945,4823 11946,4827 11951,4840 11956,4852 11957,4853 11961,4864 11966,4877 11969,4883 11971,4890 11976,4902 11981,4914 11981,4914 11986,4928 11991,4939 11993,4944 11996,4952 12001,4965 12005,4974 12006,4977 12011,4990 12016,5002 12017,5004 12021,5015 12026,5027 12029,5034 12031,5040 12036,5053 12041,5064 12041,5065 12046,5077 12051,5090 12052,5093 12056,5102 12061,5115 12065,5123 12066,5127 12072,5140 12077,5153 12082,5165 12087,5177 12088,5181 12092,5190 12097,5202 12100,5211 12102,5215 12108,5228 12112,5240 12113,5240 12118,5253 12123,5265 12124,5269 12128,5278 12133,5290 12136,5297 12139,5302 12144,5315 12148,5326 12149,5327 12154,5340 12160,5353 12160,5354 12165,5365 12170,5378 12172,5383 12175,5390 12181,5403 12184,5411 12186,5415 12191,5428 12196,5439 12197,5440 12202,5453 12207,5465 12208,5467 12213,5478 12218,5490 12220,5495 12224,5503 12229,5515 12232,5523 12234,5528 12240,5541 12244,5550 12245,5553 12251,5566 12256,5578 12262,5590 12267,5603 12268,5605 12273,5615 12279,5628 12280,5632 12284,5640 12290,5653 12292,5659 12295,5666 12301,5678 12304,5685 12306,5691 12312,5703 12316,5712 12318,5716 12323,5728 12328,5739 12329,5740 12335,5753 12340,5765 12340,5766 12346,5778 12352,5791 12352,5791 12358,5803 12363,5816 12364,5817 12369,5828 12375,5841 12376,5843 12381,5853 12387,5866 12388,5868 12393,5878 12399,5891 12400,5894 12404,5903 12410,5916 12412,5919 12416,5928 12422,5941 12424,5944 12428,5953 12434,5966 12436,5969 12440,5979 12446,5991 12448,5994 12452,6003 12459,6016 12460,6019 12465,6028 12471,6041 12472,6043 12477,6053 12483,6066 12484,6067 12489,6078 12496,6091 12496,6091 12496,6091 12496,6091 12502,6104 12508,6115 12508,6116 12514,6128 12520,6139 12521,6141 12527,6154 12532,6163 12533,6166 12540,6179 12544,6186 12546,6191 12553,6204 12556,6209 12559,6216 12566,6229 12568,6232 12572,6241 12579,6254 12580,6255 12586,6266 12592,6278 12592,6279 12592,6278 12592,6279 12599,6291 12604,6300 12605,6304 12612,6316 12616,6323 12619,6329 12626,6341 12628,6345 12632,6354 12639,6366 12640,6367 12640,6367 12640,6367 12646,6379 12652,6389 12653,6391 12660,6404 12664,6410 12667,6416 12674,6429 12676,6432 12681,6441 12688,6453 12688,6454 12695,6466 12700,6474 12702,6479 12710,6491 12712,6495"/>
 <text class="TextShape"><tspan class="TextParagraph" font-family="Liberation Sans, sans-serif" font-size="353px" font-weight="400"><tspan class="TextPosition" x="861" y="8745"><tspan fill="rgb(0,0,0)" stroke="none">0</tspan></tspan></tspan></text>
 <text class="TextShape"><tspan class="TextParagraph" font-family="Liberation Sans, sans-serif" font-size="353px" font-weight="400"><tspan class="TextPosition" x="1891" y="8745"><tspan fill="rgb(0,0,0)" stroke="none">0.1</tspan></tspan></tspan></text>
 <text class="TextShape"><tspan class="TextParagraph" font-family="Liberation Sans, sans-serif" font-size="353px" font-weight="400"><tspan class="TextPosition" x="3067" y="8745"><tspan fill="rgb(0,0,0)" stroke="none">0.2</tspan></tspan></tspan></text>
 <text class="TextShape"><tspan class="TextParagraph" font-family="Liberation Sans, sans-serif" font-size="353px" font-weight="400"><tspan class="TextPosition" x="4242" y="8745"><tspan fill="rgb(0,0,0)" stroke="none">0.3</tspan></tspan></tspan></text>
 <text class="TextShape"><tspan class="TextParagraph" font-family="Liberation Sans, sans-serif" font-size="353px" font-weight="400"><tspan class="TextPosition" x="5418" y="8745"><tspan fill="rgb(0,0,0)" stroke="none">0.4</tspan></tspan></tspan></text>
 <text class="TextShape"><tspan class="TextParagraph" font-family="Liberation Sans, sans-serif" font-size="353px" font-weight="400"><tspan class="TextPosition" x="6593" y="8745"><tspan fill="rgb(0,0,0)" stroke="none">0.5</tspan></tspan></tspan></text>
 <text class="TextShape"><tspan class="TextParagraph" font-family="Liberation Sans, sans-serif" font-size="353px" font-weight="400"><tspan class="TextPosition" x="7769" y="8745"><tspan fill="rgb(0,0,0)" stroke="none">0.6</tspan></tspan></tspan></text>
 <text class="TextShape"><tspan class="TextParagraph" font-family="Liberation Sans, sans-serif" font-size="353px" font-weight="400"><tspan class="TextPosition" x="8944" y="8745"><tspan fill="rgb(0,0,0)" stroke="none">0.7</tspan></tspan></tspan></text>
 <text class="TextShape"><tspan class="TextParagraph" font-family="Liberation Sans, sans-serif" font-size="353px" font-weight="400"><tspan class="TextPosition" x="10120" y="8745"><tspan fill="rgb(0,0,0)" stroke="none">0.8</tspan></tspan></tspan></text>
 <text class="TextShape"><tspan class="TextParagraph" font-family="Liberation Sans, sans-serif" font-size="353px" font-weight="400"><tspan class="TextPosition" x="11295" y="8745"><tspan fill="rgb(0,0,0)" stroke="none">0.9</tspan></tspan></tspan></text>
 <text class="TextShape"><tspan class="TextParagraph" font-family="Liberation Sans, sans-serif" font-size="353px" font-weight="400"><tspan class="TextPosition" x="12616" y="8745"><tspan fill="rgb(0,0,0)" stroke="none">1</tspan></tspan></tspan></text>
 <text class="TextShape"><tspan class="TextParagraph" font-family="Liberation Sans, sans-serif" font-size="353px" font-weight="400"><tspan class="TextPosition" x="514" y="8290"><tspan fill="rgb(0,0,0)" stroke="none">0</tspan></tspan></tspan></text>
 <text class="TextShape"><tspan class="TextParagraph" font-family="Liberation Sans, sans-serif" font-size="353px" font-weight="400"><tspan class="TextPosition" x="321" y="6994"><tspan fill="rgb(0,0,0)" stroke="none">20</tspan></tspan></tspan></text>
 <text class="TextShape"><tspan class="TextParagraph" font-family="Liberation Sans, sans-serif" font-size="353px" font-weight="400"><tspan class="TextPosition" x="321" y="5699"><tspan fill="rgb(0,0,0)" stroke="none">40</tspan></tspan></tspan></text>
 <text class="TextShape"><tspan class="TextParagraph" font-family="Liberation Sans, sans-serif" font-size="353px" font-weight="400"><tspan class="TextPosition" x="321" y="4404"><tspan fill="rgb(0,0,0)" stroke="none">60</tspan></tspan></tspan></text>
 <text class="TextShape"><tspan class="TextParagraph" font-family="Liberation Sans, sans-serif" font-size="353px" font-weight="400"><tspan class="TextPosition" x="321" y="3109"><tspan fill="rgb(0,0,0)" stroke="none">80</tspan></tspan></tspan></text>
 <text class="TextShape"><tspan class="TextParagraph" font-family="Liberation Sans, sans-serif" font-size="353px" font-weight="400"><tspan class="TextPosition" x="127" y="1814"><tspan fill="rgb(0,0,0)" stroke="none">100</tspan></tspan></tspan></text>
 <text class="TextShape"><tspan class="TextParagraph" font-family="Liberation Sans, sans-serif" font-size="353px" font-weight="400"><tspan class="TextPosition" x="127" y="519"><tspan fill="rgb(0,0,0)" stroke="none">120</tspan></tspan></tspan></text>
 <path fill="none" stroke="rgb(0,69,134)" stroke-width="80" stroke-linejoin="round" d="M 13441,4499 L 14241,4499"/>
 <text class="TextShape"><tspan class="TextParagraph" font-family="Liberation Sans, sans-serif" font-size="353px" font-weight="400"><tspan class="TextPosition" x="14341" y="4631"><tspan fill="rgb(0,0,0)" stroke="none">Spalte B</tspan></tspan></tspan></text>
</svg>