X,Y,surf vx,surf vy,tau integr.,tau dir.,P integr.,P dir.,
0.0,1000.0,30.0795715646,7.09425615811,76510.0025523,66742.1899287,8457075.5367,8457075.5367
160.0,1012.56504772,28.9648962943,6.81406539295,80151.0200725,72773.6535867,8797194.64303,8797194.64303
320.0,1025.12215909,27.8318176267,6.65880607028,76748.9690512,88929.3941118,8489347.61068,8489347.61068
480.0,1037.66340276,26.7015605186,6.40292356526,77412.6145209,80732.8639061,8043605.15128,8043605.15128
640.0,1050.18085743,25.5779840114,6.29853055809,74031.9518297,69052.4406396,7511147.87204,7511147.87204
800.0,1062.66661678,24.5184961521,6.06412429753,72249.2246261,63158.3632976,7709090.32686,7709090.32686
960.0,1075.11279456,23.4956312043,5.92315166546,74078.3247762,59677.2642801,7997819.01257,7997819.01257
1120.0,1087.51152949,22.5244085762,5.61346410971,74966.3226967,94156.8972887,7924673.50836,7924673.50836
1280.0,1099.85499026,21.5344966807,5.42345748045,68342.7415915,83007.1822514,7615331.23003,7615331.23003
1440.0,1112.13538047,20.5677367201,5.11844142211,73449.0540626,72992.2547642,7350183.801,7350183.801
1600.0,1124.34494358,19.5957787726,4.94975064417,68736.8588983,70996.7734997,7215580.99484,7215580.99484
1760.0,1136.47596776,18.6687076029,4.65719353754,68877.8668751,64758.2386005,7331135.50341,7331135.50341
1920.0,1148.52079079,17.755255643,4.48362223781,68156.795581,75372.5841554,7424707.0787,7424707.0787
2080.0,1160.4718049,16.8937369008,4.18978708732,65575.9141474,70660.2157254,7029977.12591,7029977.12591
2240.0,1172.32146159,16.027426723,4.00566883356,67955.1294655,66642.6268069,6746328.1727,6746328.1727
2400.0,1184.06227634,15.2048501001,3.73692308854,64371.6917804,68450.2695619,6708064.62246,6708064.62246
2560.0,1195.68683342,14.3817385372,3.56978706364,65114.2460077,63698.7062097,6926480.27559,6926480.27559
2720.0,1207.1877905,13.6105457007,3.34395946436,63673.4253783,66720.9059182,6728266.32317,6728266.32317
2880.0,1218.55788333,12.8543619979,3.19288005981,62440.7857855,61229.2840861,6484406.33525,6484406.33525
3040.0,1229.78993031,12.1598298656,2.99043124717,61823.1185816,65465.7634461,6154892.72506,6154892.72506
3200.0,1240.87683705,11.4926689498,2.8262220138,59710.8693681,61569.3217309,6315678.12762,6315678.12762
3360.0,1251.81160082,10.8629186971,2.62282201557,61819.4520031,59951.1615181,6482660.99668,6482660.99668
3520.0,1262.58731498,10.2549878605,2.45792126492,57582.5502396,63512.3883659,6179429.12417,6179429.12417
3680.0,1273.19717337,9.66968236665,2.26722244692,59535.896522,58609.4008618,5899179.31672,5899179.31672
3840.0,1283.63447456,9.11703315215,2.12299125074,56202.8152503,59009.1252834,5855790.35718,5855790.35718
4000.0,1293.89262615,8.59238264766,1.93592505405,57418.1023468,55010.8484271,6023767.29102,6023767.29102
4160.0,1303.96514885,8.08718642924,1.80689289501,55000.0678192,60928.7754123,5853560.77417,5853560.77417
4320.0,1313.84568065,7.6004415647,1.64885531538,56404.9318573,58028.3122599,5535468.26794,5535468.26794
4480.0,1323.52798078,7.13489869637,1.56822255736,52905.4363766,52385.3381267,5539236.82634,5539236.82634
4640.0,1333.00593372,6.71764613222,1.44135277824,53731.6119985,55085.0198737,5543318.65819,5543318.65819
4800.0,1342.27355296,6.31988396039,1.36581224998,51842.5819649,51954.6824273,5489325.22705,5489325.22705
4960.0,1351.3249849,5.96405290552,1.25159737273,52845.3427588,54378.9192522,5146897.67436,5146897.67436
5120.0,1360.15451244,5.62258556919,1.16811945774,50811.9963419,49713.0769617,5287392.15962,5287392.15962
5280.0,1368.75655868,5.31255546466,1.06085337389,51201.0314566,54621.453417,5247116.16674,5247116.16674
5440.0,1377.12569037,5.00013312776,0.983120148892,50494.7865299,52205.1718051,5042381.03849,5042381.03849
5600.0,1385.25662139,4.71265671367,0.911025779736,47560.6944146,47470.5189475,4981576.56403,4981576.56403
5760.0,1393.14421607,4.45017795406,0.848503802687,48700.8373936,50335.6637322,5029266.60589,5029266.60589
5920.0,1400.78349244,4.21762161104,0.773492488358,47185.4796811,46436.2175289,4915862.28265,4915862.28265
6080.0,1408.16962536,4.00111326404,0.698032209707,47586.071458,50179.7825514,4677899.95781,4677899.95781
6240.0,1415.2979496,3.79435405336,0.619134608727,47743.7950305,48321.6095466,4868465.02914,4868465.02914
6400.0,1422.16396275,3.58055988837,0.566619132154,45648.3514811,47457.0866421,4729378.42678,4729378.42678
6560.0,1428.7633281,3.39760216981,0.527513114573,43159.5379842,42739.1138715,4455237.51622,4455237.51622
6720.0,1435.09187733,3.2323204784,0.480281552018,44905.0900952,45124.5130166,4582012.20735,4582012.20735
6880.0,1441.14561322,3.08728534799,0.443373950399,44470.4939631,46607.6875676,4564171.51639,4564171.51639
7040.0,1446.92071208,2.94725977406,0.399084996883,42105.7043042,41016.6156773,4468480.97821,4468480.97821
7200.0,1452.41352623,2.83887537893,0.36392066234,44206.2885315,44829.9988238,4543152.7215,4543152.7215
7360.0,1457.62058631,2.72769725071,0.297754323639,43826.4554051,45034.8215768,4399242.61697,4399242.61697
7520.0,1462.53860342,2.62060705211,0.274036916883,42461.6036072,43357.947386,4323720.01665,4323720.01665
7680.0,1467.16447123,2.51818208531,0.232870430919,41454.0367051,43707.367269,4205809.3816,4205809.3816
7840.0,1471.49526795,2.43283428308,0.233697168453,39569.7744332,35839.6407899,4006078.32698,4006078.32698
8000.0,1475.52825815,2.37353711965,0.193948842887,41964.9303255,42648.5483582,4092002.10371,4092002.10371
8160.0,1479.26089451,2.31789314867,0.165699471768,42041.5831613,42649.9708868,4177664.50439,4177664.50439
8320.0,1482.69081942,2.26609160154,0.123533415689,41277.9473534,42177.079945,4221665.37064,4221665.37064
8480.0,1485.81586646,2.2161578452,0.102149465545,40512.4044847,41133.6976891,4267910.53101,4267910.53101
8640.0,1488.63406178,2.17656243876,0.0759885603831,40041.5006974,41438.3148142,4270908.30451,4270908.30451
8800.0,1491.14362536,2.14367333292,0.0632199339287,39625.5478706,38697.1745192,4256619.83228,4256619.83228
8960.0,1493.3429721,2.11730569942,0.0481568983254,39330.7631151,38063.4892886,4186890.69796,4186890.69796
9120.0,1495.23071285,2.09457722452,0.0394049968549,39065.2946672,38491.1869965,4124604.81277,4124604.81277
9280.0,1496.80565526,2.07693273315,0.0298411403993,38870.6457446,37878.5946367,4093475.16289,4093475.16289
9440.0,1498.06680457,2.06267001846,0.0221857227766,38705.9367009,38368.3722171,4053923.70337,4053923.70337
9600.0,1499.01336421,2.05251078456,0.0149883741013,38593.7676805,37791.0014096,4043945.34406,4043945.34406
9760.0,1499.64473632,2.04555999169,0.00759201179439,38512.9319517,38306.0121683,4024985.0924,4024985.0924
9920.0,1499.9605221,2.04208946746,0.00117160971332,38475.4812006,37755.1129089,4026064.27982,4026064.27982
10080.0,1499.9605221,2.04195837517,-0.00641517220168,38464.2149337,38255.1256918,4018642.64137,4018642.64137
10240.0,1499.64473632,2.04494145917,-0.0126950900807,38509.3866354,37769.0433365,4027848.50126,4027848.50126
10400.0,1499.01336421,2.0514104271,-0.0204763689577,38580.9855844,38313.4911099,4016565.98521,4016565.98521
10560.0,1498.06680457,2.06120585276,-0.0267992126793,38704.297362,37827.2793181,4037754.73053,4037754.73053
10720.0,1496.80565526,2.07505764358,-0.0353611088499,38854.2140252,38400.7737666,4000124.87561,4000124.87561
10880.0,1495.23071285,2.0928274598,-0.0430536914961,39065.0126592,37969.4146883,4043796.51929,4043796.51929
11040.0,1493.3429721,2.11501557594,-0.054159064048,39303.407261,38558.2926293,3950154.88916,3950154.88916
11200.0,1491.14362536,2.1417777155,-0.0658588783524,39632.3954174,38193.5840524,4032828.17522,4032828.17522
11360.0,1488.63406178,2.17410152199,-0.0833348627563,40016.9884194,40821.1632962,3932675.80751,3932675.80751
11520.0,1485.81586646,2.21556434074,-0.103440005922,40535.7245437,41703.7489421,4091117.47137,4091117.47137
11680.0,1482.69081942,2.26468272487,-0.132513573781,41234.9343317,41574.8942923,4111512.32855,4111512.32855
11840.0,1479.26089451,2.31833782206,-0.165631980226,42074.6556538,43428.7267493,4225393.78481,4225393.78481
12000.0,1475.52825815,2.37364142923,-0.203423750988,41786.8074713,41319.2836526,4418805.51544,4418805.51544
12160.0,1471.49526795,2.43506567036,-0.230033147074,39663.8391346,36723.2414205,4411378.54159,4411378.54159
12320.0,1467.16447123,2.5226713103,-0.243156495717,41461.1155743,44272.3802869,4476206.1306,4476206.1306
12480.0,1462.53860342,2.62603765826,-0.270835195123,42488.0936889,42915.6549608,4361280.83915,4361280.83915
12640.0,1457.62058631,2.73712781152,-0.308019856055,43890.6494473,45817.607974,4362194.52976,4362194.52976
12800.0,1452.41352623,2.84841376729,-0.362856877385,44065.2161447,43630.9464783,4509009.0953,4509009.0953
12960.0,1446.92071208,2.96322391141,-0.408178893782,42265.0587664,41295.0229571,4435601.15814,4435601.15814
13120.0,1441.14561322,3.10222304474,-0.446709967037,44539.7591663,47234.9594176,4547558.63365,4547558.63365
13280.0,1435.09187733,3.25440180085,-0.489838908492,45024.7289694,44205.1456713,4690263.4561,4690263.4561
13440.0,1428.7633281,3.41403925661,-0.53980929757,43523.0137258,42836.0897317,4675589.17362,4675589.17362
13600.0,1422.16396275,3.59686326125,-0.578846201996,46060.6939693,49312.2936343,4727102.23938,4727102.23938
13760.0,1415.2979496,3.79385285422,-0.636856301838,46693.757504,46156.3478941,4817855.39179,4817855.39179
13920.0,1408.16962536,3.99765374824,-0.692155542988,45275.2197984,44182.7434013,4840853.08115,4840853.08115
14080.0,1400.78349244,4.22787237803,-0.750292193131,48017.7233915,50905.9848905,4906640.02431,4906640.02431
14240.0,1393.14421607,4.47766282174,-0.812674152579,48885.8971343,47888.3232262,5039320.06242,5039320.06242
14400.0,1385.25662139,4.73740268449,-0.894479183862,47598.3132405,46333.6194769,5054969.90415,5054969.90415
14560.0,1377.12569037,5.02430101109,-0.962878447189,50685.8823146,53456.7357172,5135653.31724,5135653.31724
14720.0,1368.75655868,5.32999445774,-1.06012194916,51280.4165248,54430.1354725,5250287.86706,5250287.86706
14880.0,1360.15451244,5.6405431387,-1.15525346149,50861.6446167,49975.1591932,5264753.05014,5264753.05014
15040.0,1351.3249849,5.97587684004,-1.25760674558,52950.5226488,54156.0753648,5406165.29801,5406165.29801
15200.0,1342.27355296,6.33156202075,-1.35514539585,51898.5867528,52782.4791854,5409521.92716,5409521.92716
15360.0,1333.00593372,6.72400451467,-1.45184091748,53782.5306987,54502.3551137,5599895.25524,5599895.25524
15520.0,1323.52798078,7.1406730307,-1.55814756325,52915.2588932,52355.3272435,5605258.33821,5605258.33821
15680.0,1313.84568065,7.59934997537,-1.66277587008,56383.3127661,58448.3465989,5702459.16399,5702459.16399
15840.0,1303.96514885,8.08484376764,-1.79640702068,55054.013412,60555.7597315,5760679.50691,5760679.50691
16000.0,1293.89262615,8.57985305704,-1.95144974984,57495.1264298,55780.6337781,5819532.3862,5819532.3862
16160.0,1283.63447456,9.09826886771,-2.11112193426,56377.4326333,59091.8156694,6003192.41609,6003192.41609
16320.0,1273.19717337,9.6339291472,-2.28486592875,59766.3701552,59437.6249779,6021406.94578,6021406.94578
16480.0,1262.58731498,10.1992392504,-2.4452012341,58127.746319,63555.5848396,6153426.05429,6153426.05429
16640.0,1251.81160082,10.7833703173,-2.6299690171,60636.8471268,58648.6357332,6194667.78847,6194667.78847
16800.0,1240.87683705,11.3949770783,-2.78466986806,59926.0465466,57126.6052474,6358036.77529,6358036.77529
16960.0,1229.78993031,12.0612616265,-2.94442760636,62808.3408037,62970.2348137,6597944.89756,6597944.89756
17120.0,1218.55788333,12.7605822675,-3.09882189493,62666.6495917,63033.1623137,6521613.77073,6521613.77073
17280.0,1207.1877905,13.5050750992,-3.27334855721,63571.7523611,65572.1898836,6640732.23758,6640732.23758
17440.0,1195.68683342,14.2618013715,-3.46825460147,65049.645023,64470.2755285,6684363.5445,6684363.5445
17600.0,1184.06227634,15.0614093535,-3.66234267239,64123.9277281,67121.941597,6914471.49058,6914471.49058
17760.0,1172.32146159,15.8705142197,-3.89202854079,67943.538814,67434.5479783,6936622.50393,6936622.50393
17920.0,1160.4718049,16.7173898914,-4.10377216273,64876.1025281,71873.9790755,7062100.4535,7062100.4535
18080.0,1148.52079079,17.5691637073,-4.35776931517,68043.5483922,76520.4420157,7070409.45578,7070409.45578
18240.0,1136.47596776,18.4519473217,-4.57021428623,68519.6137913,64760.7344653,7253684.82497,7253684.82497
18400.0,1124.34494358,19.3719389354,-4.80632767208,68445.8556432,71034.1460685,7471199.98186,7471199.98186
18560.0,1112.13538047,20.3300441406,-5.00750509267,72350.6674853,72016.7930922,7502280.42911,7502280.42911
18720.0,1099.85499026,21.3082993441,-5.25507534783,68836.4553582,76634.1816796,7585670.35852,7585670.35852
18880.0,1087.51152949,22.3006525483,-5.48174021022,72059.334191,81225.6945796,7598505.30345,7598505.30345
19040.0,1075.11279456,23.3001162619,-5.74205774152,73548.3959984,69732.4862859,7742435.89923,7742435.89923
19200.0,1062.66661678,24.3304845145,-5.95192574402,72441.3944358,78725.2657998,8010354.52617,8010354.52617
19360.0,1050.18085743,25.3854813762,-6.19242342004,75503.0833827,83745.1524706,8126281.53342,8126281.53342
19520.0,1037.66340276,26.4583795284,-6.39268153648,74948.8940364,71102.0873596,8206839.82002,8206839.82002
19680.0,1025.12215909,27.5625618535,-6.61470324991,75314.1290903,77642.3416865,8292162.62811,8292162.62811
19840.0,1012.56504772,28.6891622265,-6.8036778096,78979.0763226,78717.7481287,8195281.14882,8195281.14882
20000.0,1000.0,29.8302308033,-7.03099703006,75150.0493189,83587.1810716,8470681.17679,8470681.17679
20160.0,987.434952278,30.9660467179,-7.24003718614,78410.2218837,88419.2319513,8654223.42622,8654223.42622
20320.0,974.87784091,32.0978675688,-7.47437425224,79930.0916979,75702.7894583,8739278.24702,8739278.24702
20480.0,962.336597236,33.2412152483,-7.66430621701,78323.3371208,85286.3891177,8854613.01994,8854613.01994
20640.0,949.819142574,34.3957234011,-7.86393085088,81451.2152084,90491.7149285,8846703.93533,8846703.93533
20800.0,937.333383218,35.5583069978,-8.02802442134,80936.1493955,76635.6633432,9028094.3546,9028094.3546
20960.0,924.88720544,36.7323034416,-8.193520233,80969.3530962,83562.7104793,9272803.6072,9272803.6072
21120.0,912.488470512,37.916982186,-8.33351367344,84839.3878572,84662.7324584,9274804.13587,9274804.13587
21280.0,900.145009743,39.1026641147,-8.48323201288,80547.3022677,89697.2513972,9374378.32678,9374378.32678
21440.0,887.864619525,40.2773552637,-8.62552832417,83902.6807892,94742.3149789,9371136.35442,9371136.35442
21600.0,875.655056418,41.4335278511,-8.76970696192,84620.4881678,79656.7113054,9551144.22702,9551144.22702
21760.0,863.524032241,42.5882132488,-8.88663760912,83409.8525846,86969.7351753,9810996.50201,9810996.50201
21920.0,851.479209211,43.7389320257,-8.99167584145,88345.1011165,87966.1070001,9852753.53016,9852753.53016
22080.0,839.528195096,44.8809342182,-9.08373841582,83126.3969559,92973.1116175,9917418.46255,9917418.46255
22240.0,827.678538413,46.001235847,-9.1711027449,86844.173762,98251.0577477,9878139.89785,9878139.89785
22400.0,815.937723658,47.0961696993,-9.249678504,87470.6918563,82256.4801776,10070624.7547,10070624.7547
22560.0,804.313166581,48.1765145221,-9.29478011466,86724.4239402,89911.0340218,10379105.9049,10379105.9049
22720.0,792.812209503,49.2445482266,-9.32912335371,90858.3710699,90665.3438046,10394014.8991,10394014.8991
22880.0,781.442116675,50.295226621,-9.33222259757,86883.8839804,95872.4431258,10429931.9937,10429931.9937
23040.0,770.210069689,51.3221069141,-9.33816453559,90765.3178933,100884.456584,10338527.3523,10338527.3523
23200.0,759.123162949,52.3177865349,-9.31031460633,89253.9721534,84507.604897,10639735.4035,10639735.4035
23360.0,748.188399182,53.2984124813,-9.27097618647,91177.8814754,92046.0804358,11029300.1235,11029300.1235
23520.0,737.412685019,54.2623218911,-9.19187827871,91509.0732501,91659.3280686,10856399.9927,10856399.9927
23680.0,726.802826633,55.2148178687,-9.10683367499,91350.7631613,94062.3843923,10833817.5546,10833817.5546
23840.0,716.365525437,56.1363377242,-9.00538966459,92788.7450339,92253.678135,10906594.2532,10906594.2532
24000.0,706.107373854,57.0336079124,-8.90052684109,91800.066882,94662.9215975,11338530.9442,11338530.9442
24160.0,696.034851153,57.8898355606,-8.79066378875,93716.2133072,93176.5289743,11242886.8083,11242886.8083
24320.0,686.154319355,58.7192662591,-8.66383905585,92584.4498423,95446.5698211,11212712.9713,11212712.9713
24480.0,676.472019215,59.5059203008,-8.53640402181,94383.3088947,94085.5405103,11259736.3913,11259736.3913
24640.0,666.994066283,60.2645762025,-8.38070207013,93867.2473199,96185.3698277,11738679.1915,11738679.1915
24800.0,657.726447036,60.982412398,-8.22926126928,94641.0474693,94240.227635,11549612.0058,11549612.0058
24960.0,648.675015101,61.6737612042,-8.03870120016,95466.0444348,96317.8167777,11505099.7128,11505099.7128
25120.0,639.845487556,62.3289203536,-7.85647402059,94450.2497273,94922.7791324,11654846.6045,11654846.6045
25280.0,631.243441321,62.9591042829,-7.63076113383,96418.1042171,98132.835477,12200215.8214,12200215.8214
25440.0,622.874309632,63.5584900972,-7.41851799635,93711.767673,92389.1348986,11789960.2373,11789960.2373
25600.0,614.743378612,64.1319533857,-7.16832705194,97993.0771725,101508.457791,11805448.4431,11805448.4431
25760.0,606.855783932,64.6743733282,-6.93932820754,96497.8828871,103498.01888,12130497.4654,12130497.4654
25920.0,599.216507565,65.1794507086,-6.68518688323,95979.619793,94178.5302042,12089421.5605,12089421.5605
26080.0,591.830374641,65.6459020635,-6.449255884,97798.6239962,100506.778354,12128430.9476,12128430.9476
26240.0,584.702050402,66.078307889,-6.18626135422,94414.2173688,93311.0519916,12297565.3766,12297565.3766
26400.0,577.836037249,66.4819315213,-5.92843033616,98343.9317195,102337.914793,12310056.496,12310056.496
26560.0,571.236671903,66.8585221616,-5.64783612364,98917.2964074,97593.6428297,12169807.6957,12169807.6957
26720.0,564.908122665,67.2068085144,-5.37720972702,95000.5820477,91989.1050384,12461604.0759,12461604.0759
26880.0,558.854386783,67.5248307302,-5.09320969107,98823.8325703,104114.904369,12491654.7451,12491654.7451
27040.0,553.079287924,67.8160485854,-4.81532494229,98857.8142783,97861.9670472,12422955.0517,12422955.0517
27200.0,547.586473767,68.0780780649,-4.53072263061,94403.688563,91273.7942174,12832972.6586,12832972.6586
27360.0,542.37941369,68.3159075047,-4.24894339823,98131.2335549,101795.564347,12533567.9383,12533567.9383
27520.0,537.461396583,68.5271384654,-3.96595683644,100127.349287,100864.251104,12504159.1457,12504159.1457
27680.0,532.835528772,68.7130712976,-3.68737440111,99835.7183606,100237.690002,12910976.4149,12910976.4149
27840.0,528.504732054,68.8706510341,-3.41102012145,94978.2278907,93705.7267112,12451492.0821,12451492.0821
28000.0,524.471741852,69.0059070294,-3.13066861887,98354.7886514,102051.41245,12782414.5908,12782414.5908
28160.0,520.739105491,69.1221792314,-2.84972771057,99767.7528305,101754.812058,12744782.2302,12744782.2302
28320.0,517.309180583,69.2220407734,-2.5641378757,98973.3895929,100273.569952,12814342.7422,12814342.7422
28480.0,514.184133543,69.306285255,-2.28080990274,94039.2465466,89421.3544682,13136078.4667,13136078.4667
28640.0,511.365938216,69.3808400059,-1.99254581476,96606.9780148,96937.8398221,12770879.7269,12770879.7269
28800.0,508.856374636,69.4480308199,-1.71210909075,96976.1042534,96983.5322388,13247591.5907,13247591.5907
28960.0,506.657027896,69.5061857548,-1.43987873457,97899.7719646,99415.239014,12810456.1995,12810456.1995
29120.0,504.769287152,69.5535366266,-1.18637243785,98367.0846544,98922.4514877,13077668.3658,13077668.3658
29280.0,503.19434474,69.5885914344,-0.950004286921,98790.6708046,99572.5635584,12875616.7176,12875616.7176
29440.0,501.933195428,69.6174404541,-0.72814259651,99151.0046163,99691.767877,12982546.3149,12982546.3149
29600.0,500.986635786,69.639111799,-0.51388408422,99347.2451139,99837.4220443,12930141.5246,12930141.5246
29760.0,500.35526368,69.654573783,-0.305711119724,99547.0179718,100074.103938,12941510.7988,12941510.7988
29920.0,500.039477898,69.662007175,-0.101866152742,99491.683751,99803.7991032,12959003.6143,12959003.6143
30080.0,500.039477898,69.6627325086,0.102166699243,99512.2970436,99911.6846393,12937144.5426,12937144.5426
30240.0,500.35526368,69.6553260883,0.305503929539,99467.3215887,99872.9819051,12945731.4699,12945731.4699
30400.0,500.986635786,69.6414482565,0.515524285562,99400.0496752,100043.770309,12954090.2532,12954090.2532
30560.0,501.933195428,69.6198564705,0.728169587318,99095.730161,99496.2706052,12873530.5887,12873530.5887
30720.0,503.19434474,69.5927768931,0.953589090204,98842.1331144,99779.2731441,12976363.7694,12976363.7694
30880.0,504.769287152,69.5578850321,1.18684523774,98330.2283515,98779.5176115,12723707.3653,12723707.3653
31040.0,506.657027896,69.5126382,1.44679169693,97940.3639264,99474.2896313,12989642.1236,12989642.1236
31200.0,508.856374636,69.4563276071,1.71178600639,96944.3915422,97149.819511,12473803.5064,12473803.5064
31360.0,511.365938216,69.3916134707,2.00215794568,96662.2933858,96317.9053442,12954672.0294,12954672.0294
31520.0,514.184133543,69.3199900974,2.27931429529,93898.1632015,88761.8919276,12488407.1904,12488407.1904
31680.0,517.309180583,69.2382610187,2.57441494125,99254.8845407,101794.944951,12792018.9716,12792018.9716
31840.0,520.739105491,69.1425283544,2.84612223479,99808.4709514,101436.259686,12767626.8213,12767626.8213
32000.0,524.471741852,69.0283534046,3.14044569836,98357.0737435,101581.826787,12683193.2851,12683193.2851
32160.0,528.504732054,68.8982462735,3.40415223963,94865.0382035,93150.4010044,12925559.1576,12925559.1576
32320.0,532.835528772,68.7424368721,3.69405977462,100150.657702,101996.825832,12389978.915,12389978.915
32480.0,537.461396583,68.5625552462,3.955407753,100204.955767,100403.44132,12718467.0693,12718467.0693
32640.0,542.37941369,68.3527862444,4.25162431275,98118.0623784,101523.081467,12622395.1795,12622395.1795
32800.0,547.586473767,68.1221245964,4.51502342328,94347.2963712,90575.318207,12187521.1468,12187521.1468
32960.0,553.079287924,67.8606392221,4.81130937998,99084.7247129,99249.1536721,12552964.2122,12552964.2122
33120.0,558.854386783,67.5771868235,5.07249009236,98930.3809066,103792.5901,12343840.9798,12343840.9798
33280.0,564.908122665,67.2605584899,5.36488583051,94858.7283186,90693.6792754,12269241.9449,12269241.9449
33440.0,571.236671903,66.9198178967,5.62206255628,99301.5914137,99266.6094281,12465828.3575,12465828.3575
33600.0,577.836037249,66.5437234179,5.9073740223,98377.2517236,101621.381303,12194626.7647,12194626.7647
33760.0,584.702050402,66.1469262549,6.15537494392,94417.9186328,92767.417053,12078315.7744,12078315.7744
33920.0,591.830374641,65.7171345325,6.41974180094,97899.3792993,101713.125734,12147339.8125,12147339.8125
34080.0,599.216507565,65.2573107893,6.64937175572,96038.3302491,93163.3651361,12033975.6983,12033975.6983
34240.0,606.855783932,64.7556371396,6.89975820161,96543.4134766,104509.889504,11838454.9402,11838454.9402
34400.0,614.743378612,64.2190451202,7.12648222725,98080.7109781,100847.732623,12054542.5144,12054542.5144
34560.0,622.874309632,63.6484739161,7.37057822958,93719.7940498,91891.4307408,11917262.2915,11917262.2915
34720.0,631.243441321,63.0556693912,7.58419745509,96428.8774073,99083.9725009,11343381.0552,11343381.0552
34880.0,639.845487556,62.4285500029,7.80142783246,94461.0483126,93981.5141775,11740168.847,11740168.847
35040.0,648.675015101,61.7793272868,7.98876481107,95370.6011274,97488.3112019,11769430.4644,11769430.4644
35200.0,657.726447036,61.0922697013,8.16796712934,94653.6354807,93718.3195133,11510095.0319,11510095.0319
35360.0,666.994066283,60.3817698792,8.32923951089,93773.5021078,96763.9158104,11174708.3864,11174708.3864
35520.0,676.472019215,59.6301735476,8.46751782056,94386.6662272,93481.9726348,11480642.4787,11480642.4787
35680.0,686.154319355,58.8535236369,8.60534559839,92654.6503866,96148.6705988,11391652.6429,11391652.6429
35840.0,696.034851153,58.0347199706,8.70732247365,93790.7893491,92541.3514979,11130039.6111,11130039.6111
36000.0,706.107373854,57.1889442877,8.82977830786,91864.4297505,95647.9291847,10876802.5266,10876802.5266
36160.0,716.365525437,56.3058168547,8.89965936503,92968.5996443,92590.5060382,11119971.772,11119971.772
36320.0,726.802826633,55.3961691737,9.01044910549,91407.0604396,93507.2050452,11036167.098,11036167.098
36480.0,737.412685019,54.4543070483,9.05232298585,91640.5177635,89151.1400345,10777377.0407,10777377.0407
36640.0,748.188399182,53.488383179,9.15206544363,91719.2823336,96373.5833455,10433785.0765,10433785.0765
36800.0,759.123162949,52.5078907355,9.16087834007,90335.1005886,90722.5455938,10665221.4168,10665221.4168
36960.0,770.210069689,51.5108447332,9.22351338327,89719.4217435,90599.9271798,10753755.7228,10753755.7228
37120.0,781.442116675,50.5025630692,9.17550364036,87789.9467996,85307.038104,10401422.3123,10401422.3123
37280.0,792.812209503,49.4511197578,9.19525486182,91255.6372232,85809.8399631,10128020.7693,10128020.7693
37440.0,804.313166581,48.37927581,9.13303315104,87584.0727563,99774.9464278,10095529.8935,10095529.8935
37600.0,815.937723658,47.2616919154,9.15360677729,89779.0879074,94216.3740158,10346127.4045,10346127.4045
37760.0,827.678538413,46.1654042267,9.08709619054,85550.5333387,78420.6710077,10130296.5942,10130296.5942
37920.0,839.528195096,45.0436320939,9.06028707728,85098.6464966,73004.592383,9807034.15863,9807034.15863
38080.0,851.479209211,43.9414128524,8.94993571042,90048.1300606,81108.5419405,9435469.64997,9435469.64997
38240.0,863.524032241,42.7703060262,8.88239417848,83830.5265914,99422.6758185,9548969.63738,9548969.63738
38400.0,875.655056418,41.6126058884,8.79890721955,87458.8351094,91560.7431125,9885550.86744,9885550.86744
38560.0,887.864619525,40.4276080366,8.73026183347,82909.9445119,76790.1358,9792280.72621,9792280.72621
38720.0,900.145009743,39.2997871215,8.63062613054,82179.0491114,70742.4775628,9227340.77383,9227340.77383
38880.0,912.488470512,38.1647533348,8.46715137052,85217.6041932,66729.1934344,8689599.65604,8689599.65604
39040.0,924.88720544,37.0668993286,8.28566612869,83536.7568035,107534.706667,8984660.16035,8984660.16035
39200.0,937.333383218,35.9204882666,8.04007187244,74868.1247326,94395.1773477,9308504.27668,9308504.27668
39360.0,949.819142574,34.7724882773,7.84890413651,88849.1441976,87528.3114037,9710921.92126,9710921.92126
39520.0,962.336597236,33.5745403964,7.60104011902,78323.9627779,85142.6886982,8957700.14236,8957700.14236
39680.0,974.87784091,32.3885976063,7.46194810732,80952.5852583,83665.0266614,8363847.72328,8363847.72328
39840.0,987.434952278,31.2114829418,7.23293541867,77380.0231167,72851.8708337,8009297.70945,8009297.70945
40000.0,1000.0,30.0795715646,7.09425615811,76510.0025523,66274.4184412,8457075.5367,8457075.5367
