<?xml version="1.0" encoding="utf-8" standalone="no"?>
<!DOCTYPE svg PUBLIC "-//W3C//DTD SVG 1.1//EN"
  "http://www.w3.org/Graphics/SVG/1.1/DTD/svg11.dtd">
<!-- Created with matplotlib (https://matplotlib.org/) -->
<svg height="345.6pt" version="1.1" viewBox="0 0 460.8 345.6" width="460.8pt" xmlns="http://www.w3.org/2000/svg" xmlns:xlink="http://www.w3.org/1999/xlink">
 <metadata>
  <rdf:RDF xmlns:cc="http://creativecommons.org/ns#" xmlns:dc="http://purl.org/dc/elements/1.1/" xmlns:rdf="http://www.w3.org/1999/02/22-rdf-syntax-ns#">
   <cc:Work>
    <dc:type rdf:resource="http://purl.org/dc/dcmitype/StillImage"/>
    <dc:date>2021-02-23T13:55:48.737650</dc:date>
    <dc:format>image/svg+xml</dc:format>
    <dc:creator>
     <cc:Agent>
      <dc:title>Matplotlib v3.3.0, https://matplotlib.org/</dc:title>
     </cc:Agent>
    </dc:creator>
   </cc:Work>
  </rdf:RDF>
 </metadata>
 <defs>
  <style type="text/css">*{stroke-linecap:butt;stroke-linejoin:round;}</style>
 </defs>
 <g id="figure_1">
  <g id="patch_1">
   <path d="M 0 345.6 
L 460.8 345.6 
L 460.8 0 
L 0 0 
z
" style="fill:#ffffff;"/>
  </g>
  <g id="axes_1">
   <g id="patch_2">
    <path d="M 57.6 307.584 
L 414.72 307.584 
L 414.72 41.472 
L 57.6 41.472 
z
" style="fill:#ffffff;"/>
   </g>
   <g id="matplotlib.axis_1">
    <g id="xtick_1">
     <g id="line2d_1">
      <defs>
       <path d="M 0 0 
L 0 3.5 
" id="m7d5000410e" style="stroke:#000000;stroke-width:0.8;"/>
      </defs>
      <g>
       <use style="stroke:#000000;stroke-width:0.8;" x="73.832727" xlink:href="#m7d5000410e" y="307.584"/>
      </g>
     </g>
     <g id="text_1">
      <!-- 0.0 -->
      <g transform="translate(65.881165 322.182437)scale(0.1 -0.1)">
       <defs>
        <path d="M 31.78125 66.40625 
Q 24.171875 66.40625 20.328125 58.90625 
Q 16.5 51.421875 16.5 36.375 
Q 16.5 21.390625 20.328125 13.890625 
Q 24.171875 6.390625 31.78125 6.390625 
Q 39.453125 6.390625 43.28125 13.890625 
Q 47.125 21.390625 47.125 36.375 
Q 47.125 51.421875 43.28125 58.90625 
Q 39.453125 66.40625 31.78125 66.40625 
z
M 31.78125 74.21875 
Q 44.046875 74.21875 50.515625 64.515625 
Q 56.984375 54.828125 56.984375 36.375 
Q 56.984375 17.96875 50.515625 8.265625 
Q 44.046875 -1.421875 31.78125 -1.421875 
Q 19.53125 -1.421875 13.0625 8.265625 
Q 6.59375 17.96875 6.59375 36.375 
Q 6.59375 54.828125 13.0625 64.515625 
Q 19.53125 74.21875 31.78125 74.21875 
z
" id="DejaVuSans-48"/>
        <path d="M 10.6875 12.40625 
L 21 12.40625 
L 21 0 
L 10.6875 0 
z
" id="DejaVuSans-46"/>
       </defs>
       <use xlink:href="#DejaVuSans-48"/>
       <use x="63.623047" xlink:href="#DejaVuSans-46"/>
       <use x="95.410156" xlink:href="#DejaVuSans-48"/>
      </g>
     </g>
    </g>
    <g id="xtick_2">
     <g id="line2d_2">
      <g>
       <use style="stroke:#000000;stroke-width:0.8;" x="138.763636" xlink:href="#m7d5000410e" y="307.584"/>
      </g>
     </g>
     <g id="text_2">
      <!-- 0.2 -->
      <g transform="translate(130.812074 322.182437)scale(0.1 -0.1)">
       <defs>
        <path d="M 19.1875 8.296875 
L 53.609375 8.296875 
L 53.609375 0 
L 7.328125 0 
L 7.328125 8.296875 
Q 12.9375 14.109375 22.625 23.890625 
Q 32.328125 33.6875 34.8125 36.53125 
Q 39.546875 41.84375 41.421875 45.53125 
Q 43.3125 49.21875 43.3125 52.78125 
Q 43.3125 58.59375 39.234375 62.25 
Q 35.15625 65.921875 28.609375 65.921875 
Q 23.96875 65.921875 18.8125 64.3125 
Q 13.671875 62.703125 7.8125 59.421875 
L 7.8125 69.390625 
Q 13.765625 71.78125 18.9375 73 
Q 24.125 74.21875 28.421875 74.21875 
Q 39.75 74.21875 46.484375 68.546875 
Q 53.21875 62.890625 53.21875 53.421875 
Q 53.21875 48.921875 51.53125 44.890625 
Q 49.859375 40.875 45.40625 35.40625 
Q 44.1875 33.984375 37.640625 27.21875 
Q 31.109375 20.453125 19.1875 8.296875 
z
" id="DejaVuSans-50"/>
       </defs>
       <use xlink:href="#DejaVuSans-48"/>
       <use x="63.623047" xlink:href="#DejaVuSans-46"/>
       <use x="95.410156" xlink:href="#DejaVuSans-50"/>
      </g>
     </g>
    </g>
    <g id="xtick_3">
     <g id="line2d_3">
      <g>
       <use style="stroke:#000000;stroke-width:0.8;" x="203.694545" xlink:href="#m7d5000410e" y="307.584"/>
      </g>
     </g>
     <g id="text_3">
      <!-- 0.4 -->
      <g transform="translate(195.742983 322.182437)scale(0.1 -0.1)">
       <defs>
        <path d="M 37.796875 64.3125 
L 12.890625 25.390625 
L 37.796875 25.390625 
z
M 35.203125 72.90625 
L 47.609375 72.90625 
L 47.609375 25.390625 
L 58.015625 25.390625 
L 58.015625 17.1875 
L 47.609375 17.1875 
L 47.609375 0 
L 37.796875 0 
L 37.796875 17.1875 
L 4.890625 17.1875 
L 4.890625 26.703125 
z
" id="DejaVuSans-52"/>
       </defs>
       <use xlink:href="#DejaVuSans-48"/>
       <use x="63.623047" xlink:href="#DejaVuSans-46"/>
       <use x="95.410156" xlink:href="#DejaVuSans-52"/>
      </g>
     </g>
    </g>
    <g id="xtick_4">
     <g id="line2d_4">
      <g>
       <use style="stroke:#000000;stroke-width:0.8;" x="268.625455" xlink:href="#m7d5000410e" y="307.584"/>
      </g>
     </g>
     <g id="text_4">
      <!-- 0.6 -->
      <g transform="translate(260.673892 322.182437)scale(0.1 -0.1)">
       <defs>
        <path d="M 33.015625 40.375 
Q 26.375 40.375 22.484375 35.828125 
Q 18.609375 31.296875 18.609375 23.390625 
Q 18.609375 15.53125 22.484375 10.953125 
Q 26.375 6.390625 33.015625 6.390625 
Q 39.65625 6.390625 43.53125 10.953125 
Q 47.40625 15.53125 47.40625 23.390625 
Q 47.40625 31.296875 43.53125 35.828125 
Q 39.65625 40.375 33.015625 40.375 
z
M 52.59375 71.296875 
L 52.59375 62.3125 
Q 48.875 64.0625 45.09375 64.984375 
Q 41.3125 65.921875 37.59375 65.921875 
Q 27.828125 65.921875 22.671875 59.328125 
Q 17.53125 52.734375 16.796875 39.40625 
Q 19.671875 43.65625 24.015625 45.921875 
Q 28.375 48.1875 33.59375 48.1875 
Q 44.578125 48.1875 50.953125 41.515625 
Q 57.328125 34.859375 57.328125 23.390625 
Q 57.328125 12.15625 50.6875 5.359375 
Q 44.046875 -1.421875 33.015625 -1.421875 
Q 20.359375 -1.421875 13.671875 8.265625 
Q 6.984375 17.96875 6.984375 36.375 
Q 6.984375 53.65625 15.1875 63.9375 
Q 23.390625 74.21875 37.203125 74.21875 
Q 40.921875 74.21875 44.703125 73.484375 
Q 48.484375 72.75 52.59375 71.296875 
z
" id="DejaVuSans-54"/>
       </defs>
       <use xlink:href="#DejaVuSans-48"/>
       <use x="63.623047" xlink:href="#DejaVuSans-46"/>
       <use x="95.410156" xlink:href="#DejaVuSans-54"/>
      </g>
     </g>
    </g>
    <g id="xtick_5">
     <g id="line2d_5">
      <g>
       <use style="stroke:#000000;stroke-width:0.8;" x="333.556364" xlink:href="#m7d5000410e" y="307.584"/>
      </g>
     </g>
     <g id="text_5">
      <!-- 0.8 -->
      <g transform="translate(325.604801 322.182437)scale(0.1 -0.1)">
       <defs>
        <path d="M 31.78125 34.625 
Q 24.75 34.625 20.71875 30.859375 
Q 16.703125 27.09375 16.703125 20.515625 
Q 16.703125 13.921875 20.71875 10.15625 
Q 24.75 6.390625 31.78125 6.390625 
Q 38.8125 6.390625 42.859375 10.171875 
Q 46.921875 13.96875 46.921875 20.515625 
Q 46.921875 27.09375 42.890625 30.859375 
Q 38.875 34.625 31.78125 34.625 
z
M 21.921875 38.8125 
Q 15.578125 40.375 12.03125 44.71875 
Q 8.5 49.078125 8.5 55.328125 
Q 8.5 64.0625 14.71875 69.140625 
Q 20.953125 74.21875 31.78125 74.21875 
Q 42.671875 74.21875 48.875 69.140625 
Q 55.078125 64.0625 55.078125 55.328125 
Q 55.078125 49.078125 51.53125 44.71875 
Q 48 40.375 41.703125 38.8125 
Q 48.828125 37.15625 52.796875 32.3125 
Q 56.78125 27.484375 56.78125 20.515625 
Q 56.78125 9.90625 50.3125 4.234375 
Q 43.84375 -1.421875 31.78125 -1.421875 
Q 19.734375 -1.421875 13.25 4.234375 
Q 6.78125 9.90625 6.78125 20.515625 
Q 6.78125 27.484375 10.78125 32.3125 
Q 14.796875 37.15625 21.921875 38.8125 
z
M 18.3125 54.390625 
Q 18.3125 48.734375 21.84375 45.5625 
Q 25.390625 42.390625 31.78125 42.390625 
Q 38.140625 42.390625 41.71875 45.5625 
Q 45.3125 48.734375 45.3125 54.390625 
Q 45.3125 60.0625 41.71875 63.234375 
Q 38.140625 66.40625 31.78125 66.40625 
Q 25.390625 66.40625 21.84375 63.234375 
Q 18.3125 60.0625 18.3125 54.390625 
z
" id="DejaVuSans-56"/>
       </defs>
       <use xlink:href="#DejaVuSans-48"/>
       <use x="63.623047" xlink:href="#DejaVuSans-46"/>
       <use x="95.410156" xlink:href="#DejaVuSans-56"/>
      </g>
     </g>
    </g>
    <g id="xtick_6">
     <g id="line2d_6">
      <g>
       <use style="stroke:#000000;stroke-width:0.8;" x="398.487273" xlink:href="#m7d5000410e" y="307.584"/>
      </g>
     </g>
     <g id="text_6">
      <!-- 1.0 -->
      <g transform="translate(390.53571 322.182437)scale(0.1 -0.1)">
       <defs>
        <path d="M 12.40625 8.296875 
L 28.515625 8.296875 
L 28.515625 63.921875 
L 10.984375 60.40625 
L 10.984375 69.390625 
L 28.421875 72.90625 
L 38.28125 72.90625 
L 38.28125 8.296875 
L 54.390625 8.296875 
L 54.390625 0 
L 12.40625 0 
z
" id="DejaVuSans-49"/>
       </defs>
       <use xlink:href="#DejaVuSans-49"/>
       <use x="63.623047" xlink:href="#DejaVuSans-46"/>
       <use x="95.410156" xlink:href="#DejaVuSans-48"/>
      </g>
     </g>
    </g>
    <g id="text_7">
     <!-- x norm. -->
     <g transform="translate(216.956094 335.860562)scale(0.1 -0.1)">
      <defs>
       <path d="M 54.890625 54.6875 
L 35.109375 28.078125 
L 55.90625 0 
L 45.3125 0 
L 29.390625 21.484375 
L 13.484375 0 
L 2.875 0 
L 24.125 28.609375 
L 4.6875 54.6875 
L 15.28125 54.6875 
L 29.78125 35.203125 
L 44.28125 54.6875 
z
" id="DejaVuSans-120"/>
       <path id="DejaVuSans-32"/>
       <path d="M 54.890625 33.015625 
L 54.890625 0 
L 45.90625 0 
L 45.90625 32.71875 
Q 45.90625 40.484375 42.875 44.328125 
Q 39.84375 48.1875 33.796875 48.1875 
Q 26.515625 48.1875 22.3125 43.546875 
Q 18.109375 38.921875 18.109375 30.90625 
L 18.109375 0 
L 9.078125 0 
L 9.078125 54.6875 
L 18.109375 54.6875 
L 18.109375 46.1875 
Q 21.34375 51.125 25.703125 53.5625 
Q 30.078125 56 35.796875 56 
Q 45.21875 56 50.046875 50.171875 
Q 54.890625 44.34375 54.890625 33.015625 
z
" id="DejaVuSans-110"/>
       <path d="M 30.609375 48.390625 
Q 23.390625 48.390625 19.1875 42.75 
Q 14.984375 37.109375 14.984375 27.296875 
Q 14.984375 17.484375 19.15625 11.84375 
Q 23.34375 6.203125 30.609375 6.203125 
Q 37.796875 6.203125 41.984375 11.859375 
Q 46.1875 17.53125 46.1875 27.296875 
Q 46.1875 37.015625 41.984375 42.703125 
Q 37.796875 48.390625 30.609375 48.390625 
z
M 30.609375 56 
Q 42.328125 56 49.015625 48.375 
Q 55.71875 40.765625 55.71875 27.296875 
Q 55.71875 13.875 49.015625 6.21875 
Q 42.328125 -1.421875 30.609375 -1.421875 
Q 18.84375 -1.421875 12.171875 6.21875 
Q 5.515625 13.875 5.515625 27.296875 
Q 5.515625 40.765625 12.171875 48.375 
Q 18.84375 56 30.609375 56 
z
" id="DejaVuSans-111"/>
       <path d="M 41.109375 46.296875 
Q 39.59375 47.171875 37.8125 47.578125 
Q 36.03125 48 33.890625 48 
Q 26.265625 48 22.1875 43.046875 
Q 18.109375 38.09375 18.109375 28.8125 
L 18.109375 0 
L 9.078125 0 
L 9.078125 54.6875 
L 18.109375 54.6875 
L 18.109375 46.1875 
Q 20.953125 51.171875 25.484375 53.578125 
Q 30.03125 56 36.53125 56 
Q 37.453125 56 38.578125 55.875 
Q 39.703125 55.765625 41.0625 55.515625 
z
" id="DejaVuSans-114"/>
       <path d="M 52 44.1875 
Q 55.375 50.25 60.0625 53.125 
Q 64.75 56 71.09375 56 
Q 79.640625 56 84.28125 50.015625 
Q 88.921875 44.046875 88.921875 33.015625 
L 88.921875 0 
L 79.890625 0 
L 79.890625 32.71875 
Q 79.890625 40.578125 77.09375 44.375 
Q 74.3125 48.1875 68.609375 48.1875 
Q 61.625 48.1875 57.5625 43.546875 
Q 53.515625 38.921875 53.515625 30.90625 
L 53.515625 0 
L 44.484375 0 
L 44.484375 32.71875 
Q 44.484375 40.625 41.703125 44.40625 
Q 38.921875 48.1875 33.109375 48.1875 
Q 26.21875 48.1875 22.15625 43.53125 
Q 18.109375 38.875 18.109375 30.90625 
L 18.109375 0 
L 9.078125 0 
L 9.078125 54.6875 
L 18.109375 54.6875 
L 18.109375 46.1875 
Q 21.1875 51.21875 25.484375 53.609375 
Q 29.78125 56 35.6875 56 
Q 41.65625 56 45.828125 52.96875 
Q 50 49.953125 52 44.1875 
z
" id="DejaVuSans-109"/>
      </defs>
      <use xlink:href="#DejaVuSans-120"/>
      <use x="59.179688" xlink:href="#DejaVuSans-32"/>
      <use x="90.966797" xlink:href="#DejaVuSans-110"/>
      <use x="154.345703" xlink:href="#DejaVuSans-111"/>
      <use x="215.527344" xlink:href="#DejaVuSans-114"/>
      <use x="254.890625" xlink:href="#DejaVuSans-109"/>
      <use x="352.302734" xlink:href="#DejaVuSans-46"/>
     </g>
    </g>
   </g>
   <g id="matplotlib.axis_2">
    <g id="ytick_1">
     <g id="line2d_7">
      <defs>
       <path d="M 0 0 
L -3.5 0 
" id="m26d4b0a29b" style="stroke:#000000;stroke-width:0.8;"/>
      </defs>
      <g>
       <use style="stroke:#000000;stroke-width:0.8;" x="57.6" xlink:href="#m26d4b0a29b" y="286.718987"/>
      </g>
     </g>
     <g id="text_8">
      <!-- 0 -->
      <g transform="translate(44.2375 290.518205)scale(0.1 -0.1)">
       <use xlink:href="#DejaVuSans-48"/>
      </g>
     </g>
    </g>
    <g id="ytick_2">
     <g id="line2d_8">
      <g>
       <use style="stroke:#000000;stroke-width:0.8;" x="57.6" xlink:href="#m26d4b0a29b" y="228.277832"/>
      </g>
     </g>
     <g id="text_9">
      <!-- 5 -->
      <g transform="translate(44.2375 232.077051)scale(0.1 -0.1)">
       <defs>
        <path d="M 10.796875 72.90625 
L 49.515625 72.90625 
L 49.515625 64.59375 
L 19.828125 64.59375 
L 19.828125 46.734375 
Q 21.96875 47.46875 24.109375 47.828125 
Q 26.265625 48.1875 28.421875 48.1875 
Q 40.625 48.1875 47.75 41.5 
Q 54.890625 34.8125 54.890625 23.390625 
Q 54.890625 11.625 47.5625 5.09375 
Q 40.234375 -1.421875 26.90625 -1.421875 
Q 22.3125 -1.421875 17.546875 -0.640625 
Q 12.796875 0.140625 7.71875 1.703125 
L 7.71875 11.625 
Q 12.109375 9.234375 16.796875 8.0625 
Q 21.484375 6.890625 26.703125 6.890625 
Q 35.15625 6.890625 40.078125 11.328125 
Q 45.015625 15.765625 45.015625 23.390625 
Q 45.015625 31 40.078125 35.4375 
Q 35.15625 39.890625 26.703125 39.890625 
Q 22.75 39.890625 18.8125 39.015625 
Q 14.890625 38.140625 10.796875 36.28125 
z
" id="DejaVuSans-53"/>
       </defs>
       <use xlink:href="#DejaVuSans-53"/>
      </g>
     </g>
    </g>
    <g id="ytick_3">
     <g id="line2d_9">
      <g>
       <use style="stroke:#000000;stroke-width:0.8;" x="57.6" xlink:href="#m26d4b0a29b" y="169.836677"/>
      </g>
     </g>
     <g id="text_10">
      <!-- 10 -->
      <g transform="translate(37.875 173.635896)scale(0.1 -0.1)">
       <use xlink:href="#DejaVuSans-49"/>
       <use x="63.623047" xlink:href="#DejaVuSans-48"/>
      </g>
     </g>
    </g>
    <g id="ytick_4">
     <g id="line2d_10">
      <g>
       <use style="stroke:#000000;stroke-width:0.8;" x="57.6" xlink:href="#m26d4b0a29b" y="111.395523"/>
      </g>
     </g>
     <g id="text_11">
      <!-- 15 -->
      <g transform="translate(37.875 115.194741)scale(0.1 -0.1)">
       <use xlink:href="#DejaVuSans-49"/>
       <use x="63.623047" xlink:href="#DejaVuSans-53"/>
      </g>
     </g>
    </g>
    <g id="ytick_5">
     <g id="line2d_11">
      <g>
       <use style="stroke:#000000;stroke-width:0.8;" x="57.6" xlink:href="#m26d4b0a29b" y="52.954368"/>
      </g>
     </g>
     <g id="text_12">
      <!-- 20 -->
      <g transform="translate(37.875 56.753587)scale(0.1 -0.1)">
       <use xlink:href="#DejaVuSans-50"/>
       <use x="63.623047" xlink:href="#DejaVuSans-48"/>
      </g>
     </g>
    </g>
    <g id="text_13">
     <!-- m/a -->
     <g transform="translate(31.795313 184.14675)rotate(-90)scale(0.1 -0.1)">
      <defs>
       <path d="M 25.390625 72.90625 
L 33.6875 72.90625 
L 8.296875 -9.28125 
L 0 -9.28125 
z
" id="DejaVuSans-47"/>
       <path d="M 34.28125 27.484375 
Q 23.390625 27.484375 19.1875 25 
Q 14.984375 22.515625 14.984375 16.5 
Q 14.984375 11.71875 18.140625 8.90625 
Q 21.296875 6.109375 26.703125 6.109375 
Q 34.1875 6.109375 38.703125 11.40625 
Q 43.21875 16.703125 43.21875 25.484375 
L 43.21875 27.484375 
z
M 52.203125 31.203125 
L 52.203125 0 
L 43.21875 0 
L 43.21875 8.296875 
Q 40.140625 3.328125 35.546875 0.953125 
Q 30.953125 -1.421875 24.3125 -1.421875 
Q 15.921875 -1.421875 10.953125 3.296875 
Q 6 8.015625 6 15.921875 
Q 6 25.140625 12.171875 29.828125 
Q 18.359375 34.515625 30.609375 34.515625 
L 43.21875 34.515625 
L 43.21875 35.40625 
Q 43.21875 41.609375 39.140625 45 
Q 35.0625 48.390625 27.6875 48.390625 
Q 23 48.390625 18.546875 47.265625 
Q 14.109375 46.140625 10.015625 43.890625 
L 10.015625 52.203125 
Q 14.9375 54.109375 19.578125 55.046875 
Q 24.21875 56 28.609375 56 
Q 40.484375 56 46.34375 49.84375 
Q 52.203125 43.703125 52.203125 31.203125 
z
" id="DejaVuSans-97"/>
      </defs>
      <use xlink:href="#DejaVuSans-109"/>
      <use x="97.412109" xlink:href="#DejaVuSans-47"/>
      <use x="131.103516" xlink:href="#DejaVuSans-97"/>
     </g>
    </g>
   </g>
   <g id="line2d_12">
    <path clip-path="url(#p25f6680f7b)" d="M 73.832727 90.259695 
L 78.702545 91.726568 
L 83.572364 92.919936 
L 88.442182 93.878371 
L 94.123636 94.739793 
L 99.805091 95.353426 
L 105.486545 95.730955 
L 111.168 95.870045 
L 116.849455 95.762514 
L 122.530909 95.397841 
L 127.400727 94.881221 
L 133.082182 94.066551 
L 150.126545 91.353713 
L 153.373091 91.151507 
L 156.619636 91.15852 
L 159.866182 91.373583 
L 163.924364 91.905397 
L 170.417455 93.050844 
L 180.157091 94.767845 
L 185.838545 95.532256 
L 190.708364 95.991603 
L 196.389818 96.291991 
L 202.071273 96.34225 
L 207.752727 96.156407 
L 213.434182 95.741475 
L 219.115636 95.091609 
L 223.985455 94.334212 
L 228.855273 93.365258 
L 233.725091 92.153188 
L 237.783273 90.921248 
L 241.841455 89.450869 
L 245.899636 87.703478 
L 249.146182 86.074139 
L 252.392727 84.213373 
L 255.639273 82.101309 
L 258.885818 79.725092 
L 262.132364 77.088227 
L 266.190545 73.482408 
L 272.683636 67.564657 
L 275.118545 65.66415 
L 276.741818 64.653118 
L 278.365091 63.947149 
L 279.176727 63.743774 
L 279.988364 63.660787 
L 280.8 63.714553 
L 281.611636 63.924941 
L 282.423273 64.311822 
L 283.234909 64.897402 
L 284.046545 65.705059 
L 284.858182 66.759337 
L 285.669818 68.084783 
L 286.481455 69.707109 
L 287.293091 71.655537 
L 288.104727 73.955781 
L 288.916364 76.633555 
L 290.539636 83.226886 
L 292.162909 91.614361 
L 293.786182 101.922211 
L 295.409455 114.194854 
L 297.032727 128.359821 
L 298.656 144.209062 
L 301.090909 170.325012 
L 305.960727 223.989654 
L 307.584 239.963725 
L 309.207273 254.040212 
L 310.830545 265.828261 
L 312.453818 275.072716 
L 313.265455 278.69608 
L 314.077091 281.646107 
L 314.888727 283.922998 
L 315.700364 285.528061 
L 316.512 286.463793 
L 317.323636 286.647863 
L 318.135273 286.164546 
L 318.946909 285.08032 
L 319.758545 283.272349 
L 320.570182 280.741111 
L 321.381818 277.519203 
L 322.193455 273.628635 
L 323.005091 269.078758 
L 324.628364 258.057925 
L 326.251636 244.650004 
L 327.874909 229.179813 
L 330.309818 203.15246 
L 335.991273 140.091298 
L 337.614545 124.178941 
L 339.237818 109.996441 
L 340.861091 97.744838 
L 342.484364 87.487246 
L 344.107636 79.175745 
L 345.730909 72.677089 
L 346.542545 70.051912 
L 347.354182 67.806603 
L 348.165818 65.916616 
L 348.977455 64.3539 
L 349.789091 63.089233 
L 350.600727 62.098071 
L 351.412364 61.354699 
L 352.224 60.832236 
L 353.035636 60.508472 
L 353.847273 60.3612 
L 354.658909 60.37055 
L 355.470545 60.517822 
L 357.093818 61.152493 
L 358.717091 62.144824 
L 360.340364 63.391958 
L 362.775273 65.568307 
L 374.949818 77.085889 
L 378.196364 79.674833 
L 381.442909 81.985596 
L 384.689455 84.028699 
L 387.936 85.82518 
L 391.182545 87.399584 
L 395.240727 89.09204 
L 398.487273 90.259695 
L 398.487273 90.259695 
" style="fill:none;stroke:#000000;stroke-linecap:square;"/>
   </g>
   <g id="line2d_13">
    <path clip-path="url(#p25f6680f7b)" d="M 73.832727 90.307698 
L 82.157194 92.587172 
L 90.481694 94.235668 
L 98.806161 95.252802 
L 107.130596 95.798712 
L 115.455063 95.809758 
L 123.77953 95.28464 
L 132.103998 94.222846 
L 140.428465 92.801558 
L 148.752932 91.499629 
L 157.077399 91.177817 
L 165.401866 92.146385 
L 173.726334 93.669748 
L 182.050801 95.050455 
L 190.375268 95.966181 
L 198.699735 96.347802 
L 207.024202 96.191519 
L 215.34867 95.527966 
L 223.673137 94.394476 
L 231.997604 92.576758 
L 240.322396 90.077358 
L 248.646863 86.302691 
L 256.97133 81.314808 
L 265.295798 74.31904 
L 273.620265 66.669782 
L 281.944732 64.050485 
L 290.269199 82.135252 
L 298.593666 143.441706 
L 306.918134 233.613186 
L 315.242601 284.829321 
L 323.567068 265.289629 
L 331.891535 185.255419 
L 340.216002 102.702354 
L 348.54047 65.176587 
L 356.864937 61.084152 
L 365.189404 67.859352 
L 373.513871 75.946018 
L 381.838338 82.150143 
L 390.162806 86.938484 
L 398.487273 90.204923 
" style="fill:none;stroke:#000000;stroke-linecap:square;"/>
   </g>
   <g id="line2d_14">
    <path clip-path="url(#p25f6680f7b)" d="M 73.832727 90.711176 
L 77.890909 91.957363 
L 81.949091 93.005178 
L 87.36 94.13903 
L 92.770909 95.013485 
L 98.181818 95.657764 
L 103.592727 96.086301 
L 109.003635 96.301353 
L 114.414545 96.296315 
L 119.825456 96.061066 
L 125.236363 95.590346 
L 130.647273 94.896053 
L 137.410908 93.786794 
L 146.88 92.188966 
L 150.938182 91.723622 
L 153.643635 91.583831 
L 157.701817 91.644773 
L 161.759999 92.038503 
L 167.170909 92.902602 
L 182.050908 95.505653 
L 187.461818 96.164472 
L 192.872728 96.59454 
L 198.283635 96.793649 
L 203.694545 96.770916 
L 209.105456 96.536275 
L 214.516363 96.093548 
L 219.927273 95.436213 
L 225.338183 94.54446 
L 230.74909 93.382813 
L 234.807272 92.303066 
L 238.865453 91.012008 
L 242.923635 89.473229 
L 246.981817 87.644371 
L 251.039999 85.479313 
L 253.745456 83.826983 
L 256.450909 81.994888 
L 259.156363 79.977815 
L 263.214544 76.618407 
L 268.625455 71.686546 
L 272.683636 68.025231 
L 275.38909 65.936264 
L 276.741818 65.108258 
L 278.094547 64.49258 
L 279.447272 64.152289 
L 280.8 64.161172 
L 282.152728 64.604296 
L 283.505453 65.578101 
L 284.858182 67.18985 
L 286.21091 69.555992 
L 287.563635 72.799348 
L 288.916364 77.044513 
L 290.269092 82.411573 
L 291.621817 89.007511 
L 292.974545 96.915908 
L 294.327274 106.184956 
L 295.679999 116.815075 
L 297.032727 128.747064 
L 299.738181 155.934508 
L 306.501819 229.888622 
L 307.854544 242.838159 
L 309.207273 254.414202 
L 310.560001 264.392755 
L 311.912726 272.628371 
L 313.265455 278.993765 
L 314.618183 283.482723 
L 315.970908 286.198733 
L 317.323636 287.201409 
L 318.676365 285.748529 
L 320.02909 282.736892 
L 321.381818 277.803887 
L 322.734547 271.004736 
L 324.087272 262.362199 
L 325.44 252.005947 
L 326.792728 240.084438 
L 329.498182 212.506418 
L 336.261817 137.721264 
L 337.614545 124.566686 
L 338.967274 112.617118 
L 340.319999 101.996268 
L 341.672727 92.759527 
L 343.025456 84.902745 
L 344.378181 78.37419 
L 345.730909 73.087018 
L 347.083637 68.93135 
L 348.436363 65.784574 
L 349.789091 63.519909 
L 351.141819 62.0127 
L 352.494544 61.144989 
L 353.847273 60.808298 
L 355.200001 60.905182 
L 356.552726 61.349814 
L 357.905455 62.067822 
L 359.258183 62.995704 
L 361.963636 65.275891 
L 366.021818 69.200611 
L 371.432728 74.439732 
L 375.49091 77.999325 
L 378.196364 80.137114 
L 380.901817 82.080832 
L 383.607274 83.836591 
L 387.665456 86.143205 
L 391.723637 88.099569 
L 395.781819 89.753945 
L 398.487273 90.711176 
L 398.487273 90.711176 
" style="fill:none;stroke:#000000;stroke-linecap:square;"/>
   </g>
   <g id="line2d_15">
    <path clip-path="url(#p25f6680f7b)" d="M 77.791889 92.000072 
L 85.710214 77.180564 
L 93.628863 80.369114 
L 101.547187 83.080783 
L 109.465512 65.409347 
L 117.383836 53.568 
L 125.302485 74.536686 
L 133.220809 120.976365 
L 141.139134 186.495211 
L 149.057458 262.280883 
L 156.976107 295.488 
L 164.894431 240.338216 
L 172.812756 142.454659 
L 180.73108 83.991296 
L 188.649729 71.90099 
L 196.568054 64.942986 
L 204.486378 62.231317 
L 212.404702 79.01211 
L 220.323351 92.08189 
L 228.241676 84.542981 
L 236.16 83.017667 
L 244.078324 98.253276 
L 251.996649 101.204554 
L 259.915298 88.562563 
L 267.833622 90.811379 
L 275.751946 104.239988 
L 283.670271 98.981452 
L 291.58892 85.648687 
L 299.507244 91.92293 
L 307.425569 101.217411 
L 315.343893 90.346187 
L 323.262542 82.264945 
L 331.180866 95.694722 
L 339.099191 103.12493 
L 347.017515 90.835924 
L 354.936164 88.291396 
L 362.854488 102.283378 
L 370.772813 102.074158 
L 378.691137 87.670751 
L 386.609786 89.332818 
L 394.528111 100.263651 
" style="fill:none;stroke:#000000;stroke-linecap:square;"/>
   </g>
   <g id="line2d_16">
    <path clip-path="url(#p25f6680f7b)" d="M 77.791889 92.000072 
L 85.710214 77.180564 
L 93.628863 80.369114 
L 101.547187 83.080783 
L 109.465512 65.409347 
L 117.383836 53.568 
L 125.302485 74.536686 
L 133.220809 120.976365 
L 141.139134 186.495328 
L 149.057458 262.281 
L 156.976107 295.488 
L 164.894431 240.338216 
L 172.812756 142.454659 
L 180.73108 83.991296 
L 188.649729 71.90099 
L 196.568054 64.942986 
L 204.486378 62.230148 
L 212.404702 79.01211 
L 220.323351 92.08189 
L 228.241676 84.542981 
L 236.16 83.017667 
L 244.078324 98.253276 
L 251.996649 101.204554 
L 259.915298 88.562563 
L 267.833622 90.811379 
L 275.751946 104.239988 
L 283.670271 98.982621 
L 291.58892 85.648687 
L 299.507244 91.92293 
L 307.425569 101.217411 
L 315.343893 90.346187 
L 323.262542 82.264945 
L 331.180866 95.694722 
L 339.099191 103.12493 
L 347.017515 90.837093 
L 354.936164 88.292565 
L 362.854488 102.282209 
L 370.772813 102.074158 
L 378.691137 87.670751 
L 386.609786 89.332818 
L 394.528111 100.263651 
" style="fill:none;stroke:#000000;stroke-linecap:square;"/>
   </g>
   <g id="line2d_17">
    <path clip-path="url(#p25f6680f7b)" d="M 73.832727 90.835924 
L 77.079273 91.712542 
L 80.325818 92.711885 
L 83.572364 93.378115 
L 86.818909 94.161226 
L 90.065455 94.669664 
L 93.312 95.277452 
L 96.558545 95.669008 
L 99.805091 96.130693 
L 103.051636 96.417055 
L 106.298182 96.756013 
L 109.544727 96.954713 
L 112.791273 97.182634 
L 116.037818 97.30536 
L 119.284364 97.439775 
L 122.530909 97.486528 
L 125.777455 97.544969 
L 129.024 97.544969 
L 132.270545 97.533281 
L 135.517091 97.486528 
L 138.763636 97.439775 
L 142.010182 97.387178 
L 145.256727 97.334581 
L 148.503273 97.293672 
L 151.749818 97.258607 
L 154.996364 97.264451 
L 158.242909 97.281984 
L 161.489455 97.328737 
L 164.736 97.381334 
L 167.982545 97.457307 
L 171.229091 97.527437 
L 174.475636 97.597566 
L 177.722182 97.661851 
L 180.968727 97.696916 
L 184.215273 97.720292 
L 187.461818 97.696916 
L 190.708364 97.661851 
L 193.954909 97.556657 
L 197.201455 97.463151 
L 200.448 97.270295 
L 203.694545 97.094972 
L 206.941091 96.796922 
L 210.187636 96.545625 
L 213.434182 96.130693 
L 216.680727 95.780046 
L 219.927273 95.219011 
L 223.173818 94.751482 
L 226.420364 94.026811 
L 229.666909 93.407335 
L 232.913455 92.466433 
L 236.16 91.648256 
L 239.406545 90.43268 
L 242.653091 89.345675 
L 245.899636 87.779452 
L 249.146182 86.330111 
L 252.392727 84.319736 
L 255.639273 82.426242 
L 258.885818 79.89574 
L 262.132364 77.493809 
L 265.378909 74.460713 
L 268.625455 71.737355 
L 271.872 68.63413 
L 275.118545 66.331548 
L 278.365091 64.455587 
L 281.611636 64.829611 
L 284.858182 67.617254 
L 288.104727 75.080189 
L 291.351273 88.171008 
L 294.597818 108.362427 
L 297.844364 137.039501 
L 301.090909 168.375648 
L 304.337455 205.170199 
L 307.584 235.220641 
L 310.830545 261.560069 
L 314.077091 274.96647 
L 317.323636 274.434656 
L 320.570182 274.2418 
L 323.816727 259.74255 
L 327.063273 233.128448 
L 330.309818 202.324115 
L 333.556364 165.284111 
L 336.802909 133.836926 
L 340.049455 104.943619 
L 343.296 84.711291 
L 346.542545 71.848393 
L 349.789091 64.613378 
L 353.035636 62.071188 
L 356.282182 61.907553 
L 359.528727 64.046499 
L 362.775273 66.565313 
L 366.021818 69.849706 
L 369.268364 72.736699 
L 372.514909 75.921742 
L 375.761455 78.458088 
L 379.008 81.105472 
L 382.254545 83.10416 
L 385.501091 85.213885 
L 388.747636 86.745044 
L 391.994182 88.393084 
L 395.240727 89.550219 
L 398.487273 90.835924 
" style="fill:none;stroke:#000000;stroke-linecap:square;"/>
   </g>
   <g id="line2d_18">
    <path clip-path="url(#p25f6680f7b)" d="M 73.832727 94.879328 
L 75.464157 94.440914 
L 78.727017 95.38911 
L 80.358447 95.559922 
L 81.989877 96.356837 
L 83.621307 96.151673 
L 88.515596 96.928485 
L 90.147026 97.51569 
L 91.778456 97.367366 
L 93.409886 97.966365 
L 95.041316 97.680447 
L 96.672746 97.815587 
L 98.304175 98.169635 
L 99.935605 98.137282 
L 101.567035 98.888812 
L 103.198465 98.378363 
L 104.829895 98.785382 
L 106.461324 98.486082 
L 108.092755 98.574796 
L 109.724183 98.914666 
L 111.355615 98.664152 
L 112.987046 99.428796 
L 114.618474 98.693852 
L 116.249905 98.921024 
L 117.881333 98.615646 
L 119.512765 98.626259 
L 121.144193 98.972838 
L 122.775624 98.495257 
L 124.407052 99.047105 
L 126.038483 98.286038 
L 127.669915 98.327636 
L 130.932774 97.891794 
L 132.564202 98.237263 
L 134.195633 97.55349 
L 135.827061 97.884407 
L 137.458493 97.139364 
L 140.721352 96.859361 
L 142.352783 96.513225 
L 143.984211 96.89425 
L 145.615643 96.109362 
L 147.247071 96.34073 
L 148.878502 95.733118 
L 150.50993 95.591538 
L 152.141361 95.72732 
L 153.772793 95.461624 
L 155.404221 96.120349 
L 157.035652 95.484614 
L 158.66708 95.887613 
L 160.298511 95.659844 
L 161.929939 95.810763 
L 163.561371 96.311042 
L 165.192802 96.203113 
L 166.82423 97.116665 
L 168.455661 96.621903 
L 170.087089 97.084406 
L 171.718521 97.03452 
L 173.349949 97.235663 
L 174.98138 97.85168 
L 176.612808 97.640696 
L 178.244239 98.444495 
L 179.875671 97.967931 
L 181.507099 98.262474 
L 184.769958 98.330441 
L 186.401389 98.952325 
L 188.032817 98.538422 
L 189.664249 99.124855 
L 191.29568 98.644107 
L 194.558539 98.797936 
L 196.189967 98.679557 
L 197.821399 99.295574 
L 199.452827 98.658144 
L 201.084258 98.9975 
L 202.715686 98.566544 
L 204.347117 98.44522 
L 205.978549 98.585934 
L 207.609977 98.314943 
L 209.241408 98.863074 
L 210.872836 98.069221 
L 212.504267 98.177793 
L 214.135695 97.78335 
L 215.767127 97.590997 
L 217.398558 97.704946 
L 219.029986 97.27552 
L 220.661417 97.576527 
L 222.292845 96.799038 
L 223.924277 96.687789 
L 225.555705 96.254612 
L 227.187136 95.989897 
L 228.818564 96.034172 
L 230.449995 95.411726 
L 232.081427 95.30991 
L 233.712855 94.666426 
L 235.344286 94.326544 
L 238.607145 93.369699 
L 240.238573 93.231591 
L 241.870005 92.366276 
L 243.501436 91.86768 
L 248.395723 89.813228 
L 250.027155 89.087692 
L 251.658583 88.559817 
L 253.290014 87.384051 
L 256.552873 85.502538 
L 261.447164 82.021713 
L 263.078592 80.844147 
L 264.710023 79.22369 
L 267.972883 76.233689 
L 274.498601 69.400445 
L 276.130033 67.581277 
L 279.392892 64.443618 
L 281.02432 63.166258 
L 282.655751 62.441121 
L 284.287183 62.044235 
L 285.918611 62.361337 
L 287.550042 63.774759 
L 289.18147 66.380662 
L 290.812901 70.404756 
L 292.444329 76.393853 
L 294.075761 84.478953 
L 295.707192 94.815335 
L 297.33862 107.79944 
L 298.970051 123.142031 
L 300.601479 140.769426 
L 303.864339 180.692122 
L 307.127198 221.438327 
L 308.758629 239.601721 
L 310.390061 255.36859 
L 312.021489 268.375063 
L 313.65292 277.409893 
L 315.284348 284.35541 
L 316.915779 285.697643 
L 318.547207 286.354752 
L 320.178639 280.869596 
L 321.81007 273.355014 
L 323.441498 262.342053 
L 325.072929 247.813074 
L 326.704357 230.812535 
L 328.335789 211.615107 
L 333.230076 150.401849 
L 334.861507 131.636757 
L 336.492939 115.18002 
L 338.124367 101.025595 
L 339.755798 89.353436 
L 341.387226 80.141018 
L 343.018657 73.149574 
L 344.650085 68.182286 
L 346.281517 64.911042 
L 347.912948 62.884817 
L 349.544376 62.083402 
L 351.175807 62.254202 
L 352.807235 62.711072 
L 354.438667 63.750273 
L 357.701526 66.772826 
L 359.332954 68.421392 
L 362.595817 72.110887 
L 365.858676 75.360975 
L 367.490104 77.037839 
L 372.384395 81.387649 
L 374.015826 82.714649 
L 382.172973 88.08981 
L 383.804404 88.712418 
L 385.435832 89.520332 
L 391.961554 92.063668 
L 393.592982 93.040734 
L 395.224413 93.132393 
L 396.855841 93.624444 
L 398.487273 94.27701 
L 398.487273 94.27701 
" style="fill:none;stroke:#000000;stroke-linecap:square;"/>
   </g>
   <g id="line2d_19">
    <path clip-path="url(#p25f6680f7b)" d="M 74.644364 86.924236 
L 81.137455 88.725264 
L 90.877091 91.151249 
L 100.616727 93.351933 
L 108.733091 94.985679 
L 116.849455 96.388956 
L 124.965818 97.529763 
L 133.082182 98.396094 
L 141.198545 98.990897 
L 149.314909 99.323473 
L 157.431273 99.40196 
L 165.547636 99.229021 
L 173.664 98.80108 
L 181.780364 98.111381 
L 189.896727 97.15644 
L 198.013091 95.94464 
L 206.129455 94.503574 
L 215.869091 92.537368 
L 227.232 90.003863 
L 235.348364 87.984639 
L 240.218182 86.595808 
L 245.088 84.969005 
L 248.334545 83.6941 
L 251.581091 82.221137 
L 254.827636 80.511803 
L 258.074182 78.535125 
L 261.320727 76.276573 
L 264.567273 73.75181 
L 274.306909 65.703656 
L 275.930182 64.650827 
L 277.553455 63.848945 
L 279.176727 63.398831 
L 280.8 63.42285 
L 282.423273 64.066474 
L 284.046545 65.498586 
L 285.669818 67.909752 
L 287.293091 71.507307 
L 288.916364 76.5062 
L 290.539636 83.114504 
L 292.162909 91.51307 
L 293.786182 101.829337 
L 295.409455 114.107414 
L 297.032727 128.277992 
L 298.656 144.134176 
L 301.902545 179.341263 
L 305.149091 215.41828 
L 306.772364 232.167114 
L 308.395636 247.264018 
L 310.018909 260.253395 
L 311.642182 270.813802 
L 313.265455 278.754645 
L 314.888727 283.997098 
L 316.512 286.501727 
L 318.135273 286.253596 
L 319.758545 283.253797 
L 321.381818 277.519346 
L 323.005091 269.09593 
L 324.628364 258.06973 
L 326.251636 244.645403 
L 327.874909 229.159993 
L 331.121455 193.972089 
L 334.368 157.312399 
L 335.991273 140.01522 
L 337.614545 124.097743 
L 339.237818 109.909808 
L 340.861091 97.651951 
L 342.484364 87.386926 
L 344.107636 79.064333 
L 345.730909 72.550961 
L 347.354182 67.660921 
L 348.977455 64.18179 
L 350.600727 61.895093 
L 352.224 60.590628 
L 353.847273 60.075575 
L 355.470545 60.179319 
L 357.093818 60.755117 
L 358.717091 61.679691 
L 360.340364 62.851576 
L 363.586909 65.626093 
L 370.08 71.525412 
L 373.326545 74.225709 
L 376.573091 76.645348 
L 379.819636 78.770164 
L 383.066182 80.616086 
L 386.312727 82.215246 
L 389.559273 83.606952 
L 394.429091 85.393101 
L 397.675636 86.435785 
L 397.675636 86.435785 
" style="fill:none;stroke:#000000;stroke-linecap:square;"/>
   </g>
   <g id="line2d_20">
    <path clip-path="url(#p25f6680f7b)" d="M 73.832727 92.215528 
L 83.355927 94.535311 
L 94.610618 95.997762 
L 101.536582 96.22541 
L 104.999564 96.083633 
L 117.12 95.500415 
L 119.717236 95.466206 
L 138.763636 95.947103 
L 144.823855 96.110375 
L 157.810036 96.205682 
L 170.796218 95.902476 
L 191.574109 95.382686 
L 197.634327 95.552684 
L 208.023273 96.231889 
L 214.083491 96.135784 
L 217.546473 95.88616 
L 223.606691 95.131033 
L 227.935418 94.332344 
L 230.532655 93.767855 
L 233.995636 92.894484 
L 239.190109 91.265202 
L 242.653091 89.965006 
L 246.116073 88.449546 
L 249.579055 86.69504 
L 253.042036 84.66911 
L 256.505018 82.344088 
L 259.968 79.686826 
L 263.430982 76.700359 
L 267.759709 72.571949 
L 273.819927 66.65174 
L 275.551418 65.174963 
L 277.282909 63.945534 
L 279.0144 63.088201 
L 279.880145 62.843217 
L 280.745891 62.752866 
L 281.611636 62.836561 
L 282.477382 63.124757 
L 283.343127 63.645949 
L 284.208873 64.429124 
L 285.074618 65.510682 
L 285.940364 66.917009 
L 286.806109 68.686951 
L 287.671855 70.853473 
L 288.5376 73.454761 
L 289.403345 76.521194 
L 290.269091 80.083695 
L 291.134836 84.170949 
L 292.866327 94.003639 
L 294.597818 106.125506 
L 296.329309 120.502616 
L 298.0608 136.927305 
L 300.658036 164.499309 
L 305.852509 222.022339 
L 307.584 239.136266 
L 309.315491 254.11628 
L 311.046982 266.518028 
L 311.912727 271.658063 
L 312.778473 276.058285 
L 313.644218 279.704338 
L 314.509964 282.588009 
L 315.375709 284.704858 
L 316.241455 286.052811 
L 317.1072 286.630688 
L 317.972945 286.43805 
L 318.838691 285.475052 
L 319.704436 283.742452 
L 320.570182 281.241892 
L 321.435927 277.976267 
L 322.301673 273.951769 
L 323.167418 269.179581 
L 324.898909 257.472774 
L 326.6304 243.101715 
L 328.361891 226.47042 
L 330.959127 198.568787 
L 336.1536 141.313647 
L 337.885091 124.429113 
L 339.616582 109.514374 
L 341.348073 96.820679 
L 343.079564 86.420225 
L 344.811055 78.241276 
L 345.6768 74.930163 
L 346.542545 72.100635 
L 347.408291 69.721278 
L 348.274036 67.755459 
L 349.139782 66.170927 
L 350.005527 64.932902 
L 350.871273 64.006573 
L 351.737018 63.358264 
L 352.602764 62.956107 
L 353.468509 62.773095 
L 354.334255 62.779133 
L 355.2 62.950122 
L 356.065745 63.263001 
L 357.797236 64.227051 
L 359.528727 65.52593 
L 362.125964 67.861909 
L 372.514909 77.857493 
L 375.977891 80.722688 
L 379.440873 83.244103 
L 382.038109 84.93141 
L 385.501091 86.919307 
L 389.829818 89.003548 
L 393.2928 90.438084 
L 398.487273 92.215528 
L 398.487273 92.215528 
" style="fill:none;stroke:#ff0000;stroke-linecap:square;stroke-width:3;"/>
   </g>
   <g id="patch_3">
    <path d="M 57.6 307.584 
L 57.6 41.472 
" style="fill:none;stroke:#000000;stroke-linecap:square;stroke-linejoin:miter;stroke-width:0.8;"/>
   </g>
   <g id="patch_4">
    <path d="M 414.72 307.584 
L 414.72 41.472 
" style="fill:none;stroke:#000000;stroke-linecap:square;stroke-linejoin:miter;stroke-width:0.8;"/>
   </g>
   <g id="patch_5">
    <path d="M 57.6 307.584 
L 414.72 307.584 
" style="fill:none;stroke:#000000;stroke-linecap:square;stroke-linejoin:miter;stroke-width:0.8;"/>
   </g>
   <g id="patch_6">
    <path d="M 57.6 41.472 
L 414.72 41.472 
" style="fill:none;stroke:#000000;stroke-linecap:square;stroke-linejoin:miter;stroke-width:0.8;"/>
   </g>
   <g id="text_14">
    <!-- 160 km -->
    <g transform="translate(213.481875 35.472)scale(0.12 -0.12)">
     <defs>
      <path d="M 9.078125 75.984375 
L 18.109375 75.984375 
L 18.109375 31.109375 
L 44.921875 54.6875 
L 56.390625 54.6875 
L 27.390625 29.109375 
L 57.625 0 
L 45.90625 0 
L 18.109375 26.703125 
L 18.109375 0 
L 9.078125 0 
z
" id="DejaVuSans-107"/>
     </defs>
     <use xlink:href="#DejaVuSans-49"/>
     <use x="63.623047" xlink:href="#DejaVuSans-54"/>
     <use x="127.246094" xlink:href="#DejaVuSans-48"/>
     <use x="190.869141" xlink:href="#DejaVuSans-32"/>
     <use x="222.65625" xlink:href="#DejaVuSans-107"/>
     <use x="280.566406" xlink:href="#DejaVuSans-109"/>
    </g>
   </g>
   <g id="legend_1">
    <g id="patch_7">
     <path d="M 64.6 302.584 
L 118.220312 302.584 
Q 120.220312 302.584 120.220312 300.584 
L 120.220312 286.905875 
Q 120.220312 284.905875 118.220312 284.905875 
L 64.6 284.905875 
Q 62.6 284.905875 62.6 286.905875 
L 62.6 300.584 
Q 62.6 302.584 64.6 302.584 
z
" style="fill:#ffffff;opacity:0.8;stroke:#cccccc;stroke-linejoin:miter;"/>
    </g>
    <g id="line2d_21">
     <path d="M 66.6 293.004312 
L 86.6 293.004312 
" style="fill:none;stroke:#ff0000;stroke-linecap:square;stroke-width:3;"/>
    </g>
    <g id="line2d_22"/>
    <g id="text_15">
     <!-- tsa1 -->
     <g transform="translate(94.6 296.504312)scale(0.1 -0.1)">
      <defs>
       <path d="M 18.3125 70.21875 
L 18.3125 54.6875 
L 36.8125 54.6875 
L 36.8125 47.703125 
L 18.3125 47.703125 
L 18.3125 18.015625 
Q 18.3125 11.328125 20.140625 9.421875 
Q 21.96875 7.515625 27.59375 7.515625 
L 36.8125 7.515625 
L 36.8125 0 
L 27.59375 0 
Q 17.1875 0 13.234375 3.875 
Q 9.28125 7.765625 9.28125 18.015625 
L 9.28125 47.703125 
L 2.6875 47.703125 
L 2.6875 54.6875 
L 9.28125 54.6875 
L 9.28125 70.21875 
z
" id="DejaVuSans-116"/>
       <path d="M 44.28125 53.078125 
L 44.28125 44.578125 
Q 40.484375 46.53125 36.375 47.5 
Q 32.28125 48.484375 27.875 48.484375 
Q 21.1875 48.484375 17.84375 46.4375 
Q 14.5 44.390625 14.5 40.28125 
Q 14.5 37.15625 16.890625 35.375 
Q 19.28125 33.59375 26.515625 31.984375 
L 29.59375 31.296875 
Q 39.15625 29.25 43.1875 25.515625 
Q 47.21875 21.78125 47.21875 15.09375 
Q 47.21875 7.46875 41.1875 3.015625 
Q 35.15625 -1.421875 24.609375 -1.421875 
Q 20.21875 -1.421875 15.453125 -0.5625 
Q 10.6875 0.296875 5.421875 2 
L 5.421875 11.28125 
Q 10.40625 8.6875 15.234375 7.390625 
Q 20.0625 6.109375 24.8125 6.109375 
Q 31.15625 6.109375 34.5625 8.28125 
Q 37.984375 10.453125 37.984375 14.40625 
Q 37.984375 18.0625 35.515625 20.015625 
Q 33.0625 21.96875 24.703125 23.78125 
L 21.578125 24.515625 
Q 13.234375 26.265625 9.515625 29.90625 
Q 5.8125 33.546875 5.8125 39.890625 
Q 5.8125 47.609375 11.28125 51.796875 
Q 16.75 56 26.8125 56 
Q 31.78125 56 36.171875 55.265625 
Q 40.578125 54.546875 44.28125 53.078125 
z
" id="DejaVuSans-115"/>
      </defs>
      <use xlink:href="#DejaVuSans-116"/>
      <use x="39.208984" xlink:href="#DejaVuSans-115"/>
      <use x="91.308594" xlink:href="#DejaVuSans-97"/>
      <use x="152.587891" xlink:href="#DejaVuSans-49"/>
     </g>
    </g>
   </g>
  </g>
 </g>
 <defs>
  <clipPath id="p25f6680f7b">
   <rect height="266.112" width="357.12" x="57.6" y="41.472"/>
  </clipPath>
 </defs>
</svg>
