0.00000000E+00  0.17513831E+02  0.70962997E+00  0.16755777E+02  0.16769673E+02  -.14504699E+02
0.41666667E-02  0.17024259E+02  0.66975357E+00  0.16293253E+02  0.16732083E+02  -.14084622E+02
0.83333333E-02  0.16561491E+02  0.63260577E+00  0.15855946E+02  0.16696579E+02  -.13676261E+02
0.12500000E-01  0.16123711E+02  0.59795316E+00  0.15442162E+02  0.16663054E+02  -.13278994E+02
0.16666667E-01  0.15709257E+02  0.56558487E+00  0.15050347E+02  0.16631411E+02  -.12892235E+02
0.20833333E-01  0.15316606E+02  0.53531020E+00  0.14679078E+02  0.16601556E+02  -.12515429E+02
0.25000000E-01  0.14944360E+02  0.50695646E+00  0.14327052E+02  0.16573407E+02  -.12148052E+02
0.29166667E-01  0.14591238E+02  0.48036707E+00  0.13993068E+02  0.16546884E+02  -.11789604E+02
0.33333333E-01  0.14256059E+02  0.45539988E+00  0.13676025E+02  0.16521917E+02  -.11439615E+02
0.37500000E-01  0.13937740E+02  0.43192567E+00  0.13374908E+02  0.16498442E+02  -.11097635E+02
0.41666667E-01  0.13635281E+02  0.40982680E+00  0.13088783E+02  0.16476399E+02  -.10763238E+02
0.45833333E-01  0.13347761E+02  0.38899604E+00  0.12816787E+02  0.16455736E+02  -.10436019E+02
0.50000000E-01  0.13074331E+02  0.36933550E+00  0.12558126E+02  0.16436406E+02  -.10115588E+02
0.54166667E-01  0.12814205E+02  0.35075571E+00  0.12312064E+02  0.16418367E+02  -.98015761E+01
0.58333333E-01  0.12566659E+02  0.33317478E+00  0.12077923E+02  0.16401584E+02  -.94936289E+01
0.62500000E-01  0.12331021E+02  0.31651765E+00  0.11855073E+02  0.16386026E+02  -.91914071E+01
0.66666667E-01  0.12106671E+02  0.30071545E+00  0.11642932E+02  0.16371666E+02  -.88945858E+01
0.70833333E-01  0.11893033E+02  0.28570488E+00  0.11440963E+02  0.16358484E+02  -.86028536E+01
0.75000000E-01  0.11689575E+02  0.27142773E+00  0.11248664E+02  0.16346462E+02  -.83159118E+01
0.79166667E-01  0.11495801E+02  0.25783037E+00  0.11065574E+02  0.16335589E+02  -.80334749E+01
0.83333333E-01  0.11311254E+02  0.24486336E+00  0.10891260E+02  0.16325856E+02  -.77552697E+01
0.87500000E-01  0.11135509E+02  0.23248106E+00  0.10725325E+02  0.16317259E+02  -.74810360E+01
0.91666667E-01  0.10968170E+02  0.22064136E+00  0.10567397E+02  0.16309798E+02  -.72105271E+01
0.95833333E-01  0.10808869E+02  0.20930530E+00  0.10417132E+02  0.16303474E+02  -.69435105E+01
0.10000000E+00  0.10657267E+02  0.19843691E+00  0.10274209E+02  0.16298293E+02  -.66797690E+01
0.10416667E+00  0.10513046E+02  0.18800291E+00  0.10138330E+02  0.16294265E+02  -.64191018E+01
0.10833333E+00  0.10375912E+02  0.17797258E+00  0.10009218E+02  0.16291399E+02  -.61613270E+01
0.11250000E+00  0.10245590E+02  0.16831753E+00  0.98866130E+01  0.16289709E+02  -.59062828E+01
0.11666667E+00  0.10121824E+02  0.15901159E+00  0.97702748E+01  0.16289207E+02  -.56538305E+01
0.12083333E+00  0.10004378E+02  0.15003070E+00  0.96599782E+01  0.16289910E+02  -.54038565E+01
0.12500000E+00  0.98930289E+01  0.14135276E+00  0.95555124E+01  0.16291830E+02  -.51562758E+01
0.12916667E+00  0.97875705E+01  0.13295758E+00  0.94566805E+01  0.16294984E+02  -.49110342E+01
0.13333333E+00  0.96878093E+01  0.12482682E+00  0.93632974E+01  0.16299383E+02  -.46681126E+01
0.13750000E+00  0.95935641E+01  0.11694390E+00  0.92751889E+01  0.16305039E+02  -.44275277E+01
0.14166667E+00  0.95046650E+01  0.10929400E+00  0.91921905E+01  0.16311957E+02  -.41893385E+01
0.14583333E+00  0.94209521E+01  0.10186399E+00  0.91141464E+01  0.16320142E+02  -.39536438E+01
0.15000000E+00  0.93422742E+01  0.94642481E-01  0.90409079E+01  0.16329590E+02  -.37205910E+01
0.15416667E+00  0.92684881E+01  0.87619744E-01  0.89723330E+01  0.16340291E+02  -.34903676E+01
0.15833333E+00  0.91994571E+01  0.80787779E-01  0.89082845E+01  0.16352230E+02  -.32632167E+01
0.16250000E+00  0.91350500E+01  0.74140278E-01  0.88486297E+01  0.16365377E+02  -.30394143E+01
0.16666667E+00  0.90751402E+01  0.67672684E-01  0.87932387E+01  0.16379696E+02  -.28193004E+01
0.17083333E+00  0.90196043E+01  0.61382156E-01  0.87419836E+01  0.16395135E+02  -.26032291E+01
0.17500000E+00  0.89683211E+01  0.55267667E-01  0.86947378E+01  0.16411631E+02  -.23916342E+01
0.17916667E+00  0.89211705E+01  0.49329920E-01  0.86513743E+01  0.16429103E+02  -.21849232E+01
0.18333333E+00  0.88780326E+01  0.43571520E-01  0.86117654E+01  0.16447455E+02  -.19836191E+01
0.18750000E+00  0.88387858E+01  0.37996777E-01  0.85757813E+01  0.16466571E+02  -.17881397E+01
0.19166667E+00  0.88033064E+01  0.32612028E-01  0.85432894E+01  0.16486317E+02  -.15991019E+01
0.19583333E+00  0.87714670E+01  0.27425217E-01  0.85141534E+01  0.16506535E+02  -.14168648E+01
0.20000000E+00  0.87431356E+01  0.22446500E-01  0.84882326E+01  0.16527047E+02  -.12421703E+01
0.20416667E+00  0.87181738E+01  0.17687439E-01  0.84653806E+01  0.16547652E+02  -.10752069E+01
0.20833333E+00  0.86964362E+01  0.13162122E-01  0.84454456E+01  0.16568123E+02  -.91693000E+00
0.21250000E+00  0.86777687E+01  0.88857030E-02  0.84282678E+01  0.16588208E+02  -.76716621E+00
0.21666667E+00  0.86620075E+01  0.48763346E-02  0.84136816E+01  0.16607630E+02  -.62728379E+00
0.22083333E+00  0.86489775E+01  0.11524206E-02  0.84015108E+01  0.16626083E+02  -.49643769E+00
0.22500000E+00  0.86384903E+01  -.22638101E-02  0.83915745E+01  0.16643239E+02  -.37682923E+00
0.22916667E+00  0.86303414E+01  -.53471605E-02  0.83836764E+01  0.16658734E+02  -.26604884E+00
0.23333333E+00  0.86243048E+01  -.80540163E-02  0.83776074E+01  0.16672172E+02  -.16653850E+00
0.23750000E+00  0.86201448E+01  -.10322710E-01  0.83731036E+01  0.16683052E+02  -.71084687E-01
0.24166667E+00  0.86176160E+01  -.12109685E-01  0.83698710E+01  0.16690814E+02  0.11499022E-01
0.24583333E+00  0.86165041E+01  -.13584139E-01  0.83677011E+01  0.16695012E+02  0.70441495E-01
0.25000000E+00  0.86163080E+01  -.15034561E-01  0.83668621E+01  0.16695997E+02  0.57641527E-01
0.25416667E+00  0.86164960E+01  -.16485514E-01  0.83677013E+01  0.16694418E+02  0.44936094E-01
0.25833333E+00  0.86175963E+01  -.17962964E-01  0.83698710E+01  0.16689798E+02  0.10385247E+00
0.26250000E+00  0.86201108E+01  -.19756610E-01  0.83731035E+01  0.16681615E+02  0.18645849E+00
0.26666667E+00  0.86242537E+01  -.22037299E-01  0.83776072E+01  0.16670196E+02  0.28188711E+00
0.27083333E+00  0.86302704E+01  -.24763071E-01  0.83836762E+01  0.16656112E+02  0.38141671E+00
0.27500000E+00  0.86383969E+01  -.27872957E-01  0.83915743E+01  0.16639879E+02  0.49218258E+00
0.27916667E+00  0.86488593E+01  -.31324072E-01  0.84015106E+01  0.16621908E+02  0.61180110E+00
0.28333333E+00  0.86618625E+01  -.35091842E-01  0.84136815E+01  0.16602565E+02  0.74263984E+00
0.28750000E+00  0.86775948E+01  -.39154712E-01  0.84282677E+01  0.16582183E+02  0.88252747E+00
0.29166667E+00  0.86962316E+01  -.43494860E-01  0.84454455E+01  0.16561071E+02  0.10322878E+01
0.29583333E+00  0.87179368E+01  -.48094712E-01  0.84653805E+01  0.16539509E+02  0.11905672E+01
0.30000000E+00  0.87428646E+01  -.52939629E-01  0.84882325E+01  0.16517753E+02  0.13575290E+01
0.30416667E+00  0.87711605E+01  -.58016032E-01  0.85141532E+01  0.16496033E+02  0.15322247E+01
0.30833333E+00  0.88029629E+01  -.63312823E-01  0.85432893E+01  0.16474555E+02  0.17144611E+01
0.31250000E+00  0.88384038E+01  -.68820305E-01  0.85757812E+01  0.16453502E+02  0.19034994E+01
0.31666667E+00  0.88776109E+01  -.74530963E-01  0.86117653E+01  0.16433032E+02  0.20989785E+01
0.32083333E+00  0.89207078E+01  -.80438887E-01  0.86513742E+01  0.16413285E+02  0.23002828E+01
0.32500000E+00  0.89678160E+01  -.86540178E-01  0.86947377E+01  0.16394379E+02  0.25069937E+01
0.32916667E+00  0.90190556E+01  -.92832641E-01  0.87419836E+01  0.16376415E+02  0.27185886E+01
0.33333333E+00  0.90745467E+01  -.99315985E-01  0.87932386E+01  0.16359476E+02  0.29346598E+01
0.33750000E+00  0.91344104E+01  -.10599165E+00  0.88486296E+01  0.16343629E+02  0.31547737E+01
0.34166667E+00  0.91987700E+01  -.11286290E+00  0.89082845E+01  0.16328928E+02  0.33785761E+01
0.34583333E+00  0.92677522E+01  -.11993472E+00  0.89723330E+01  0.16315411E+02  0.36057270E+01
0.35000000E+00  0.93414881E+01  -.12721386E+00  0.90409079E+01  0.16303110E+02  0.38359504E+01
0.35416667E+00  0.94201143E+01  -.13470881E+00  0.91141464E+01  0.16292042E+02  0.40690031E+01
0.35833333E+00  0.95037740E+01  -.14242977E+00  0.91921905E+01  0.16282218E+02  0.43046979E+01
0.36250000E+00  0.95926183E+01  -.15038867E+00  0.92751889E+01  0.16273643E+02  0.45428870E+01
0.36666667E+00  0.96868070E+01  -.15859916E+00  0.93632974E+01  0.16266315E+02  0.47834719E+01
0.37083333E+00  0.97865099E+01  -.16707666E+00  0.94566806E+01  0.16260226E+02  0.50263936E+01
0.37500000E+00  0.98919080E+01  -.17583836E+00  0.95555125E+01  0.16255366E+02  0.52716353E+01
0.37916667E+00  0.10003195E+02  -.18490329E+00  0.96599782E+01  0.16251722E+02  0.55192160E+01
0.38333333E+00  0.10120576E+02  -.19429234E+00  0.97702749E+01  0.16249280E+02  0.57691901E+01
0.38750000E+00  0.10244275E+02  -.20402836E+00  0.98866131E+01  0.16248024E+02  0.60216425E+01
0.39166667E+00  0.10374528E+02  -.21413625E+00  0.10009218E+02  0.16247940E+02  0.62766867E+01
0.39583333E+00  0.10511590E+02  -.22464304E+00  0.10138330E+02  0.16249011E+02  0.65344616E+01
0.40000000E+00  0.10655736E+02  -.23557808E+00  0.10274209E+02  0.16251225E+02  0.67951289E+01
0.40416667E+00  0.10807260E+02  -.24697310E+00  0.10417132E+02  0.16254569E+02  0.70588706E+01
0.40833333E+00  0.10966478E+02  -.25886246E+00  0.10567397E+02  0.16259034E+02  0.73258873E+01
0.41250000E+00  0.11133732E+02  -.27128333E+00  0.10725325E+02  0.16264613E+02  0.75963963E+01
0.41666667E+00  0.11309388E+02  -.28427591E+00  0.10891260E+02  0.16271300E+02  0.78706301E+01
0.42083333E+00  0.11493842E+02  -.29788370E+00  0.11065574E+02  0.16279096E+02  0.81488354E+01
0.42500000E+00  0.11687517E+02  -.31215377E+00  0.11248665E+02  0.16288003E+02  0.84312725E+01
0.42916667E+00  0.11890872E+02  -.32713716E+00  0.11440963E+02  0.16298027E+02  0.87182144E+01
0.43333333E+00  0.12104402E+02  -.34288919E+00  0.11642933E+02  0.16309178E+02  0.90099468E+01
0.43750000E+00  0.12328638E+02  -.35946992E+00  0.11855073E+02  0.16321471E+02  0.93067682E+01
0.44166667E+00  0.12564156E+02  -.37694461E+00  0.12077923E+02  0.16334925E+02  0.96089902E+01
0.44583333E+00  0.12811575E+02  -.39538428E+00  0.12312065E+02  0.16349564E+02  0.99169376E+01
0.45000000E+00  0.13071566E+02  -.41486629E+00  0.12558126E+02  0.16365417E+02  0.10230950E+02
0.45416667E+00  0.13344855E+02  -.43547503E+00  0.12816788E+02  0.16382516E+02  0.10551380E+02
0.45833333E+00  0.13632224E+02  -.45730265E+00  0.13088783E+02  0.16400902E+02  0.10878600E+02
0.46250000E+00  0.13934523E+02  -.48044997E+00  0.13374908E+02  0.16420617E+02  0.11212997E+02
0.46666667E+00  0.14252673E+02  -.50502738E+00  0.13676025E+02  0.16441712E+02  0.11554977E+02
0.47083333E+00  0.14587672E+02  -.53115596E+00  0.13993068E+02  0.16464243E+02  0.11904967E+02
0.47500000E+00  0.14940603E+02  -.55896864E+00  0.14327052E+02  0.16488271E+02  0.12263414E+02
0.47916667E+00  0.15312644E+02  -.58861162E+00  0.14679078E+02  0.16513865E+02  0.12630792E+02
0.48333333E+00  0.15705077E+02  -.62024587E+00  0.15050347E+02  0.16541098E+02  0.13007598E+02
0.48750000E+00  0.16119297E+02  -.65404884E+00  0.15442162E+02  0.16570051E+02  0.13394357E+02
0.49166667E+00  0.16556827E+02  -.69021644E+00  0.15855947E+02  0.16600813E+02  0.13791624E+02
0.49583333E+00  0.17019327E+02  -.72896522E+00  0.16293253E+02  0.16633477E+02  0.14199986E+02
0.50000000E+00  0.17508612E+02  -.77053482E+00  0.16755777E+02  0.16668145E+02  0.14620063E+02
0.50416667E+00  0.18026668E+02  -.81519074E+00  0.17245374E+02  0.16704926E+02  0.15052512E+02
0.50833333E+00  0.18575669E+02  -.86322752E+00  0.17764074E+02  0.16743935E+02  0.15498030E+02
0.51250000E+00  0.19158000E+02  -.91497223E+00  0.18314104E+02  0.16785294E+02  0.15957355E+02
0.51666667E+00  0.19776279E+02  -.97078841E+00  0.18897909E+02  0.16829133E+02  0.16431267E+02
0.52083333E+00  0.20433384E+02  -.10310806E+01  0.19518175E+02  0.16875587E+02  0.16920593E+02
0.52500000E+00  0.21132481E+02  -.10962992E+01  0.20177857E+02  0.16924795E+02  0.17426209E+02
0.52916667E+00  0.21877059E+02  -.11669463E+01  0.20880214E+02  0.16976902E+02  0.17949041E+02
0.53333333E+00  0.22670965E+02  -.12435817E+01  0.21628836E+02  0.17032057E+02  0.18490066E+02
0.53750000E+00  0.23518446E+02  -.13268299E+01  0.22427690E+02  0.17090409E+02  0.19050315E+02
0.54166667E+00  0.24424194E+02  -.14173880E+01  0.23281161E+02  0.17152105E+02  0.19630873E+02
0.54583333E+00  0.25393400E+02  -.15160338E+01  0.24194101E+02  0.17217291E+02  0.20232879E+02
0.55000000E+00  0.26431810E+02  -.16236355E+01  0.25171885E+02  0.17286100E+02  0.20857525E+02
0.55416667E+00  0.27545789E+02  -.17411616E+01  0.26220470E+02  0.17358658E+02  0.21506054E+02
0.55833333E+00  0.28742389E+02  -.18696915E+01  0.27346469E+02  0.17435067E+02  0.22179757E+02
0.56250000E+00  0.30029431E+02  -.20104269E+01  0.28557221E+02  0.17515405E+02  0.22879965E+02
0.56666667E+00  0.31415585E+02  -.21647037E+01  0.29860877E+02  0.17599711E+02  0.23608041E+02
0.57083333E+00  0.32910466E+02  -.23340030E+01  0.31266496E+02  0.17687978E+02  0.24365372E+02
0.57500000E+00  0.34524730E+02  -.25199628E+01  0.32784139E+02  0.17780133E+02  0.25153348E+02
0.57916667E+00  0.36270178E+02  -.27243870E+01  0.34424985E+02  0.17876024E+02  0.25973344E+02
0.58333333E+00  0.38159866E+02  -.29492527E+01  0.36201442E+02  0.17975396E+02  0.26826696E+02
0.58750000E+00  0.40208214E+02  -.31967128E+01  0.38127273E+02  0.18077862E+02  0.27714660E+02
0.59166667E+00  0.42431113E+02  -.34690922E+01  0.40217717E+02  0.18182879E+02  0.28638377E+02
0.59583333E+00  0.44846020E+02  -.37688756E+01  0.42489619E+02  0.18289702E+02  0.29598814E+02
0.60000000E+00  0.47472041E+02  -.40986809E+01  0.44961540E+02  0.18397347E+02  0.30596700E+02
0.60416667E+00  0.50329984E+02  -.44612157E+01  0.47653865E+02  0.18504535E+02  0.31632443E+02
0.60833333E+00  0.53442362E+02  -.48592092E+01  0.50588874E+02  0.18609635E+02  0.32706030E+02
0.61250000E+00  0.56833340E+02  -.52953126E+01  0.53790770E+02  0.18710595E+02  0.33816905E+02
0.61666667E+00  0.60528588E+02  -.57719583E+01  0.57285644E+02  0.18804865E+02  0.34963830E+02
0.62083333E+00  0.64555013E+02  -.62911675E+01  0.61101344E+02  0.18889319E+02  0.36144697E+02
0.62500000E+00  0.68940328E+02  -.68542962E+01  0.65267210E+02  0.18960160E+02  0.37356353E+02
0.62916667E+00  0.73712423E+02  -.74617044E+01  0.69813635E+02  0.19012835E+02  0.38594319E+02
0.63333333E+00  0.78898470E+02  -.81123445E+01  0.74771394E+02  0.19041949E+02  0.39852584E+02
0.63750000E+00  0.84523725E+02  -.88032549E+01  0.80170677E+02  0.19041189E+02  0.41123212E+02
0.64166667E+00  0.90609968E+02  -.95289725E+01  0.86039757E+02  0.19003277E+02  0.42396127E+02
0.64583333E+00  0.97173548E+02  -.10280866E+02  0.92403228E+02  0.18919962E+02  0.43658584E+02
0.65000000E+00  0.10422301E+03  -.11046445E+02  0.99279733E+02  0.18782067E+02  0.44895039E+02
0.65416667E+00  0.11175636E+03  -.11808689E+02  0.10667918E+03  0.18579629E+02  0.46086443E+02
0.65833333E+00  0.11975799E+03  -.12545526E+02  0.11459939E+03  0.18302140E+02  0.47210418E+02
0.66250000E+00  0.12819556E+03  -.13229557E+02  0.12302238E+03  0.17938940E+02  0.48240287E+02
0.66666667E+00  0.13701693E+03  -.13828294E+02  0.13191027E+03  0.17479755E+02  0.49146020E+02
0.67083333E+00  0.14614778E+03  -.14304974E+02  0.14120146E+03  0.16915432E+02  0.49892791E+02
0.67500000E+00  0.15549014E+03  -.14620362E+02  0.15080723E+03  0.16238820E+02  0.50443547E+02
0.67916667E+00  0.16492259E+03  -.14735378E+02  0.16060983E+03  0.15445796E+02  0.50756492E+02
0.68333333E+00  0.17430255E+03  -.14614991E+02  0.17046253E+03  0.14536324E+02  0.50790875E+02
0.68750000E+00  0.18347116E+03  -.14232529E+02  0.18019289E+03  0.13515469E+02  0.50501669E+02
0.69166667E+00  0.19226067E+03  -.13574896E+02  0.18960940E+03  0.12394129E+02  0.49851621E+02
0.69583333E+00  0.20050461E+03  -.12646528E+02  0.19851253E+03  0.11189416E+02  0.48798625E+02
0.70000000E+00  0.20804901E+03  -.11473185E+02  0.20670861E+03  0.99243670E+01  0.47320352E+02
0.70416667E+00  0.21476516E+03  -.10101739E+02  0.21402715E+03  0.86271024E+01  0.45383311E+02
0.70833333E+00  0.22056006E+03  -.85993323E+01  0.22033657E+03  0.73291511E+01  0.42994974E+02
0.71250000E+00  0.22538610E+03  -.70460582E+01  0.22556008E+03  0.60635223E+01  0.40128023E+02
0.71666667E+00  0.22924441E+03  -.55294288E+01  0.22968273E+03  0.48621870E+01  0.36839459E+02
0.72083333E+00  0.23218638E+03  -.41311297E+01  0.23275659E+03  0.37542745E+01  0.33083781E+02
0.72500000E+00  0.23430590E+03  -.29218676E+01  0.23489016E+03  0.27638729E+01  0.29010436E+02
0.72916667E+00  0.23573283E+03  -.19478397E+01  0.23624097E+03  0.19101463E+01  0.24470604E+02
0.73333333E+00  0.23661602E+03  -.12340029E+01  0.23698893E+03  0.12055388E+01  0.19831262E+02
0.73750000E+00  0.23710921E+03  -.77252545E+00  0.23732784E+03  0.66094020E+00  0.14482643E+02
0.74166667E+00  0.23734750E+03  -.52951253E+00  0.23743387E+03  0.27688225E+00  0.94268724E+01
0.74583333E+00  0.23743318E+03  -.43579946E+00  0.23745653E+03  0.44510892E-01  0.13606343E+01
0.75000000E+00  0.23744412E+03  -.41445394E+00  0.23745832E+03  -.41274184E-01  0.58699519E-01
0.75416667E+00  0.23743347E+03  -.39324217E+00  0.23745654E+03  0.83028623E-01  -.12400610E+01
0.75833333E+00  0.23734869E+03  -.29982596E+00  0.23743388E+03  0.34069266E+00  -.93130720E+01
0.76250000E+00  0.23711229E+03  -.56967433E-01  0.23732789E+03  0.76274156E+00  -.14367070E+02
0.76666667E+00  0.23662236E+03  0.40497534E+00  0.23698900E+03  0.13444507E+01  -.19716216E+02
0.77083333E+00  0.23574411E+03  0.11205203E+01  0.23624105E+03  0.20838729E+01  -.24355127E+02
0.77500000E+00  0.23432383E+03  0.20982043E+01  0.23489023E+03  0.29699139E+01  -.28895264E+02
0.77916667E+00  0.23221252E+03  0.33137160E+01  0.23275665E+03  0.39898723E+01  -.32968454E+02
0.78333333E+00  0.22928002E+03  0.47214457E+01  0.22968278E+03  0.51244693E+01  -.36724231E+02
0.78750000E+00  0.22543199E+03  0.62511019E+01  0.22556011E+03  0.63493414E+01  -.40012721E+02
0.79166667E+00  0.22061650E+03  0.78212319E+01  0.22033657E+03  0.76352212E+01  -.42879689E+02
0.79583333E+00  0.21483186E+03  0.93443195E+01  0.21402714E+03  0.89500224E+01  -.45267980E+02
0.80000000E+00  0.20812516E+03  0.10740055E+02  0.20670859E+03  0.10260746E+02  -.47205013E+02
0.80416667E+00  0.20058892E+03  0.11940883E+02  0.19851250E+03  0.11535943E+02  -.48683255E+02
0.80833333E+00  0.19235156E+03  0.12899373E+02  0.18960936E+03  0.12747671E+02  -.49736239E+02
0.81250000E+00  0.18356683E+03  0.13589117E+02  0.18019286E+03  0.13873126E+02  -.50386270E+02
0.81666667E+00  0.17440117E+03  0.14004993E+02  0.17046250E+03  0.14895485E+02  -.50675468E+02
0.82083333E+00  0.16502238E+03  0.14159430E+02  0.16060981E+03  0.15804164E+02  -.50641078E+02
0.82500000E+00  0.15558948E+03  0.14078487E+02  0.15080722E+03  0.16594424E+02  -.50328131E+02
0.82916667E+00  0.14624528E+03  0.13796663E+02  0.14120145E+03  0.17266620E+02  -.49777374E+02
0.83333333E+00  0.13711144E+03  0.13352607E+02  0.13191027E+03  0.17825178E+02  -.49030605E+02
0.83750000E+00  0.12828621E+03  0.12785214E+02  0.12302238E+03  0.18277528E+02  -.48124875E+02
0.84166667E+00  0.11984415E+03  0.12131007E+02  0.11459940E+03  0.18633071E+02  -.47095009E+02
0.84583333E+00  0.11183761E+03  0.11422316E+02  0.10667918E+03  0.18902297E+02  -.45971038E+02
0.85000000E+00  0.10429915E+03  0.10686454E+02  0.99279741E+02  0.19096053E+02  -.44779638E+02
0.85416667E+00  0.97244503E+02  0.99454649E+01  0.92403236E+02  0.19225004E+02  -.43543186E+02
0.85833333E+00  0.90675809E+02  0.92163890E+01  0.86039766E+02  0.19299242E+02  -.42280733E+02
0.86250000E+00  0.84584607E+02  0.85117673E+01  0.80170685E+02  0.19328048E+02  -.41007821E+02
0.86666667E+00  0.78954612E+02  0.78403065E+01  0.74771401E+02  0.19319759E+02  -.39737195E+02
0.87083333E+00  0.73764088E+02  0.72075606E+01  0.69813641E+02  0.19281718E+02  -.38478933E+02
0.87500000E+00  0.68987803E+02  0.66165906E+01  0.65267215E+02  0.19220288E+02  -.37240968E+02
0.87916667E+00  0.64598594E+02  0.60685478E+01  0.61101348E+02  0.19140902E+02  -.36029315E+02
0.88333333E+00  0.60568574E+02  0.55631757E+01  0.57285648E+02  0.19048141E+02  -.34848449E+02
0.88750000E+00  0.56870020E+02  0.50992194E+01  0.53790773E+02  0.18945818E+02  -.33701525E+02
0.89166667E+00  0.53476014E+02  0.46747544E+01  0.50588876E+02  0.18837073E+02  -.32590652E+02
0.89583333E+00  0.50360870E+02  0.42874394E+01  0.47653867E+02  0.18724461E+02  -.31517066E+02
0.90000000E+00  0.47500406E+02  0.39347087E+01  0.44961541E+02  0.18610034E+02  -.30481324E+02
0.90416667E+00  0.44872090E+02  0.36139116E+01  0.42489619E+02  0.18495423E+02  -.29483439E+02
0.90833333E+00  0.42455097E+02  0.33224130E+01  0.40217718E+02  0.18381901E+02  -.28523003E+02
0.91250000E+00  0.40230302E+02  0.30576609E+01  0.38127273E+02  0.18270447E+02  -.27599286E+02
0.91666667E+00  0.38180230E+02  0.28172312E+01  0.36201442E+02  0.18161795E+02  -.26711323E+02
0.92083333E+00  0.36288976E+02  0.25988532E+01  0.34424984E+02  0.18056484E+02  -.25857972E+02
0.92500000E+00  0.34542105E+02  0.24004237E+01  0.32784139E+02  0.17954887E+02  -.25037976E+02
0.92916667E+00  0.32926546E+02  0.22200103E+01  0.31266495E+02  0.17857250E+02  -.24250001E+02
0.93333333E+00  0.31430487E+02  0.20558493E+01  0.29860877E+02  0.17763717E+02  -.23492671E+02
0.93750000E+00  0.30043259E+02  0.19063393E+01  0.28557220E+02  0.17674349E+02  -.22764595E+02
0.94166667E+00  0.28755238E+02  0.17700318E+01  0.27346469E+02  0.17589144E+02  -.22064388E+02
0.94583333E+00  0.27557744E+02  0.16456205E+01  0.26220470E+02  0.17508052E+02  -.21390685E+02
0.95000000E+00  0.26442948E+02  0.15319303E+01  0.25171884E+02  0.17430987E+02  -.20742156E+02
0.95416667E+00  0.25403790E+02  0.14279059E+01  0.24194101E+02  0.17357836E+02  -.20117511E+02
0.95833333E+00  0.24433898E+02  0.13326005E+01  0.23281161E+02  0.17288468E+02  -.19515505E+02
0.96250000E+00  0.23527521E+02  0.12451655E+01  0.22427690E+02  0.17222736E+02  -.18934948E+02
0.96666667E+00  0.22679463E+02  0.11648407E+01  0.21628836E+02  0.17160491E+02  -.18374699E+02
0.97083333E+00  0.21885025E+02  0.10909450E+01  0.20880213E+02  0.17101576E+02  -.17833675E+02
0.97500000E+00  0.21139957E+02  0.10228685E+01  0.20177857E+02  0.17045834E+02  -.17310843E+02
0.97916667E+00  0.20440407E+02  0.96006429E+00  0.19518174E+02  0.16993112E+02  -.16805227E+02
0.98333333E+00  0.19782884E+02  0.90204240E+00  0.18897908E+02  0.16943257E+02  -.16315901E+02
0.98750000E+00  0.19164218E+02  0.84836313E+00  0.18314103E+02  0.16896123E+02  -.15841990E+02
0.99166667E+00  0.18581529E+02  0.79863176E+00  0.17764073E+02  0.16851570E+02  -.15382666E+02
0.99583333E+00  0.18032196E+02  0.75249368E+00  0.17245373E+02  0.16809462E+02  -.14937148E+02
0.10000000E+01  0.17513831E+02  0.70962997E+00  0.16755777E+02  0.16769673E+02  -.14504699E+02
