0.00000000E+00  0.16681675E+02  0.26867963E+00  0.16315987E+02  0.16298018E+02  -.10577275E+02
0.41666667E-02  0.16676178E+02  0.27292800E+00  0.16287159E+02  0.16694887E+02  -.10445088E+02
0.83333333E-02  0.16670657E+02  0.27683122E+00  0.16257808E+02  0.17089429E+02  -.10306356E+02
0.12500000E-01  0.16665113E+02  0.28037957E+00  0.16227961E+02  0.17481338E+02  -.10161676E+02
0.16666667E-01  0.16659548E+02  0.28356449E+00  0.16197643E+02  0.17870317E+02  -.10011600E+02
0.20833333E-01  0.16653966E+02  0.28637863E+00  0.16166882E+02  0.18256073E+02  -.98566366E+01
0.25000000E-01  0.16648368E+02  0.28881583E+00  0.16135709E+02  0.18638322E+02  -.96972470E+01
0.29166667E-01  0.16642758E+02  0.29087108E+00  0.16104152E+02  0.19016788E+02  -.95338503E+01
0.33333333E-01  0.16637140E+02  0.29254056E+00  0.16072244E+02  0.19391203E+02  -.93668230E+01
0.37500000E-01  0.16631518E+02  0.29382154E+00  0.16040018E+02  0.19761307E+02  -.91965020E+01
0.41666667E-01  0.16625898E+02  0.29471242E+00  0.16007507E+02  0.20126850E+02  -.90231871E+01
0.45833333E-01  0.16620284E+02  0.29521266E+00  0.15974746E+02  0.20487590E+02  -.88471440E+01
0.50000000E-01  0.16614682E+02  0.29532274E+00  0.15941772E+02  0.20843296E+02  -.86686073E+01
0.54166667E-01  0.16609099E+02  0.29504414E+00  0.15908620E+02  0.21193745E+02  -.84877838E+01
0.58333333E-01  0.16603542E+02  0.29437926E+00  0.15875330E+02  0.21538726E+02  -.83048553E+01
0.62500000E-01  0.16598016E+02  0.29333137E+00  0.15841939E+02  0.21878035E+02  -.81199822E+01
0.66666667E-01  0.16592530E+02  0.29190461E+00  0.15808486E+02  0.22211481E+02  -.79333060E+01
0.70833333E-01  0.16587092E+02  0.29010387E+00  0.15775012E+02  0.22538881E+02  -.77449526E+01
0.75000000E-01  0.16581708E+02  0.28793475E+00  0.15741556E+02  0.22860063E+02  -.75550349E+01
0.79166667E-01  0.16576388E+02  0.28540353E+00  0.15708159E+02  0.23174863E+02  -.73636558E+01
0.83333333E-01  0.16571140E+02  0.28251708E+00  0.15674863E+02  0.23483130E+02  -.71709103E+01
0.87500000E-01  0.16565971E+02  0.27928281E+00  0.15641707E+02  0.23784719E+02  -.69768886E+01
0.91666667E-01  0.16560891E+02  0.27570860E+00  0.15608734E+02  0.24079497E+02  -.67816775E+01
0.95833333E-01  0.16555908E+02  0.27180275E+00  0.15575984E+02  0.24367339E+02  -.65853635E+01
0.10000000E+00  0.16551030E+02  0.26757391E+00  0.15543498E+02  0.24648130E+02  -.63880340E+01
0.10416667E+00  0.16546266E+02  0.26303103E+00  0.15511318E+02  0.24921763E+02  -.61897797E+01
0.10833333E+00  0.16541624E+02  0.25818329E+00  0.15479485E+02  0.25188141E+02  -.59906962E+01
0.11250000E+00  0.16537112E+02  0.25304002E+00  0.15448037E+02  0.25447173E+02  -.57908852E+01
0.11666667E+00  0.16532738E+02  0.24761070E+00  0.15417016E+02  0.25698778E+02  -.55904566E+01
0.12083333E+00  0.16528509E+02  0.24190482E+00  0.15386462E+02  0.25942881E+02  -.53895291E+01
0.12500000E+00  0.16524432E+02  0.23593190E+00  0.15356412E+02  0.26179417E+02  -.51882319E+01
0.12916667E+00  0.16520515E+02  0.22970141E+00  0.15326906E+02  0.26408326E+02  -.49867052E+01
0.13333333E+00  0.16516762E+02  0.22322270E+00  0.15297981E+02  0.26629555E+02  -.47851014E+01
0.13750000E+00  0.16513181E+02  0.21650498E+00  0.15269675E+02  0.26843059E+02  -.45835855E+01
0.14166667E+00  0.16509776E+02  0.20955725E+00  0.15242024E+02  0.27048797E+02  -.43823355E+01
0.14583333E+00  0.16506551E+02  0.20238829E+00  0.15215064E+02  0.27246736E+02  -.41815432E+01
0.15000000E+00  0.16503511E+02  0.19500659E+00  0.15188829E+02  0.27436848E+02  -.39814132E+01
0.15416667E+00  0.16500658E+02  0.18742037E+00  0.15163355E+02  0.27619109E+02  -.37821636E+01
0.15833333E+00  0.16497995E+02  0.17963749E+00  0.15138675E+02  0.27793500E+02  -.35840253E+01
0.16250000E+00  0.16495523E+02  0.17166548E+00  0.15114821E+02  0.27960010E+02  -.33872406E+01
0.16666667E+00  0.16493242E+02  0.16351152E+00  0.15091825E+02  0.28118627E+02  -.31920627E+01
0.17083333E+00  0.16491152E+02  0.15518241E+00  0.15069719E+02  0.28269347E+02  -.29987538E+01
0.17500000E+00  0.16489252E+02  0.14668464E+00  0.15048532E+02  0.28412169E+02  -.28075827E+01
0.17916667E+00  0.16487538E+02  0.13802432E+00  0.15028293E+02  0.28547093E+02  -.26188224E+01
0.18333333E+00  0.16486007E+02  0.12920727E+00  0.15009031E+02  0.28674125E+02  -.24327467E+01
0.18750000E+00  0.16484653E+02  0.12023905E+00  0.14990774E+02  0.28793272E+02  -.22496261E+01
0.19166667E+00  0.16483471E+02  0.11112500E+00  0.14973548E+02  0.28904544E+02  -.20697226E+01
0.19583333E+00  0.16482454E+02  0.10187032E+00  0.14957378E+02  0.29007953E+02  -.18932839E+01
0.20000000E+00  0.16481592E+02  0.92480141E-01  0.14942290E+02  0.29103514E+02  -.17205363E+01
0.20416667E+00  0.16480875E+02  0.82959643E-01  0.14928308E+02  0.29191241E+02  -.15516764E+01
0.20833333E+00  0.16480292E+02  0.73314175E-01  0.14915453E+02  0.29271151E+02  -.13868610E+01
0.21250000E+00  0.16479832E+02  0.63549404E-01  0.14903748E+02  0.29343263E+02  -.12261963E+01
0.21666667E+00  0.16479479E+02  0.53671473E-01  0.14893213E+02  0.29407592E+02  -.10697245E+01
0.22083333E+00  0.16479221E+02  0.43687231E-01  0.14883867E+02  0.29464158E+02  -.91741027E+00
0.22500000E+00  0.16479041E+02  0.33604422E-01  0.14875728E+02  0.29512978E+02  -.76912499E+00
0.22916667E+00  0.16478924E+02  0.23432045E-01  0.14868811E+02  0.29554067E+02  -.62463262E+00
0.23333333E+00  0.16478854E+02  0.13180594E-01  0.14863132E+02  0.29587442E+02  -.48357695E+00
0.23750000E+00  0.16478814E+02  0.28627546E-02  0.14858701E+02  0.29613115E+02  -.34547520E+00
0.24166667E+00  0.16478791E+02  -.75062585E-02  0.14855529E+02  0.29631098E+02  -.20972080E+00
0.24583333E+00  0.16478773E+02  -.17908439E-01  0.14853623E+02  0.29641400E+02  -.75598792E-01
0.25000000E+00  0.16478755E+02  -.28324558E-01  0.14852987E+02  0.29644026E+02  0.57685717E-01
0.25416667E+00  0.16478736E+02  -.38741108E-01  0.14853623E+02  0.29638981E+02  0.19097029E+00
0.25833333E+00  0.16478718E+02  -.49145152E-01  0.14855529E+02  0.29626264E+02  0.32509226E+00
0.26250000E+00  0.16478704E+02  -.59517661E-01  0.14858701E+02  0.29605874E+02  0.46084664E+00
0.26666667E+00  0.16478706E+02  -.69840464E-01  0.14863132E+02  0.29577804E+02  0.59894823E+00
0.27083333E+00  0.16478738E+02  -.80098155E-01  0.14868811E+02  0.29542047E+02  0.74000368E+00
0.27500000E+00  0.16478815E+02  -.90277903E-01  0.14875728E+02  0.29498591E+02  0.88449561E+00
0.27916667E+00  0.16478953E+02  -.10036912E+00  0.14883867E+02  0.29447422E+02  0.10327804E+01
0.28333333E+00  0.16479169E+02  -.11036274E+00  0.14893213E+02  0.29388527E+02  0.11850939E+01
0.28750000E+00  0.16479479E+02  -.12025098E+00  0.14903748E+02  0.29321889E+02  0.13415649E+01
0.29166667E+00  0.16479896E+02  -.13002699E+00  0.14915453E+02  0.29247491E+02  0.15022286E+01
0.29583333E+00  0.16480434E+02  -.13968461E+00  0.14928308E+02  0.29165314E+02  0.16670429E+01
0.30000000E+00  0.16481106E+02  -.14921818E+00  0.14942290E+02  0.29075343E+02  0.18359015E+01
0.30416667E+00  0.16481922E+02  -.15862239E+00  0.14957378E+02  0.28977561E+02  0.20086478E+01
0.30833333E+00  0.16482894E+02  -.16789207E+00  0.14973548E+02  0.28871953E+02  0.21850850E+01
0.31250000E+00  0.16484030E+02  -.17702212E+00  0.14990774E+02  0.28758504E+02  0.23649870E+01
0.31666667E+00  0.16485338E+02  -.18600737E+00  0.15009031E+02  0.28637202E+02  0.25481060E+01
0.32083333E+00  0.16486823E+02  -.19484253E+00  0.15028293E+02  0.28508038E+02  0.27341799E+01
0.32500000E+00  0.16488491E+02  -.20352208E+00  0.15048532E+02  0.28371004E+02  0.29229384E+01
0.32916667E+00  0.16490346E+02  -.21204023E+00  0.15069719E+02  0.28226096E+02  0.31141076E+01
0.33333333E+00  0.16492391E+02  -.22039089E+00  0.15091825E+02  0.28073311E+02  0.33074146E+01
0.33750000E+00  0.16494627E+02  -.22856764E+00  0.15114821E+02  0.27912652E+02  0.35025904E+01
0.34166667E+00  0.16497055E+02  -.23656369E+00  0.15138675E+02  0.27744124E+02  0.36993729E+01
0.34583333E+00  0.16499675E+02  -.24437189E+00  0.15163355E+02  0.27567736E+02  0.38975091E+01
0.35000000E+00  0.16502486E+02  -.25198475E+00  0.15188829E+02  0.27383504E+02  0.40967564E+01
0.35416667E+00  0.16505484E+02  -.25939440E+00  0.15215064E+02  0.27191445E+02  0.42968841E+01
0.35833333E+00  0.16508669E+02  -.26659267E+00  0.15242024E+02  0.26991584E+02  0.44976742E+01
0.36250000E+00  0.16512035E+02  -.27357106E+00  0.15269675E+02  0.26783949E+02  0.46989217E+01
0.36666667E+00  0.16515578E+02  -.28032081E+00  0.15297981E+02  0.26568574E+02  0.49004351E+01
0.37083333E+00  0.16519293E+02  -.28683290E+00  0.15326906E+02  0.26345501E+02  0.51020365E+01
0.37500000E+00  0.16523175E+02  -.29309813E+00  0.15356412E+02  0.26114777E+02  0.53035606E+01
0.37916667E+00  0.16527218E+02  -.29910714E+00  0.15386462E+02  0.25876454E+02  0.55048553E+01
0.38333333E+00  0.16531415E+02  -.30485044E+00  0.15417016E+02  0.25630593E+02  0.57057802E+01
0.38750000E+00  0.16535758E+02  -.31031849E+00  0.15448037E+02  0.25377261E+02  0.59062062E+01
0.39166667E+00  0.16540241E+02  -.31550177E+00  0.15479485E+02  0.25116534E+02  0.61060145E+01
0.39583333E+00  0.16544855E+02  -.32039077E+00  0.15511318E+02  0.24848494E+02  0.63050953E+01
0.40000000E+00  0.16549593E+02  -.32497611E+00  0.15543498E+02  0.24573232E+02  0.65033469E+01
0.40416667E+00  0.16554447E+02  -.32924857E+00  0.15575984E+02  0.24290848E+02  0.67006737E+01
0.40833333E+00  0.16559408E+02  -.33319915E+00  0.15608734E+02  0.24001448E+02  0.68969851E+01
0.41250000E+00  0.16564467E+02  -.33681916E+00  0.15641707E+02  0.23705151E+02  0.70921934E+01
0.41666667E+00  0.16569617E+02  -.34010021E+00  0.15674863E+02  0.23402081E+02  0.72862125E+01
0.42083333E+00  0.16574849E+02  -.34303437E+00  0.15708159E+02  0.23092373E+02  0.74789553E+01
0.42500000E+00  0.16580155E+02  -.34561416E+00  0.15741556E+02  0.22776173E+02  0.76703318E+01
0.42916667E+00  0.16585525E+02  -.34783262E+00  0.15775012E+02  0.22453633E+02  0.78602469E+01
0.43333333E+00  0.16590953E+02  -.34968341E+00  0.15808486E+02  0.22124919E+02  0.80485978E+01
0.43750000E+00  0.16596430E+02  -.35116083E+00  0.15841939E+02  0.21790203E+02  0.82352714E+01
0.44166667E+00  0.16601949E+02  -.35225989E+00  0.15875330E+02  0.21449670E+02  0.84201421E+01
0.44583333E+00  0.16607502E+02  -.35297639E+00  0.15908620E+02  0.21103512E+02  0.86030681E+01
0.45000000E+00  0.16613082E+02  -.35330693E+00  0.15941772E+02  0.20751934E+02  0.87838893E+01
0.45416667E+00  0.16618682E+02  -.35324903E+00  0.15974746E+02  0.20395148E+02  0.89624237E+01
0.45833333E+00  0.16624297E+02  -.35280110E+00  0.16007507E+02  0.20033378E+02  0.91384646E+01
0.46250000E+00  0.16629920E+02  -.35196256E+00  0.16040018E+02  0.19666857E+02  0.93117774E+01
0.46666667E+00  0.16635546E+02  -.35073384E+00  0.16072244E+02  0.19295827E+02  0.94820964E+01
0.47083333E+00  0.16641170E+02  -.34911645E+00  0.16104152E+02  0.18920539E+02  0.96491218E+01
0.47500000E+00  0.16646788E+02  -.34711297E+00  0.16135709E+02  0.18541254E+02  0.98125167E+01
0.47916667E+00  0.16652395E+02  -.34472715E+00  0.16166882E+02  0.18158242E+02  0.99719045E+01
0.48333333E+00  0.16657989E+02  -.34196387E+00  0.16197643E+02  0.17771779E+02  0.10126867E+02
0.48750000E+00  0.16663566E+02  -.33882919E+00  0.16227961E+02  0.17382152E+02  0.10276941E+02
0.49166667E+00  0.16669124E+02  -.33533036E+00  0.16257809E+02  0.16989653E+02  0.10421620E+02
0.49583333E+00  0.16674661E+02  -.33147581E+00  0.16287159E+02  0.16594582E+02  0.10560350E+02
0.50000000E+00  0.16680175E+02  -.32727518E+00  0.16315987E+02  0.16197245E+02  0.10692535E+02
0.50416667E+00  0.16685665E+02  -.32273924E+00  0.16344267E+02  0.15797955E+02  0.10817534E+02
0.50833333E+00  0.16691131E+02  -.31787997E+00  0.16371977E+02  0.15397028E+02  0.10934666E+02
0.51250000E+00  0.16696572E+02  -.31271044E+00  0.16399093E+02  0.14994787E+02  0.11043214E+02
0.51666667E+00  0.16701989E+02  -.30724481E+00  0.16425596E+02  0.14591558E+02  0.11142428E+02
0.52083333E+00  0.16707381E+02  -.30149830E+00  0.16451463E+02  0.14187672E+02  0.11231535E+02
0.52500000E+00  0.16712748E+02  -.29548710E+00  0.16476677E+02  0.13783461E+02  0.11309743E+02
0.52916667E+00  0.16718092E+02  -.28922834E+00  0.16501218E+02  0.13379261E+02  0.11376251E+02
0.53333333E+00  0.16723413E+02  -.28273996E+00  0.16525068E+02  0.12975411E+02  0.11430255E+02
0.53750000E+00  0.16728711E+02  -.27604072E+00  0.16548212E+02  0.12572250E+02  0.11470957E+02
0.54166667E+00  0.16733988E+02  -.26915004E+00  0.16570633E+02  0.12170119E+02  0.11497576E+02
0.54583333E+00  0.16739243E+02  -.26208793E+00  0.16592318E+02  0.11769361E+02  0.11509351E+02
0.55000000E+00  0.16744478E+02  -.25487491E+00  0.16613251E+02  0.11370317E+02  0.11505550E+02
0.55416667E+00  0.16749692E+02  -.24753190E+00  0.16633422E+02  0.10973332E+02  0.11485477E+02
0.55833333E+00  0.16754885E+02  -.24008010E+00  0.16652819E+02  0.10578747E+02  0.11448476E+02
0.56250000E+00  0.16760056E+02  -.23254091E+00  0.16671433E+02  0.10186905E+02  0.11393928E+02
0.56666667E+00  0.16765205E+02  -.22493582E+00  0.16689256E+02  0.97981480E+01  0.11321268E+02
0.57083333E+00  0.16770331E+02  -.21728632E+00  0.16706282E+02  0.94128156E+01  0.11229963E+02
0.57500000E+00  0.16775430E+02  -.20961374E+00  0.16722506E+02  0.90312467E+01  0.11119536E+02
0.57916667E+00  0.16780502E+02  -.20193921E+00  0.16737927E+02  0.86537780E+01  0.10989538E+02
0.58333333E+00  0.16785542E+02  -.19428355E+00  0.16752545E+02  0.82807435E+01  0.10839571E+02
0.58750000E+00  0.16790549E+02  -.18666713E+00  0.16766362E+02  0.79124745E+01  0.10669248E+02
0.59166667E+00  0.16795516E+02  -.17910984E+00  0.16779382E+02  0.75492989E+01  0.10478235E+02
0.59583333E+00  0.16800441E+02  -.17163093E+00  0.16791614E+02  0.71915409E+01  0.10266174E+02
0.60000000E+00  0.16805317E+02  -.16424897E+00  0.16803066E+02  0.68395203E+01  0.10032765E+02
0.60416667E+00  0.16810139E+02  -.15698177E+00  0.16813752E+02  0.64935525E+01  0.97776382E+01
0.60833333E+00  0.16814901E+02  -.14984627E+00  0.16823688E+02  0.61539475E+01  0.95004940E+01
0.61250000E+00  0.16819595E+02  -.14285847E+00  0.16832890E+02  0.58210103E+01  0.92008879E+01
0.61666667E+00  0.16824214E+02  -.13603338E+00  0.16841380E+02  0.54950390E+01  0.88784952E+01
0.62083333E+00  0.16828752E+02  -.12938496E+00  0.16849182E+02  0.51763256E+01  0.85327355E+01
0.62500000E+00  0.16833198E+02  -.12292601E+00  0.16856322E+02  0.48651530E+01  0.81632743E+01
0.62916667E+00  0.16837546E+02  -.11666819E+00  0.16862828E+02  0.45617957E+01  0.77693798E+01
0.63333333E+00  0.16841787E+02  -.11062191E+00  0.16868732E+02  0.42665125E+01  0.73508830E+01
0.63750000E+00  0.16845912E+02  -.10479633E+00  0.16874068E+02  0.39795475E+01  0.69070769E+01
0.64166667E+00  0.16849913E+02  -.99199329E-01  0.16878873E+02  0.37011163E+01  0.64385605E+01
0.64583333E+00  0.16853780E+02  -.93837450E-01  0.16883184E+02  0.34314088E+01  0.59452885E+01
0.65000000E+00  0.16857506E+02  -.88715915E-01  0.16887040E+02  0.31705718E+01  0.54299612E+01
0.65416667E+00  0.16861082E+02  -.83838605E-01  0.16890482E+02  0.29187311E+01  0.48942142E+01
0.65833333E+00  0.16864501E+02  -.79208064E-01  0.16893549E+02  0.26759831E+01  0.43444036E+01
0.66250000E+00  0.16867756E+02  -.74825501E-01  0.16896280E+02  0.24424482E+01  0.37837160E+01
0.66666667E+00  0.16870840E+02  -.70690812E-01  0.16898709E+02  0.22182534E+01  0.32221731E+01
0.67083333E+00  0.16873746E+02  -.66802595E-01  0.16900869E+02  0.20035894E+01  0.26614442E+01
0.67500000E+00  0.16876472E+02  -.63158184E-01  0.16902788E+02  0.17986387E+01  0.21140174E+01
0.67916667E+00  0.16879011E+02  -.59753666E-01  0.16904491E+02  0.16036360E+01  0.15756270E+01
0.68333333E+00  0.16881362E+02  -.56583937E-01  0.16905998E+02  0.14187540E+01  0.10626205E+01
0.68750000E+00  0.16883522E+02  -.53642718E-01  0.16907330E+02  0.12442108E+01  0.56070870E+00
0.69166667E+00  0.16885490E+02  -.50922622E-01  0.16908500E+02  0.10801254E+01  0.96057643E-01
0.69583333E+00  0.16887268E+02  -.48415165E-01  0.16909525E+02  0.92668164E+00  -.36208094E+00
0.70000000E+00  0.16888856E+02  -.46110851E-01  0.16910415E+02  0.78394521E+00  -.76630790E+00
0.70416667E+00  0.16890257E+02  -.43999162E-01  0.16911185E+02  0.65206180E+00  -.11775013E+01
0.70833333E+00  0.16891477E+02  -.42068661E-01  0.16911842E+02  0.53106799E+00  -.15056353E+01
0.71250000E+00  0.16892519E+02  -.40306943E-01  0.16912398E+02  0.42103197E+00  -.18703983E+01
0.71666667E+00  0.16893392E+02  -.38700740E-01  0.16912862E+02  0.32203296E+00  -.20962303E+01
0.72083333E+00  0.16894103E+02  -.37235807E-01  0.16913245E+02  0.23389356E+00  -.24220640E+01
0.72500000E+00  0.16894664E+02  -.35897003E-01  0.16913550E+02  0.15699074E+00  -.24954223E+01
0.72916667E+00  0.16895085E+02  -.34668118E-01  0.16913792E+02  0.90219992E-01  -.28071707E+01
0.73333333E+00  0.16895382E+02  -.33531867E-01  0.16913973E+02  0.35348101E-01  -.26186069E+01
0.73750000E+00  0.16895570E+02  -.32469780E-01  0.16914105E+02  -.13023078E-01  -.29863985E+01
0.74166667E+00  0.16895672E+02  -.31462222E-01  0.16914189E+02  -.46267009E-01  -.22411716E+01
0.74583333E+00  0.16895710E+02  -.30488416E-01  0.16914241E+02  -.96089808E-01  -.28466806E+01
0.75000000E+00  0.16895717E+02  -.29528809E-01  0.16914252E+02  -.22488846E+00  0.58045734E-01
0.75416667E+00  0.16895715E+02  -.28569439E-01  0.16914241E+02  -.80348172E-01  0.29625600E+01
0.75833333E+00  0.16895684E+02  -.27597511E-01  0.16914189E+02  -.29163839E-01  0.23556198E+01
0.76250000E+00  0.16895592E+02  -.26593289E-01  0.16914105E+02  0.77689580E-02  0.31024194E+01
0.76666667E+00  0.16895415E+02  -.25535910E-01  0.16913973E+02  0.58623157E-01  0.27334125E+01
0.77083333E+00  0.16895132E+02  -.24405614E-01  0.16913792E+02  0.11601547E+00  0.29228568E+01
0.77500000E+00  0.16894726E+02  -.23183743E-01  0.16913550E+02  0.18507537E+00  0.26104936E+01
0.77916667E+00  0.16894183E+02  -.21852882E-01  0.16913245E+02  0.26420084E+00  0.25375666E+01
0.78333333E+00  0.16893489E+02  -.20396679E-01  0.16912862E+02  0.35446056E+00  0.22114370E+01
0.78750000E+00  0.16892636E+02  -.18799882E-01  0.16912399E+02  0.45552958E+00  0.19858107E+01
0.79166667E+00  0.16891614E+02  -.17048134E-01  0.16911842E+02  0.56757196E+00  0.16209059E+01
0.79583333E+00  0.16890417E+02  -.15128069E-01  0.16911185E+02  0.69053574E+00  0.12928710E+01
0.80000000E+00  0.16889038E+02  -.13027182E-01  0.16910415E+02  0.82434702E+00  0.88160735E+00
0.80416667E+00  0.16887474E+02  -.10733945E-01  0.16909525E+02  0.96898670E+00  0.47742863E+00
0.80833333E+00  0.16885721E+02  -.82377473E-02  0.16908500E+02  0.11243097E+01  0.19255244E-01
0.81250000E+00  0.16883778E+02  -.55290028E-02  0.16907330E+02  0.12902643E+01  -.44537423E+00
0.81666667E+00  0.16881644E+02  -.25991367E-02  0.16905998E+02  0.14666725E+01  -.94730398E+00
0.82083333E+00  0.16879320E+02  0.55932681E-03  0.16904491E+02  0.16534295E+01  -.14603021E+01
0.82500000E+00  0.16876808E+02  0.39527567E-02  0.16902788E+02  0.18503276E+01  -.19987051E+01
0.82916667E+00  0.16874111E+02  0.75863460E-02  0.16900869E+02  0.20572088E+01  -.25461321E+01
0.83333333E+00  0.16871233E+02  0.11464094E-01  0.16898709E+02  0.22738496E+01  -.31068731E+01
0.83750000E+00  0.16868178E+02  0.15588756E-01  0.16896280E+02  0.25000776E+01  -.36684238E+01
0.84166667E+00  0.16864953E+02  0.19961822E-01  0.16893549E+02  0.27357055E+01  -.42291238E+01
0.84583333E+00  0.16861564E+02  0.24583483E-01  0.16890482E+02  0.29806038E+01  -.47789437E+01
0.85000000E+00  0.16858017E+02  0.29452613E-01  0.16887040E+02  0.32346417E+01  -.53147004E+01
0.85416667E+00  0.16854321E+02  0.34566756E-01  0.16883184E+02  0.34977078E+01  -.58300333E+01
0.85833333E+00  0.16850484E+02  0.39922115E-01  0.16878873E+02  0.37696578E+01  -.63233099E+01
0.86250000E+00  0.16846514E+02  0.45513552E-01  0.16874069E+02  0.40503257E+01  -.67918288E+01
0.86666667E+00  0.16842419E+02  0.51334596E-01  0.16868732E+02  0.43395040E+01  -.72356363E+01
0.87083333E+00  0.16838209E+02  0.57377459E-01  0.16862828E+02  0.46369619E+01  -.76541337E+01
0.87500000E+00  0.16833891E+02  0.63633059E-01  0.16856322E+02  0.49424422E+01  -.80480288E+01
0.87916667E+00  0.16829475E+02  0.70091047E-01  0.16849182E+02  0.52556756E+01  -.84174898E+01
0.88333333E+00  0.16824968E+02  0.76739853E-01  0.16841380E+02  0.55763791E+01  -.87632496E+01
0.88750000E+00  0.16820379E+02  0.83566724E-01  0.16832890E+02  0.59042632E+01  -.90856423E+01
0.89166667E+00  0.16815715E+02  0.90557780E-01  0.16823688E+02  0.62390305E+01  -.93852481E+01
0.89583333E+00  0.16810984E+02  0.97698074E-01  0.16813753E+02  0.65803786E+01  -.96623922E+01
0.90000000E+00  0.16806192E+02  0.10497165E+00  0.16803066E+02  0.69279994E+01  -.99175188E+01
0.90416667E+00  0.16801346E+02  0.11236163E+00  0.16791614E+02  0.72815803E+01  -.10150927E+02
0.90833333E+00  0.16796451E+02  0.11985025E+00  0.16779382E+02  0.76408042E+01  -.10362988E+02
0.91250000E+00  0.16791513E+02  0.12741900E+00  0.16766362E+02  0.80053497E+01  -.10554001E+02
0.91666667E+00  0.16786537E+02  0.13504864E+00  0.16752545E+02  0.83748920E+01  -.10724323E+02
0.92083333E+00  0.16781526E+02  0.14271933E+00  0.16737927E+02  0.87491028E+01  -.10874290E+02
0.92500000E+00  0.16776483E+02  0.15041071E+00  0.16722506E+02  0.91276507E+01  -.11004288E+02
0.92916667E+00  0.16771413E+02  0.15810201E+00  0.16706282E+02  0.95102021E+01  -.11114714E+02
0.93333333E+00  0.16766316E+02  0.16577210E+00  0.16689256E+02  0.98964210E+01  -.11206018E+02
0.93750000E+00  0.16761196E+02  0.17339965E+00  0.16671433E+02  0.10285970E+02  -.11278678E+02
0.94166667E+00  0.16756053E+02  0.18096318E+00  0.16652819E+02  0.10678509E+02  -.11333225E+02
0.94583333E+00  0.16750888E+02  0.18844120E+00  0.16633422E+02  0.11073699E+02  -.11370226E+02
0.95000000E+00  0.16745701E+02  0.19581230E+00  0.16613251E+02  0.11471200E+02  -.11390299E+02
0.95416667E+00  0.16740493E+02  0.20305523E+00  0.16592318E+02  0.11870669E+02  -.11394099E+02
0.95833333E+00  0.16735264E+02  0.21014907E+00  0.16570633E+02  0.12271768E+02  -.11382324E+02
0.96250000E+00  0.16730014E+02  0.21707326E+00  0.16548212E+02  0.12674153E+02  -.11355704E+02
0.96666667E+00  0.16724741E+02  0.22380774E+00  0.16525068E+02  0.13077487E+02  -.11315001E+02
0.97083333E+00  0.16719444E+02  0.23033303E+00  0.16501218E+02  0.13481431E+02  -.11260996E+02
0.97500000E+00  0.16714124E+02  0.23663034E+00  0.16476677E+02  0.13885646E+02  -.11194488E+02
0.97916667E+00  0.16708780E+02  0.24268163E+00  0.16451463E+02  0.14289797E+02  -.11116279E+02
0.98333333E+00  0.16703411E+02  0.24846972E+00  0.16425596E+02  0.14693551E+02  -.11027171E+02
0.98750000E+00  0.16698015E+02  0.25397834E+00  0.16399093E+02  0.15096576E+02  -.10927956E+02
0.99166667E+00  0.16692595E+02  0.25919219E+00  0.16371977E+02  0.15498544E+02  -.10819408E+02
0.99583333E+00  0.16687148E+02  0.26409701E+00  0.16344267E+02  0.15899132E+02  -.10702275E+02
0.10000000E+01  0.16681675E+02  0.26867963E+00  0.16315987E+02  0.16298018E+02  -.10577275E+02
