X,Y,surf vx,surf vy,tauxy integr. above,tauxy dir. above,secinvare integr. above,secinvar dir. above,tauxy integr. below,tauxy dir. below,secinvare integr. below,secinvar dir. below,P integr.,P dir.,
0.0,1000.0,25.8930363649,3.74858114292,74438.9283461,53533.5931343,74940.5493422,56448.3016761,-133632.14822,-632556.518774,920336.097831,726675.401533,8406990.64055,8406990.64055
320.0,1012.56504772,24.7953225483,3.60338190796,78036.0858961,70723.8349363,79159.6663727,71201.926846,-220259.619078,-721131.817875,605355.019498,1236385.7516,9282655.96965,9282655.96965
640.0,1025.12215909,23.7497809561,3.42185276146,69514.577179,82294.1311136,74495.6456724,83924.8893231,110387.256762,315231.128135,523234.213281,462870.241337,8822492.7492,8822492.7492
960.0,1037.66340276,22.6088856554,3.07423711569,75060.2233959,78698.5181975,75166.5452987,78743.8111255,593458.142234,963952.334142,783359.273729,1074561.65344,7895654.58099,7895654.58099
1280.0,1050.18085743,21.3985603226,3.05541153147,70479.6474119,61782.0071602,70615.3022515,62239.2869881,385.975335958,-357426.643792,543262.706131,769746.866241,6732403.26116,6732403.26116
1600.0,1062.66661678,20.2929675848,2.92371508623,69366.3964617,57979.0904662,69700.2657235,58200.9425161,-200541.036775,-75135.673287,437731.874877,168312.09233,7522438.2637,7522438.2637
1920.0,1075.11279456,19.2445729173,2.98806952388,71030.3369581,57328.2710235,71688.0895511,57791.0924779,-134810.574968,-196395.20068,511303.840158,396189.947871,8230900.65916,8230900.65916
2240.0,1087.51152949,18.3341790294,2.76945120045,69963.0073045,90841.500867,71858.3716795,91225.2851558,-28231.66152,11436.6174582,462434.614097,227560.299282,8310244.92129,8310244.92129
2560.0,1099.85499026,17.4367508222,2.62364865864,56842.4788461,73036.5230776,64013.2535532,74804.915177,428835.07844,705206.414687,573641.561709,810974.161068,7539974.92173,7539974.92173
2880.0,1112.13538047,16.5358711288,2.31089837806,69401.2092702,68451.106452,69501.6193579,68495.0060153,441888.080603,893895.32471,765445.449167,1098581.68128,6901239.90863,6901239.90863
3200.0,1124.34494358,15.6004425326,2.19914086429,64964.7871482,66433.7421637,65191.2818952,66784.8743482,-260342.207228,-443049.657093,616518.78474,668766.014042,7000885.3913,7000885.3913
3520.0,1136.47596776,14.7183394732,1.9619667333,66496.6080396,69565.4715512,66638.1659054,69630.883053,-284662.823306,187727.213358,652536.614408,372501.747069,7531526.71106,7531526.71106
3840.0,1148.52079079,13.8268806922,1.94238840895,63365.5318867,57480.1314087,63557.4885631,58075.0316879,268426.165957,116357.817191,550910.928368,401610.921264,7790374.93309,7790374.93309
4160.0,1160.4718049,13.0364323813,1.85462083856,62326.5532148,51590.6219129,62626.402734,51833.8010748,-29188.2155383,-487256.170657,565534.496873,537000.754239,6937040.87019,6937040.87019
4480.0,1172.32146159,12.3105336063,1.83366555933,65039.4306275,59215.5404429,65807.8451666,59529.1096886,-90975.614239,-348437.834724,349716.971029,715384.296038,6031037.60075,6031037.60075
4800.0,1184.06227634,11.7025820168,1.66474974236,56628.4708434,66981.9593034,60516.7136157,68298.9225124,65736.6756443,165652.364978,342484.643936,247405.959657,6471466.75357,6471466.75357
5120.0,1195.68683342,11.0196021156,1.4773172688,62051.527915,61858.1916225,62146.0948094,61906.3287193,419724.232476,832843.15682,576170.922944,940381.606804,7267423.16666,7267423.16666
5440.0,1207.1877905,10.3612642768,1.39976899672,58936.4813798,58903.644892,59115.9272428,59210.1577935,-72841.0556526,-178867.535937,426526.697917,408219.312841,7137999.69141,7137999.69141
5760.0,1218.55788333,9.73452079771,1.26746534659,59263.1821784,60928.3081739,59412.392514,60999.2229807,-167102.603405,83553.3161159,384312.328878,368386.902534,6323908.85017,6323908.85017
6080.0,1229.78993031,9.14411911333,1.25142568749,57574.0436975,55338.0137836,57750.3488097,55774.2211544,165118.299245,612014.52968,298960.816528,635990.450004,5567288.22081,5567288.22081
6400.0,1240.87683705,8.58727216484,1.15932783026,55891.821178,48388.2359403,56149.1868597,48687.576365,-3126.15746792,-226048.158535,324492.739292,254136.30696,6189139.25011,6189139.25011
6720.0,1251.81160082,8.08135483543,1.1745692073,58573.4611357,54229.1521452,59184.8751564,54471.0754547,-51143.7488752,-312767.066608,251694.08772,461385.4779,6814373.36067,6814373.36067
7040.0,1262.58731498,7.64986721019,1.02511750508,49482.2632152,59049.6866789,52818.144107,60210.8728067,101879.476209,260022.44988,282223.844801,307247.381328,6281601.65146,6281601.65146
7360.0,1273.19717337,7.18210570025,0.93181641711,55926.4089384,55946.878169,56010.9223138,55990.3618935,369598.331611,992968.287659,483341.696037,1030120.41635,5619763.70719,5619763.70719
7680.0,1283.63447456,6.72716058765,0.842750046145,52109.6004864,50944.7115605,52279.4955572,51274.4673106,-60014.2564029,-391524.001473,391379.323037,492433.194723,5615452.1839,5615452.1839
8000.0,1293.89262615,6.31977792011,0.80434750464,53653.9428115,51797.1522064,53880.724202,51901.9500959,-250142.304045,-66889.5116298,443886.174139,383319.883057,6185829.43694,6185829.43694
8320.0,1303.96514885,5.96235711418,0.707218632407,50531.7974466,54783.3898238,50836.4274902,55322.4660977,211632.001382,243224.539646,413030.108412,455774.880172,6003029.67799,6003029.67799
8640.0,1313.84568065,5.61887997267,0.618047759212,52387.6910458,52950.9536311,52430.1227749,52999.2850282,101192.880277,-30128.3499352,263811.193701,47427.8925866,5367596.48827,5367596.48827
8960.0,1323.52798078,5.25413282889,0.555796047215,49724.7846811,51000.5150928,49814.3299837,51010.2163981,32843.4808499,99307.5034744,163734.079049,105874.725882,5332239.43369,5332239.43369
9280.0,1333.00593372,4.94586946096,0.56146688079,49182.6115291,50268.6875052,49322.3019929,50399.1745327,-91166.9418511,-91219.3449902,179398.807073,107435.491963,5685539.84963,5685539.84963
9600.0,1342.27355296,4.66248695941,0.517260438931,48123.0487994,47526.5676337,48378.0951886,47622.678528,107189.818685,140546.536837,192397.479884,250718.228988,5565263.09255,5565263.09255
9920.0,1351.3249849,4.42017593864,0.514883446454,49135.269325,49943.8808639,49395.8208442,50219.3060143,7751.0119847,-228187.833655,135442.417122,234643.948263,4901454.67327,4901454.67327
10240.0,1360.15451244,4.17729238237,0.419558444362,47705.4696308,48161.0820846,47766.8876754,48179.899766,103169.332596,269557.913161,175227.369446,290584.19195,5275467.73608,5275467.73608
10560.0,1368.75655868,3.93486488609,0.430785245101,46186.3224198,46877.3393001,46353.7861785,47150.3863151,49223.070917,19558.3603445,110750.668284,98599.9601967,5424637.1128,5424637.1128
10880.0,1377.12569037,3.73624284694,0.342855960918,46847.0228014,48019.4507359,46924.2219489,48099.81422,6723.04445089,76383.970502,95117.106955,130615.925237,4795745.70615,4795745.70615
11200.0,1385.25662139,3.50574191275,0.341248245727,44797.4761983,46576.8848495,44867.289983,46592.5251209,57676.3588807,36412.2971784,101887.750465,109359.606715,4842828.08741,4842828.08741
11520.0,1393.14421607,3.31846347639,0.314882709596,44295.9551621,44852.4472743,44395.988037,44940.9601204,6468.44760244,-21938.0988497,95367.120781,91041.6193592,5434852.93779,5434852.93779
11840.0,1400.78349244,3.13750408024,0.323799504932,43744.694368,42746.4479289,43941.5297538,42847.9089398,63783.1070578,61881.9935015,125298.01798,115077.227477,4910597.2629,4910597.2629
12160.0,1408.16962536,3.00409049443,0.287211866799,43794.8062506,46115.3057368,44010.4411037,46516.2144318,36658.250127,58836.4431196,121110.359334,114041.368814,4211068.18946,4211068.18946
12480.0,1415.2979496,2.85896981523,0.220052625423,44044.7165234,44997.6494044,44079.6341575,45040.1033582,127026.845672,348750.595537,167665.243607,362125.436719,5031113.31605,5031113.31605
12800.0,1422.16396275,2.70809726843,0.188960861072,42582.264192,43440.6202157,42587.0404697,43444.3801973,13643.0413071,-110623.76966,110469.27483,151742.532275,4801108.91656,4801108.91656
13120.0,1428.7633281,2.56549073202,0.177296813331,40926.5159398,42634.5420175,40948.2804735,42634.5656936,-40660.9417359,-123309.126526,147031.316257,125337.926601,4087794.69355,4087794.69355
13440.0,1435.09187733,2.45279919769,0.190083695245,40636.3329547,39633.43129,40740.8178226,39682.4641573,85717.999723,95618.3355683,168073.594417,181054.203189,4783005.46599,4783005.46599
13760.0,1441.14561322,2.36057002436,0.160844665493,41340.1905138,42362.67459,41404.2821474,42428.7156376,27364.3160989,14515.3685014,99209.9914292,40707.1140158,4582683.04649,4582683.04649
14080.0,1446.92071208,2.25393034716,0.15007125935,40050.2989398,41385.5042479,40071.153891,41390.8105438,56963.6366691,67475.6642564,116469.986964,146011.753183,4211121.53415,4211121.53415
14400.0,1452.41352623,2.16539030662,0.151158084238,39264.8668378,38116.0417268,39375.822844,38153.4177256,37871.2882258,-1371.66740179,97256.0869415,88042.6667711,4928458.64013,4928458.64013
14720.0,1457.62058631,2.09874162795,0.130801711377,40443.7826524,41573.1661584,40525.3978097,41651.1740438,51099.5128405,90789.6030071,110559.953428,128850.473597,4250687.50349,4250687.50349
15040.0,1462.53860342,2.02705484915,0.0907651147157,39706.0994896,41245.2465386,39715.3913346,41252.2541693,47272.7858347,20660.2058182,105687.747332,106748.146262,4185391.36153,4185391.36153
15360.0,1467.16447123,1.95166269757,0.0806925482103,38772.8628315,39991.4366424,38775.4309078,39994.473783,37998.7514793,39867.5733635,105703.244779,94719.9805669,4458551.02765,4458551.02765
15680.0,1471.49526795,1.88804867743,0.0840262425488,37595.2793889,34886.6047149,37614.0517119,34891.8582832,47404.2268306,55989.7937053,115191.110726,115280.894981,3432640.12139,3432640.12139
16000.0,1475.52825815,1.83868189936,0.0987632888246,37708.8090082,36775.7938525,37792.3854753,36813.5256894,42141.4894981,21477.4784453,118739.148726,111657.096354,4226108.3057,4226108.3057
16320.0,1479.26089451,1.80053870921,0.0807833407096,38768.3932793,39326.0712179,38821.5923264,39381.1123214,60830.6486076,89274.2686516,124187.100367,142327.330364,4064180.62155,4064180.62155
16640.0,1482.69081942,1.75740811706,0.0561899560218,38250.043702,39301.4597581,38255.9187143,39306.8809087,47544.68715,41041.183263,106814.008401,109679.269621,4150801.59282,4150801.59282
16960.0,1485.81586646,1.7196369523,0.0417707435869,37598.4864087,37949.0494726,37599.1460815,37949.4547608,34939.9020479,16837.0875064,115764.743792,103909.280629,4616725.53049,4616725.53049
17280.0,1488.63406178,1.68691250164,0.0312607254191,37226.2248305,38803.1192259,37226.4821709,38803.2274851,50506.706213,68501.4284845,125930.13389,136908.167789,4018774.68024,4018774.68024
17600.0,1491.14362536,1.66036110004,0.0263903577675,36851.3249274,36073.485196,36851.5569133,36074.0427457,45744.1435652,42020.5171659,119965.399777,110928.606886,4830460.54231,4830460.54231
17920.0,1493.3429721,1.63782062225,0.0217306901262,36571.3120199,35148.8559016,36571.5205262,35148.9492836,49222.0009078,47246.3993283,125317.863495,129243.43787,3942243.0262,3942243.0262
18240.0,1495.23071285,1.62144421013,0.0201139859807,36296.0970716,35840.8619349,36296.3006441,35841.0946029,48155.9488027,50852.2532212,121962.481548,119458.925885,4410552.15516,4410552.15516
18560.0,1496.80565526,1.60739000119,0.0140946399883,36107.5442612,34947.092655,36107.7207781,34947.1859832,48109.5515336,47531.8677918,124234.348584,125149.328217,3948953.96911,3948953.96911
18880.0,1498.06680457,1.59695154463,0.0121100300919,35924.3889042,35699.5803776,35924.5170446,35699.6574017,49449.7787091,47419.1262294,125345.844076,123587.681401,4164808.83322,4164808.83322
19200.0,1499.01336421,1.58844290225,0.00686471590826,35818.4299852,34840.9280872,35818.5421253,34840.9770015,50264.2427172,50321.2610492,124204.178615,125246.067175,3972635.93225,3972635.93225
19520.0,1499.64473632,1.58369304498,0.00624029637931,35721.0045925,35628.9511529,35721.0873034,35628.9796925,50477.2493792,49708.0832952,123639.241766,122075.806868,4050074.76181,4050074.76181
19840.0,1499.9605221,1.58073254054,0.000778909405627,35696.3476639,34793.7417139,35696.4301393,34793.7679308,50815.6551215,53792.3074461,122676.355787,126109.021846,3988587.55259,3988587.55259
20160.0,1499.9605221,1.58092872934,0.000433812889375,35673.0496876,35597.3978364,35673.1167849,35597.4085799,51087.2314637,50118.2282386,122265.718126,118666.035592,4026206.69837,4026206.69837
20480.0,1499.64473632,1.58309346617,-0.00519382188881,35733.2826926,34813.0846708,35733.3735181,34813.1126417,52263.87425,52432.8083785,122357.714104,126998.529139,3976241.33829,3976241.33829
20800.0,1499.01336421,1.58795997822,-0.00580964373152,35794.3784612,35659.8223542,35794.4711815,35659.841342,53206.0686323,53987.3490926,120081.81469,116142.805417,4053106.15574,4053106.15574
21120.0,1498.06680457,1.59519377757,-0.0108299237654,35937.5218532,34882.2305008,35937.6264921,34882.2908578,51654.6934475,56855.4591992,119219.754318,126837.498467,3915824.97134,3915824.97134
21440.0,1496.80565526,1.60578862113,-0.0116157529112,36078.0989696,35761.7054985,36078.2179961,35761.713459,54063.722057,47910.1033311,120537.49711,109728.692009,4088666.87701,4088666.87701
21760.0,1495.23071285,1.61939618868,-0.0175640830595,36312.2762184,35036.6927407,36312.4338642,35036.947765,54133.0608118,55350.6764173,119987.808168,134223.493027,3787511.61096,3787511.61096
22080.0,1493.3429721,1.63611328817,-0.0204265638271,36533.0351235,35932.5513116,36533.236951,35932.5931021,58538.1629024,56646.2577738,113877.548982,100402.77334,4089696.32691,4089696.32691
22400.0,1491.14362536,1.65659612914,-0.0269035048747,36862.8045547,35259.9756503,36863.0459834,35260.6177193,44204.8659599,40820.9316821,121190.674864,138259.46908,3571287.08623,3571287.08623
22720.0,1488.63406178,1.68135167965,-0.0302577627651,37164.678667,37781.0697641,37164.9608602,37781.1769442,77918.6205238,182836.226244,120582.198101,215358.807868,4041273.29024,4041273.29024
23040.0,1485.81586646,1.71283708274,-0.0374546632489,37584.9922015,38937.9316917,37585.3536425,38938.1182512,-35298.9743652,-187043.09881,131175.482454,208246.686981,3810605.59947,3810605.59947
23360.0,1482.69081942,1.75011732107,-0.0502631934252,38074.1458199,38154.55902,38076.3606146,38155.0390981,47479.7274193,52952.6683066,219680.548831,152628.715977,4115536.94788,4115536.94788
23680.0,1479.26089451,1.79428299528,-0.0726941479972,38883.612713,40061.3825071,38905.6233522,40066.9166172,162815.921685,322501.696316,214654.031399,359672.699206,4275709.80468,4275709.80468
24000.0,1475.52825815,1.83384579535,-0.103059845645,38678.8658126,38587.5404873,38802.5871628,38627.4519991,35704.033165,-83851.7908319,118034.953147,127276.614893,4391108.59897,4391108.59897
24320.0,1471.49526795,1.8748844156,-0.0951775171865,36785.9307061,33361.8284407,36891.2702358,33606.9211094,100288.560142,156893.183711,140625.311314,185718.431912,4836902.149,4836902.149
24640.0,1467.16447123,1.94188629953,-0.0726238206978,38853.365878,41591.8924462,38867.2278338,41619.3808453,-17405.1629577,-146082.433219,110102.554549,158342.113503,4369986.40952,4369986.40952
24960.0,1462.53860342,2.01452240916,-0.092325740762,39476.2549172,39738.2309147,39484.1796473,39759.3745153,40969.6922249,17279.3885041,193132.085228,120117.50323,4426431.50908,4426431.50908
25280.0,1457.62058631,2.09369861759,-0.113890214112,40542.9675898,42140.108142,40570.6473084,42141.2480991,163114.28645,329606.102275,207938.326442,360796.37701,4406445.80496,4406445.80496
25600.0,1452.41352623,2.16602246808,-0.161824226364,40620.3611929,40730.275953,40777.5634962,40789.3554437,36900.0562393,-82539.7279212,100904.277845,97845.473983,4259208.72601,4259208.72601
25920.0,1446.92071208,2.24382858651,-0.162775314963,39163.0422648,38262.2329705,39286.2896907,38489.3870539,92641.1902503,124230.59301,135404.71309,177754.460658,4560891.05569,4560891.05569
26240.0,1441.14561322,2.36233859022,-0.162630569958,41509.7258763,43776.3273305,41553.7068343,43791.9901237,90699.8376761,114407.673309,102018.61901,123555.868783,4510404.20612,4510404.20612
26560.0,1435.09187733,2.46488027072,-0.200937666362,41727.3320639,41353.6833914,41883.4396017,41479.9597616,25260.9966687,-30291.9077136,85569.5279664,70690.144419,4584423.81193,4584423.81193
26880.0,1428.7633281,2.57160359249,-0.208605515309,40301.5213522,39788.6612466,40409.9840111,39969.6168501,92683.9014724,132289.932705,133320.569256,177870.125666,4950527.55986,4950527.55986
27200.0,1422.16396275,2.71787999766,-0.20548410227,42937.6568607,45728.5080083,42983.6704677,45739.684065,99759.7120434,118877.424309,110234.825169,127040.708832,4665543.66726,4665543.66726
27520.0,1415.2979496,2.84884299012,-0.254021253195,43253.9474138,43248.9397114,43423.9780074,43376.0503149,19287.3564527,-21939.7608463,76975.9206423,35212.0291887,4665612.50671,4665612.50671
27840.0,1408.16962536,2.98079672521,-0.260973586844,41953.1521449,40991.4626011,42071.6092019,41199.7647672,85406.9583788,113793.817428,135632.739125,159109.020868,5048285.4666,5048285.4666
28160.0,1400.78349244,3.16010399666,-0.264737724617,44728.4359516,47128.5143382,44776.965482,47141.8650512,124601.342127,175832.538154,153545.563584,186845.851812,4883784.58956,4883784.58956
28480.0,1393.14421607,3.32616941594,-0.313088929214,45238.778721,44821.9084069,45415.0957726,44959.5594862,-21506.8297564,-110259.400439,114762.157182,125540.666539,4848172.3866,4848172.3866
28800.0,1385.25662139,3.49614995368,-0.335675320022,44158.5441064,42909.1521164,44279.7506828,43137.5540175,87130.2091905,93044.7937552,155534.308622,139376.12265,5206796.6208,5206796.6208
29120.0,1377.12569037,3.72167984369,-0.340323959285,46923.2336378,49315.3906193,46976.5588464,49332.0006347,131351.467083,245325.057135,152275.268506,252519.25382,5233079.22776,5233079.22776
29440.0,1368.75655868,3.93007145196,-0.417928988237,46934.1115367,49665.3137815,47160.4082881,49993.8239278,86482.9318091,113348.06997,121108.097566,123340.259886,5008903.21963,5008903.21963
29760.0,1360.15451244,4.14424596945,-0.444539502257,47261.5910906,45829.1018068,47415.196778,46121.7920642,94918.6638036,156955.253907,139560.058717,169341.565118,5243605.02442,5243605.02442
30080.0,1351.3249849,4.39030348558,-0.486796864992,48622.8885628,50284.151909,48847.8647135,50286.2397296,68215.3837488,-99428.400851,149996.070421,126355.280613,5711652.87354,5711652.87354
30400.0,1342.27355296,4.64033745929,-0.515910608231,48373.3287412,48943.2023042,48584.1045425,49281.6793392,161870.547315,212329.969315,240404.645575,231177.234681,5337308.68112,5337308.68112
30720.0,1333.00593372,4.92152105905,-0.542031009736,49793.8136738,51013.3421408,50004.8822793,51014.6457878,-76512.7030978,-225130.67331,213919.915006,273556.83789,5396402.74014,5396402.74014
31040.0,1323.52798078,5.21029856938,-0.579180911812,49311.7643329,48947.8538589,49503.7805975,49286.2592357,103359.047265,117274.100427,196649.701862,162470.85071,5691559.00933,5691559.00933
31360.0,1313.84568065,5.56588035222,-0.588564089848,52163.3214716,53778.2270216,52226.8406595,53808.9440415,90547.1293845,200036.018996,206512.569052,225873.143225,5914044.9525,5914044.9525
31680.0,1303.96514885,5.91204447424,-0.702019962191,50516.805689,55246.2993094,50788.854628,55582.2899575,128249.993145,112110.454098,193519.934671,184653.852519,5653171.23891,5653171.23891
32000.0,1293.89262615,6.26490161317,-0.762307826286,53561.3684669,50941.2909151,53719.8545702,51298.0107395,92699.8655437,277628.317184,177184.411899,297656.27976,5600859.9127,5600859.9127
32320.0,1283.63447456,6.67248807924,-0.843796569518,51651.3304361,53076.2917928,51960.0195159,53415.3795905,25255.5713459,-15879.4086103,184821.03537,48406.9604733,6114090.49921,6114090.49921
32640.0,1273.19717337,7.07962211309,-0.92694696961,55641.5080409,54251.1962785,55851.7595039,54654.0281012,253532.888868,495283.805725,299069.374412,513781.179866,6237665.44392,6237665.44392
32960.0,1262.58731498,7.53629011367,-0.998807519919,53289.0798262,56075.642688,53735.7172047,56458.9036793,95238.767551,72719.5060168,163490.275899,112252.803213,6095773.08586,6095773.08586
33280.0,1251.81160082,7.96173603798,-1.11764052294,56568.6366949,54697.6044827,56985.4474232,55390.5699315,92213.1385804,78021.0334233,153056.147652,109964.376455,5934037.37951,5934037.37951
33600.0,1240.87683705,8.45739170016,-1.11105061547,56351.9637174,52390.6311639,56492.6636104,52679.7901201,57629.5221363,14668.4327324,140429.899485,90113.1007529,6366434.24606,6366434.24606
33920.0,1229.78993031,9.00072912615,-1.19376653245,58289.015456,57236.9156195,58568.4093692,57604.6662471,141041.158426,230135.993444,180879.206238,259781.244338,6926220.35331,6926220.35331
34240.0,1218.55788333,9.55340217326,-1.24311036651,58882.7435198,58510.221593,59121.5796375,58929.6233246,57468.0549198,68268.3495949,199080.573348,222837.806351,6561230.45162,6561230.45162
34560.0,1207.1877905,10.1468811967,-1.34860816396,58851.9730461,58950.4706588,59157.1532538,59326.3708429,121329.55982,76579.2951806,221400.190241,145858.213635,6444583.58117,6444583.58117
34880.0,1195.68683342,10.7578853892,-1.43401349416,61286.7269681,60319.0344004,61508.9638287,60721.4404086,91159.9720791,339814.073232,293950.649512,385765.520905,6544808.94791,6544808.94791
35200.0,1184.06227634,11.4258224112,-1.54206613929,59408.9552877,60787.0332892,59756.7199507,61179.5517818,-37731.0491616,-43917.5647542,261762.260727,119793.308941,7037623.34613,7037623.34613
35520.0,1172.32146159,12.102071167,-1.67839986358,64006.557863,62362.5566556,64233.2002762,62797.3386393,282999.676255,539397.331504,372219.58993,568715.601114,7157208.74924,7157208.74924
35840.0,1160.4718049,12.8285061631,-1.79551420123,60148.2530365,64053.1341806,60682.3948316,64504.0288454,120815.177904,142897.528095,277537.120631,239235.312177,7065061.3651,7065061.3651
36160.0,1148.52079079,13.5328326847,-1.96905878319,64276.661654,73113.0298692,64733.3740604,73602.4644053,149267.969054,211955.955732,246679.018651,254234.126352,6847774.45039,6847774.45039
36480.0,1136.47596776,14.3224677173,-2.01109148075,65263.5783294,59751.6322124,65427.8077036,60173.3451046,53581.4992314,158304.657741,281730.906142,283696.66374,7138707.32444,7138707.32444
36800.0,1124.34494358,15.1941047019,-2.13669492646,64106.3293515,65561.4876398,64476.6564111,65973.1724229,-6466.39860471,-29114.3357674,273807.659897,170767.235801,7617499.2678,7617499.2678
37120.0,1112.13538047,16.0618666651,-2.26558669047,68799.8275623,66811.4342606,69049.957299,67308.6606011,307692.489013,657824.847372,411155.469699,732971.800809,7716209.95078,7716209.95078
37440.0,1099.85499026,16.9812823037,-2.43183476007,64366.803971,68714.1594159,64938.6397204,69188.4261603,92166.1943214,239908.201682,313834.724615,354184.16543,7616639.7087,7616639.7087
37760.0,1087.51152949,17.8776306969,-2.62380953811,68662.671714,78474.4845214,69150.8776784,78975.1413459,24101.242137,101418.539907,250876.588085,144765.971923,7386319.99242,7386319.99242
38080.0,1075.11279456,18.837612049,-2.73099027824,70522.3915352,64264.5999073,70716.8789201,64776.4656076,291220.762848,479552.907276,397330.484353,496978.940696,7609138.4038,7609138.4038
38400.0,1062.66661678,19.8769953902,-2.86175662385,68334.8171795,71850.7192136,68907.3016791,72341.6929966,60729.235944,2961.24716142,252205.461194,217858.042001,8098279.52412,8098279.52412
38720.0,1050.18085743,20.8851779565,-3.03531096315,72590.229033,81921.7804123,73115.7918206,82515.5762366,133579.13815,209957.173298,227324.097577,322538.852292,8384714.74074,8384714.74074
39040.0,1037.66340276,21.9660766476,-3.12385047473,72583.2657306,66390.4013447,72767.0114923,66848.6477979,59385.0362285,249547.978763,285187.20674,363537.120332,8298624.09092,8298624.09092
39360.0,1025.12215909,23.1432291616,-3.24438812924,71824.1067953,72804.2549375,72224.0806291,73263.1381281,-1056.93556141,-48828.8512639,296768.577736,178388.509807,8215999.65537,8215999.65537
39680.0,1012.56504772,24.3158618541,-3.41794179097,76434.517512,74442.408532,76711.2735641,74982.9869804,353630.001283,687365.614027,477311.533674,797006.894511,7914108.67394,7914108.67394
40000.0,1000.0,25.5306575445,-3.59884789477,71577.1550219,76266.0299169,72198.6006941,76784.6659913,106478.69297,275838.09116,386552.54041,387505.638413,8473003.06606,8473003.06606
40320.0,987.434952278,26.7074910655,-3.8398583296,76092.969349,86927.3673172,76626.0836911,87477.3022002,2803.53763312,90839.656205,259977.204094,152320.433186,8864290.87707,8864290.87707
40640.0,974.87784091,27.9480768023,-3.95687899457,78094.779158,71097.5439506,78305.7799924,71663.384453,296061.543552,464865.348318,398931.174798,485973.988565,8898315.21063,8898315.21063
40960.0,962.336597236,29.2661891265,-4.11717632417,75280.4433958,79293.0157353,75911.6148783,79834.8798041,90240.6491545,41926.473533,307977.367958,237792.543766,8825920.87472,8825920.87472
41280.0,949.819142574,30.5500267582,-4.28017792008,79870.5630535,90294.9549794,80440.0559566,90932.328441,170025.355248,270676.648942,288395.256448,427932.527708,8607151.05374,8607151.05374
41600.0,937.333383218,31.901215083,-4.39781588823,79951.2417374,72940.1783801,80149.5604287,73448.8095832,50434.1261454,254320.260388,379670.945271,416419.935071,8946355.96322,8946355.96322
41920.0,924.88720544,33.3455943514,-4.49171314393,78782.6683345,79983.6651919,79218.3868054,80477.5017505,-65896.6485535,-135116.839137,361842.410426,187311.422144,9432174.40739,9432174.40739
42240.0,912.488470512,34.7715553421,-4.68790766826,83848.2256711,81658.2253612,84147.765969,82250.4911758,384043.560188,794524.676898,527008.020231,823237.591274,9459926.48284,9459926.48284
42560.0,900.145009743,36.2343427817,-4.83329977182,78382.435165,83537.235182,79052.4212487,84093.1880732,95690.0796199,105683.801392,369409.86276,377617.731931,9399532.81894,9399532.81894
42880.0,887.864619525,37.6445214791,-5.0923717105,83240.0251631,94945.6429218,83815.3726341,95556.8373617,154428.216306,213938.650274,313406.365668,295462.238735,9165082.22385,9165082.22385
43200.0,875.655056418,39.1203438715,-5.15016395685,84664.4518323,77102.3478713,84870.3074827,77667.0993032,90304.64211,337693.690117,377822.348222,413101.360507,9444452.72368,9444452.72368
43520.0,863.524032241,40.6830136022,-5.30983498671,82067.6249527,84185.9397672,82543.3740536,84713.6381467,-42263.6023025,-65946.4937012,330751.450022,150104.981349,9927777.62499,9927777.62499
43840.0,851.479209211,42.2362263554,-5.42040508101,88431.6394041,85892.0115691,88737.5351206,86507.706176,377801.83967,754272.626182,486603.859075,776264.544337,10068886.1118,10068886.1118
44160.0,839.528195096,43.7939513545,-5.63220326141,81936.2501304,87615.7608848,82650.0996403,88208.963294,132094.758859,142358.460128,370671.540916,313591.161951,9951557.65274,9951557.65274
44480.0,827.678538413,45.306225158,-5.78537979123,87259.0860663,99630.6394691,87851.9831616,100256.037891,183655.671523,297617.425112,303277.669252,378883.36523,9686608.85837,9686608.85837
44800.0,815.937723658,46.8511756867,-5.91852768938,88616.989501,80596.843468,88829.3650828,81179.2508566,48777.4982511,166101.089528,294548.352448,253243.608366,9957135.32764,9957135.32764
45120.0,804.313166581,48.4887874111,-5.94531851617,86465.5925653,88360.4582154,86943.1270034,88883.9609774,6902.63094813,4375.18583307,271790.397635,109390.880315,10525150.3925,10525150.3925
45440.0,792.812209503,50.0704005183,-6.1272815805,92090.9163938,89662.4571136,92421.374991,90324.8565274,373577.194,749249.258145,443093.774331,770688.667097,10584532.5265,10584532.5265
45760.0,781.442116675,51.6731235704,-6.17305083108,86796.9838661,91531.4718299,87495.9909734,92121.6776735,165613.007556,172652.07453,285554.832838,224785.849565,10423737.5738,10423737.5738
46080.0,770.210069689,53.179746784,-6.39590977968,92423.3474268,103755.211589,93044.3954617,104485.842383,134836.847872,114388.132412,227805.309964,184192.317552,10066678.5145,10066678.5145
46400.0,759.123162949,54.7309444336,-6.31735165705,91621.497129,84307.1833387,91829.2440133,84789.2434756,72626.5196641,219.216344057,176464.469436,96146.3855368,10619537.0975,10619537.0975
46720.0,748.188399182,56.3270234634,-6.40114425888,92403.7798867,91333.3387356,92850.4146907,91917.5270314,165466.005926,185049.292518,215004.84643,217794.362574,11310188.3778,11310188.3778
47040.0,737.412685019,57.9192268558,-6.3104425302,94096.0129863,92793.5395082,94447.8502152,93449.3795319,91008.0989594,166086.910951,221665.259787,198090.811855,10911146.9552,10911146.9552
47360.0,726.802826633,59.5016017847,-6.40790042957,92666.4004097,92455.2327951,93116.4470837,93021.2180837,155538.938944,185244.889741,214178.522048,262689.797994,10653941.9554,10653941.9554
47680.0,716.365525437,61.0459847376,-6.36262845273,95797.6136835,94537.5482013,96120.6309606,95126.6396894,121229.574407,236940.960677,225210.0293,247948.496822,10807402.3691,10807402.3691
48000.0,706.107373854,62.5833453963,-6.44092210287,93467.7685666,94008.9969457,93944.1459734,94589.7885457,156555.011153,141016.09218,211704.172386,236641.71793,11547108.6654,11547108.6654
48320.0,696.034851153,64.0707845992,-6.41724097284,97093.3060421,95376.0561564,97431.9042198,96014.8534484,123391.11193,309506.458118,209325.536205,321196.818368,11336641.4212,11336641.4212
48640.0,686.154319355,65.5546339208,-6.45074799883,94662.2051994,94993.5382177,95131.9891045,95564.1690396,130228.472068,104866.739984,183246.774352,166939.126138,11045410.6137,11045410.6137
48960.0,676.472019215,66.9753158276,-6.42705340024,98178.1749284,96852.788496,98514.2642449,97473.5593403,197845.253485,424673.787939,249824.285148,435786.331225,11168288.7407,11168288.7407
49280.0,666.994066283,68.3959373879,-6.39439930531,96331.3187737,96156.1072151,96799.1049656,96741.1505752,149856.028297,98998.2288892,232867.120527,202125.066874,11985110.6407,11985110.6407
49600.0,657.726447036,69.7442461165,-6.36016440332,98881.1402378,97538.7794832,99231.5952776,98183.8445546,171608.997865,454681.636279,304617.975487,456087.095335,11601323.5034,11601323.5034
49920.0,648.675015101,71.094869614,-6.24762338032,98444.3525093,97044.5803847,98879.0276772,97617.6291563,70414.8739789,112845.236542,273357.888969,158510.722282,11250546.4602,11250546.4602
50240.0,639.845487556,72.369311309,-6.18593480902,99185.465572,98611.678609,99537.2625766,99238.7564888,376422.280383,535166.065333,524200.019768,554426.558009,11632562.0489,11632562.0489
50560.0,631.243441321,73.6619387341,-5.97770534096,100344.783546,103181.215397,100742.597203,103191.46871,-130142.674115,-377041.753989,389801.98252,695457.390561,12555221.8255,12555221.8255
50880.0,622.874309632,74.8950491205,-5.89499669917,98552.8374034,96910.115828,98904.4426719,97567.9801767,70765.5690223,-100260.580788,305748.873631,147225.017723,11732586.4119,11732586.4119
51200.0,614.743378612,76.1453425485,-5.65100770782,102479.419729,105386.869654,102588.890876,105467.376308,299595.099378,845053.195721,372562.260236,851555.858393,11622042.832,11622042.832
51520.0,606.855783932,77.3001833774,-5.6375798293,100323.713534,107146.975548,100768.183555,107771.572553,109296.553936,158634.549728,257201.661609,221536.994392,12263573.664,12263573.664
51840.0,599.216507565,78.347789783,-5.47270237953,101461.393956,97642.9549581,101737.95059,98228.0779851,278573.804032,390147.382885,357982.933307,397597.224888,12121725.1677,12121725.1677
52160.0,591.830374641,79.3523882227,-5.38665262256,102547.539845,106659.630386,102940.864731,106670.578191,-43206.2939496,-130692.002516,231582.102736,344104.029469,12017859.647,12017859.647
52480.0,584.702050402,80.3179771315,-5.13476633934,99938.0395894,98713.2330383,100301.770736,99386.8367875,131127.167042,141244.38629,242395.171032,161463.36156,12411420.0708,12411420.0708
52800.0,577.836037249,81.2771896578,-4.94583040267,103959.824103,107139.536271,104065.489565,107221.576006,333027.243336,604945.998288,422051.048189,618310.231455,12353523.9619,12353523.9619
53120.0,571.236671903,82.175963809,-4.70468209812,104285.132439,104128.909742,104649.77192,104404.89819,-26600.0138043,-293043.978015,244367.378041,396507.7545,11910980.7918,11910980.7918
53440.0,564.908122665,82.9762812172,-4.55055329032,100809.031862,96628.1195619,101054.596155,97116.834361,169986.137404,171071.125174,224001.20971,199058.858254,12538134.7292,12538134.7292
53760.0,558.854386783,83.7667558836,-4.25965966366,104922.742963,109691.62898,105016.121584,109748.913662,221752.25917,437611.753672,241873.245678,439173.50277,12542811.5851,12542811.5851
54080.0,553.079287924,84.4813638894,-4.0874405284,104603.211483,104438.71536,104956.448676,104696.438688,174184.488684,-28790.4998091,223468.710708,42465.1706269,12304225.3753,12304225.3753
54400.0,547.586473767,85.1391128021,-3.80072110116,100486.186952,96998.6836296,100729.386391,97437.3644807,40659.6763246,-132790.676804,164715.569051,192078.743495,13106317.336,13106317.336
54720.0,542.37941369,85.7785200432,-3.58199448113,104601.362759,108023.44823,104645.834695,108110.734292,86825.6811427,14250.4820932,174658.592838,96210.2214479,12468614.6333,12468614.6333
55040.0,537.461396583,86.3661839557,-3.3292169221,106321.381951,106274.387252,106384.113857,106372.958383,256486.776963,516296.713301,289558.794857,526454.758793,12387767.7855,12387767.7855
55360.0,532.835528772,86.85057933,-3.18908770822,105677.124957,107259.136971,105995.830337,107290.146543,97677.4957617,-118153.67068,158744.229502,171541.772366,13109921.6356,13109921.6356
55680.0,528.504732054,87.2573133251,-2.96070776412,101187.607208,99724.3008305,101468.981024,100231.528045,102509.121811,4774.34588109,117274.522124,59440.5463372,12158560.5992,12158560.5992
56000.0,524.471741852,87.6432379339,-2.73198809906,105247.662738,108544.129635,105295.886447,108645.540261,183402.462157,269356.301252,193457.842131,277978.501891,12822346.8243,12822346.8243
56320.0,520.739105491,87.9782231149,-2.47129064693,106569.039307,107577.513036,106630.36683,107671.850952,169706.270556,221933.303589,197774.652466,222988.431843,12726808.531,12726808.531
56640.0,517.309180583,88.2415519536,-2.23414205058,105650.972812,107970.443467,105936.063622,107999.481955,65958.7583541,-66247.3895165,111291.85722,115698.826084,12771721.8969,12771721.8969
56960.0,514.184133543,88.4564594447,-1.92219025743,100620.761264,95002.7067991,100877.68601,95483.4065943,131240.683775,209101.748313,136370.633291,210394.631654,13407136.2929,13407136.2929
57280.0,511.365938216,88.6860650049,-1.56421800172,104456.67511,105293.055499,104498.293357,105332.177569,125372.911836,86369.1887545,129383.411208,96466.9062923,12593926.9705,12593926.9705
57600.0,508.856374636,88.9048514131,-1.23451263261,104467.325123,104506.31876,104481.067215,104555.012664,121374.618154,100459.270935,124476.978035,104775.540142,13582519.1508,13582519.1508
57920.0,506.657027896,89.0951592481,-0.964661062751,105149.0177,106580.903332,105151.450281,106587.120905,135628.667578,186139.225178,145745.721718,186879.21462,12659741.38,12659741.38
58240.0,504.769287152,89.2379810803,-0.767043073611,105488.741548,106095.599403,105489.517129,106098.07752,86454.1865256,-2406.6663052,108305.966745,62797.7788224,13221445.7474,13221445.7474
58560.0,503.19434474,89.331780265,-0.616543240653,105792.866345,106544.462606,105793.068655,106544.608506,78887.4682963,308429.454641,209128.663384,310540.821746,12787350.6094,12787350.6094
58880.0,501.933195428,89.3903467088,-0.500081153274,106135.855042,106731.208803,106136.041217,106731.62199,-183935.997001,-699204.988133,336783.623153,716670.554727,13014356.6188,13014356.6188
59200.0,500.986635786,89.4278341402,-0.389991041209,106494.915067,106940.431888,106495.95536,106940.458415,196995.182402,310992.410716,413798.650879,383763.471877,12897325.7079,12897325.7079
59520.0,500.35526368,89.4444451871,-0.266015588424,106727.129206,108204.487325,106750.706925,108208.517086,453184.236737,897553.218564,512682.666262,908720.65306,12921690.6559,12921690.6559
59840.0,500.039477898,89.4454431142,-0.113387481057,104625.323764,104712.216064,104704.232496,104742.064732,104481.484329,-189496.230318,225751.829208,255459.050028,12957347.1403,12957347.1403
60160.0,500.039477898,89.4427845417,0.064613986665,102246.221646,98455.4349211,102350.260554,98502.6401141,119534.272196,159502.079563,145268.036697,163744.47752,12906965.0507,12906965.0507
60480.0,500.35526368,89.4439895839,0.233974031807,106315.164309,108649.717778,106412.235049,108734.553422,221506.817344,341219.464168,233986.058658,342386.96484,12941706.3235,12941706.3235
60800.0,500.986635786,89.4323617826,0.368370241371,106731.884855,107372.540913,106739.634714,107376.20419,141391.486048,154724.441966,190905.035305,171152.713104,12948487.4168,12948487.4168
61120.0,501.933195428,89.4036400082,0.490664308737,106218.439076,106704.191816,106218.866003,106704.259105,24075.6426702,-121659.193265,106817.624026,153955.318601,12834792.2071,12834792.2071
61440.0,503.19434474,89.3528429932,0.602597740814,105871.166709,106668.337834,105871.274231,106668.449955,116356.387013,210831.785144,127051.507732,213827.560784,13018349.0375,13018349.0375
61760.0,504.769287152,89.2709725639,0.750797158026,105541.923346,106286.393262,105542.131539,106286.528583,100634.769139,41372.2718303,103787.475142,48122.7607709,12602730.5001,12602730.5001
62080.0,506.657027896,89.1414274055,0.929074838985,105169.884974,106245.179905,105170.185203,106245.473712,120094.097197,150544.406129,121144.243633,151445.420049,13080718.2315,13080718.2315
62400.0,508.856374636,88.9656935928,1.18907980906,104654.090218,105577.818002,104655.84353,105580.121114,111507.090334,97066.7059969,112723.97223,98087.2915258,12210450.4513,12210450.4513
62720.0,511.365938216,88.7541944717,1.48418158279,104213.851469,103729.710132,104216.748323,103732.172183,112525.365171,107800.977546,113203.463784,108054.52943,13051418.2779,13051418.2779
63040.0,514.184133543,88.5269016224,1.85088631582,102331.038428,100002.558064,102371.764612,100013.060991,111014.81847,126736.199804,112786.856712,128868.455202,12266147.3489,12266147.3489
63360.0,517.309180583,88.3056151485,2.1536511162,103452.193821,102541.042104,103635.755749,102595.925084,96031.239923,71062.9473021,97539.3922001,73580.3623409,12804754.9498,12804754.9498
63680.0,520.739105491,88.0583350897,2.43768225266,106439.966299,108781.007413,106563.613776,108908.942929,118604.836139,127826.095462,119486.416506,129168.61093,12780317.4227,12780317.4227
64000.0,524.471741852,87.7422082831,2.65439280571,105490.997075,107773.80649,105508.915445,107793.111503,118879.435166,136618.128922,120654.24822,137030.349921,12584240.9775,12584240.9775
64320.0,528.504732054,87.3700275183,2.93298855829,102590.697197,102913.47929,102660.470392,102919.923639,105873.066634,77280.9686579,107901.890612,84594.6343692,13248088.1076,13248088.1076
64640.0,532.835528772,86.9733310052,3.10739870638,104003.205176,102917.941482,104217.262097,103015.353346,99642.3470486,21719.9312478,103455.2776,24941.4203566,12196428.5756,12196428.5756
64960.0,537.461396583,86.5069572211,3.31109261974,106281.276151,107764.603979,106390.150044,107887.315723,172379.625273,300910.955657,182367.29407,304026.099876,12783747.376,12783747.376
65280.0,542.37941369,85.9474177621,3.46661947184,104870.035821,106232.340614,104881.736866,106243.314165,88923.3708754,46537.9583834,122232.3363,77016.6002621,12626136.9085,12626136.9085
65600.0,547.586473767,85.3053424505,3.74977696298,102166.301257,102487.787371,102204.472064,102487.850064,46868.4676723,-35034.0213013,80128.9374742,67507.1238046,12000809.5538,12000809.5538
65920.0,553.079287924,84.6513690333,3.95907245644,102358.11412,100706.871431,102585.627661,100767.493497,123224.424736,92219.3191665,129686.736512,99093.7632496,12635485.7352,12635485.7352
66240.0,558.854386783,83.9304652811,4.22155242413,104800.594629,107451.665879,104949.831625,107618.761014,127586.655476,186588.560336,131920.891077,194027.423432,12284177.1487,12284177.1487
66560.0,564.908122665,83.1578302637,4.4410980247,102837.969221,104012.478421,102867.119167,104028.904498,105254.683721,91029.137952,117742.609287,96405.9836578,12147891.4444,12147891.4444
66880.0,571.236671903,82.3181056804,4.71662998089,100896.120319,97407.2631099,101184.360804,97508.4335331,62682.0244902,50292.5452062,77986.5127383,68046.4029682,12821632.2941,12821632.2941
67200.0,577.836037249,81.4689434498,4.93922062972,104055.194406,107075.538851,104251.286242,107272.693532,109763.560296,132069.352199,113580.523903,133530.80451,12059177.6829,12059177.6829
67520.0,584.702050402,80.5115955315,5.1688184392,101119.589065,102074.521184,101261.786355,102108.712428,97466.6285369,87154.5094051,101540.637465,91451.5562814,11899251.7412,11899251.7412
67840.0,591.830374641,79.5794458088,5.41757996777,101453.480786,103836.456211,101669.196802,104006.494528,84646.4950994,78585.9938911,88318.4855226,87390.7527212,12463059.2515,12463059.2515
68160.0,599.216507565,78.5801714183,5.50495779021,101396.954387,98629.4148046,101693.723359,98764.8070164,133924.563614,145699.484304,143085.546499,164692.656466,11951969.3783,11951969.3783
68480.0,606.855783932,77.5734005068,5.66489761038,100762.625963,107006.019444,101172.735669,107739.795081,87089.5517756,107419.76621,146811.587378,147196.665633,11532435.099,11532435.099
68800.0,614.743378612,76.4137215115,5.6223442695,102633.338828,103727.124827,102722.001228,103841.278572,243257.567235,672068.614543,292932.815142,676303.47914,12282753.2704,12282753.2704
69120.0,622.874309632,75.1752539324,5.911781472,99466.1100199,100960.081346,99632.4528781,100995.871877,34001.0443168,-161735.752573,244631.225143,225513.841883,12007560.5546,12007560.5546
69440.0,631.243441321,73.9160843704,5.92719936271,98912.7278664,100874.558603,99173.2895209,101153.049582,-98938.9976696,-94160.3046426,255438.541111,327391.738086,10879512.4164,10879512.4164
69760.0,639.845487556,72.6475311837,6.24775744462,98955.9140053,97218.7140802,99457.7306858,97445.6709267,228077.389579,284396.030166,321000.589175,336262.14039,11749799.5486,11749799.5486
70080.0,648.675015101,71.3939775744,6.16238295733,99146.4390225,100725.625769,99683.5628026,101894.854247,15172.0668597,-1560.02382898,225219.792756,140528.083712,12035722.1717,12035722.1717
70400.0,657.726447036,70.0480997315,6.39644941243,99383.4991322,99982.9394615,99591.5233182,100058.351965,229697.089212,631705.385596,327888.740409,646317.431236,11433997.7837,11433997.7837
70720.0,666.994066283,68.6951583933,6.28243372565,96251.0927833,93139.5111416,96574.7849659,93963.4362016,64985.1035553,-32791.3903805,237707.658419,157912.606553,10842717.7614,10842717.7614
71040.0,676.472019215,67.2871592491,6.48346273494,98123.9231782,95828.5248691,98549.7619024,96016.7180964,-13211.9824616,86375.0298739,158773.319054,165808.7104,11562040.2328,11562040.2328
71360.0,686.154319355,65.8981138189,6.30744847934,94944.2932359,97652.507185,95476.8903987,98779.9543511,122039.30294,110942.345545,165399.800166,177857.683096,11543469.3932,11543469.3932
71680.0,696.034851153,64.417559047,6.44484270519,97407.3412105,97175.1600551,97633.6899568,97266.7319344,165055.955482,331165.583999,263411.673798,337037.588552,11043077.8796,11043077.8796
72000.0,706.107373854,62.9504999573,6.26948335167,93704.0030232,92089.8046709,94054.198576,92937.9668505,82310.9528906,77650.2534707,191206.999617,131547.526572,10591500.5443,10591500.5443
72320.0,716.365525437,61.4351527675,6.37972978826,95807.8659313,93781.9974462,96191.338012,93956.338157,-8769.98850319,114592.475018,156350.065574,145759.255136,11188528.343,11188528.343
72640.0,726.802826633,59.9551964515,6.16899022483,93173.0940734,94915.0638842,93648.9875555,95965.0597685,94463.9830946,69452.0152101,140934.278826,132531.773361,11195682.4263,11195682.4263
72960.0,737.412685019,58.3999119995,6.21325393808,94488.7134795,92440.2962764,94677.3616251,92525.1261625,84340.2380349,141213.635666,196370.160547,171384.98593,10706443.022,10706443.022
73280.0,748.188399182,56.8512047239,6.01644158491,92586.2411086,95233.4670788,92896.0403686,95814.3229325,78167.3492561,149666.178056,166537.621683,191706.033847,10116862.7121,10116862.7121
73600.0,759.123162949,55.2291531604,6.10132377159,93293.3946484,98142.3169359,93442.3182225,98205.9870679,5161.60774412,91954.7295157,177683.725121,156903.830769,10754654.2796,10754654.2796
73920.0,770.210069689,53.6083318761,6.04300900315,90176.9621218,80303.3362654,90368.0817507,80946.4661813,167709.563627,513601.958899,239988.236831,533814.242433,11058766.1357,11058766.1357
74240.0,781.442116675,52.0405631097,6.21101177834,88878.449568,72040.0943305,89279.8605777,72427.7387492,-4587.21230127,-225752.389614,284038.327059,404365.457812,10311434.2137,10311434.2137
74560.0,792.812209503,50.5760984015,6.05415334883,93650.2339981,83766.008421,94699.3837568,84147.5113458,-191899.099912,-699236.009053,349557.964274,708027.118582,9575575.71335,9575575.71335
74880.0,804.313166581,49.1561794168,5.95118941298,82688.100838,99938.4348725,88243.5738347,101585.691521,112388.968868,321164.945072,501879.127743,446182.245254,9983684.19045,9983684.19045
75200.0,815.937723658,47.5558745969,5.63275657411,91373.5359364,98009.1789036,91479.7268685,98058.6491558,731548.21066,1455357.14352,930785.254086,1520320.17167,10655855.6586,10655855.6586
75520.0,827.678538413,45.8891916753,5.75256306865,85228.6810633,69030.4223999,85383.9332902,69352.7811726,-9762.39459602,-229969.614846,700255.023812,672541.832567,10332355.0654,10332355.0654
75840.0,839.528195096,44.2764800969,5.63826495283,85722.4529782,65930.8648203,86238.0543159,66155.5093859,-415363.30413,-377993.528949,620108.660552,461963.028254,9591565.03623,9591565.03623
76160.0,851.479209211,42.8415770851,5.73082324436,90505.4790526,80866.2597781,91674.1815561,81310.2954265,-74138.0536088,-102502.24947,490127.503269,300972.489698,8900055.75983,8900055.75983
76480.0,863.524032241,41.4501990264,5.3141214201,77536.4899358,95015.8006722,84169.771121,96793.2419282,168535.466942,219500.924976,617468.832415,453397.866484,9279999.87294,9279999.87294
76800.0,875.655056418,39.9050841384,5.22029228872,87317.0174741,92113.1854127,87417.9676293,92159.5832559,770911.654923,1541225.69366,1042623.78975,1585559.59901,10231151.8025,10231151.8025
77120.0,887.864619525,38.2991117002,5.00626738544,81761.1771002,70615.4385247,81925.4735902,71028.3257233,-128632.595477,-401281.51225,823078.819575,929295.418179,10338245.956,10338245.956
77440.0,900.145009743,36.7552307418,5.13115252482,81569.8071439,65242.8794944,81993.9855716,65538.4620459,-478934.880527,-425420.803253,767597.04075,486140.87991,9030464.03109,9030464.03109
77760.0,912.488470512,35.2843614413,4.96755588318,84353.3735927,64486.7582467,85157.5910923,64826.7403642,-135895.922155,-173418.633175,679151.905702,452398.34509,7747210.53147,7747210.53147
78080.0,924.88720544,33.9804024959,4.97902339979,78348.554624,108227.373969,82743.8758279,108768.507586,120923.55379,162437.288898,748345.402325,437817.999757,8818245.70208,8818245.70208
78400.0,937.333383218,32.7434243532,4.53312131823,62305.8807671,87412.6308678,74145.3936394,89434.5574059,802704.008508,1455292.45592,1056624.71357,1546607.40525,9614940.14745,9614940.14745
78720.0,949.819142574,31.3757575926,4.3006210441,80533.7190546,82392.0610508,81016.1051194,82491.1607969,399575.848392,834691.76211,991292.098815,1498888.33159,10386478.7599,10386478.7599
79040.0,962.336597236,29.9779659686,3.91321570181,76790.1278871,79240.4972211,77048.125095,79506.0949935,-498905.040154,-590604.577661,970617.997926,950151.385355,9154399.80415,9154399.80415
79360.0,974.87784091,28.5811428118,3.81409125394,79356.0694906,85235.5418022,79535.3716702,85354.07357,-268536.378459,764034.174549,1076436.41063,811505.974879,7863893.12053,7863893.12053
79680.0,987.434952278,27.2126406558,3.64273281693,74861.405263,60651.132124,75060.6614074,61273.5106131,328105.698811,-66880.8128942,895749.179631,421276.998802,7285908.53243,7285908.53243
80000.0,1000.0,25.8930363649,3.74858114292,74438.9283461,55542.1358306,74940.5493422,55849.9216961,-133632.14822,-837007.085627,920336.097831,953259.493898,8406990.64055,8406990.64055
