X,Y,surf vx,surf vy,tauxy integr. above,tauxy dir. above,secinvare integr. above,secinvar dir. above,tauxy integr. below,tauxy dir. below,secinvare integr. below,secinvar dir. below,P integr.,P dir.,
0.0,1000.0,10.209451893,4.65620733121,22814.9972559,28806.7200847,58650.9704838,69053.9631145,236598.744088,262888.562642,343284.481843,285581.232927,8819283.52631,8819239.15697
39.0625,1024.53383716,10.2468077876,4.64914833558,25815.9139855,32338.988061,57583.3234369,69991.5273564,224705.927547,269361.232262,351024.848705,317635.270684,8211233.87337,8211266.96993
78.125,1049.00857016,10.285064509,4.64326959984,31818.1416664,22747.081598,60045.8389541,63493.3181891,197914.647089,337418.013437,407881.076843,571621.370361,8272010.06594,8271958.38815
117.1875,1073.36523723,10.3212953312,4.61348865904,29155.7124246,29971.0262336,60790.3439219,61540.0761365,305912.88345,558640.078025,622971.588543,682917.520796,7761339.7723,7761312.39024
156.25,1097.54516101,10.3576847912,4.58294860842,27502.7401203,33012.366231,61165.5152975,64532.7352941,416906.033424,615067.612001,654405.850574,674123.76157,7843494.80343,7843485.40842
195.3125,1121.49008995,10.3915109235,4.53075179953,29659.3219209,33645.0059359,60882.4265783,67836.189433,369306.857093,373818.214818,634244.515372,406878.814159,7307215.74606,7307201.81138
234.375,1145.14233863,10.4253686259,4.47708730981,32535.6187139,24586.9537545,62601.4619921,63032.6413211,436044.978056,432632.070934,746035.137103,944790.677269,7425902.59006,7425874.9586
273.4375,1168.4449267,10.4562621295,4.40258364469,30668.7660216,32988.3520913,64408.1614656,62480.9307445,528472.332026,735427.044239,829096.544563,981023.278831,6955883.81156,6955866.87922
312.5,1191.34171618,10.4883471346,4.32620343855,29183.2018135,39725.3036274,64529.1407512,71451.2967577,599341.952416,834998.706231,822742.696628,886223.46516,7090838.18439,7090826.55841
351.5625,1213.77754672,10.5159407935,4.22893369721,32045.6574528,39200.7940081,63744.1496,75176.9004613,491698.008778,596717.095453,739025.714681,611503.854459,6540599.02441,6540573.92353
390.625,1235.69836841,10.5449439582,4.13065550064,39643.330721,31247.105637,66851.0354236,70120.5895135,436832.224856,463040.592986,778002.882043,919494.215734,6607509.8176,6607476.3152
429.6875,1257.0513721,10.5689024958,4.01156921405,41077.0383149,43247.9668908,65602.8875342,70250.4427414,532968.268536,678771.074241,942634.39392,1079565.24952,6102828.36458,6102824.89084
468.75,1277.78511651,10.5949025195,3.89191265671,40548.1769969,34339.2131672,65726.5603423,66613.4570657,597021.215152,697431.66938,873736.924968,785157.731779,6169808.03501,6169791.87585
507.8125,1297.84965225,10.6148346078,3.75175222226,40326.3195115,45075.3438618,68371.1160124,67608.8020441,456147.730962,434439.68588,841706.762647,799642.679096,5852364.09988,5852347.36262
546.875,1317.19664208,10.6366551278,3.61237403127,41586.1711324,46983.8212617,66693.0849936,75490.515771,535621.463984,552786.220164,920704.880008,942863.958057,5824416.72093,5824410.31563
585.9375,1335.77947742,10.6528412328,3.45259483546,45903.4907507,40952.6546251,68918.3779759,71232.4295036,466227.740095,513681.799241,849933.108015,873098.141472,5449351.34619,5449328.83473
625.0,1353.55339059,10.6706644636,3.29578094339,48665.3428347,49864.8334716,68636.6234654,74394.355676,479205.426209,496332.078516,934897.644257,906252.852717,5489824.43923,5489821.38064
664.0625,1370.47556268,10.6830650487,3.11868745336,50288.4392768,47087.3563592,69157.8749935,70493.5711644,504009.380774,396993.698228,891231.907331,922062.051817,5128214.59829,5128199.50975
703.125,1386.50522668,10.6961608015,2.94618739491,52677.5464508,59060.4155977,69305.2048279,77376.2998676,422596.976297,467567.070234,864333.822142,929069.773297,5242640.80783,5242637.26338
742.1875,1401.60376574,10.7051998391,2.75409661186,56023.0283341,53892.0910177,69061.6934855,70139.6316372,397836.690629,273682.314169,882970.359238,875446.351315,4771871.34738,4771855.41385
781.25,1415.73480615,10.7142652854,2.56805314831,56475.0573591,54953.177275,69126.1801816,71477.7638112,378779.761709,345115.556296,900848.612879,859358.720336,4963482.28186,4963479.34387
820.3125,1428.864305,10.7209067682,2.36277016181,58816.1103068,61875.2467406,69120.252229,68366.583345,388269.278433,313282.483955,900078.633176,891711.545092,4569122.62933,4569112.52638
859.375,1440.96063217,10.7270857129,2.16679768452,59457.2301994,60831.0138324,68377.3916593,70997.8421067,333781.292204,317917.761221,847618.879923,770104.018628,4736245.31825,4736238.0554
898.4375,1451.99464656,10.7311322753,1.95122106138,61109.9868831,61037.3097177,69331.8692789,71788.0747764,294299.887315,270994.73304,886972.595998,880658.989249,4288317.96556,4288315.47809
937.5,1461.93976626,10.7341240095,1.74829831244,63743.47449,66226.0730324,69482.9532235,69398.7516125,311810.294603,258697.385413,883760.457743,949974.780604,4515115.0989,4515107.22259
976.5625,1470.77203259,10.7355798924,1.52615282524,64076.925191,64038.5309214,68382.0633358,69281.8635759,257340.424824,240396.39912,838835.725579,705114.288356,4152833.63525,4152827.69718
1015.625,1478.47016787,10.7360382569,1.31964346461,64714.6783958,66352.7757686,67831.9544461,70026.4102012,224107.794563,201890.53066,877309.089824,842724.04236,4418159.60757,4418157.24904
1054.6875,1485.0156266,10.7358035758,1.09368578093,64684.0552225,67655.7227233,66655.0528893,69415.189931,231864.859376,123067.725001,867866.857009,837112.269684,4038327.28093,4038325.68975
1093.75,1490.3926402,10.734987651,0.886276786282,64623.5472593,62525.5281447,65883.368481,64334.7669514,186456.929388,191107.894362,838778.415071,804276.807239,4296131.10683,4296128.30876
1132.8125,1494.58825498,10.7341352097,0.658490458045,64498.9428599,62548.2625307,65172.237053,63317.4621768,152090.397677,48373.7438848,844174.879741,844591.54568,3943894.76215,3943892.57946
1171.875,1497.59236334,10.7331629864,0.452105532671,64481.949246,63790.2501056,64803.5150781,64245.932038,134400.66406,111417.133155,845552.601034,841373.453202,4229347.02359,4229344.76519
1210.9375,1499.3977281,10.7328648859,0.223484051498,64432.1492672,63119.8088004,64517.7692136,63222.3522562,105201.505754,42848.1286642,839238.776836,773599.657519,3896540.88533,3896539.70964
1250.0,1500.0,10.7325064759,0.0178824816583,64440.0752844,64066.0552296,64465.5385272,64091.1817667,82086.4129327,16736.9935214,839883.515905,852303.839778,4206188.99126,4206189.25407
1289.0625,1499.3977281,10.7332395732,-0.210894419457,64445.3515969,63242.159075,64511.6083482,63290.2783874,54467.8661639,-7312.08303699,837932.053704,784263.522954,3897072.30478,3897073.49009
1328.125,1497.59236334,10.7334644356,-0.417166851672,64491.9664567,63910.2925504,64780.2648726,64093.8012016,34198.5509847,-5952.15181987,836568.15003,836954.48336,4210027.85395,4210029.95287
1367.1875,1494.58825498,10.7352266935,-0.645659653569,64542.4412699,62915.2018532,65153.3962414,63554.5738842,4767.03458255,-77288.1405056,836879.72388,856453.13523,3941819.5642,3941821.62683
1406.25,1490.3926402,10.7358676228,-0.853524646687,64628.3258636,63132.7640285,65798.5420912,64083.3260825,-7075.38617569,-65884.215666,839674.273276,814675.722082,4228040.5288,4228042.67258
1445.3125,1485.0156266,10.737344363,-1.08104693093,64757.1437086,68029.0529159,66586.9226258,69580.3178151,-34119.7295893,-92000.8539489,820515.973192,830915.951777,4028378.05385,4028379.68388
1484.375,1478.47016787,10.7377485718,-1.28957714796,64791.6463019,67326.3436603,67691.1726434,69596.0803203,-63711.661242,-154847.145953,823589.396367,727179.183549,4355600.36772,4355603.77787
1523.4375,1470.77203259,10.7378865166,-1.5147649991,64217.4831074,67309.3944742,68253.1317075,71410.7316384,-116745.319658,-26393.2090973,827723.605578,782369.931729,4170502.61079,4170509.69368
1562.5,1461.93976626,10.7366151036,-1.72168735644,63966.9177693,62184.4734936,69364.3112381,65762.3083274,-149974.45832,-176580.116705,914029.910422,983644.895961,4624630.11132,4624635.25702
1601.5625,1451.99464656,10.7344020497,-1.94239329081,61856.5787677,60861.4059591,69249.1638856,70703.2882487,-45611.3831485,-200662.959381,844409.19071,1027478.79797,4376967.30798,4376970.62456
1640.625,1440.96063217,10.7302924923,-2.14457821429,61408.1084588,67115.9564497,69284.1395136,73090.6065379,-168221.341527,-185273.30032,760575.746348,501516.614945,4728394.07397,4728405.38915
1679.6875,1428.864305,10.7252414556,-2.35763243114,60819.5541126,61297.242689,70454.2422569,72860.1122249,-214651.431439,-454605.464074,879404.624397,854390.01971,4508864.91616,4508870.24781
1718.75,1415.73480615,10.7181813231,-2.55172444191,55588.6407848,59807.3353623,69615.7292171,75350.1702529,-184083.924618,-232328.895961,881758.112647,744802.7295,4911693.27045,4911701.90901
1757.8125,1401.60376574,10.7106217372,-2.75414395676,53020.4625617,51671.1858474,69971.2243548,75388.8761718,-135074.782644,-265911.889583,836678.223219,928846.320595,4716885.97521,4716894.17218
1796.875,1386.50522668,10.7005343203,-2.93719164967,51769.8461631,52293.4877464,69173.9555826,71950.1739479,-206159.062581,-188743.87822,791707.459527,604979.247401,5271498.92941,5271505.31028
1835.9375,1370.47556268,10.6897950626,-3.12626008092,48879.0339902,47434.8482342,68855.0513485,73933.8995279,-233144.535188,-453348.455065,845184.703807,837559.957782,5011473.48501,5011482.87477
1875.0,1353.55339059,10.6746591352,-3.29488745664,47630.2236461,49543.2688669,68095.0633699,71497.7545949,-228288.595368,-69441.6269558,793522.966209,672101.541067,5475494.74167,5475503.67608
1914.0625,1335.77947742,10.6592517718,-3.46829569986,44996.4529157,43046.1493878,68529.6735875,73666.9888473,-255501.273502,-320835.860853,811680.25539,858992.105614,5256965.27045,5256973.39167
1953.125,1317.19664208,10.638877152,-3.61981061903,41348.3422489,46675.0273759,66292.5965498,72181.1115264,-239800.025384,-177769.503396,746057.155848,780106.201654,5865940.40184,5865956.8142
1992.1875,1297.84965225,10.618470858,-3.77443792452,39847.7836717,33116.6175659,67835.2222781,69246.9048471,-341804.914584,-538291.256472,831797.822926,790634.696821,5662437.51984,5662437.76198
2031.25,1277.78511651,10.5933878527,-3.90521371066,40604.4871158,39405.5510533,65506.7960117,68203.4832476,-137010.518067,-107115.796602,791626.737031,895573.577544,6194474.8875,6194492.73089
2070.3125,1257.0513721,10.5682970468,-4.03910609225,40177.6233794,43089.5329376,65517.796592,69161.5269105,-242316.171448,77404.439503,641468.651594,412650.079944,6018906.53236,6018917.5263
2109.375,1235.69836841,10.5395386206,-4.14765190801,38659.8349806,36898.9351703,66683.7152954,71682.3526701,-338314.971184,-320831.26529,759108.985624,571603.893466,6415872.61873,6415875.54481
2148.4375,1213.77754672,10.5109668134,-4.25880677232,32515.6216507,41843.8140185,63906.0720082,71335.3562704,-240228.196472,-159855.825802,720680.137926,776633.18699,6408443.80538,6408461.95166
2187.5,1191.34171618,10.4787651279,-4.34451148534,30189.7797671,33786.2055958,64013.2061321,70953.5284328,-158415.935586,-87665.335872,653295.02541,806903.124196,6868499.72519,6868515.5319
2226.5625,1168.4449267,10.4472142082,-4.432513424,30811.0150752,23044.2104294,64078.2466791,64271.7440092,-168017.309778,97612.0943548,544510.891651,512669.868317,6897613.09878,6897610.43319
2265.625,1145.14233863,10.4131449735,-4.49511101651,33091.5147637,31142.9703258,62454.259836,65479.6599791,-192244.684685,-29211.1396477,540976.138236,470101.563107,7324801.7727,7324815.99524
2304.6875,1121.49008995,10.3785947431,-4.55939393273,29487.8762616,35837.873489,60968.9719547,66859.4847644,-125708.635108,-175004.640847,512207.033394,678318.419566,7283381.8041,7283403.43303
2343.75,1097.54516101,10.3426167352,-4.59841027713,27598.0510111,29594.7216063,61134.6961997,67083.7351813,-34120.8467483,-19350.4431749,463712.394179,611171.23666,7647233.27912,7647245.38276
2382.8125,1073.36523723,10.3066333617,-4.63959820178,27883.0320758,20573.0184386,60865.9063086,61017.8534883,-4249.21083554,240263.488182,383646.087249,468509.835023,7637854.29715,7637852.36026
2421.875,1049.00857016,10.2690753878,-4.6543592708,30608.5464552,29419.436843,59303.522511,62170.5340358,18488.8505825,224863.796732,342057.4869,367495.722959,8110200.92421,8110214.71667
2460.9375,1024.53383716,10.2318194374,-4.67250737102,27067.1361496,32334.1846045,57802.7909552,63158.393768,98946.7884032,129770.644605,320640.324388,446666.699615,8144974.86249,8144996.18238
2500.0,1000.0,10.192760496,-4.66417780393,25638.1287604,28592.0002406,57401.9083149,63273.6152184,256222.999322,288446.588792,382650.255393,458851.784945,8566596.71707,8566613.17084
2539.0625,975.466162836,10.1550479955,-4.65927155748,26106.0571599,22063.613173,57224.5130082,60049.8606227,326949.600466,562018.706411,404136.018322,608025.92828,8649015.14221,8649013.13632
2578.125,950.991429835,10.1156502929,-4.62800537153,29102.6420633,27183.7543779,55906.6381082,57899.0096979,383506.446128,617264.522692,469480.899147,666837.657122,9046434.63412,9046442.01343
2617.1875,926.634762772,10.0775116089,-4.60095388189,25571.5065831,29869.03175,54226.9190248,58481.8624695,438298.334039,259666.808485,477905.44025,283086.164522,9030336.15414,9030356.17014
2656.25,902.454838992,10.0386669674,-4.54779894558,24892.7330415,27235.7969587,53334.1751094,57699.5130715,730672.796072,875762.933515,806246.777186,915947.150542,9391966.84409,9391987.54445
2695.3125,878.509910048,10.0011558461,-4.4983308954,25924.4865728,22128.2113444,53022.567733,54254.0576761,778804.407233,1036287.59103,868591.271733,1094377.77632,9372068.41287,9372071.17949
2734.375,854.857661373,9.96260647664,-4.42414388453,29521.8206396,30380.4038814,52362.2429635,55375.3622683,816390.719076,1013643.62176,883833.781092,1087509.85417,9813667.27206,9813669.694
2773.4375,831.555073304,9.92666970578,-4.35389093602,24024.3340556,32110.6900105,50480.5747361,56729.6796954,1027251.09945,1218027.56787,1114844.12045,1319644.50921,9845122.51845,9845142.27503
2812.5,808.658283817,9.88918286051,-4.25945210925,23068.5480308,26110.6941102,50184.7383557,55800.3693228,1168645.11717,1073420.22057,1288276.01394,1168810.14895,10247675.9841,10247695.6412
2851.5625,786.222453285,9.85424821355,-4.16851788384,23648.5524197,19762.2955862,49156.2417131,52093.9975795,1325442.77739,1473726.15195,1527732.57359,1574864.23412,10364430.0882,10364424.6043
2890.625,764.301631587,9.81908740168,-4.05527857648,26943.0141003,23383.2067927,47308.4425333,46647.0970535,1335441.33519,1241577.44165,1593832.05241,1516532.47845,10705613.938,10705622.519
2929.6875,742.948627903,9.78580475624,-3.94530949147,28700.2507488,27591.0947639,46463.5282466,46885.5186227,1636456.75518,1681300.78567,1903500.63114,1800514.47851,10667759.9551,10667782.573
2968.75,722.21488349,9.75342323864,-3.81318897581,31208.9941508,30689.3181989,47145.9522818,47602.8702694,1659068.99578,1957290.35621,2123307.19513,2411677.36234,11005136.8357,11005134.1944
3007.8125,702.150347754,9.72172222097,-3.68601446481,29725.1125036,27495.437245,46385.1360676,49735.7656134,1668244.14881,1730631.53613,2122480.60073,2277786.5148,10970769.305,10970776.8185
3046.875,682.803357918,9.692277343,-3.53639326543,28315.6293345,32853.5632223,44844.3865426,50247.5208852,1881149.37629,1903225.12713,2390009.79856,2289402.43484,11456169.0556,11456187.4253
3085.9375,664.220522576,9.66356869434,-3.39330929061,27211.5353302,19153.159521,45466.6763464,46149.6851571,1947321.43117,2095797.31134,2616629.61425,2544819.0569,11393127.6896,11393127.4496
3125.0,646.446609407,9.6375722126,-3.2272525395,28759.884277,23446.1762781,42832.0689023,42188.6834827,1952716.68191,1712990.506,2736253.09926,2417299.92788,11749955.4571,11749971.0697
3164.0625,629.524437323,9.6116117705,-3.0697093927,30469.3269689,33895.5611668,42061.6684023,41867.375087,2007738.40399,1867295.94784,2882727.60114,2681710.65805,11639684.1082,11639682.5687
3203.125,613.494773319,9.58915646612,-2.88907870648,30654.6021686,31212.3357381,40968.7692215,41987.3202606,2063226.94441,2004962.89515,3061440.95974,3008303.1349,12033904.6826,12033917.4746
3242.1875,598.39623426,9.56697340894,-2.71873479691,31693.4255607,31517.350577,40518.4311914,40201.7129087,2010069.7724,2127609.47939,3206495.22891,3240018.46398,12017439.4467,12017438.2976
3281.25,584.265193849,9.5478073836,-2.52472786075,32865.8960562,33757.3965932,39975.9179264,41284.7729195,1979639.89345,1904362.40938,3273544.12901,3009683.61612,12293579.5814,12293590.7006
3320.3125,571.135695,9.52997002163,-2.34315513101,33541.2836432,33670.2701237,40116.3174266,39012.0855177,1930266.00648,2090338.24332,3425916.64385,3407729.14059,12177590.9389,12177594.7488
3359.375,559.039367826,9.51415123352,-2.13811098489,33026.5618687,31869.6943664,39145.7356297,40355.6538076,1865396.39819,1732129.59216,3493306.5174,3349011.17482,12580441.3043,12580446.8416
3398.4375,548.005353438,9.50049459081,-1.94630430935,34003.7522001,35513.1024012,38547.5818915,38494.252514,1799105.94406,1727326.43733,3620068.741,3554321.68059,12430652.2784,12430662.356
3437.5,538.060233744,9.4881697929,-1.73288261742,33900.4198319,33294.5134423,38080.5059999,37878.7242445,1621265.07522,1771210.24896,3712347.92983,3651447.10504,12676846.4597,12676848.0533
3476.5625,529.227967408,9.47920330643,-1.53261168834,34412.7511943,36178.2653171,37350.9861436,38922.898775,1482905.94052,1443716.86688,3721539.4997,3464354.77235,12658604.4791,12658606.4417
3515.625,521.529832134,9.47014251739,-1.31257944421,34714.739544,33867.8188727,36937.0622155,36266.6971382,1334544.74475,1280441.43862,3779762.13092,3580825.1239,12853441.6068,12853448.105
3554.6875,514.984373403,9.46367849065,-1.10590708917,35075.0750022,35405.5337328,36702.2348794,36237.1319422,1139061.76514,966873.802565,3809388.92464,3705793.25026,12719899.8979,12719905.5235
3593.75,509.607359798,9.45757137727,-0.881775363806,35304.1095679,35125.1464357,36321.6446093,36726.2715028,988759.9915,1032749.85168,3855687.8969,3851761.7815,13024516.6236,13024520.4105
3632.8125,505.411745018,9.45366492461,-0.670313737494,35511.9846714,35777.4329151,35995.4845032,36095.1160321,730022.667723,927428.766944,3870044.92611,4004376.20291,12765175.2263,12765176.6329
3671.875,502.407636664,9.4500489483,-0.443485544386,35842.4737382,35952.1346214,36093.0924273,36365.932253,505026.16529,594003.172994,3841766.60555,3735017.46363,13129634.8767,13129635.0679
3710.9375,500.602271897,9.44868969484,-0.229340224651,35934.5412938,35510.2501012,35986.1054838,35558.1377054,349711.388673,319857.093685,3848777.61499,3766044.33181,12789334.9007,12789334.6777
3750.0,500.0,9.44758849193,-0.00151170148232,36125.9107485,35986.5015997,36137.3102593,35997.2746268,106279.724702,184419.675197,3888918.34952,3910604.18612,13154842.928,13154843.5311
3789.0625,500.602271897,9.44908984031,0.213532638766,36009.8245398,35597.6502753,36055.8854947,35616.6249252,-201873.769247,-73006.6982671,3848753.9955,3875214.7036,12791820.0081,12791821.2139
3828.125,502.407636664,9.45053068085,0.440259603078,35796.4784354,35937.9945083,36000.984801,36065.442915,-358352.69989,-494118.405901,3769857.70663,3597551.51121,13141652.4165,13141652.4472
3867.1875,505.411745018,9.45460469345,0.654619865739,35542.9583512,35883.7885386,36006.7071045,36280.151262,-525703.746182,-574615.846419,3778462.43148,3860254.45997,12765314.8707,12765313.624
3906.25,509.607359798,9.45888639636,0.878371783855,35149.082793,35332.171752,36060.5119076,36075.3470018,-802302.603471,-771390.284779,3753179.65868,3761221.01952,13055526.2622,13055522.3164
3945.3125,514.984373403,9.4651273086,1.08985466983,34971.0994961,34862.4890071,36440.5359653,36142.5680939,-967970.327482,-764939.621023,3663052.27615,3608704.99413,12732791.9485,12732786.4706
3984.375,521.529832134,9.47210732564,1.30932702057,34468.8003141,35175.6471596,36664.5423021,36677.2857395,-1132849.31195,-1072299.96746,3601947.26361,3501240.88986,12907899.0756,12907892.2917
4023.4375,529.227967408,9.48060546799,1.51579624037,34148.8343061,35277.1387727,37011.0483404,37092.0117636,-1294738.51464,-1220176.4033,3531195.79027,3372434.87529,12694635.2432,12694635.5112
4062.5,538.060233744,9.49096317741,1.72937695571,33397.4440193,33952.23445,37829.2925183,37657.7289042,-1394647.69046,-1514616.44297,3443702.64981,3404621.65836,12726569.5282,12726563.2261
4101.5625,548.005353438,9.50280547203,1.92892007106,33691.471072,35338.8269329,38399.8364962,38601.1197508,-1495743.06869,-1342200.97652,3355411.19583,3338014.99867,12463841.6579,12463831.4218
4140.625,559.039367826,9.51715602234,2.13499123581,32244.880014,32641.0724977,39093.8205719,39736.1309671,-1625123.72269,-1501489.46878,3253974.24368,3255831.84245,12655319.6809,12655315.184
4179.6875,571.135695,9.53263607826,2.3254162596,33253.0303154,36121.0585612,40219.1934968,41110.196816,-1646303.5335,-1771311.8483,3130167.9363,3126283.48867,12190539.7304,12190535.8287
4218.75,584.265193849,9.55090463258,2.52192428622,31453.1098551,30340.1959733,40629.5681907,41190.0368652,-1719224.58456,-1426363.2051,3026850.32233,2904275.29064,12361315.2569,12361296.8128
4257.8125,598.39623426,9.5699347677,2.70144591402,33014.418334,35759.7992993,41976.8989063,42374.3085775,-1712080.532,-1809594.96773,2864249.94262,2744697.06198,12092577.572,12092581.6789
4296.875,613.494773319,9.59201193529,2.88632902202,31191.1152678,30101.3023447,41813.5777693,42949.2738555,-1719512.59672,-1269010.56982,2764603.13217,2642761.51638,12128769.3869,12128742.3537
4335.9375,629.524437323,9.61453086929,3.05321485774,31978.0889634,34914.6392747,43013.4035519,44079.1668637,-1721237.20391,-1920714.44485,2519739.2855,2664100.65925,11654661.935,11654661.4172
4375.0,646.446609407,9.64043340308,3.22522586081,30156.4563348,27638.2572029,42813.1539686,42741.1481657,-1540730.88685,-1337663.06357,2331219.69295,2118992.63368,11801264.7058,11801239.8016
4414.0625,664.220522576,9.66641860331,3.3780887957,28514.0174861,31529.7371061,44609.6526243,44389.7927447,-1615548.79894,-1591140.13398,2265750.46203,2346037.79961,11530869.6894,11530864.653
4453.125,682.803357918,9.69546768438,3.53569143114,28549.4782433,31552.5955403,44659.3855526,48913.9109498,-1452217.94981,-1378978.70316,1974352.2097,1885884.92845,11544405.6084,11544393.7739
4492.1875,702.150347754,9.72493242746,3.67257205026,29564.3940325,27318.2576134,45820.1225307,46679.4998075,-1415164.08438,-1446522.22809,1884220.39256,1983779.92647,11078629.0804,11078590.0071
4531.25,722.21488349,9.75744781552,3.81387520595,27878.1245525,28973.2867672,47489.200018,48308.2826565,-1248061.68667,-1329195.32342,1558954.54652,1573651.06392,11084821.2509,11084820.3636
4570.3125,742.948627903,9.78995214323,3.93340983785,27983.1913992,29657.3086498,47116.4404686,50613.3519694,-1035726.45113,-852463.675224,1414463.41048,1289078.25899,10697745.8246,10697725.0319
4609.375,764.301631587,9.82535005144,4.05691305242,28522.3150397,24868.4912409,48765.0462208,48422.889569,-1115759.88738,-1105265.35745,1389359.56595,1499703.49349,10827675.8422,10827638.0256
4648.4375,786.222453285,9.86050547774,4.15794432054,27569.1410356,33491.2399377,51057.7463466,53304.6626307,-857849.457876,-898367.554828,1006806.23813,986477.807607,10459549.7723,10459549.3705
4687.5,808.658283817,9.89862899718,4.26204586773,28137.2065006,32938.4247561,50233.1005625,56713.1276042,-662422.409066,-341721.805382,900829.369452,693629.638251,10452820.1569,10452806.6727
4726.5625,831.555073304,9.93530516329,4.34278898326,30294.2993839,28610.4778523,51216.113492,53122.9917461,-730585.610448,-861568.751214,896472.46771,1101809.04007,9944759.4805,9944712.6003
4765.625,854.857661373,9.97504418255,4.42590816713,29020.870599,32759.2739861,51685.1346713,53719.2759905,-540772.86526,-699711.324812,602329.59385,735385.771071,9949052.70057,9949004.02936
4804.6875,878.509910048,10.0132742248,4.48605695477,28263.2444609,24279.6138149,51687.9284156,51465.8552625,-386910.224573,-310191.539221,431196.463293,333475.937728,9421099.59608,9421088.6263
4843.75,902.454838992,10.0539817492,4.54678594264,26046.148605,22567.9507767,52714.8026219,50559.6547766,-307750.545329,-196890.605588,366212.076077,228799.285363,9518026.66329,9518012.50962
4882.8125,926.634762772,10.0919376322,4.5846118149,24957.6636688,24647.4719178,54405.8917317,51023.701585,-141499.444666,-155824.559682,228275.76328,198044.858121,9042732.72009,9042721.23644
4921.875,950.991429835,10.1320998586,4.62355647227,24143.2381274,24306.2288807,56779.4723004,51693.2774988,32343.5550607,132351.457888,233067.910857,243973.848698,9179373.83395,9179367.04298
4960.9375,975.466162836,10.1700742433,4.63912318595,23167.7628242,35894.3277446,58768.9581872,65504.4399028,149031.740022,169065.271914,304145.264005,246537.425773,8658570.67074,8658688.55038
5000.0,1000.0,10.209451893,4.65620733121,22814.9972559,34667.1680053,58650.9704838,68057.2750802,236598.744088,232671.326738,343284.481843,291162.28462,8819283.52631,8819239.15697
