X,Y,surf vx,surf vy,tauxy integr. above,tauxy dir. above,secinvare integr. above,secinvar dir. above,tauxy integr. below,tauxy dir. below,secinvare integr. below,secinvar dir. below,P integr.,P dir.,
0.0,1000.0,5.545017543,2.62378801481,18563.3895919,31493.4701507,40270.3037623,46799.3819268,18563.3895919,31493.4701507,1181586.51529,716088.890945,6452653.60808,6452653.60808
156.25,1097.54516101,5.5850211181,2.41515153977,18977.1422889,24476.7366903,41990.4309452,50874.468991,18977.1422889,24476.7366903,952970.748863,491047.406145,5435106.70386,5435106.70386
312.5,1191.34171618,5.63805039545,2.07467141987,28284.882677,18396.8656274,49573.1120226,39362.0596554,28284.882677,18396.8656274,1360381.68391,1008504.95099,4752738.14059,4752738.14059
468.75,1277.78511651,5.73951041329,1.52942445667,30542.1632503,39908.6012848,41274.3057998,50738.5921897,30542.1632503,39908.6012848,1744225.91155,1867513.49113,3873694.55555,3873694.55555
625.0,1353.55339059,5.63144956735,0.868280823957,35391.5327377,29129.3445671,40891.9992714,37832.2387904,35391.5327377,29129.3445671,2006547.15799,1866570.67615,3247203.38576,3247203.38576
781.25,1415.73480615,5.33521700151,0.458626925458,34658.0194782,40749.9233684,37108.6458959,42107.6173572,34658.0194782,40749.9233684,2011342.55747,1877773.59913,2706688.27272,2706688.27272
937.5,1461.93976626,5.09986207036,0.1641905144,33531.7897527,24452.0844384,34001.3222461,24671.3657794,33531.7897527,24452.0844384,2342639.61854,2453419.30944,2046513.43182,2046513.43182
1093.75,1490.3926402,4.95478089885,0.0795563155341,31494.2377231,27121.1797203,31976.7136453,27333.7973961,31494.2377231,27121.1797203,2292858.08423,2482876.81594,2031781.90466,2031781.90466
1250.0,1500.0,4.92179343672,-0.00179536175012,30127.350049,26248.0204807,30234.9576405,26289.1624529,30127.350049,26248.0204807,2330075.14722,2316698.77787,1815456.16534,1815456.16534
1406.25,1490.3926402,4.95227761009,-0.0958475508976,31411.6546898,26610.1399714,31891.2622397,26645.7080677,31411.6546898,26610.1399714,2283985.85737,2658593.91724,2001606.15924,2001606.15924
1562.5,1461.93976626,5.10049278486,-0.166263257718,33463.065478,27806.6125536,33945.8968623,28058.2796181,33463.065478,27806.6125536,2223640.45142,2027698.2858,1980631.9597,1980631.9597
1718.75,1415.73480615,5.31802573645,-0.46143058358,34829.9948184,42123.4424618,37081.2457939,42448.0157907,34829.9948184,42123.4424618,2585281.65959,2776644.48187,2638897.87697,2638897.87697
1875.0,1353.55339059,5.61691466929,-0.848146961723,35815.952669,38988.8409467,40795.3722437,42708.5181877,35815.952669,38988.8409467,1964176.16902,2210991.62034,3428939.7989,3428939.7989
2031.25,1277.78511651,5.73490827089,-1.48781584582,31258.2743153,40370.9108886,41303.8099667,47441.4251527,31258.2743153,40370.9108886,1575730.44863,1674554.97232,3819137.52063,3819137.52063
2187.5,1191.34171618,5.65481962922,-2.02603708117,28159.9442405,33556.3987244,42516.7615173,44434.5309477,28159.9442405,33556.3987244,1546710.9609,2068253.75731,4202167.5104,4202167.5104
2343.75,1097.54516101,5.58325086259,-2.39638441244,18374.0069023,32589.4943072,41538.5972056,48989.4752767,18374.0069023,32589.4943072,1500665.45748,1892462.95888,5332474.3153,5332474.3153
2500.0,1000.0,5.56802822703,-2.59855219795,17576.177527,32846.8519363,39894.8490651,47027.5607858,17576.177527,32846.8519363,1725047.43313,1502526.08311,6106064.57254,6106064.57254
2656.25,902.454838992,5.44129754048,-2.68642539339,20087.1397675,20378.3291541,39534.4184182,41913.2614664,20087.1397675,20378.3291541,2068735.19609,3118305.20625,7115583.17174,7115583.17174
2812.5,808.658283817,5.35846140297,-2.6087641669,23559.8483959,30534.0928902,37240.7997383,39892.910933,23559.8483959,30534.0928902,3162323.1017,5506160.1838,8082989.5282,8082989.5282
2968.75,722.21488349,5.24683434129,-2.36876674577,20369.1581201,34137.0471376,35747.8912712,43154.763225,20369.1581201,34137.0471376,4375360.86497,4926128.01496,8857994.92305,8857994.92305
3125.0,646.446609407,5.17765647426,-2.0416092224,22635.4148181,26413.014588,34795.10001,38132.4207959,22635.4148181,26413.014588,5338297.79077,4878471.41194,9400234.94862,9400234.94862
3281.25,584.265193849,5.12053183291,-1.61469236303,26659.8630159,26950.5589843,34408.7425233,38358.2045188,26659.8630159,26950.5589843,5426960.12514,3577325.87904,9914725.62191,9914725.62191
3437.5,538.060233744,5.07690918236,-1.1289260721,28130.3668753,29536.1286434,32238.0667975,33510.5737524,28130.3668753,29536.1286434,5220936.60219,6841804.52637,10500202.6744,10500202.6744
3593.75,509.607359798,5.04972682326,-0.584198136345,30317.3837384,31684.3439159,31970.6776402,34014.0961933,30317.3837384,31684.3439159,4725165.9005,8971253.69679,10727058.3267,10727058.3267
3750.0,500.0,5.04041751153,-0.014481417156,31721.2426518,34809.3208629,31916.1429335,34855.7751168,31721.2426518,34809.3208629,4654995.08191,6060389.20448,10752454.3867,10752454.3867
3906.25,509.607359798,5.04936452049,0.551414595182,30169.4806748,33094.0640028,32130.4547833,34389.6576893,30169.4806748,33094.0640028,5552833.49894,9962299.90165,10756810.4391,10756810.4391
4062.5,538.060233744,5.07457677439,1.09753306005,27774.4868283,32681.3014215,32222.8964127,35393.3403894,27774.4868283,32681.3014215,6310331.35197,6154887.04332,10551300.8144,10551300.8144
4218.75,584.265193849,5.11509513334,1.58240615162,27591.4627377,27427.5787403,34426.0608049,37076.5569078,27591.4627377,27427.5787403,6381340.69799,8832240.3392,9972312.71157,9972312.71157
4375.0,646.446609407,5.17071245458,2.01615741744,23966.1472853,30223.8777199,35020.8092254,38693.510857,23966.1472853,30223.8777199,5603390.80276,8193636.39558,9580071.45547,9580071.45547
4531.25,722.21488349,5.23737249673,2.34703865525,21242.2354477,30077.8092166,36224.441351,44137.3757148,21242.2354477,30077.8092166,4110927.38846,7115720.77607,8961962.06226,8961962.06226
4687.5,808.658283817,5.33938736565,2.60183271524,26819.1812859,24205.8532203,53461.8815167,36271.9736316,26819.1812859,24205.8532203,2648398.04265,2471299.84907,8252205.72254,8252205.72254
4843.75,902.454838992,5.43006244724,2.68763490782,20889.8565064,25868.8447378,39705.7553551,44471.7688317,20889.8565064,25868.8447378,1853252.66985,2210833.92715,7328729.08923,7328729.08923
5000.0,1000.0,5.545017543,2.62378801481,18563.3895919,28059.5391463,40270.3037623,46693.0398931,18563.3895919,28059.5391463,1181586.51529,1302174.8738,6452653.60808,6452653.60808
