<?xml version="1.0" encoding="utf-8" standalone="no"?>
<!DOCTYPE svg PUBLIC "-//W3C//DTD SVG 1.1//EN"
  "http://www.w3.org/Graphics/SVG/1.1/DTD/svg11.dtd">
<svg xmlns:xlink="http://www.w3.org/1999/xlink" width="720pt" height="720pt" viewBox="0 0 720 720" xmlns="http://www.w3.org/2000/svg" version="1.1">
 <metadata>
  <rdf:RDF xmlns:dc="http://purl.org/dc/elements/1.1/" xmlns:cc="http://creativecommons.org/ns#" xmlns:rdf="http://www.w3.org/1999/02/22-rdf-syntax-ns#">
   <cc:Work>
    <dc:type rdf:resource="http://purl.org/dc/dcmitype/StillImage"/>
    <dc:date>2022-02-25T17:32:59.978424</dc:date>
    <dc:format>image/svg+xml</dc:format>
    <dc:creator>
     <cc:Agent>
      <dc:title>Matplotlib v3.5.0, https://matplotlib.org/</dc:title>
     </cc:Agent>
    </dc:creator>
   </cc:Work>
  </rdf:RDF>
 </metadata>
 <defs>
  <style type="text/css">*{stroke-linejoin: round; stroke-linecap: butt}</style>
 </defs>
 <g id="figure_1">
  <g id="patch_1">
   <path d="M 0 720 
L 720 720 
L 720 0 
L 0 0 
z
" style="fill: #ffffff"/>
  </g>
  <g id="axes_1">
   <g id="patch_2">
    <path d="M 45.94399 206.64351 
L 357.989062 206.64351 
L 357.989062 18.118365 
L 45.94399 18.118365 
z
" style="fill: #ffffff"/>
   </g>
   <g id="matplotlib.axis_1">
    <g id="xtick_1">
     <g id="line2d_1">
      <defs>
       <path id="m0be9213d00" d="M 0 0 
L 0 3.5 
" style="stroke: #000000; stroke-width: 0.8"/>
      </defs>
      <g>
       <use xlink:href="#m0be9213d00" x="60.127857" y="206.64351" style="stroke: #000000; stroke-width: 0.8"/>
      </g>
     </g>
     <g id="text_1">
      <!-- 0.0 -->
      <g transform="translate(52.176294 221.241947)scale(0.1 -0.1)">
       <defs>
        <path id="DejaVuSans-30" d="M 2034 4250 
Q 1547 4250 1301 3770 
Q 1056 3291 1056 2328 
Q 1056 1369 1301 889 
Q 1547 409 2034 409 
Q 2525 409 2770 889 
Q 3016 1369 3016 2328 
Q 3016 3291 2770 3770 
Q 2525 4250 2034 4250 
z
M 2034 4750 
Q 2819 4750 3233 4129 
Q 3647 3509 3647 2328 
Q 3647 1150 3233 529 
Q 2819 -91 2034 -91 
Q 1250 -91 836 529 
Q 422 1150 422 2328 
Q 422 3509 836 4129 
Q 1250 4750 2034 4750 
z
" transform="scale(0.015625)"/>
        <path id="DejaVuSans-2e" d="M 684 794 
L 1344 794 
L 1344 0 
L 684 0 
L 684 794 
z
" transform="scale(0.015625)"/>
       </defs>
       <use xlink:href="#DejaVuSans-30"/>
       <use xlink:href="#DejaVuSans-2e" x="63.623047"/>
       <use xlink:href="#DejaVuSans-30" x="95.410156"/>
      </g>
     </g>
    </g>
    <g id="xtick_2">
     <g id="line2d_2">
      <g>
       <use xlink:href="#m0be9213d00" x="116.863325" y="206.64351" style="stroke: #000000; stroke-width: 0.8"/>
      </g>
     </g>
     <g id="text_2">
      <!-- 0.2 -->
      <g transform="translate(108.911762 221.241947)scale(0.1 -0.1)">
       <defs>
        <path id="DejaVuSans-32" d="M 1228 531 
L 3431 531 
L 3431 0 
L 469 0 
L 469 531 
Q 828 903 1448 1529 
Q 2069 2156 2228 2338 
Q 2531 2678 2651 2914 
Q 2772 3150 2772 3378 
Q 2772 3750 2511 3984 
Q 2250 4219 1831 4219 
Q 1534 4219 1204 4116 
Q 875 4013 500 3803 
L 500 4441 
Q 881 4594 1212 4672 
Q 1544 4750 1819 4750 
Q 2544 4750 2975 4387 
Q 3406 4025 3406 3419 
Q 3406 3131 3298 2873 
Q 3191 2616 2906 2266 
Q 2828 2175 2409 1742 
Q 1991 1309 1228 531 
z
" transform="scale(0.015625)"/>
       </defs>
       <use xlink:href="#DejaVuSans-30"/>
       <use xlink:href="#DejaVuSans-2e" x="63.623047"/>
       <use xlink:href="#DejaVuSans-32" x="95.410156"/>
      </g>
     </g>
    </g>
    <g id="xtick_3">
     <g id="line2d_3">
      <g>
       <use xlink:href="#m0be9213d00" x="173.598792" y="206.64351" style="stroke: #000000; stroke-width: 0.8"/>
      </g>
     </g>
     <g id="text_3">
      <!-- 0.4 -->
      <g transform="translate(165.64723 221.241947)scale(0.1 -0.1)">
       <defs>
        <path id="DejaVuSans-34" d="M 2419 4116 
L 825 1625 
L 2419 1625 
L 2419 4116 
z
M 2253 4666 
L 3047 4666 
L 3047 1625 
L 3713 1625 
L 3713 1100 
L 3047 1100 
L 3047 0 
L 2419 0 
L 2419 1100 
L 313 1100 
L 313 1709 
L 2253 4666 
z
" transform="scale(0.015625)"/>
       </defs>
       <use xlink:href="#DejaVuSans-30"/>
       <use xlink:href="#DejaVuSans-2e" x="63.623047"/>
       <use xlink:href="#DejaVuSans-34" x="95.410156"/>
      </g>
     </g>
    </g>
    <g id="xtick_4">
     <g id="line2d_4">
      <g>
       <use xlink:href="#m0be9213d00" x="230.33426" y="206.64351" style="stroke: #000000; stroke-width: 0.8"/>
      </g>
     </g>
     <g id="text_4">
      <!-- 0.6 -->
      <g transform="translate(222.382698 221.241947)scale(0.1 -0.1)">
       <defs>
        <path id="DejaVuSans-36" d="M 2113 2584 
Q 1688 2584 1439 2293 
Q 1191 2003 1191 1497 
Q 1191 994 1439 701 
Q 1688 409 2113 409 
Q 2538 409 2786 701 
Q 3034 994 3034 1497 
Q 3034 2003 2786 2293 
Q 2538 2584 2113 2584 
z
M 3366 4563 
L 3366 3988 
Q 3128 4100 2886 4159 
Q 2644 4219 2406 4219 
Q 1781 4219 1451 3797 
Q 1122 3375 1075 2522 
Q 1259 2794 1537 2939 
Q 1816 3084 2150 3084 
Q 2853 3084 3261 2657 
Q 3669 2231 3669 1497 
Q 3669 778 3244 343 
Q 2819 -91 2113 -91 
Q 1303 -91 875 529 
Q 447 1150 447 2328 
Q 447 3434 972 4092 
Q 1497 4750 2381 4750 
Q 2619 4750 2861 4703 
Q 3103 4656 3366 4563 
z
" transform="scale(0.015625)"/>
       </defs>
       <use xlink:href="#DejaVuSans-30"/>
       <use xlink:href="#DejaVuSans-2e" x="63.623047"/>
       <use xlink:href="#DejaVuSans-36" x="95.410156"/>
      </g>
     </g>
    </g>
    <g id="xtick_5">
     <g id="line2d_5">
      <g>
       <use xlink:href="#m0be9213d00" x="287.069728" y="206.64351" style="stroke: #000000; stroke-width: 0.8"/>
      </g>
     </g>
     <g id="text_5">
      <!-- 0.8 -->
      <g transform="translate(279.118165 221.241947)scale(0.1 -0.1)">
       <defs>
        <path id="DejaVuSans-38" d="M 2034 2216 
Q 1584 2216 1326 1975 
Q 1069 1734 1069 1313 
Q 1069 891 1326 650 
Q 1584 409 2034 409 
Q 2484 409 2743 651 
Q 3003 894 3003 1313 
Q 3003 1734 2745 1975 
Q 2488 2216 2034 2216 
z
M 1403 2484 
Q 997 2584 770 2862 
Q 544 3141 544 3541 
Q 544 4100 942 4425 
Q 1341 4750 2034 4750 
Q 2731 4750 3128 4425 
Q 3525 4100 3525 3541 
Q 3525 3141 3298 2862 
Q 3072 2584 2669 2484 
Q 3125 2378 3379 2068 
Q 3634 1759 3634 1313 
Q 3634 634 3220 271 
Q 2806 -91 2034 -91 
Q 1263 -91 848 271 
Q 434 634 434 1313 
Q 434 1759 690 2068 
Q 947 2378 1403 2484 
z
M 1172 3481 
Q 1172 3119 1398 2916 
Q 1625 2713 2034 2713 
Q 2441 2713 2670 2916 
Q 2900 3119 2900 3481 
Q 2900 3844 2670 4047 
Q 2441 4250 2034 4250 
Q 1625 4250 1398 4047 
Q 1172 3844 1172 3481 
z
" transform="scale(0.015625)"/>
       </defs>
       <use xlink:href="#DejaVuSans-30"/>
       <use xlink:href="#DejaVuSans-2e" x="63.623047"/>
       <use xlink:href="#DejaVuSans-38" x="95.410156"/>
      </g>
     </g>
    </g>
    <g id="xtick_6">
     <g id="line2d_6">
      <g>
       <use xlink:href="#m0be9213d00" x="343.805196" y="206.64351" style="stroke: #000000; stroke-width: 0.8"/>
      </g>
     </g>
     <g id="text_6">
      <!-- 1.0 -->
      <g transform="translate(335.853633 221.241947)scale(0.1 -0.1)">
       <defs>
        <path id="DejaVuSans-31" d="M 794 531 
L 1825 531 
L 1825 4091 
L 703 3866 
L 703 4441 
L 1819 4666 
L 2450 4666 
L 2450 531 
L 3481 531 
L 3481 0 
L 794 0 
L 794 531 
z
" transform="scale(0.015625)"/>
       </defs>
       <use xlink:href="#DejaVuSans-31"/>
       <use xlink:href="#DejaVuSans-2e" x="63.623047"/>
       <use xlink:href="#DejaVuSans-30" x="95.410156"/>
      </g>
     </g>
    </g>
    <g id="text_7">
     <!-- x norm. -->
     <g transform="translate(182.76262 234.920073)scale(0.1 -0.1)">
      <defs>
       <path id="DejaVuSans-78" d="M 3513 3500 
L 2247 1797 
L 3578 0 
L 2900 0 
L 1881 1375 
L 863 0 
L 184 0 
L 1544 1831 
L 300 3500 
L 978 3500 
L 1906 2253 
L 2834 3500 
L 3513 3500 
z
" transform="scale(0.015625)"/>
       <path id="DejaVuSans-20" transform="scale(0.015625)"/>
       <path id="DejaVuSans-6e" d="M 3513 2113 
L 3513 0 
L 2938 0 
L 2938 2094 
Q 2938 2591 2744 2837 
Q 2550 3084 2163 3084 
Q 1697 3084 1428 2787 
Q 1159 2491 1159 1978 
L 1159 0 
L 581 0 
L 581 3500 
L 1159 3500 
L 1159 2956 
Q 1366 3272 1645 3428 
Q 1925 3584 2291 3584 
Q 2894 3584 3203 3211 
Q 3513 2838 3513 2113 
z
" transform="scale(0.015625)"/>
       <path id="DejaVuSans-6f" d="M 1959 3097 
Q 1497 3097 1228 2736 
Q 959 2375 959 1747 
Q 959 1119 1226 758 
Q 1494 397 1959 397 
Q 2419 397 2687 759 
Q 2956 1122 2956 1747 
Q 2956 2369 2687 2733 
Q 2419 3097 1959 3097 
z
M 1959 3584 
Q 2709 3584 3137 3096 
Q 3566 2609 3566 1747 
Q 3566 888 3137 398 
Q 2709 -91 1959 -91 
Q 1206 -91 779 398 
Q 353 888 353 1747 
Q 353 2609 779 3096 
Q 1206 3584 1959 3584 
z
" transform="scale(0.015625)"/>
       <path id="DejaVuSans-72" d="M 2631 2963 
Q 2534 3019 2420 3045 
Q 2306 3072 2169 3072 
Q 1681 3072 1420 2755 
Q 1159 2438 1159 1844 
L 1159 0 
L 581 0 
L 581 3500 
L 1159 3500 
L 1159 2956 
Q 1341 3275 1631 3429 
Q 1922 3584 2338 3584 
Q 2397 3584 2469 3576 
Q 2541 3569 2628 3553 
L 2631 2963 
z
" transform="scale(0.015625)"/>
       <path id="DejaVuSans-6d" d="M 3328 2828 
Q 3544 3216 3844 3400 
Q 4144 3584 4550 3584 
Q 5097 3584 5394 3201 
Q 5691 2819 5691 2113 
L 5691 0 
L 5113 0 
L 5113 2094 
Q 5113 2597 4934 2840 
Q 4756 3084 4391 3084 
Q 3944 3084 3684 2787 
Q 3425 2491 3425 1978 
L 3425 0 
L 2847 0 
L 2847 2094 
Q 2847 2600 2669 2842 
Q 2491 3084 2119 3084 
Q 1678 3084 1418 2786 
Q 1159 2488 1159 1978 
L 1159 0 
L 581 0 
L 581 3500 
L 1159 3500 
L 1159 2956 
Q 1356 3278 1631 3431 
Q 1906 3584 2284 3584 
Q 2666 3584 2933 3390 
Q 3200 3197 3328 2828 
z
" transform="scale(0.015625)"/>
      </defs>
      <use xlink:href="#DejaVuSans-78"/>
      <use xlink:href="#DejaVuSans-20" x="59.179688"/>
      <use xlink:href="#DejaVuSans-6e" x="90.966797"/>
      <use xlink:href="#DejaVuSans-6f" x="154.345703"/>
      <use xlink:href="#DejaVuSans-72" x="215.527344"/>
      <use xlink:href="#DejaVuSans-6d" x="254.890625"/>
      <use xlink:href="#DejaVuSans-2e" x="352.302734"/>
     </g>
    </g>
   </g>
   <g id="matplotlib.axis_2">
    <g id="ytick_1">
     <g id="line2d_7">
      <defs>
       <path id="mae95dc47e8" d="M 0 0 
L -3.5 0 
" style="stroke: #000000; stroke-width: 0.8"/>
      </defs>
      <g>
       <use xlink:href="#mae95dc47e8" x="45.94399" y="184.801183" style="stroke: #000000; stroke-width: 0.8"/>
      </g>
     </g>
     <g id="text_8">
      <!-- 10.2 -->
      <g transform="translate(16.678365 188.600402)scale(0.1 -0.1)">
       <use xlink:href="#DejaVuSans-31"/>
       <use xlink:href="#DejaVuSans-30" x="63.623047"/>
       <use xlink:href="#DejaVuSans-2e" x="127.246094"/>
       <use xlink:href="#DejaVuSans-32" x="159.033203"/>
      </g>
     </g>
    </g>
    <g id="ytick_2">
     <g id="line2d_8">
      <g>
       <use xlink:href="#mae95dc47e8" x="45.94399" y="161.275291" style="stroke: #000000; stroke-width: 0.8"/>
      </g>
     </g>
     <g id="text_9">
      <!-- 10.4 -->
      <g transform="translate(16.678365 165.07451)scale(0.1 -0.1)">
       <use xlink:href="#DejaVuSans-31"/>
       <use xlink:href="#DejaVuSans-30" x="63.623047"/>
       <use xlink:href="#DejaVuSans-2e" x="127.246094"/>
       <use xlink:href="#DejaVuSans-34" x="159.033203"/>
      </g>
     </g>
    </g>
    <g id="ytick_3">
     <g id="line2d_9">
      <g>
       <use xlink:href="#mae95dc47e8" x="45.94399" y="137.749398" style="stroke: #000000; stroke-width: 0.8"/>
      </g>
     </g>
     <g id="text_10">
      <!-- 10.6 -->
      <g transform="translate(16.678365 141.548617)scale(0.1 -0.1)">
       <use xlink:href="#DejaVuSans-31"/>
       <use xlink:href="#DejaVuSans-30" x="63.623047"/>
       <use xlink:href="#DejaVuSans-2e" x="127.246094"/>
       <use xlink:href="#DejaVuSans-36" x="159.033203"/>
      </g>
     </g>
    </g>
    <g id="ytick_4">
     <g id="line2d_10">
      <g>
       <use xlink:href="#mae95dc47e8" x="45.94399" y="114.223506" style="stroke: #000000; stroke-width: 0.8"/>
      </g>
     </g>
     <g id="text_11">
      <!-- 10.8 -->
      <g transform="translate(16.678365 118.022724)scale(0.1 -0.1)">
       <use xlink:href="#DejaVuSans-31"/>
       <use xlink:href="#DejaVuSans-30" x="63.623047"/>
       <use xlink:href="#DejaVuSans-2e" x="127.246094"/>
       <use xlink:href="#DejaVuSans-38" x="159.033203"/>
      </g>
     </g>
    </g>
    <g id="ytick_5">
     <g id="line2d_11">
      <g>
       <use xlink:href="#mae95dc47e8" x="45.94399" y="90.697613" style="stroke: #000000; stroke-width: 0.8"/>
      </g>
     </g>
     <g id="text_12">
      <!-- 11.0 -->
      <g transform="translate(16.678365 94.496832)scale(0.1 -0.1)">
       <use xlink:href="#DejaVuSans-31"/>
       <use xlink:href="#DejaVuSans-31" x="63.623047"/>
       <use xlink:href="#DejaVuSans-2e" x="127.246094"/>
       <use xlink:href="#DejaVuSans-30" x="159.033203"/>
      </g>
     </g>
    </g>
    <g id="ytick_6">
     <g id="line2d_12">
      <g>
       <use xlink:href="#mae95dc47e8" x="45.94399" y="67.17172" style="stroke: #000000; stroke-width: 0.8"/>
      </g>
     </g>
     <g id="text_13">
      <!-- 11.2 -->
      <g transform="translate(16.678365 70.970939)scale(0.1 -0.1)">
       <use xlink:href="#DejaVuSans-31"/>
       <use xlink:href="#DejaVuSans-31" x="63.623047"/>
       <use xlink:href="#DejaVuSans-2e" x="127.246094"/>
       <use xlink:href="#DejaVuSans-32" x="159.033203"/>
      </g>
     </g>
    </g>
    <g id="ytick_7">
     <g id="line2d_13">
      <g>
       <use xlink:href="#mae95dc47e8" x="45.94399" y="43.645828" style="stroke: #000000; stroke-width: 0.8"/>
      </g>
     </g>
     <g id="text_14">
      <!-- 11.4 -->
      <g transform="translate(16.678365 47.445047)scale(0.1 -0.1)">
       <use xlink:href="#DejaVuSans-31"/>
       <use xlink:href="#DejaVuSans-31" x="63.623047"/>
       <use xlink:href="#DejaVuSans-2e" x="127.246094"/>
       <use xlink:href="#DejaVuSans-34" x="159.033203"/>
      </g>
     </g>
    </g>
    <g id="ytick_8">
     <g id="line2d_14">
      <g>
       <use xlink:href="#mae95dc47e8" x="45.94399" y="20.119935" style="stroke: #000000; stroke-width: 0.8"/>
      </g>
     </g>
     <g id="text_15">
      <!-- 11.6 -->
      <g transform="translate(16.678365 23.919154)scale(0.1 -0.1)">
       <use xlink:href="#DejaVuSans-31"/>
       <use xlink:href="#DejaVuSans-31" x="63.623047"/>
       <use xlink:href="#DejaVuSans-2e" x="127.246094"/>
       <use xlink:href="#DejaVuSans-36" x="159.033203"/>
      </g>
     </g>
    </g>
    <g id="text_16">
     <!-- velocity (m/a) -->
     <g transform="translate(10.598677 147.0325)rotate(-90)scale(0.1 -0.1)">
      <defs>
       <path id="DejaVuSans-76" d="M 191 3500 
L 800 3500 
L 1894 563 
L 2988 3500 
L 3597 3500 
L 2284 0 
L 1503 0 
L 191 3500 
z
" transform="scale(0.015625)"/>
       <path id="DejaVuSans-65" d="M 3597 1894 
L 3597 1613 
L 953 1613 
Q 991 1019 1311 708 
Q 1631 397 2203 397 
Q 2534 397 2845 478 
Q 3156 559 3463 722 
L 3463 178 
Q 3153 47 2828 -22 
Q 2503 -91 2169 -91 
Q 1331 -91 842 396 
Q 353 884 353 1716 
Q 353 2575 817 3079 
Q 1281 3584 2069 3584 
Q 2775 3584 3186 3129 
Q 3597 2675 3597 1894 
z
M 3022 2063 
Q 3016 2534 2758 2815 
Q 2500 3097 2075 3097 
Q 1594 3097 1305 2825 
Q 1016 2553 972 2059 
L 3022 2063 
z
" transform="scale(0.015625)"/>
       <path id="DejaVuSans-6c" d="M 603 4863 
L 1178 4863 
L 1178 0 
L 603 0 
L 603 4863 
z
" transform="scale(0.015625)"/>
       <path id="DejaVuSans-63" d="M 3122 3366 
L 3122 2828 
Q 2878 2963 2633 3030 
Q 2388 3097 2138 3097 
Q 1578 3097 1268 2742 
Q 959 2388 959 1747 
Q 959 1106 1268 751 
Q 1578 397 2138 397 
Q 2388 397 2633 464 
Q 2878 531 3122 666 
L 3122 134 
Q 2881 22 2623 -34 
Q 2366 -91 2075 -91 
Q 1284 -91 818 406 
Q 353 903 353 1747 
Q 353 2603 823 3093 
Q 1294 3584 2113 3584 
Q 2378 3584 2631 3529 
Q 2884 3475 3122 3366 
z
" transform="scale(0.015625)"/>
       <path id="DejaVuSans-69" d="M 603 3500 
L 1178 3500 
L 1178 0 
L 603 0 
L 603 3500 
z
M 603 4863 
L 1178 4863 
L 1178 4134 
L 603 4134 
L 603 4863 
z
" transform="scale(0.015625)"/>
       <path id="DejaVuSans-74" d="M 1172 4494 
L 1172 3500 
L 2356 3500 
L 2356 3053 
L 1172 3053 
L 1172 1153 
Q 1172 725 1289 603 
Q 1406 481 1766 481 
L 2356 481 
L 2356 0 
L 1766 0 
Q 1100 0 847 248 
Q 594 497 594 1153 
L 594 3053 
L 172 3053 
L 172 3500 
L 594 3500 
L 594 4494 
L 1172 4494 
z
" transform="scale(0.015625)"/>
       <path id="DejaVuSans-79" d="M 2059 -325 
Q 1816 -950 1584 -1140 
Q 1353 -1331 966 -1331 
L 506 -1331 
L 506 -850 
L 844 -850 
Q 1081 -850 1212 -737 
Q 1344 -625 1503 -206 
L 1606 56 
L 191 3500 
L 800 3500 
L 1894 763 
L 2988 3500 
L 3597 3500 
L 2059 -325 
z
" transform="scale(0.015625)"/>
       <path id="DejaVuSans-28" d="M 1984 4856 
Q 1566 4138 1362 3434 
Q 1159 2731 1159 2009 
Q 1159 1288 1364 580 
Q 1569 -128 1984 -844 
L 1484 -844 
Q 1016 -109 783 600 
Q 550 1309 550 2009 
Q 550 2706 781 3412 
Q 1013 4119 1484 4856 
L 1984 4856 
z
" transform="scale(0.015625)"/>
       <path id="DejaVuSans-2f" d="M 1625 4666 
L 2156 4666 
L 531 -594 
L 0 -594 
L 1625 4666 
z
" transform="scale(0.015625)"/>
       <path id="DejaVuSans-61" d="M 2194 1759 
Q 1497 1759 1228 1600 
Q 959 1441 959 1056 
Q 959 750 1161 570 
Q 1363 391 1709 391 
Q 2188 391 2477 730 
Q 2766 1069 2766 1631 
L 2766 1759 
L 2194 1759 
z
M 3341 1997 
L 3341 0 
L 2766 0 
L 2766 531 
Q 2569 213 2275 61 
Q 1981 -91 1556 -91 
Q 1019 -91 701 211 
Q 384 513 384 1019 
Q 384 1609 779 1909 
Q 1175 2209 1959 2209 
L 2766 2209 
L 2766 2266 
Q 2766 2663 2505 2880 
Q 2244 3097 1772 3097 
Q 1472 3097 1187 3025 
Q 903 2953 641 2809 
L 641 3341 
Q 956 3463 1253 3523 
Q 1550 3584 1831 3584 
Q 2591 3584 2966 3190 
Q 3341 2797 3341 1997 
z
" transform="scale(0.015625)"/>
       <path id="DejaVuSans-29" d="M 513 4856 
L 1013 4856 
Q 1481 4119 1714 3412 
Q 1947 2706 1947 2009 
Q 1947 1309 1714 600 
Q 1481 -109 1013 -844 
L 513 -844 
Q 928 -128 1133 580 
Q 1338 1288 1338 2009 
Q 1338 2731 1133 3434 
Q 928 4138 513 4856 
z
" transform="scale(0.015625)"/>
      </defs>
      <use xlink:href="#DejaVuSans-76"/>
      <use xlink:href="#DejaVuSans-65" x="59.179688"/>
      <use xlink:href="#DejaVuSans-6c" x="120.703125"/>
      <use xlink:href="#DejaVuSans-6f" x="148.486328"/>
      <use xlink:href="#DejaVuSans-63" x="209.667969"/>
      <use xlink:href="#DejaVuSans-69" x="264.648438"/>
      <use xlink:href="#DejaVuSans-74" x="292.431641"/>
      <use xlink:href="#DejaVuSans-79" x="331.640625"/>
      <use xlink:href="#DejaVuSans-20" x="390.820312"/>
      <use xlink:href="#DejaVuSans-28" x="422.607422"/>
      <use xlink:href="#DejaVuSans-6d" x="461.621094"/>
      <use xlink:href="#DejaVuSans-2f" x="559.033203"/>
      <use xlink:href="#DejaVuSans-61" x="592.724609"/>
      <use xlink:href="#DejaVuSans-29" x="654.003906"/>
     </g>
    </g>
   </g>
   <g id="line2d_15">
    <path d="M 60.127857 106.950566 
L 68.992774 88.630456 
L 74.533347 77.83862 
L 78.965805 69.733097 
L 82.290149 63.983038 
L 86.722607 56.913373 
L 90.046951 52.053481 
L 93.371295 47.655963 
L 95.587524 44.956005 
L 97.803753 42.456438 
L 100.019983 40.161687 
L 102.236212 38.079484 
L 104.452441 36.210372 
L 106.66867 34.554895 
L 107.776785 33.754307 
L 112.209243 31.197772 
L 117.749816 28.927328 
L 121.07416 27.937797 
L 123.290389 27.439092 
L 125.506619 27.06276 
L 128.830962 26.752047 
L 131.047192 26.699744 
L 133.263421 26.767909 
L 135.47965 26.956058 
L 137.695879 27.270768 
L 141.020223 28.033298 
L 143.236452 28.697645 
L 145.452681 29.492541 
L 147.668911 30.425675 
L 149.88514 31.505133 
L 152.101369 32.756268 
L 154.317598 34.193072 
L 156.533827 35.81782 
L 158.750057 37.639913 
L 159.858171 38.574971 
L 164.29063 43.008962 
L 167.614974 46.834294 
L 172.047432 52.585929 
L 178.69612 62.649787 
L 182.020463 68.209128 
L 188.669151 80.312974 
L 200.858412 105.067635 
L 206.398985 116.914822 
L 209.723328 123.896583 
L 214.155787 133.257357 
L 220.804475 146.793694 
L 228.561277 161.340233 
L 235.209964 172.248117 
L 238.534308 177.138874 
L 239.642423 178.453746 
L 240.750537 180.047864 
L 244.074881 184.036975 
L 245.182996 185.120984 
L 246.29111 186.380657 
L 249.615454 189.423582 
L 252.939798 191.902942 
L 255.156027 193.289003 
L 257.372256 194.41154 
L 259.588486 195.352092 
L 261.804715 196.162128 
L 264.020944 196.845292 
L 266.237173 197.381624 
L 268.453402 197.767878 
L 270.669632 197.997919 
L 272.885861 198.072229 
L 275.10209 197.993364 
L 277.318319 197.759004 
L 279.534549 197.377245 
L 281.750778 196.844302 
L 283.967007 196.174517 
L 287.291351 194.885109 
L 288.399465 194.442726 
L 291.723809 192.598791 
L 292.831924 191.949934 
L 297.264382 188.46045 
L 300.588726 185.159005 
L 302.804955 182.679766 
L 306.129299 178.467378 
L 308.345528 175.390839 
L 310.561757 172.092656 
L 312.777987 168.59933 
L 314.994216 164.928369 
L 317.210445 161.088108 
L 321.642903 152.923197 
L 329.399706 137.420838 
L 342.697081 109.232409 
L 343.805196 106.950566 
L 343.805196 106.950566 
" clip-path="url(#pa2f13ec2b8)" style="fill: none; stroke: #ff0000; stroke-linecap: square"/>
   </g>
   <g id="line2d_16">
    <path d="M 60.127857 109.918855 
L 66.776545 99.323899 
L 71.209003 92.635547 
L 75.641461 86.349875 
L 80.07392 80.559435 
L 84.506378 75.328735 
L 86.722607 72.928777 
L 91.155066 68.633372 
L 95.587524 64.991458 
L 100.019983 62.003046 
L 104.452441 59.649693 
L 108.8849 57.895143 
L 113.317358 56.688583 
L 117.749816 55.923121 
L 122.182275 55.509406 
L 126.614733 55.352394 
L 133.263421 55.383213 
L 139.912108 55.711858 
L 142.128338 55.907264 
L 146.560796 56.591432 
L 150.993254 57.669083 
L 155.425713 59.227003 
L 157.641942 60.219325 
L 159.858171 61.346392 
L 162.074401 62.634552 
L 164.29063 64.067844 
L 166.506859 65.668134 
L 168.723088 67.425059 
L 170.939317 69.351971 
L 173.155547 71.440658 
L 177.588005 76.102784 
L 182.020463 81.36088 
L 186.452922 87.159283 
L 190.88538 93.435298 
L 195.317839 100.109335 
L 201.966526 110.661697 
L 219.69636 139.536366 
L 224.128818 146.287968 
L 228.561277 152.626302 
L 232.993735 158.458653 
L 235.209964 161.161178 
L 239.642423 166.058069 
L 241.858652 168.232579 
L 244.074881 170.235621 
L 246.29111 172.029553 
L 248.50734 173.64297 
L 250.723569 175.047195 
L 252.939798 176.270365 
L 255.156027 177.29086 
L 257.372256 178.136145 
L 259.588486 178.799258 
L 261.804715 179.305158 
L 264.020944 179.665058 
L 268.453402 180.054458 
L 272.885861 180.13514 
L 277.318319 180.024568 
L 279.534549 179.885307 
L 283.967007 179.257636 
L 286.183236 178.722351 
L 288.399465 178.040748 
L 290.615695 177.158009 
L 292.831924 176.109131 
L 295.048153 174.845037 
L 297.264382 173.412016 
L 299.480611 171.761534 
L 301.696841 169.941606 
L 303.91307 167.905687 
L 306.129299 165.710404 
L 310.561757 160.765461 
L 314.994216 155.170522 
L 319.426674 149.014937 
L 323.859133 142.395115 
L 330.50782 131.827225 
L 343.805196 109.918855 
L 343.805196 109.918855 
" clip-path="url(#pa2f13ec2b8)" style="fill: none; stroke: #000000; stroke-linecap: square"/>
   </g>
   <g id="patch_3">
    <path d="M 45.94399 206.64351 
L 45.94399 18.118365 
" style="fill: none; stroke: #000000; stroke-width: 0.8; stroke-linejoin: miter; stroke-linecap: square"/>
   </g>
   <g id="patch_4">
    <path d="M 357.989062 206.64351 
L 357.989062 18.118365 
" style="fill: none; stroke: #000000; stroke-width: 0.8; stroke-linejoin: miter; stroke-linecap: square"/>
   </g>
   <g id="patch_5">
    <path d="M 45.94399 206.64351 
L 357.989063 206.64351 
" style="fill: none; stroke: #000000; stroke-width: 0.8; stroke-linejoin: miter; stroke-linecap: square"/>
   </g>
   <g id="patch_6">
    <path d="M 45.94399 18.118365 
L 357.989063 18.118365 
" style="fill: none; stroke: #000000; stroke-width: 0.8; stroke-linejoin: miter; stroke-linecap: square"/>
   </g>
   <g id="text_17">
    <!-- 5 km -->
    <g transform="translate(186.923401 12.118365)scale(0.12 -0.12)">
     <defs>
      <path id="DejaVuSans-35" d="M 691 4666 
L 3169 4666 
L 3169 4134 
L 1269 4134 
L 1269 2991 
Q 1406 3038 1543 3061 
Q 1681 3084 1819 3084 
Q 2600 3084 3056 2656 
Q 3513 2228 3513 1497 
Q 3513 744 3044 326 
Q 2575 -91 1722 -91 
Q 1428 -91 1123 -41 
Q 819 9 494 109 
L 494 744 
Q 775 591 1075 516 
Q 1375 441 1709 441 
Q 2250 441 2565 725 
Q 2881 1009 2881 1497 
Q 2881 1984 2565 2268 
Q 2250 2553 1709 2553 
Q 1456 2553 1204 2497 
Q 953 2441 691 2322 
L 691 4666 
z
" transform="scale(0.015625)"/>
      <path id="DejaVuSans-6b" d="M 581 4863 
L 1159 4863 
L 1159 1991 
L 2875 3500 
L 3609 3500 
L 1753 1863 
L 3688 0 
L 2938 0 
L 1159 1709 
L 1159 0 
L 581 0 
L 581 4863 
z
" transform="scale(0.015625)"/>
     </defs>
     <use xlink:href="#DejaVuSans-35"/>
     <use xlink:href="#DejaVuSans-20" x="63.623047"/>
     <use xlink:href="#DejaVuSans-6b" x="95.410156"/>
     <use xlink:href="#DejaVuSans-6d" x="153.320312"/>
    </g>
   </g>
   <g id="legend_1">
    <g id="patch_7">
     <path d="M 221.634375 51.994303 
L 350.989062 51.994303 
Q 352.989062 51.994303 352.989062 49.994303 
L 352.989062 25.118365 
Q 352.989062 23.118365 350.989062 23.118365 
L 221.634375 23.118365 
Q 219.634375 23.118365 219.634375 25.118365 
L 219.634375 49.994303 
Q 219.634375 51.994303 221.634375 51.994303 
z
" style="fill: #ffffff; opacity: 0.8; stroke: #cccccc; stroke-linejoin: miter"/>
    </g>
    <g id="line2d_17">
     <path d="M 223.634375 37.855553 
L 233.634375 37.855553 
L 243.634375 37.855553 
" style="fill: none; stroke: #ff0000; stroke-linecap: square"/>
    </g>
    <g id="text_18">
     <!-- tsa1 -->
     <g transform="translate(251.634375 41.355553)scale(0.1 -0.1)">
      <defs>
       <path id="DejaVuSans-73" d="M 2834 3397 
L 2834 2853 
Q 2591 2978 2328 3040 
Q 2066 3103 1784 3103 
Q 1356 3103 1142 2972 
Q 928 2841 928 2578 
Q 928 2378 1081 2264 
Q 1234 2150 1697 2047 
L 1894 2003 
Q 2506 1872 2764 1633 
Q 3022 1394 3022 966 
Q 3022 478 2636 193 
Q 2250 -91 1575 -91 
Q 1294 -91 989 -36 
Q 684 19 347 128 
L 347 722 
Q 666 556 975 473 
Q 1284 391 1588 391 
Q 1994 391 2212 530 
Q 2431 669 2431 922 
Q 2431 1156 2273 1281 
Q 2116 1406 1581 1522 
L 1381 1569 
Q 847 1681 609 1914 
Q 372 2147 372 2553 
Q 372 3047 722 3315 
Q 1072 3584 1716 3584 
Q 2034 3584 2315 3537 
Q 2597 3491 2834 3397 
z
" transform="scale(0.015625)"/>
      </defs>
      <use xlink:href="#DejaVuSans-74"/>
      <use xlink:href="#DejaVuSans-73" x="39.208984"/>
      <use xlink:href="#DejaVuSans-61" x="91.308594"/>
      <use xlink:href="#DejaVuSans-31" x="152.587891"/>
     </g>
    </g>
    <g id="line2d_18">
     <path d="M 293.254687 37.855553 
L 303.254687 37.855553 
L 313.254687 37.855553 
" style="fill: none; stroke: #000000; stroke-linecap: square"/>
    </g>
    <g id="text_19">
     <!-- this -->
     <g transform="translate(321.254687 34.716802)scale(0.1 -0.1)">
      <defs>
       <path id="DejaVuSans-68" d="M 3513 2113 
L 3513 0 
L 2938 0 
L 2938 2094 
Q 2938 2591 2744 2837 
Q 2550 3084 2163 3084 
Q 1697 3084 1428 2787 
Q 1159 2491 1159 1978 
L 1159 0 
L 581 0 
L 581 4863 
L 1159 4863 
L 1159 2956 
Q 1366 3272 1645 3428 
Q 1925 3584 2291 3584 
Q 2894 3584 3203 3211 
Q 3513 2838 3513 2113 
z
" transform="scale(0.015625)"/>
      </defs>
      <use xlink:href="#DejaVuSans-74"/>
      <use xlink:href="#DejaVuSans-68" x="39.208984"/>
      <use xlink:href="#DejaVuSans-69" x="102.587891"/>
      <use xlink:href="#DejaVuSans-73" x="130.371094"/>
     </g>
     <!-- study -->
     <g transform="translate(321.254687 45.914615)scale(0.1 -0.1)">
      <defs>
       <path id="DejaVuSans-75" d="M 544 1381 
L 544 3500 
L 1119 3500 
L 1119 1403 
Q 1119 906 1312 657 
Q 1506 409 1894 409 
Q 2359 409 2629 706 
Q 2900 1003 2900 1516 
L 2900 3500 
L 3475 3500 
L 3475 0 
L 2900 0 
L 2900 538 
Q 2691 219 2414 64 
Q 2138 -91 1772 -91 
Q 1169 -91 856 284 
Q 544 659 544 1381 
z
M 1991 3584 
L 1991 3584 
z
" transform="scale(0.015625)"/>
       <path id="DejaVuSans-64" d="M 2906 2969 
L 2906 4863 
L 3481 4863 
L 3481 0 
L 2906 0 
L 2906 525 
Q 2725 213 2448 61 
Q 2172 -91 1784 -91 
Q 1150 -91 751 415 
Q 353 922 353 1747 
Q 353 2572 751 3078 
Q 1150 3584 1784 3584 
Q 2172 3584 2448 3432 
Q 2725 3281 2906 2969 
z
M 947 1747 
Q 947 1113 1208 752 
Q 1469 391 1925 391 
Q 2381 391 2643 752 
Q 2906 1113 2906 1747 
Q 2906 2381 2643 2742 
Q 2381 3103 1925 3103 
Q 1469 3103 1208 2742 
Q 947 2381 947 1747 
z
" transform="scale(0.015625)"/>
      </defs>
      <use xlink:href="#DejaVuSans-73"/>
      <use xlink:href="#DejaVuSans-74" x="52.099609"/>
      <use xlink:href="#DejaVuSans-75" x="91.308594"/>
      <use xlink:href="#DejaVuSans-64" x="154.6875"/>
      <use xlink:href="#DejaVuSans-79" x="218.164062"/>
     </g>
    </g>
   </g>
  </g>
  <g id="axes_2">
   <g id="patch_8">
    <path d="M 404.954687 206.64351 
L 716.99976 206.64351 
L 716.99976 18.118365 
L 404.954687 18.118365 
z
" style="fill: #ffffff"/>
   </g>
   <g id="matplotlib.axis_3">
    <g id="xtick_7">
     <g id="line2d_19">
      <g>
       <use xlink:href="#m0be9213d00" x="419.138554" y="206.64351" style="stroke: #000000; stroke-width: 0.8"/>
      </g>
     </g>
     <g id="text_20">
      <!-- 0.0 -->
      <g transform="translate(411.186992 221.241947)scale(0.1 -0.1)">
       <use xlink:href="#DejaVuSans-30"/>
       <use xlink:href="#DejaVuSans-2e" x="63.623047"/>
       <use xlink:href="#DejaVuSans-30" x="95.410156"/>
      </g>
     </g>
    </g>
    <g id="xtick_8">
     <g id="line2d_20">
      <g>
       <use xlink:href="#m0be9213d00" x="475.874022" y="206.64351" style="stroke: #000000; stroke-width: 0.8"/>
      </g>
     </g>
     <g id="text_21">
      <!-- 0.2 -->
      <g transform="translate(467.92246 221.241947)scale(0.1 -0.1)">
       <use xlink:href="#DejaVuSans-30"/>
       <use xlink:href="#DejaVuSans-2e" x="63.623047"/>
       <use xlink:href="#DejaVuSans-32" x="95.410156"/>
      </g>
     </g>
    </g>
    <g id="xtick_9">
     <g id="line2d_21">
      <g>
       <use xlink:href="#m0be9213d00" x="532.60949" y="206.64351" style="stroke: #000000; stroke-width: 0.8"/>
      </g>
     </g>
     <g id="text_22">
      <!-- 0.4 -->
      <g transform="translate(524.657927 221.241947)scale(0.1 -0.1)">
       <use xlink:href="#DejaVuSans-30"/>
       <use xlink:href="#DejaVuSans-2e" x="63.623047"/>
       <use xlink:href="#DejaVuSans-34" x="95.410156"/>
      </g>
     </g>
    </g>
    <g id="xtick_10">
     <g id="line2d_22">
      <g>
       <use xlink:href="#m0be9213d00" x="589.344958" y="206.64351" style="stroke: #000000; stroke-width: 0.8"/>
      </g>
     </g>
     <g id="text_23">
      <!-- 0.6 -->
      <g transform="translate(581.393395 221.241947)scale(0.1 -0.1)">
       <use xlink:href="#DejaVuSans-30"/>
       <use xlink:href="#DejaVuSans-2e" x="63.623047"/>
       <use xlink:href="#DejaVuSans-36" x="95.410156"/>
      </g>
     </g>
    </g>
    <g id="xtick_11">
     <g id="line2d_23">
      <g>
       <use xlink:href="#m0be9213d00" x="646.080425" y="206.64351" style="stroke: #000000; stroke-width: 0.8"/>
      </g>
     </g>
     <g id="text_24">
      <!-- 0.8 -->
      <g transform="translate(638.128863 221.241947)scale(0.1 -0.1)">
       <use xlink:href="#DejaVuSans-30"/>
       <use xlink:href="#DejaVuSans-2e" x="63.623047"/>
       <use xlink:href="#DejaVuSans-38" x="95.410156"/>
      </g>
     </g>
    </g>
    <g id="xtick_12">
     <g id="line2d_24">
      <g>
       <use xlink:href="#m0be9213d00" x="702.815893" y="206.64351" style="stroke: #000000; stroke-width: 0.8"/>
      </g>
     </g>
     <g id="text_25">
      <!-- 1.0 -->
      <g transform="translate(694.864331 221.241947)scale(0.1 -0.1)">
       <use xlink:href="#DejaVuSans-31"/>
       <use xlink:href="#DejaVuSans-2e" x="63.623047"/>
       <use xlink:href="#DejaVuSans-30" x="95.410156"/>
      </g>
     </g>
    </g>
    <g id="text_26">
     <!-- x norm. -->
     <g transform="translate(541.773317 234.920073)scale(0.1 -0.1)">
      <use xlink:href="#DejaVuSans-78"/>
      <use xlink:href="#DejaVuSans-20" x="59.179688"/>
      <use xlink:href="#DejaVuSans-6e" x="90.966797"/>
      <use xlink:href="#DejaVuSans-6f" x="154.345703"/>
      <use xlink:href="#DejaVuSans-72" x="215.527344"/>
      <use xlink:href="#DejaVuSans-6d" x="254.890625"/>
      <use xlink:href="#DejaVuSans-2e" x="352.302734"/>
     </g>
    </g>
   </g>
   <g id="matplotlib.axis_4">
    <g id="ytick_9">
     <g id="line2d_25">
      <g>
       <use xlink:href="#mae95dc47e8" x="404.954687" y="195.550625" style="stroke: #000000; stroke-width: 0.8"/>
      </g>
     </g>
     <g id="text_27">
      <!-- 12 -->
      <g transform="translate(385.229687 199.349844)scale(0.1 -0.1)">
       <use xlink:href="#DejaVuSans-31"/>
       <use xlink:href="#DejaVuSans-32" x="63.623047"/>
      </g>
     </g>
    </g>
    <g id="ytick_10">
     <g id="line2d_26">
      <g>
       <use xlink:href="#mae95dc47e8" x="404.954687" y="162.336972" style="stroke: #000000; stroke-width: 0.8"/>
      </g>
     </g>
     <g id="text_28">
      <!-- 14 -->
      <g transform="translate(385.229687 166.136191)scale(0.1 -0.1)">
       <use xlink:href="#DejaVuSans-31"/>
       <use xlink:href="#DejaVuSans-34" x="63.623047"/>
      </g>
     </g>
    </g>
    <g id="ytick_11">
     <g id="line2d_27">
      <g>
       <use xlink:href="#mae95dc47e8" x="404.954687" y="129.123319" style="stroke: #000000; stroke-width: 0.8"/>
      </g>
     </g>
     <g id="text_29">
      <!-- 16 -->
      <g transform="translate(385.229687 132.922538)scale(0.1 -0.1)">
       <use xlink:href="#DejaVuSans-31"/>
       <use xlink:href="#DejaVuSans-36" x="63.623047"/>
      </g>
     </g>
    </g>
    <g id="ytick_12">
     <g id="line2d_28">
      <g>
       <use xlink:href="#mae95dc47e8" x="404.954687" y="95.909666" style="stroke: #000000; stroke-width: 0.8"/>
      </g>
     </g>
     <g id="text_30">
      <!-- 18 -->
      <g transform="translate(385.229687 99.708885)scale(0.1 -0.1)">
       <use xlink:href="#DejaVuSans-31"/>
       <use xlink:href="#DejaVuSans-38" x="63.623047"/>
      </g>
     </g>
    </g>
    <g id="ytick_13">
     <g id="line2d_29">
      <g>
       <use xlink:href="#mae95dc47e8" x="404.954687" y="62.696013" style="stroke: #000000; stroke-width: 0.8"/>
      </g>
     </g>
     <g id="text_31">
      <!-- 20 -->
      <g transform="translate(385.229687 66.495231)scale(0.1 -0.1)">
       <use xlink:href="#DejaVuSans-32"/>
       <use xlink:href="#DejaVuSans-30" x="63.623047"/>
      </g>
     </g>
    </g>
    <g id="ytick_14">
     <g id="line2d_30">
      <g>
       <use xlink:href="#mae95dc47e8" x="404.954687" y="29.48236" style="stroke: #000000; stroke-width: 0.8"/>
      </g>
     </g>
     <g id="text_32">
      <!-- 22 -->
      <g transform="translate(385.229687 33.281578)scale(0.1 -0.1)">
       <use xlink:href="#DejaVuSans-32"/>
       <use xlink:href="#DejaVuSans-32" x="63.623047"/>
      </g>
     </g>
    </g>
    <g id="text_33">
     <!-- velocity (m/a) -->
     <g transform="translate(379.15 147.0325)rotate(-90)scale(0.1 -0.1)">
      <use xlink:href="#DejaVuSans-76"/>
      <use xlink:href="#DejaVuSans-65" x="59.179688"/>
      <use xlink:href="#DejaVuSans-6c" x="120.703125"/>
      <use xlink:href="#DejaVuSans-6f" x="148.486328"/>
      <use xlink:href="#DejaVuSans-63" x="209.667969"/>
      <use xlink:href="#DejaVuSans-69" x="264.648438"/>
      <use xlink:href="#DejaVuSans-74" x="292.431641"/>
      <use xlink:href="#DejaVuSans-79" x="331.640625"/>
      <use xlink:href="#DejaVuSans-20" x="390.820312"/>
      <use xlink:href="#DejaVuSans-28" x="422.607422"/>
      <use xlink:href="#DejaVuSans-6d" x="461.621094"/>
      <use xlink:href="#DejaVuSans-2f" x="559.033203"/>
      <use xlink:href="#DejaVuSans-61" x="592.724609"/>
      <use xlink:href="#DejaVuSans-29" x="654.003906"/>
     </g>
    </g>
   </g>
   <g id="line2d_31">
    <path d="M 419.138554 46.999546 
L 421.354784 50.32826 
L 423.571013 53.973172 
L 425.787242 57.972044 
L 429.111586 64.653032 
L 432.43593 72.113352 
L 435.760273 80.310841 
L 439.084617 89.248318 
L 442.408961 98.728594 
L 447.949534 115.620668 
L 461.246909 156.566951 
L 464.571253 165.637691 
L 466.787482 171.224993 
L 469.003712 176.340578 
L 471.219941 180.92522 
L 473.43617 184.927763 
L 475.652399 188.308334 
L 477.868628 191.040614 
L 478.976743 192.165906 
L 480.084858 193.116111 
L 481.192972 193.919376 
L 482.301087 194.553714 
L 483.409201 195.055305 
L 485.625431 195.650468 
L 487.84166 195.87778 
L 491.166004 195.926831 
L 493.382233 195.780396 
L 495.598462 195.404884 
L 496.706577 195.043961 
L 497.814691 194.548961 
L 498.922806 193.901534 
L 500.030921 193.109849 
L 502.24715 191.034475 
L 504.463379 188.305863 
L 506.679608 184.931607 
L 508.895837 180.938977 
L 511.112067 176.368684 
L 513.328296 171.270843 
L 515.544525 165.703842 
L 518.868869 156.627463 
L 523.301327 143.486595 
L 531.058129 119.250006 
L 536.598702 102.259829 
L 539.923046 92.596303 
L 543.24739 83.509118 
L 546.571734 75.061069 
L 549.896078 67.357931 
L 552.112307 62.640072 
L 554.328536 58.269842 
L 556.544765 54.249248 
L 558.760995 50.576336 
L 560.977224 47.245542 
L 563.193453 44.247978 
L 565.409682 41.572121 
L 567.625911 39.204373 
L 569.842141 37.128848 
L 572.05837 35.328396 
L 574.274599 33.785149 
L 576.490828 32.479671 
L 578.707057 31.392386 
L 580.923287 30.503693 
L 583.139516 29.793113 
L 586.46386 29.019284 
L 589.788203 28.541056 
L 594.220662 28.190471 
L 600.869349 27.947115 
L 609.734266 27.89023 
L 651.842621 27.870129 
L 661.815653 27.888014 
L 667.356226 28.023239 
L 674.004913 28.468281 
L 677.329257 28.925652 
L 680.653601 29.685795 
L 682.86983 30.382186 
L 685.086059 31.254048 
L 687.302289 32.324379 
L 689.518518 33.611635 
L 691.734747 35.13367 
L 693.950976 36.917239 
L 696.167205 38.97155 
L 698.383435 41.314711 
L 701.707778 45.441327 
L 702.815893 46.999546 
L 702.815893 46.999546 
" clip-path="url(#pee82e3e073)" style="fill: none; stroke: #ff0000; stroke-linecap: square"/>
   </g>
   <g id="line2d_32">
    <path d="M 419.138554 48.310806 
L 421.354784 51.744548 
L 423.571013 55.578784 
L 425.787242 59.702474 
L 428.003471 64.241135 
L 430.2197 69.056788 
L 434.652159 79.761513 
L 439.084617 91.710917 
L 443.517076 104.690009 
L 450.165763 125.420825 
L 459.03068 152.927785 
L 463.463139 165.449618 
L 465.679368 171.110523 
L 467.895597 176.412016 
L 470.111826 181.114424 
L 472.328055 185.338362 
L 474.544285 188.884711 
L 476.760514 191.86518 
L 478.976743 194.15886 
L 481.192972 195.880357 
L 483.409201 196.990714 
L 485.625431 197.690938 
L 487.84166 197.95951 
L 490.057889 198.074185 
L 492.274118 198.019994 
L 494.490348 197.725473 
L 496.706577 197.092529 
L 498.922806 196.032831 
L 501.139035 194.33661 
L 503.355264 192.07474 
L 505.571494 189.120083 
L 507.787723 185.576837 
L 510.003952 181.391821 
L 512.220181 176.673144 
L 514.43641 171.414222 
L 516.65264 165.717878 
L 521.085098 153.188866 
L 525.517556 139.632468 
L 536.598702 104.876181 
L 541.031161 91.862273 
L 545.463619 79.886539 
L 547.679849 74.355368 
L 549.896078 69.154119 
L 552.112307 64.285426 
L 554.328536 59.769762 
L 556.544765 55.601703 
L 558.760995 51.780728 
L 560.977224 48.302537 
L 563.193453 45.163331 
L 565.409682 42.338503 
L 567.625911 39.83094 
L 569.842141 37.613896 
L 572.05837 35.67571 
L 574.274599 33.995107 
L 576.490828 32.560571 
L 578.707057 31.338143 
L 580.923287 30.323029 
L 583.139516 29.48399 
L 585.355745 28.808234 
L 587.571974 28.267011 
L 592.004433 27.531278 
L 596.436891 27.119479 
L 603.085579 26.84813 
L 611.950496 26.74136 
L 662.923767 26.845425 
L 667.356226 27.076495 
L 671.788684 27.515381 
L 674.004913 27.836389 
L 678.437372 28.814612 
L 680.653601 29.516159 
L 682.86983 30.34391 
L 685.086059 31.382377 
L 687.302289 32.582467 
L 689.518518 34.038748 
L 691.734747 35.693475 
L 693.950976 37.651552 
L 696.167205 39.838139 
L 698.383435 42.365959 
L 700.599664 45.150034 
L 702.815893 48.310806 
L 702.815893 48.310806 
" clip-path="url(#pee82e3e073)" style="fill: none; stroke: #000000; stroke-linecap: square"/>
   </g>
   <g id="patch_9">
    <path d="M 404.954687 206.64351 
L 404.954687 18.118365 
" style="fill: none; stroke: #000000; stroke-width: 0.8; stroke-linejoin: miter; stroke-linecap: square"/>
   </g>
   <g id="patch_10">
    <path d="M 716.99976 206.64351 
L 716.99976 18.118365 
" style="fill: none; stroke: #000000; stroke-width: 0.8; stroke-linejoin: miter; stroke-linecap: square"/>
   </g>
   <g id="patch_11">
    <path d="M 404.954687 206.64351 
L 716.99976 206.64351 
" style="fill: none; stroke: #000000; stroke-width: 0.8; stroke-linejoin: miter; stroke-linecap: square"/>
   </g>
   <g id="patch_12">
    <path d="M 404.954687 18.118365 
L 716.99976 18.118365 
" style="fill: none; stroke: #000000; stroke-width: 0.8; stroke-linejoin: miter; stroke-linecap: square"/>
   </g>
   <g id="text_34">
    <!-- 10 km -->
    <g transform="translate(542.116599 12.118365)scale(0.12 -0.12)">
     <use xlink:href="#DejaVuSans-31"/>
     <use xlink:href="#DejaVuSans-30" x="63.623047"/>
     <use xlink:href="#DejaVuSans-20" x="127.246094"/>
     <use xlink:href="#DejaVuSans-6b" x="159.033203"/>
     <use xlink:href="#DejaVuSans-6d" x="216.943359"/>
    </g>
   </g>
  </g>
  <g id="axes_3">
   <g id="patch_13">
    <path d="M 45.94399 446.64351 
L 357.989062 446.64351 
L 357.989062 258.118365 
L 45.94399 258.118365 
z
" style="fill: #ffffff"/>
   </g>
   <g id="matplotlib.axis_5">
    <g id="xtick_13">
     <g id="line2d_33">
      <g>
       <use xlink:href="#m0be9213d00" x="60.127857" y="446.64351" style="stroke: #000000; stroke-width: 0.8"/>
      </g>
     </g>
     <g id="text_35">
      <!-- 0.0 -->
      <g transform="translate(52.176294 461.241947)scale(0.1 -0.1)">
       <use xlink:href="#DejaVuSans-30"/>
       <use xlink:href="#DejaVuSans-2e" x="63.623047"/>
       <use xlink:href="#DejaVuSans-30" x="95.410156"/>
      </g>
     </g>
    </g>
    <g id="xtick_14">
     <g id="line2d_34">
      <g>
       <use xlink:href="#m0be9213d00" x="116.863325" y="446.64351" style="stroke: #000000; stroke-width: 0.8"/>
      </g>
     </g>
     <g id="text_36">
      <!-- 0.2 -->
      <g transform="translate(108.911762 461.241947)scale(0.1 -0.1)">
       <use xlink:href="#DejaVuSans-30"/>
       <use xlink:href="#DejaVuSans-2e" x="63.623047"/>
       <use xlink:href="#DejaVuSans-32" x="95.410156"/>
      </g>
     </g>
    </g>
    <g id="xtick_15">
     <g id="line2d_35">
      <g>
       <use xlink:href="#m0be9213d00" x="173.598792" y="446.64351" style="stroke: #000000; stroke-width: 0.8"/>
      </g>
     </g>
     <g id="text_37">
      <!-- 0.4 -->
      <g transform="translate(165.64723 461.241947)scale(0.1 -0.1)">
       <use xlink:href="#DejaVuSans-30"/>
       <use xlink:href="#DejaVuSans-2e" x="63.623047"/>
       <use xlink:href="#DejaVuSans-34" x="95.410156"/>
      </g>
     </g>
    </g>
    <g id="xtick_16">
     <g id="line2d_36">
      <g>
       <use xlink:href="#m0be9213d00" x="230.33426" y="446.64351" style="stroke: #000000; stroke-width: 0.8"/>
      </g>
     </g>
     <g id="text_38">
      <!-- 0.6 -->
      <g transform="translate(222.382698 461.241947)scale(0.1 -0.1)">
       <use xlink:href="#DejaVuSans-30"/>
       <use xlink:href="#DejaVuSans-2e" x="63.623047"/>
       <use xlink:href="#DejaVuSans-36" x="95.410156"/>
      </g>
     </g>
    </g>
    <g id="xtick_17">
     <g id="line2d_37">
      <g>
       <use xlink:href="#m0be9213d00" x="287.069728" y="446.64351" style="stroke: #000000; stroke-width: 0.8"/>
      </g>
     </g>
     <g id="text_39">
      <!-- 0.8 -->
      <g transform="translate(279.118165 461.241947)scale(0.1 -0.1)">
       <use xlink:href="#DejaVuSans-30"/>
       <use xlink:href="#DejaVuSans-2e" x="63.623047"/>
       <use xlink:href="#DejaVuSans-38" x="95.410156"/>
      </g>
     </g>
    </g>
    <g id="xtick_18">
     <g id="line2d_38">
      <g>
       <use xlink:href="#m0be9213d00" x="343.805196" y="446.64351" style="stroke: #000000; stroke-width: 0.8"/>
      </g>
     </g>
     <g id="text_40">
      <!-- 1.0 -->
      <g transform="translate(335.853633 461.241947)scale(0.1 -0.1)">
       <use xlink:href="#DejaVuSans-31"/>
       <use xlink:href="#DejaVuSans-2e" x="63.623047"/>
       <use xlink:href="#DejaVuSans-30" x="95.410156"/>
      </g>
     </g>
    </g>
    <g id="text_41">
     <!-- x norm. -->
     <g transform="translate(182.76262 474.920072)scale(0.1 -0.1)">
      <use xlink:href="#DejaVuSans-78"/>
      <use xlink:href="#DejaVuSans-20" x="59.179688"/>
      <use xlink:href="#DejaVuSans-6e" x="90.966797"/>
      <use xlink:href="#DejaVuSans-6f" x="154.345703"/>
      <use xlink:href="#DejaVuSans-72" x="215.527344"/>
      <use xlink:href="#DejaVuSans-6d" x="254.890625"/>
      <use xlink:href="#DejaVuSans-2e" x="352.302734"/>
     </g>
    </g>
   </g>
   <g id="matplotlib.axis_6">
    <g id="ytick_15">
     <g id="line2d_39">
      <g>
       <use xlink:href="#mae95dc47e8" x="45.94399" y="415.810481" style="stroke: #000000; stroke-width: 0.8"/>
      </g>
     </g>
     <g id="text_42">
      <!-- 10 -->
      <g transform="translate(26.21899 419.6097)scale(0.1 -0.1)">
       <use xlink:href="#DejaVuSans-31"/>
       <use xlink:href="#DejaVuSans-30" x="63.623047"/>
      </g>
     </g>
    </g>
    <g id="ytick_16">
     <g id="line2d_40">
      <g>
       <use xlink:href="#mae95dc47e8" x="45.94399" y="374.051561" style="stroke: #000000; stroke-width: 0.8"/>
      </g>
     </g>
     <g id="text_43">
      <!-- 20 -->
      <g transform="translate(26.21899 377.850779)scale(0.1 -0.1)">
       <use xlink:href="#DejaVuSans-32"/>
       <use xlink:href="#DejaVuSans-30" x="63.623047"/>
      </g>
     </g>
    </g>
    <g id="ytick_17">
     <g id="line2d_41">
      <g>
       <use xlink:href="#mae95dc47e8" x="45.94399" y="332.292641" style="stroke: #000000; stroke-width: 0.8"/>
      </g>
     </g>
     <g id="text_44">
      <!-- 30 -->
      <g transform="translate(26.21899 336.091859)scale(0.1 -0.1)">
       <defs>
        <path id="DejaVuSans-33" d="M 2597 2516 
Q 3050 2419 3304 2112 
Q 3559 1806 3559 1356 
Q 3559 666 3084 287 
Q 2609 -91 1734 -91 
Q 1441 -91 1130 -33 
Q 819 25 488 141 
L 488 750 
Q 750 597 1062 519 
Q 1375 441 1716 441 
Q 2309 441 2620 675 
Q 2931 909 2931 1356 
Q 2931 1769 2642 2001 
Q 2353 2234 1838 2234 
L 1294 2234 
L 1294 2753 
L 1863 2753 
Q 2328 2753 2575 2939 
Q 2822 3125 2822 3475 
Q 2822 3834 2567 4026 
Q 2313 4219 1838 4219 
Q 1578 4219 1281 4162 
Q 984 4106 628 3988 
L 628 4550 
Q 988 4650 1302 4700 
Q 1616 4750 1894 4750 
Q 2613 4750 3031 4423 
Q 3450 4097 3450 3541 
Q 3450 3153 3228 2886 
Q 3006 2619 2597 2516 
z
" transform="scale(0.015625)"/>
       </defs>
       <use xlink:href="#DejaVuSans-33"/>
       <use xlink:href="#DejaVuSans-30" x="63.623047"/>
      </g>
     </g>
    </g>
    <g id="ytick_18">
     <g id="line2d_42">
      <g>
       <use xlink:href="#mae95dc47e8" x="45.94399" y="290.53372" style="stroke: #000000; stroke-width: 0.8"/>
      </g>
     </g>
     <g id="text_45">
      <!-- 40 -->
      <g transform="translate(26.21899 294.332939)scale(0.1 -0.1)">
       <use xlink:href="#DejaVuSans-34"/>
       <use xlink:href="#DejaVuSans-30" x="63.623047"/>
      </g>
     </g>
    </g>
    <g id="text_46">
     <!-- velocity (m/a) -->
     <g transform="translate(20.139302 387.0325)rotate(-90)scale(0.1 -0.1)">
      <use xlink:href="#DejaVuSans-76"/>
      <use xlink:href="#DejaVuSans-65" x="59.179688"/>
      <use xlink:href="#DejaVuSans-6c" x="120.703125"/>
      <use xlink:href="#DejaVuSans-6f" x="148.486328"/>
      <use xlink:href="#DejaVuSans-63" x="209.667969"/>
      <use xlink:href="#DejaVuSans-69" x="264.648438"/>
      <use xlink:href="#DejaVuSans-74" x="292.431641"/>
      <use xlink:href="#DejaVuSans-79" x="331.640625"/>
      <use xlink:href="#DejaVuSans-20" x="390.820312"/>
      <use xlink:href="#DejaVuSans-28" x="422.607422"/>
      <use xlink:href="#DejaVuSans-6d" x="461.621094"/>
      <use xlink:href="#DejaVuSans-2f" x="559.033203"/>
      <use xlink:href="#DejaVuSans-61" x="592.724609"/>
      <use xlink:href="#DejaVuSans-29" x="654.003906"/>
     </g>
    </g>
   </g>
   <g id="line2d_43">
    <path d="M 60.127857 326.527377 
L 63.452201 334.406903 
L 70.100888 351.065591 
L 78.965805 373.80278 
L 82.290149 382.128175 
L 87.830722 395.114553 
L 90.046951 399.963013 
L 92.26318 404.563406 
L 94.47941 408.892921 
L 96.695639 412.931477 
L 98.911868 416.662547 
L 101.128097 420.074293 
L 103.344326 423.160243 
L 105.560556 425.919311 
L 107.776785 428.355294 
L 109.993014 430.476112 
L 112.209243 432.293097 
L 114.425473 433.820461 
L 116.641702 435.074768 
L 118.857931 436.074286 
L 121.07416 436.837985 
L 123.290389 437.383759 
L 125.506619 437.728322 
L 128.830962 437.93983 
L 132.155306 437.968779 
L 135.47965 437.83154 
L 137.695879 437.582363 
L 139.912108 437.140925 
L 142.128338 436.488792 
L 144.344567 435.608691 
L 146.560796 434.482032 
L 148.777025 433.090424 
L 150.993254 431.416914 
L 153.209484 429.446827 
L 155.425713 427.168448 
L 157.641942 424.57346 
L 159.858171 421.657218 
L 162.074401 418.41898 
L 164.29063 414.862098 
L 166.506859 410.994161 
L 169.831203 404.639142 
L 173.155547 397.666142 
L 176.47989 390.164083 
L 180.912349 379.50188 
L 186.452922 365.506787 
L 196.425953 340.113594 
L 200.858412 329.385808 
L 205.29087 319.305673 
L 208.615214 312.272476 
L 211.939558 305.74062 
L 215.263901 299.760525 
L 218.588245 294.33408 
L 221.912589 289.485105 
L 224.128818 286.563877 
L 226.345048 283.889346 
L 228.561277 281.455578 
L 230.777506 279.255153 
L 232.993735 277.279434 
L 235.209964 275.518924 
L 237.426194 273.963526 
L 239.642423 272.602419 
L 241.858652 271.424051 
L 244.074881 270.416585 
L 247.399225 269.196458 
L 250.723569 268.297629 
L 254.047913 267.663549 
L 257.372256 267.256963 
L 261.804715 266.960584 
L 268.453402 266.731044 
L 276.210205 266.713642 
L 282.858892 266.908506 
L 288.399465 267.258369 
L 291.723809 267.664747 
L 295.048153 268.298069 
L 298.372497 269.191392 
L 301.696841 270.399084 
L 303.91307 271.396195 
L 306.129299 272.562323 
L 309.453643 274.667501 
L 311.669872 276.311811 
L 313.886101 278.164819 
L 316.10233 280.236391 
L 318.31856 282.535709 
L 320.534789 285.0712 
L 322.751018 287.850167 
L 324.967247 290.877519 
L 327.183477 294.155505 
L 330.50782 299.54222 
L 333.832164 305.50845 
L 337.156508 312.009249 
L 340.480852 319.045072 
L 343.805196 326.527377 
L 343.805196 326.527377 
" clip-path="url(#p9eef257a06)" style="fill: none; stroke: #ff0000; stroke-linecap: square"/>
   </g>
   <g id="line2d_44">
    <path d="M 60.127857 327.349445 
L 64.560315 337.98535 
L 71.209003 354.747088 
L 80.07392 377.36428 
L 84.506378 388.146525 
L 88.938837 398.203984 
L 91.155066 402.90348 
L 93.371295 407.306534 
L 95.587524 411.454085 
L 97.803753 415.280006 
L 100.019983 418.809909 
L 102.236212 422.012972 
L 104.452441 424.898718 
L 106.66867 427.464031 
L 108.8849 429.711214 
L 111.101129 431.657148 
L 113.317358 433.302276 
L 115.533587 434.672156 
L 117.749816 435.772169 
L 119.966046 436.630669 
L 122.182275 437.261594 
L 124.398504 437.688486 
L 126.614733 437.939759 
L 131.047192 438.074185 
L 135.47965 437.940204 
L 137.695879 437.688788 
L 139.912108 437.265575 
L 142.128338 436.628624 
L 144.344567 435.774699 
L 146.560796 434.669236 
L 148.777025 433.306358 
L 150.993254 431.657564 
L 153.209484 429.717784 
L 155.425713 427.46711 
L 157.641942 424.901509 
L 159.858171 422.01338 
L 162.074401 418.802726 
L 164.29063 415.271386 
L 166.506859 411.428797 
L 168.723088 407.285594 
L 170.939317 402.860412 
L 175.371776 393.245337 
L 179.804234 382.788965 
L 184.236693 371.74729 
L 197.534068 337.920276 
L 201.966526 327.300749 
L 206.398985 317.373209 
L 210.831443 308.286087 
L 213.047672 304.09353 
L 215.263901 300.142882 
L 217.480131 296.440603 
L 219.69636 292.990075 
L 221.912589 289.794883 
L 224.128818 286.851583 
L 226.345048 284.157104 
L 228.561277 281.70089 
L 230.777506 279.481879 
L 232.993735 277.487003 
L 235.209964 275.714344 
L 237.426194 274.14488 
L 239.642423 272.774225 
L 241.858652 271.58171 
L 244.074881 270.566927 
L 246.29111 269.707966 
L 248.50734 269.002895 
L 250.723569 268.426023 
L 255.156027 267.621783 
L 259.588486 267.182966 
L 264.020944 266.988403 
L 272.885861 266.916436 
L 281.750778 266.990284 
L 286.183236 267.187782 
L 290.615695 267.632154 
L 292.831924 267.976664 
L 297.264382 269.00437 
L 299.480611 269.71774 
L 301.696841 270.562848 
L 303.91307 271.583071 
L 306.129299 272.758883 
L 308.345528 274.139596 
L 310.561757 275.696477 
L 312.777987 277.481769 
L 314.994216 279.46141 
L 317.210445 281.692306 
L 319.426674 284.134399 
L 321.642903 286.842389 
L 323.859133 289.773237 
L 326.075362 292.985965 
L 328.291591 296.42165 
L 330.50782 300.141294 
L 332.72405 304.08144 
L 337.156508 312.716652 
L 341.588966 322.254408 
L 343.805196 327.349445 
L 343.805196 327.349445 
" clip-path="url(#p9eef257a06)" style="fill: none; stroke: #000000; stroke-linecap: square"/>
   </g>
   <g id="patch_14">
    <path d="M 45.94399 446.64351 
L 45.94399 258.118365 
" style="fill: none; stroke: #000000; stroke-width: 0.8; stroke-linejoin: miter; stroke-linecap: square"/>
   </g>
   <g id="patch_15">
    <path d="M 357.989062 446.64351 
L 357.989062 258.118365 
" style="fill: none; stroke: #000000; stroke-width: 0.8; stroke-linejoin: miter; stroke-linecap: square"/>
   </g>
   <g id="patch_16">
    <path d="M 45.94399 446.64351 
L 357.989063 446.64351 
" style="fill: none; stroke: #000000; stroke-width: 0.8; stroke-linejoin: miter; stroke-linecap: square"/>
   </g>
   <g id="patch_17">
    <path d="M 45.94399 258.118365 
L 357.989063 258.118365 
" style="fill: none; stroke: #000000; stroke-width: 0.8; stroke-linejoin: miter; stroke-linecap: square"/>
   </g>
   <g id="text_47">
    <!-- 20 km -->
    <g transform="translate(183.105901 252.118365)scale(0.12 -0.12)">
     <use xlink:href="#DejaVuSans-32"/>
     <use xlink:href="#DejaVuSans-30" x="63.623047"/>
     <use xlink:href="#DejaVuSans-20" x="127.246094"/>
     <use xlink:href="#DejaVuSans-6b" x="159.033203"/>
     <use xlink:href="#DejaVuSans-6d" x="216.943359"/>
    </g>
   </g>
  </g>
  <g id="axes_4">
   <g id="patch_18">
    <path d="M 404.954687 446.64351 
L 716.99976 446.64351 
L 716.99976 258.118365 
L 404.954687 258.118365 
z
" style="fill: #ffffff"/>
   </g>
   <g id="matplotlib.axis_7">
    <g id="xtick_19">
     <g id="line2d_45">
      <g>
       <use xlink:href="#m0be9213d00" x="419.138554" y="446.64351" style="stroke: #000000; stroke-width: 0.8"/>
      </g>
     </g>
     <g id="text_48">
      <!-- 0.0 -->
      <g transform="translate(411.186992 461.241947)scale(0.1 -0.1)">
       <use xlink:href="#DejaVuSans-30"/>
       <use xlink:href="#DejaVuSans-2e" x="63.623047"/>
       <use xlink:href="#DejaVuSans-30" x="95.410156"/>
      </g>
     </g>
    </g>
    <g id="xtick_20">
     <g id="line2d_46">
      <g>
       <use xlink:href="#m0be9213d00" x="475.874022" y="446.64351" style="stroke: #000000; stroke-width: 0.8"/>
      </g>
     </g>
     <g id="text_49">
      <!-- 0.2 -->
      <g transform="translate(467.92246 461.241947)scale(0.1 -0.1)">
       <use xlink:href="#DejaVuSans-30"/>
       <use xlink:href="#DejaVuSans-2e" x="63.623047"/>
       <use xlink:href="#DejaVuSans-32" x="95.410156"/>
      </g>
     </g>
    </g>
    <g id="xtick_21">
     <g id="line2d_47">
      <g>
       <use xlink:href="#m0be9213d00" x="532.60949" y="446.64351" style="stroke: #000000; stroke-width: 0.8"/>
      </g>
     </g>
     <g id="text_50">
      <!-- 0.4 -->
      <g transform="translate(524.657927 461.241947)scale(0.1 -0.1)">
       <use xlink:href="#DejaVuSans-30"/>
       <use xlink:href="#DejaVuSans-2e" x="63.623047"/>
       <use xlink:href="#DejaVuSans-34" x="95.410156"/>
      </g>
     </g>
    </g>
    <g id="xtick_22">
     <g id="line2d_48">
      <g>
       <use xlink:href="#m0be9213d00" x="589.344958" y="446.64351" style="stroke: #000000; stroke-width: 0.8"/>
      </g>
     </g>
     <g id="text_51">
      <!-- 0.6 -->
      <g transform="translate(581.393395 461.241947)scale(0.1 -0.1)">
       <use xlink:href="#DejaVuSans-30"/>
       <use xlink:href="#DejaVuSans-2e" x="63.623047"/>
       <use xlink:href="#DejaVuSans-36" x="95.410156"/>
      </g>
     </g>
    </g>
    <g id="xtick_23">
     <g id="line2d_49">
      <g>
       <use xlink:href="#m0be9213d00" x="646.080425" y="446.64351" style="stroke: #000000; stroke-width: 0.8"/>
      </g>
     </g>
     <g id="text_52">
      <!-- 0.8 -->
      <g transform="translate(638.128863 461.241947)scale(0.1 -0.1)">
       <use xlink:href="#DejaVuSans-30"/>
       <use xlink:href="#DejaVuSans-2e" x="63.623047"/>
       <use xlink:href="#DejaVuSans-38" x="95.410156"/>
      </g>
     </g>
    </g>
    <g id="xtick_24">
     <g id="line2d_50">
      <g>
       <use xlink:href="#m0be9213d00" x="702.815893" y="446.64351" style="stroke: #000000; stroke-width: 0.8"/>
      </g>
     </g>
     <g id="text_53">
      <!-- 1.0 -->
      <g transform="translate(694.864331 461.241947)scale(0.1 -0.1)">
       <use xlink:href="#DejaVuSans-31"/>
       <use xlink:href="#DejaVuSans-2e" x="63.623047"/>
       <use xlink:href="#DejaVuSans-30" x="95.410156"/>
      </g>
     </g>
    </g>
    <g id="text_54">
     <!-- x norm. -->
     <g transform="translate(541.773317 474.920072)scale(0.1 -0.1)">
      <use xlink:href="#DejaVuSans-78"/>
      <use xlink:href="#DejaVuSans-20" x="59.179688"/>
      <use xlink:href="#DejaVuSans-6e" x="90.966797"/>
      <use xlink:href="#DejaVuSans-6f" x="154.345703"/>
      <use xlink:href="#DejaVuSans-72" x="215.527344"/>
      <use xlink:href="#DejaVuSans-6d" x="254.890625"/>
      <use xlink:href="#DejaVuSans-2e" x="352.302734"/>
     </g>
    </g>
   </g>
   <g id="matplotlib.axis_8">
    <g id="ytick_19">
     <g id="line2d_51">
      <g>
       <use xlink:href="#mae95dc47e8" x="404.954687" y="443.524033" style="stroke: #000000; stroke-width: 0.8"/>
      </g>
     </g>
     <g id="text_55">
      <!-- 0 -->
      <g transform="translate(391.592187 447.323251)scale(0.1 -0.1)">
       <use xlink:href="#DejaVuSans-30"/>
      </g>
     </g>
    </g>
    <g id="ytick_20">
     <g id="line2d_52">
      <g>
       <use xlink:href="#mae95dc47e8" x="404.954687" y="419.136895" style="stroke: #000000; stroke-width: 0.8"/>
      </g>
     </g>
     <g id="text_56">
      <!-- 10 -->
      <g transform="translate(385.229687 422.936113)scale(0.1 -0.1)">
       <use xlink:href="#DejaVuSans-31"/>
       <use xlink:href="#DejaVuSans-30" x="63.623047"/>
      </g>
     </g>
    </g>
    <g id="ytick_21">
     <g id="line2d_53">
      <g>
       <use xlink:href="#mae95dc47e8" x="404.954687" y="394.749757" style="stroke: #000000; stroke-width: 0.8"/>
      </g>
     </g>
     <g id="text_57">
      <!-- 20 -->
      <g transform="translate(385.229687 398.548975)scale(0.1 -0.1)">
       <use xlink:href="#DejaVuSans-32"/>
       <use xlink:href="#DejaVuSans-30" x="63.623047"/>
      </g>
     </g>
    </g>
    <g id="ytick_22">
     <g id="line2d_54">
      <g>
       <use xlink:href="#mae95dc47e8" x="404.954687" y="370.362619" style="stroke: #000000; stroke-width: 0.8"/>
      </g>
     </g>
     <g id="text_58">
      <!-- 30 -->
      <g transform="translate(385.229687 374.161837)scale(0.1 -0.1)">
       <use xlink:href="#DejaVuSans-33"/>
       <use xlink:href="#DejaVuSans-30" x="63.623047"/>
      </g>
     </g>
    </g>
    <g id="ytick_23">
     <g id="line2d_55">
      <g>
       <use xlink:href="#mae95dc47e8" x="404.954687" y="345.975481" style="stroke: #000000; stroke-width: 0.8"/>
      </g>
     </g>
     <g id="text_59">
      <!-- 40 -->
      <g transform="translate(385.229687 349.774699)scale(0.1 -0.1)">
       <use xlink:href="#DejaVuSans-34"/>
       <use xlink:href="#DejaVuSans-30" x="63.623047"/>
      </g>
     </g>
    </g>
    <g id="ytick_24">
     <g id="line2d_56">
      <g>
       <use xlink:href="#mae95dc47e8" x="404.954687" y="321.588343" style="stroke: #000000; stroke-width: 0.8"/>
      </g>
     </g>
     <g id="text_60">
      <!-- 50 -->
      <g transform="translate(385.229687 325.387561)scale(0.1 -0.1)">
       <use xlink:href="#DejaVuSans-35"/>
       <use xlink:href="#DejaVuSans-30" x="63.623047"/>
      </g>
     </g>
    </g>
    <g id="ytick_25">
     <g id="line2d_57">
      <g>
       <use xlink:href="#mae95dc47e8" x="404.954687" y="297.201205" style="stroke: #000000; stroke-width: 0.8"/>
      </g>
     </g>
     <g id="text_61">
      <!-- 60 -->
      <g transform="translate(385.229687 301.000423)scale(0.1 -0.1)">
       <use xlink:href="#DejaVuSans-36"/>
       <use xlink:href="#DejaVuSans-30" x="63.623047"/>
      </g>
     </g>
    </g>
    <g id="ytick_26">
     <g id="line2d_58">
      <g>
       <use xlink:href="#mae95dc47e8" x="404.954687" y="272.814067" style="stroke: #000000; stroke-width: 0.8"/>
      </g>
     </g>
     <g id="text_62">
      <!-- 70 -->
      <g transform="translate(385.229687 276.613285)scale(0.1 -0.1)">
       <defs>
        <path id="DejaVuSans-37" d="M 525 4666 
L 3525 4666 
L 3525 4397 
L 1831 0 
L 1172 0 
L 2766 4134 
L 525 4134 
L 525 4666 
z
" transform="scale(0.015625)"/>
       </defs>
       <use xlink:href="#DejaVuSans-37"/>
       <use xlink:href="#DejaVuSans-30" x="63.623047"/>
      </g>
     </g>
    </g>
    <g id="text_63">
     <!-- velocity (m/a) -->
     <g transform="translate(379.15 387.0325)rotate(-90)scale(0.1 -0.1)">
      <use xlink:href="#DejaVuSans-76"/>
      <use xlink:href="#DejaVuSans-65" x="59.179688"/>
      <use xlink:href="#DejaVuSans-6c" x="120.703125"/>
      <use xlink:href="#DejaVuSans-6f" x="148.486328"/>
      <use xlink:href="#DejaVuSans-63" x="209.667969"/>
      <use xlink:href="#DejaVuSans-69" x="264.648438"/>
      <use xlink:href="#DejaVuSans-74" x="292.431641"/>
      <use xlink:href="#DejaVuSans-79" x="331.640625"/>
      <use xlink:href="#DejaVuSans-20" x="390.820312"/>
      <use xlink:href="#DejaVuSans-28" x="422.607422"/>
      <use xlink:href="#DejaVuSans-6d" x="461.621094"/>
      <use xlink:href="#DejaVuSans-2f" x="559.033203"/>
      <use xlink:href="#DejaVuSans-61" x="592.724609"/>
      <use xlink:href="#DejaVuSans-29" x="654.003906"/>
     </g>
    </g>
   </g>
   <g id="line2d_59">
    <path d="M 419.138554 365.130683 
L 425.787242 381.282933 
L 430.2197 391.191703 
L 434.652159 400.145895 
L 437.976503 406.141071 
L 440.192732 409.820422 
L 442.408961 413.226635 
L 444.62519 416.361531 
L 445.733305 417.890246 
L 450.165763 423.093881 
L 453.490107 426.28532 
L 455.706336 428.156254 
L 457.922566 429.810115 
L 460.138795 431.262928 
L 462.355024 432.530551 
L 464.571253 433.628218 
L 467.895597 434.988275 
L 471.219941 436.040459 
L 474.544285 436.827697 
L 477.868628 437.387738 
L 481.192972 437.750933 
L 485.625431 437.999816 
L 491.166004 438.067437 
L 496.706577 437.881835 
L 501.139035 437.502647 
L 504.463379 437.006529 
L 507.787723 436.299917 
L 511.112067 435.346659 
L 514.43641 434.107615 
L 517.760754 432.536881 
L 519.976983 431.280789 
L 522.193213 429.839058 
L 524.409442 428.195672 
L 526.625671 426.334969 
L 528.8419 424.242195 
L 531.058129 421.904036 
L 533.274359 419.309113 
L 535.490588 416.448409 
L 537.706817 413.315649 
L 539.923046 409.907596 
L 543.24739 404.28046 
L 546.571734 398.049404 
L 549.896078 391.248284 
L 553.220422 383.927941 
L 557.65288 373.486427 
L 563.193453 359.65267 
L 576.490828 325.911549 
L 580.923287 315.458178 
L 584.24763 308.135231 
L 587.571974 301.340321 
L 590.896318 295.14963 
L 593.112547 291.377775 
L 595.328776 287.902438 
L 597.545006 284.728343 
L 599.761235 281.856336 
L 601.977464 279.283792 
L 604.193693 277.00515 
L 606.409923 275.01239 
L 608.626152 273.295398 
L 610.842381 271.842133 
L 613.05861 270.638728 
L 615.274839 269.669538 
L 617.491069 268.91715 
L 619.707298 268.362204 
L 621.923527 267.982527 
L 625.247871 267.678901 
L 630.788444 267.478534 
L 635.220902 267.52081 
L 639.653361 267.744737 
L 642.977704 268.142424 
L 645.193934 268.606679 
L 647.410163 269.257117 
L 649.626392 270.11275 
L 651.842621 271.191151 
L 654.05885 272.509259 
L 656.27508 274.08324 
L 658.491309 275.927917 
L 660.707538 278.055955 
L 662.923767 280.477004 
L 665.139997 283.197078 
L 667.356226 286.21835 
L 669.572455 289.539313 
L 672.896799 295.095012 
L 675.113028 299.142142 
L 677.329257 303.457818 
L 680.653601 310.376607 
L 685.086059 320.42858 
L 689.518518 331.198126 
L 695.059091 345.258427 
L 702.815893 365.130683 
L 702.815893 365.130683 
" clip-path="url(#p358f1ea78a)" style="fill: none; stroke: #ff0000; stroke-linecap: square"/>
   </g>
   <g id="line2d_60">
    <path d="M 419.138554 364.979028 
L 423.571013 375.937482 
L 428.003471 386.246918 
L 432.43593 395.715316 
L 436.868388 404.187649 
L 439.084617 407.999865 
L 441.300847 411.574211 
L 443.517076 414.840349 
L 445.733305 417.852897 
L 447.949534 420.580181 
L 450.165763 423.057389 
L 452.381993 425.275961 
L 454.598222 427.258569 
L 456.814451 429.016479 
L 459.03068 430.563862 
L 461.246909 431.919258 
L 463.463139 433.095455 
L 465.679368 434.108689 
L 467.895597 434.974159 
L 470.111826 435.703909 
L 474.544285 436.808877 
L 478.976743 437.511991 
L 483.409201 437.894748 
L 487.84166 438.034003 
L 494.490348 437.990101 
L 498.922806 437.741277 
L 503.355264 437.208168 
L 507.787723 436.310278 
L 510.003952 435.698771 
L 512.220181 434.965224 
L 514.43641 434.096045 
L 516.65264 433.078642 
L 518.868869 431.898966 
L 521.085098 430.542146 
L 523.301327 428.992334 
L 525.517556 427.235434 
L 527.733786 425.255066 
L 529.950015 423.03875 
L 532.166244 420.572837 
L 534.382473 417.846443 
L 536.598702 414.848861 
L 538.814932 411.574333 
L 541.031161 408.02126 
L 543.24739 404.191018 
L 545.463619 400.089715 
L 547.679849 395.722623 
L 552.112307 386.248034 
L 556.544765 375.929941 
L 560.977224 364.962332 
L 578.707057 320.015113 
L 583.139516 309.879156 
L 587.571974 300.648268 
L 589.788203 296.425712 
L 592.004433 292.483961 
L 594.220662 288.844176 
L 596.436891 285.504983 
L 598.65312 282.462355 
L 600.869349 279.713976 
L 603.085579 277.269199 
L 605.301808 275.12052 
L 607.518037 273.261673 
L 609.734266 271.671258 
L 611.950496 270.340805 
L 614.166725 269.252828 
L 616.382954 268.396436 
L 618.599183 267.751552 
L 620.815412 267.292869 
L 623.031642 266.986421 
L 627.4641 266.720425 
L 636.329017 266.711526 
L 640.761475 266.969591 
L 642.977704 267.278992 
L 645.193934 267.752161 
L 647.410163 268.405972 
L 649.626392 269.266398 
L 651.842621 270.347377 
L 654.05885 271.669739 
L 656.27508 273.251311 
L 658.491309 275.107365 
L 660.707538 277.243305 
L 662.923767 279.680658 
L 665.139997 282.409784 
L 667.356226 285.461017 
L 669.572455 288.806202 
L 671.788684 292.47205 
L 674.004913 296.404651 
L 678.437372 305.131214 
L 682.86983 314.840951 
L 687.302289 325.365521 
L 693.950976 342.17621 
L 702.815893 364.979028 
L 702.815893 364.979028 
" clip-path="url(#p358f1ea78a)" style="fill: none; stroke: #000000; stroke-linecap: square"/>
   </g>
   <g id="patch_19">
    <path d="M 404.954687 446.64351 
L 404.954687 258.118365 
" style="fill: none; stroke: #000000; stroke-width: 0.8; stroke-linejoin: miter; stroke-linecap: square"/>
   </g>
   <g id="patch_20">
    <path d="M 716.99976 446.64351 
L 716.99976 258.118365 
" style="fill: none; stroke: #000000; stroke-width: 0.8; stroke-linejoin: miter; stroke-linecap: square"/>
   </g>
   <g id="patch_21">
    <path d="M 404.954687 446.64351 
L 716.99976 446.64351 
" style="fill: none; stroke: #000000; stroke-width: 0.8; stroke-linejoin: miter; stroke-linecap: square"/>
   </g>
   <g id="patch_22">
    <path d="M 404.954687 258.118365 
L 716.99976 258.118365 
" style="fill: none; stroke: #000000; stroke-width: 0.8; stroke-linejoin: miter; stroke-linecap: square"/>
   </g>
   <g id="text_64">
    <!-- 40 km -->
    <g transform="translate(542.116599 252.118365)scale(0.12 -0.12)">
     <use xlink:href="#DejaVuSans-34"/>
     <use xlink:href="#DejaVuSans-30" x="63.623047"/>
     <use xlink:href="#DejaVuSans-20" x="127.246094"/>
     <use xlink:href="#DejaVuSans-6b" x="159.033203"/>
     <use xlink:href="#DejaVuSans-6d" x="216.943359"/>
    </g>
   </g>
  </g>
  <g id="axes_5">
   <g id="patch_23">
    <path d="M 45.94399 686.64351 
L 357.989062 686.64351 
L 357.989062 498.118365 
L 45.94399 498.118365 
z
" style="fill: #ffffff"/>
   </g>
   <g id="matplotlib.axis_9">
    <g id="xtick_25">
     <g id="line2d_61">
      <g>
       <use xlink:href="#m0be9213d00" x="60.127857" y="686.64351" style="stroke: #000000; stroke-width: 0.8"/>
      </g>
     </g>
     <g id="text_65">
      <!-- 0.0 -->
      <g transform="translate(52.176294 701.241948)scale(0.1 -0.1)">
       <use xlink:href="#DejaVuSans-30"/>
       <use xlink:href="#DejaVuSans-2e" x="63.623047"/>
       <use xlink:href="#DejaVuSans-30" x="95.410156"/>
      </g>
     </g>
    </g>
    <g id="xtick_26">
     <g id="line2d_62">
      <g>
       <use xlink:href="#m0be9213d00" x="116.863325" y="686.64351" style="stroke: #000000; stroke-width: 0.8"/>
      </g>
     </g>
     <g id="text_66">
      <!-- 0.2 -->
      <g transform="translate(108.911762 701.241948)scale(0.1 -0.1)">
       <use xlink:href="#DejaVuSans-30"/>
       <use xlink:href="#DejaVuSans-2e" x="63.623047"/>
       <use xlink:href="#DejaVuSans-32" x="95.410156"/>
      </g>
     </g>
    </g>
    <g id="xtick_27">
     <g id="line2d_63">
      <g>
       <use xlink:href="#m0be9213d00" x="173.598792" y="686.64351" style="stroke: #000000; stroke-width: 0.8"/>
      </g>
     </g>
     <g id="text_67">
      <!-- 0.4 -->
      <g transform="translate(165.64723 701.241948)scale(0.1 -0.1)">
       <use xlink:href="#DejaVuSans-30"/>
       <use xlink:href="#DejaVuSans-2e" x="63.623047"/>
       <use xlink:href="#DejaVuSans-34" x="95.410156"/>
      </g>
     </g>
    </g>
    <g id="xtick_28">
     <g id="line2d_64">
      <g>
       <use xlink:href="#m0be9213d00" x="230.33426" y="686.64351" style="stroke: #000000; stroke-width: 0.8"/>
      </g>
     </g>
     <g id="text_68">
      <!-- 0.6 -->
      <g transform="translate(222.382698 701.241948)scale(0.1 -0.1)">
       <use xlink:href="#DejaVuSans-30"/>
       <use xlink:href="#DejaVuSans-2e" x="63.623047"/>
       <use xlink:href="#DejaVuSans-36" x="95.410156"/>
      </g>
     </g>
    </g>
    <g id="xtick_29">
     <g id="line2d_65">
      <g>
       <use xlink:href="#m0be9213d00" x="287.069728" y="686.64351" style="stroke: #000000; stroke-width: 0.8"/>
      </g>
     </g>
     <g id="text_69">
      <!-- 0.8 -->
      <g transform="translate(279.118165 701.241948)scale(0.1 -0.1)">
       <use xlink:href="#DejaVuSans-30"/>
       <use xlink:href="#DejaVuSans-2e" x="63.623047"/>
       <use xlink:href="#DejaVuSans-38" x="95.410156"/>
      </g>
     </g>
    </g>
    <g id="xtick_30">
     <g id="line2d_66">
      <g>
       <use xlink:href="#m0be9213d00" x="343.805196" y="686.64351" style="stroke: #000000; stroke-width: 0.8"/>
      </g>
     </g>
     <g id="text_70">
      <!-- 1.0 -->
      <g transform="translate(335.853633 701.241948)scale(0.1 -0.1)">
       <use xlink:href="#DejaVuSans-31"/>
       <use xlink:href="#DejaVuSans-2e" x="63.623047"/>
       <use xlink:href="#DejaVuSans-30" x="95.410156"/>
      </g>
     </g>
    </g>
    <g id="text_71">
     <!-- x norm. -->
     <g transform="translate(182.76262 714.920072)scale(0.1 -0.1)">
      <use xlink:href="#DejaVuSans-78"/>
      <use xlink:href="#DejaVuSans-20" x="59.179688"/>
      <use xlink:href="#DejaVuSans-6e" x="90.966797"/>
      <use xlink:href="#DejaVuSans-6f" x="154.345703"/>
      <use xlink:href="#DejaVuSans-72" x="215.527344"/>
      <use xlink:href="#DejaVuSans-6d" x="254.890625"/>
      <use xlink:href="#DejaVuSans-2e" x="352.302734"/>
     </g>
    </g>
   </g>
   <g id="matplotlib.axis_10">
    <g id="ytick_27">
     <g id="line2d_67">
      <g>
       <use xlink:href="#mae95dc47e8" x="45.94399" y="681.201855" style="stroke: #000000; stroke-width: 0.8"/>
      </g>
     </g>
     <g id="text_72">
      <!-- 0 -->
      <g transform="translate(32.58149 685.001074)scale(0.1 -0.1)">
       <use xlink:href="#DejaVuSans-30"/>
      </g>
     </g>
    </g>
    <g id="ytick_28">
     <g id="line2d_68">
      <g>
       <use xlink:href="#mae95dc47e8" x="45.94399" y="643.883025" style="stroke: #000000; stroke-width: 0.8"/>
      </g>
     </g>
     <g id="text_73">
      <!-- 20 -->
      <g transform="translate(26.21899 647.682244)scale(0.1 -0.1)">
       <use xlink:href="#DejaVuSans-32"/>
       <use xlink:href="#DejaVuSans-30" x="63.623047"/>
      </g>
     </g>
    </g>
    <g id="ytick_29">
     <g id="line2d_69">
      <g>
       <use xlink:href="#mae95dc47e8" x="45.94399" y="606.564196" style="stroke: #000000; stroke-width: 0.8"/>
      </g>
     </g>
     <g id="text_74">
      <!-- 40 -->
      <g transform="translate(26.21899 610.363414)scale(0.1 -0.1)">
       <use xlink:href="#DejaVuSans-34"/>
       <use xlink:href="#DejaVuSans-30" x="63.623047"/>
      </g>
     </g>
    </g>
    <g id="ytick_30">
     <g id="line2d_70">
      <g>
       <use xlink:href="#mae95dc47e8" x="45.94399" y="569.245366" style="stroke: #000000; stroke-width: 0.8"/>
      </g>
     </g>
     <g id="text_75">
      <!-- 60 -->
      <g transform="translate(26.21899 573.044585)scale(0.1 -0.1)">
       <use xlink:href="#DejaVuSans-36"/>
       <use xlink:href="#DejaVuSans-30" x="63.623047"/>
      </g>
     </g>
    </g>
    <g id="ytick_31">
     <g id="line2d_71">
      <g>
       <use xlink:href="#mae95dc47e8" x="45.94399" y="531.926537" style="stroke: #000000; stroke-width: 0.8"/>
      </g>
     </g>
     <g id="text_76">
      <!-- 80 -->
      <g transform="translate(26.21899 535.725755)scale(0.1 -0.1)">
       <use xlink:href="#DejaVuSans-38"/>
       <use xlink:href="#DejaVuSans-30" x="63.623047"/>
      </g>
     </g>
    </g>
    <g id="text_77">
     <!-- velocity (m/a) -->
     <g transform="translate(20.139302 627.0325)rotate(-90)scale(0.1 -0.1)">
      <use xlink:href="#DejaVuSans-76"/>
      <use xlink:href="#DejaVuSans-65" x="59.179688"/>
      <use xlink:href="#DejaVuSans-6c" x="120.703125"/>
      <use xlink:href="#DejaVuSans-6f" x="148.486328"/>
      <use xlink:href="#DejaVuSans-63" x="209.667969"/>
      <use xlink:href="#DejaVuSans-69" x="264.648438"/>
      <use xlink:href="#DejaVuSans-74" x="292.431641"/>
      <use xlink:href="#DejaVuSans-79" x="331.640625"/>
      <use xlink:href="#DejaVuSans-20" x="390.820312"/>
      <use xlink:href="#DejaVuSans-28" x="422.607422"/>
      <use xlink:href="#DejaVuSans-6d" x="461.621094"/>
      <use xlink:href="#DejaVuSans-2f" x="559.033203"/>
      <use xlink:href="#DejaVuSans-61" x="592.724609"/>
      <use xlink:href="#DejaVuSans-29" x="654.003906"/>
     </g>
    </g>
   </g>
   <g id="line2d_72">
    <path d="M 60.127857 629.1236 
L 64.560315 638.015481 
L 68.992774 645.790095 
L 72.317118 650.955922 
L 75.641461 655.524058 
L 80.07392 660.704439 
L 84.506378 664.924745 
L 88.938837 668.303371 
L 92.26318 670.349848 
L 94.47941 671.528355 
L 97.803753 673.035648 
L 101.128097 674.259287 
L 104.452441 675.253802 
L 107.776785 676.044551 
L 112.209243 676.838629 
L 116.641702 677.385726 
L 122.182275 677.822752 
L 127.722848 678.038785 
L 133.263421 678.058557 
L 138.803994 677.883105 
L 144.344567 677.497353 
L 148.777025 676.999226 
L 153.209484 676.268962 
L 156.533827 675.536122 
L 159.858171 674.614129 
L 163.182515 673.467512 
L 166.506859 672.057433 
L 169.831203 670.34001 
L 173.155547 668.267092 
L 175.371776 666.665628 
L 177.588005 664.871312 
L 179.804234 662.869874 
L 182.020463 660.64753 
L 184.236693 658.191418 
L 186.452922 655.490027 
L 188.669151 652.53352 
L 190.88538 649.314044 
L 193.101609 645.826013 
L 196.425953 640.082951 
L 199.750297 633.735036 
L 203.074641 626.791812 
L 206.398985 619.309583 
L 210.831443 608.581076 
L 215.263901 597.192888 
L 231.885621 553.563568 
L 235.209964 545.65269 
L 238.534308 538.317536 
L 241.858652 531.667836 
L 244.074881 527.65822 
L 246.29111 524.011461 
L 248.50734 520.741978 
L 250.723569 517.859052 
L 252.939798 515.366399 
L 255.156027 513.261064 
L 257.372256 511.531985 
L 259.588486 510.159682 
L 261.804715 509.118091 
L 264.020944 508.37775 
L 266.237173 507.907684 
L 269.561517 507.582235 
L 272.885861 507.482531 
L 276.210205 507.596738 
L 279.534549 507.934903 
L 281.750778 508.414326 
L 283.967007 509.164307 
L 286.183236 510.212677 
L 288.399465 511.586484 
L 290.615695 513.310068 
L 292.831924 515.402945 
L 295.048153 517.878777 
L 297.264382 520.744574 
L 299.480611 524.000078 
L 301.696841 527.637564 
L 303.91307 531.642341 
L 306.129299 535.99368 
L 309.453643 543.116954 
L 312.777987 550.846149 
L 317.210445 561.892607 
L 326.075362 585.283618 
L 331.615935 599.942421 
L 334.940279 608.546388 
L 341.588966 624.309864 
L 343.805196 629.1236 
L 343.805196 629.1236 
" clip-path="url(#pdc133bbc26)" style="fill: none; stroke: #ff0000; stroke-linecap: square"/>
   </g>
   <g id="line2d_73">
    <path d="M 60.127857 628.89381 
L 64.560315 637.833924 
L 66.776545 641.875439 
L 68.992774 645.663367 
L 71.209003 649.193113 
L 73.425232 652.421524 
L 75.641461 655.402938 
L 77.857691 658.114869 
L 80.07392 660.584951 
L 82.290149 662.81988 
L 84.506378 664.825695 
L 86.722607 666.626115 
L 88.938837 668.229079 
L 91.155066 669.657117 
L 93.371295 670.916601 
L 95.587524 672.028196 
L 97.803753 673.003364 
L 102.236212 674.595838 
L 106.66867 675.785964 
L 111.101129 676.655749 
L 115.533587 677.273056 
L 119.966046 677.686524 
L 126.614733 677.998353 
L 133.263421 678.031542 
L 139.912108 677.823619 
L 144.344567 677.50052 
L 148.777025 676.988232 
L 153.209484 676.246244 
L 157.641942 675.223608 
L 162.074401 673.847081 
L 164.29063 672.998076 
L 166.506859 672.024137 
L 168.723088 670.913624 
L 170.939317 669.650056 
L 173.155547 668.223669 
L 175.371776 666.617905 
L 177.588005 664.816299 
L 179.804234 662.806892 
L 182.020463 660.572746 
L 184.236693 658.102417 
L 186.452922 655.385889 
L 188.669151 652.408719 
L 190.88538 649.169567 
L 193.101609 645.654904 
L 195.317839 641.873162 
L 197.534068 637.816694 
L 199.750297 633.489221 
L 204.182755 624.063149 
L 208.615214 613.698551 
L 213.047672 602.569322 
L 219.69636 584.941675 
L 228.561277 561.303323 
L 232.993735 550.159422 
L 237.426194 539.937021 
L 239.642423 535.239891 
L 241.858652 530.864333 
L 244.074881 526.846602 
L 246.29111 523.202624 
L 248.50734 519.941076 
L 250.723569 517.065632 
L 252.939798 514.561041 
L 255.156027 512.435744 
L 257.372256 510.696655 
L 259.588486 509.314279 
L 261.804715 508.26914 
L 264.020944 507.533173 
L 266.237173 507.061151 
L 268.453402 506.811642 
L 272.885861 506.68769 
L 277.318319 506.806863 
L 279.534549 507.073238 
L 281.750778 507.56861 
L 283.967007 508.328452 
L 286.183236 509.374408 
L 288.399465 510.747668 
L 290.615695 512.468426 
L 292.831924 514.559745 
L 295.048153 517.049869 
L 297.264382 519.941414 
L 299.480611 523.227246 
L 301.696841 526.896064 
L 303.91307 530.926307 
L 306.129299 535.306827 
L 308.345528 539.991838 
L 312.777987 550.219711 
L 317.210445 561.317903 
L 323.859133 578.92924 
L 330.50782 596.744342 
L 337.156508 613.627936 
L 341.588966 624.023878 
L 343.805196 628.89381 
L 343.805196 628.89381 
" clip-path="url(#pdc133bbc26)" style="fill: none; stroke: #000000; stroke-linecap: square"/>
   </g>
   <g id="patch_24">
    <path d="M 45.94399 686.64351 
L 45.94399 498.118365 
" style="fill: none; stroke: #000000; stroke-width: 0.8; stroke-linejoin: miter; stroke-linecap: square"/>
   </g>
   <g id="patch_25">
    <path d="M 357.989062 686.64351 
L 357.989062 498.118365 
" style="fill: none; stroke: #000000; stroke-width: 0.8; stroke-linejoin: miter; stroke-linecap: square"/>
   </g>
   <g id="patch_26">
    <path d="M 45.94399 686.64351 
L 357.989063 686.64351 
" style="fill: none; stroke: #000000; stroke-width: 0.8; stroke-linejoin: miter; stroke-linecap: square"/>
   </g>
   <g id="patch_27">
    <path d="M 45.94399 498.118365 
L 357.989063 498.118365 
" style="fill: none; stroke: #000000; stroke-width: 0.8; stroke-linejoin: miter; stroke-linecap: square"/>
   </g>
   <g id="text_78">
    <!-- 80 km -->
    <g transform="translate(183.105901 492.118365)scale(0.12 -0.12)">
     <use xlink:href="#DejaVuSans-38"/>
     <use xlink:href="#DejaVuSans-30" x="63.623047"/>
     <use xlink:href="#DejaVuSans-20" x="127.246094"/>
     <use xlink:href="#DejaVuSans-6b" x="159.033203"/>
     <use xlink:href="#DejaVuSans-6d" x="216.943359"/>
    </g>
   </g>
  </g>
  <g id="axes_6">
   <g id="patch_28">
    <path d="M 404.954687 686.64351 
L 716.99976 686.64351 
L 716.99976 498.118365 
L 404.954687 498.118365 
z
" style="fill: #ffffff"/>
   </g>
   <g id="matplotlib.axis_11">
    <g id="xtick_31">
     <g id="line2d_74">
      <g>
       <use xlink:href="#m0be9213d00" x="419.138554" y="686.64351" style="stroke: #000000; stroke-width: 0.8"/>
      </g>
     </g>
     <g id="text_79">
      <!-- 0.0 -->
      <g transform="translate(411.186992 701.241948)scale(0.1 -0.1)">
       <use xlink:href="#DejaVuSans-30"/>
       <use xlink:href="#DejaVuSans-2e" x="63.623047"/>
       <use xlink:href="#DejaVuSans-30" x="95.410156"/>
      </g>
     </g>
    </g>
    <g id="xtick_32">
     <g id="line2d_75">
      <g>
       <use xlink:href="#m0be9213d00" x="475.874022" y="686.64351" style="stroke: #000000; stroke-width: 0.8"/>
      </g>
     </g>
     <g id="text_80">
      <!-- 0.2 -->
      <g transform="translate(467.92246 701.241948)scale(0.1 -0.1)">
       <use xlink:href="#DejaVuSans-30"/>
       <use xlink:href="#DejaVuSans-2e" x="63.623047"/>
       <use xlink:href="#DejaVuSans-32" x="95.410156"/>
      </g>
     </g>
    </g>
    <g id="xtick_33">
     <g id="line2d_76">
      <g>
       <use xlink:href="#m0be9213d00" x="532.60949" y="686.64351" style="stroke: #000000; stroke-width: 0.8"/>
      </g>
     </g>
     <g id="text_81">
      <!-- 0.4 -->
      <g transform="translate(524.657927 701.241948)scale(0.1 -0.1)">
       <use xlink:href="#DejaVuSans-30"/>
       <use xlink:href="#DejaVuSans-2e" x="63.623047"/>
       <use xlink:href="#DejaVuSans-34" x="95.410156"/>
      </g>
     </g>
    </g>
    <g id="xtick_34">
     <g id="line2d_77">
      <g>
       <use xlink:href="#m0be9213d00" x="589.344958" y="686.64351" style="stroke: #000000; stroke-width: 0.8"/>
      </g>
     </g>
     <g id="text_82">
      <!-- 0.6 -->
      <g transform="translate(581.393395 701.241948)scale(0.1 -0.1)">
       <use xlink:href="#DejaVuSans-30"/>
       <use xlink:href="#DejaVuSans-2e" x="63.623047"/>
       <use xlink:href="#DejaVuSans-36" x="95.410156"/>
      </g>
     </g>
    </g>
    <g id="xtick_35">
     <g id="line2d_78">
      <g>
       <use xlink:href="#m0be9213d00" x="646.080425" y="686.64351" style="stroke: #000000; stroke-width: 0.8"/>
      </g>
     </g>
     <g id="text_83">
      <!-- 0.8 -->
      <g transform="translate(638.128863 701.241948)scale(0.1 -0.1)">
       <use xlink:href="#DejaVuSans-30"/>
       <use xlink:href="#DejaVuSans-2e" x="63.623047"/>
       <use xlink:href="#DejaVuSans-38" x="95.410156"/>
      </g>
     </g>
    </g>
    <g id="xtick_36">
     <g id="line2d_79">
      <g>
       <use xlink:href="#m0be9213d00" x="702.815893" y="686.64351" style="stroke: #000000; stroke-width: 0.8"/>
      </g>
     </g>
     <g id="text_84">
      <!-- 1.0 -->
      <g transform="translate(694.864331 701.241948)scale(0.1 -0.1)">
       <use xlink:href="#DejaVuSans-31"/>
       <use xlink:href="#DejaVuSans-2e" x="63.623047"/>
       <use xlink:href="#DejaVuSans-30" x="95.410156"/>
      </g>
     </g>
    </g>
    <g id="text_85">
     <!-- x norm. -->
     <g transform="translate(541.773317 714.920072)scale(0.1 -0.1)">
      <use xlink:href="#DejaVuSans-78"/>
      <use xlink:href="#DejaVuSans-20" x="59.179688"/>
      <use xlink:href="#DejaVuSans-6e" x="90.966797"/>
      <use xlink:href="#DejaVuSans-6f" x="154.345703"/>
      <use xlink:href="#DejaVuSans-72" x="215.527344"/>
      <use xlink:href="#DejaVuSans-6d" x="254.890625"/>
      <use xlink:href="#DejaVuSans-2e" x="352.302734"/>
     </g>
    </g>
   </g>
   <g id="matplotlib.axis_12">
    <g id="ytick_32">
     <g id="line2d_80">
      <g>
       <use xlink:href="#mae95dc47e8" x="404.954687" y="680.564886" style="stroke: #000000; stroke-width: 0.8"/>
      </g>
     </g>
     <g id="text_86">
      <!-- 0 -->
      <g transform="translate(391.592187 684.364104)scale(0.1 -0.1)">
       <use xlink:href="#DejaVuSans-30"/>
      </g>
     </g>
    </g>
    <g id="ytick_33">
     <g id="line2d_81">
      <g>
       <use xlink:href="#mae95dc47e8" x="404.954687" y="647.901157" style="stroke: #000000; stroke-width: 0.8"/>
      </g>
     </g>
     <g id="text_87">
      <!-- 20 -->
      <g transform="translate(385.229687 651.700376)scale(0.1 -0.1)">
       <use xlink:href="#DejaVuSans-32"/>
       <use xlink:href="#DejaVuSans-30" x="63.623047"/>
      </g>
     </g>
    </g>
    <g id="ytick_34">
     <g id="line2d_82">
      <g>
       <use xlink:href="#mae95dc47e8" x="404.954687" y="615.237428" style="stroke: #000000; stroke-width: 0.8"/>
      </g>
     </g>
     <g id="text_88">
      <!-- 40 -->
      <g transform="translate(385.229687 619.036647)scale(0.1 -0.1)">
       <use xlink:href="#DejaVuSans-34"/>
       <use xlink:href="#DejaVuSans-30" x="63.623047"/>
      </g>
     </g>
    </g>
    <g id="ytick_35">
     <g id="line2d_83">
      <g>
       <use xlink:href="#mae95dc47e8" x="404.954687" y="582.573699" style="stroke: #000000; stroke-width: 0.8"/>
      </g>
     </g>
     <g id="text_89">
      <!-- 60 -->
      <g transform="translate(385.229687 586.372918)scale(0.1 -0.1)">
       <use xlink:href="#DejaVuSans-36"/>
       <use xlink:href="#DejaVuSans-30" x="63.623047"/>
      </g>
     </g>
    </g>
    <g id="ytick_36">
     <g id="line2d_84">
      <g>
       <use xlink:href="#mae95dc47e8" x="404.954687" y="549.90997" style="stroke: #000000; stroke-width: 0.8"/>
      </g>
     </g>
     <g id="text_90">
      <!-- 80 -->
      <g transform="translate(385.229687 553.709189)scale(0.1 -0.1)">
       <use xlink:href="#DejaVuSans-38"/>
       <use xlink:href="#DejaVuSans-30" x="63.623047"/>
      </g>
     </g>
    </g>
    <g id="ytick_37">
     <g id="line2d_85">
      <g>
       <use xlink:href="#mae95dc47e8" x="404.954687" y="517.246242" style="stroke: #000000; stroke-width: 0.8"/>
      </g>
     </g>
     <g id="text_91">
      <!-- 100 -->
      <g transform="translate(378.867188 521.04546)scale(0.1 -0.1)">
       <use xlink:href="#DejaVuSans-31"/>
       <use xlink:href="#DejaVuSans-30" x="63.623047"/>
       <use xlink:href="#DejaVuSans-30" x="127.246094"/>
      </g>
     </g>
    </g>
    <g id="text_92">
     <!-- velocity (m/a) -->
     <g transform="translate(372.7875 627.0325)rotate(-90)scale(0.1 -0.1)">
      <use xlink:href="#DejaVuSans-76"/>
      <use xlink:href="#DejaVuSans-65" x="59.179688"/>
      <use xlink:href="#DejaVuSans-6c" x="120.703125"/>
      <use xlink:href="#DejaVuSans-6f" x="148.486328"/>
      <use xlink:href="#DejaVuSans-63" x="209.667969"/>
      <use xlink:href="#DejaVuSans-69" x="264.648438"/>
      <use xlink:href="#DejaVuSans-74" x="292.431641"/>
      <use xlink:href="#DejaVuSans-79" x="331.640625"/>
      <use xlink:href="#DejaVuSans-20" x="390.820312"/>
      <use xlink:href="#DejaVuSans-28" x="422.607422"/>
      <use xlink:href="#DejaVuSans-6d" x="461.621094"/>
      <use xlink:href="#DejaVuSans-2f" x="559.033203"/>
      <use xlink:href="#DejaVuSans-61" x="592.724609"/>
      <use xlink:href="#DejaVuSans-29" x="654.003906"/>
     </g>
    </g>
   </g>
   <g id="line2d_86">
    <path d="M 419.138554 639.609794 
L 424.679127 648.628084 
L 428.003471 653.197131 
L 432.43593 658.576698 
L 436.868388 662.969164 
L 440.192732 665.686956 
L 442.408961 667.293504 
L 444.62519 668.731588 
L 447.949534 670.601029 
L 451.273878 672.160466 
L 454.598222 673.449507 
L 457.922566 674.509045 
L 462.355024 675.614698 
L 466.787482 676.440213 
L 472.328055 677.182896 
L 477.868628 677.672226 
L 483.409201 677.95824 
L 490.057889 678.074185 
L 496.706577 677.96002 
L 503.355264 677.597458 
L 508.895837 677.056383 
L 513.328296 676.437923 
L 517.760754 675.611355 
L 522.193213 674.507369 
L 525.517556 673.443046 
L 528.8419 672.156836 
L 532.166244 670.59285 
L 535.490588 668.727078 
L 538.814932 666.50518 
L 541.031161 664.807786 
L 543.24739 662.920076 
L 545.463619 660.828525 
L 547.679849 658.520362 
L 549.896078 655.983883 
L 552.112307 653.208572 
L 554.328536 650.185249 
L 557.65288 645.168071 
L 560.977224 639.5619 
L 564.301568 633.359 
L 567.625911 626.575354 
L 570.950255 619.240087 
L 574.274599 611.394635 
L 578.707057 600.268993 
L 584.24763 585.594759 
L 595.328776 555.77604 
L 599.761235 544.61779 
L 603.085579 536.881991 
L 606.409923 529.865634 
L 608.626152 525.654566 
L 610.842381 521.858908 
L 613.05861 518.506887 
L 615.274839 515.618249 
L 617.491069 513.201996 
L 619.707298 511.25576 
L 621.923527 509.765717 
L 624.139756 508.703298 
L 626.355985 508.029207 
L 628.572215 507.668786 
L 630.788444 507.490121 
L 633.004673 507.489859 
L 635.220902 507.667285 
L 637.437131 508.02718 
L 639.653361 508.703851 
L 641.86959 509.771376 
L 644.085819 511.267996 
L 646.302048 513.224809 
L 648.518277 515.655057 
L 650.734507 518.556075 
L 652.950736 521.914298 
L 655.166965 525.708235 
L 657.383194 529.909708 
L 659.599424 534.484905 
L 662.923767 541.96345 
L 666.248111 550.058797 
L 670.68057 561.546479 
L 678.437372 582.520051 
L 683.977945 597.34202 
L 689.518518 611.337534 
L 691.734747 616.649595 
L 695.059091 624.050544 
L 696.167205 626.599903 
L 697.27532 628.707633 
L 698.383435 631.260845 
L 699.491549 633.280549 
L 700.599664 635.563161 
L 702.815893 639.609794 
L 702.815893 639.609794 
" clip-path="url(#p1ba95a64cc)" style="fill: none; stroke: #ff0000; stroke-linecap: square"/>
   </g>
   <g id="line2d_87">
    <path d="M 419.138554 639.351869 
L 421.354784 643.181903 
L 423.571013 646.741268 
L 425.787242 650.039046 
L 428.003471 653.084273 
L 430.2197 655.870149 
L 432.43593 658.419872 
L 434.652159 660.740792 
L 436.868388 662.847056 
L 439.084617 664.746271 
L 441.300847 666.452903 
L 443.517076 667.982215 
L 445.733305 669.347079 
L 447.949534 670.562839 
L 450.165763 671.639681 
L 454.598222 673.426562 
L 459.03068 674.805962 
L 463.463139 675.850432 
L 467.895597 676.626057 
L 472.328055 677.188216 
L 478.976743 677.74093 
L 485.625431 678.016759 
L 492.274118 678.051349 
L 498.922806 677.861891 
L 505.571494 677.414089 
L 510.003952 676.936864 
L 514.43641 676.269205 
L 518.868869 675.363029 
L 523.301327 674.160876 
L 527.733786 672.590922 
L 529.950015 671.63965 
L 532.166244 670.563006 
L 534.382473 669.350061 
L 536.598702 667.983835 
L 538.814932 666.452953 
L 541.031161 664.745315 
L 543.24739 662.844299 
L 545.463619 660.739641 
L 547.679849 658.416492 
L 549.896078 655.866339 
L 552.112307 653.076005 
L 554.328536 650.035652 
L 556.544765 646.742465 
L 558.760995 643.18251 
L 560.977224 639.355039 
L 563.193453 635.266441 
L 565.409682 630.914475 
L 569.842141 621.446274 
L 574.274599 611.030338 
L 578.707057 599.828557 
L 585.355745 582.027959 
L 594.220662 558.002068 
L 598.65312 546.617444 
L 603.085579 536.145087 
L 605.301808 531.356678 
L 607.518037 526.924999 
L 609.734266 522.892217 
L 611.950496 519.300256 
L 614.166725 516.159859 
L 616.382954 513.527803 
L 618.599183 511.356084 
L 620.815412 509.651786 
L 623.031642 508.379824 
L 625.247871 507.501343 
L 627.4641 506.976083 
L 629.680329 506.740729 
L 631.896558 506.68769 
L 634.112788 506.753087 
L 636.329017 507.01834 
L 638.545246 507.572439 
L 640.761475 508.470733 
L 642.977704 509.758135 
L 645.193934 511.45591 
L 647.410163 513.609594 
L 649.626392 516.230804 
L 651.842621 519.341052 
L 654.05885 522.927965 
L 656.27508 526.96587 
L 658.491309 531.417197 
L 660.707538 536.189417 
L 665.139997 546.629254 
L 669.572455 557.996199 
L 676.221143 576.002521 
L 682.86983 594.025954 
L 687.302289 605.508424 
L 691.734747 616.322894 
L 693.950976 621.442184 
L 698.383435 630.929748 
L 702.815893 639.351869 
L 702.815893 639.351869 
" clip-path="url(#p1ba95a64cc)" style="fill: none; stroke: #000000; stroke-linecap: square"/>
   </g>
   <g id="patch_29">
    <path d="M 404.954687 686.64351 
L 404.954687 498.118365 
" style="fill: none; stroke: #000000; stroke-width: 0.8; stroke-linejoin: miter; stroke-linecap: square"/>
   </g>
   <g id="patch_30">
    <path d="M 716.99976 686.64351 
L 716.99976 498.118365 
" style="fill: none; stroke: #000000; stroke-width: 0.8; stroke-linejoin: miter; stroke-linecap: square"/>
   </g>
   <g id="patch_31">
    <path d="M 404.954687 686.64351 
L 716.99976 686.64351 
" style="fill: none; stroke: #000000; stroke-width: 0.8; stroke-linejoin: miter; stroke-linecap: square"/>
   </g>
   <g id="patch_32">
    <path d="M 404.954687 498.118365 
L 716.99976 498.118365 
" style="fill: none; stroke: #000000; stroke-width: 0.8; stroke-linejoin: miter; stroke-linecap: square"/>
   </g>
   <g id="text_93">
    <!-- 160 km -->
    <g transform="translate(538.299099 492.118365)scale(0.12 -0.12)">
     <use xlink:href="#DejaVuSans-31"/>
     <use xlink:href="#DejaVuSans-36" x="63.623047"/>
     <use xlink:href="#DejaVuSans-30" x="127.246094"/>
     <use xlink:href="#DejaVuSans-20" x="190.869141"/>
     <use xlink:href="#DejaVuSans-6b" x="222.65625"/>
     <use xlink:href="#DejaVuSans-6d" x="280.566406"/>
    </g>
   </g>
  </g>
 </g>
 <defs>
  <clipPath id="pa2f13ec2b8">
   <rect x="45.94399" y="18.118365" width="312.045073" height="188.525145"/>
  </clipPath>
  <clipPath id="pee82e3e073">
   <rect x="404.954687" y="18.118365" width="312.045072" height="188.525145"/>
  </clipPath>
  <clipPath id="p9eef257a06">
   <rect x="45.94399" y="258.118365" width="312.045073" height="188.525145"/>
  </clipPath>
  <clipPath id="p358f1ea78a">
   <rect x="404.954687" y="258.118365" width="312.045072" height="188.525145"/>
  </clipPath>
  <clipPath id="pdc133bbc26">
   <rect x="45.94399" y="498.118365" width="312.045073" height="188.525145"/>
  </clipPath>
  <clipPath id="p1ba95a64cc">
   <rect x="404.954687" y="498.118365" width="312.045072" height="188.525145"/>
  </clipPath>
 </defs>
</svg>
