0.0000000	0.0000000	15.8293198	-0.0118540	0.0004670	0.0000000	0.0000000	15.7659079	-0.0000219	-478.0780392
0.0000000	0.2500000	15.8289137	0.0000009	0.0174443	0.0000000	0.0000000	15.7630281	0.0000001	-681.1014794
0.0000000	0.5000000	15.8293018	0.0118395	0.0004119	0.0000000	0.0000000	15.7659322	0.0000220	-478.2416583
0.0000000	0.7500000	15.8289894	-0.0000152	-0.0182554	0.0000000	0.0000000	15.7663069	-0.0000001	-336.9246854
0.0000000	1.0000000	15.8293198	-0.0118540	0.0004670	0.0000000	0.0000000	15.7659079	-0.0000219	-478.0780392
0.0078125	0.0000000	15.8293338	-0.0118394	0.0004860	0.0000000	0.0000000	15.7658539	-0.0000398	-475.3673026
0.0078125	0.2500000	15.8288294	0.0000004	0.0175234	0.0000000	0.0000000	16.3869481	0.0000004	-683.3236050
0.0078125	0.5000000	15.8293146	0.0118246	0.0004324	0.0000000	0.0000000	15.7659072	0.0000399	-475.2604049
0.0078125	0.7500000	15.8291060	-0.0000149	-0.0180835	0.0000000	0.0000000	15.1419807	-0.0000003	-328.4057930
0.0078125	1.0000000	15.8293338	-0.0118394	0.0004860	0.0000000	0.0000000	15.7658539	-0.0000398	-475.3673026
0.0156250	0.0000000	15.8293465	-0.0117960	0.0005020	0.0000000	0.0000000	15.7656589	-0.0000575	-474.8584641
0.0156250	0.2500000	15.8287497	-0.0000001	0.0175579	0.0000000	0.0000000	17.0090730	0.0000007	-682.1656767
0.0156250	0.5000000	15.8293272	0.0117809	0.0004507	0.0000000	0.0000000	15.7657349	0.0000577	-475.0580622
0.0156250	0.7500000	15.8292277	-0.0000146	-0.0178717	0.0000000	0.0000000	14.5188242	-0.0000005	-320.8264542
0.0156250	1.0000000	15.8293465	-0.0117960	0.0005020	0.0000000	0.0000000	15.7656589	-0.0000575	-474.8584641
0.0234375	0.0000000	15.8293592	-0.0117239	0.0005156	0.0000000	0.0000000	15.7653384	-0.0000754	-475.1574371
0.0234375	0.2500000	15.8286756	-0.0000007	0.0175424	0.0000000	0.0000000	17.6278908	0.0000007	-681.8680648
0.0234375	0.5000000	15.8293394	0.0117084	0.0004675	0.0000000	0.0000000	15.7654213	0.0000755	-473.7284999
0.0234375	0.7500000	15.8293535	-0.0000143	-0.0176173	0.0000000	0.0000000	13.8983944	-0.0000005	-317.1616139
0.0234375	1.0000000	15.8293592	-0.0117239	0.0005156	0.0000000	0.0000000	15.7653384	-0.0000754	-475.1574371
0.0312500	0.0000000	15.8293723	-0.0116231	0.0005297	0.0000000	0.0000000	15.7649315	-0.0000938	-476.0685480
0.0312500	0.2500000	15.8286049	-0.0000013	0.0174752	0.0000000	0.0000000	18.2419321	0.0000006	-680.2629639
0.0312500	0.5000000	15.8293524	0.0116075	0.0004826	0.0000000	0.0000000	15.7650023	0.0000939	-475.2882378
0.0312500	0.7500000	15.8294817	-0.0000140	-0.0173237	0.0000000	0.0000000	13.2822569	-0.0000004	-315.8171831
0.0312500	1.0000000	15.8293723	-0.0116231	0.0005297	0.0000000	0.0000000	15.7649315	-0.0000938	-476.0685480
0.0390625	0.0000000	15.8293854	-0.0114940	0.0005378	0.0000000	0.0000000	15.7644810	-0.0001128	-476.8444974
0.0390625	0.2500000	15.8285382	-0.0000019	0.0173636	0.0000000	0.0000000	18.8497574	0.0000002	-679.2910045
0.0390625	0.5000000	15.8293648	0.0114781	0.0004941	0.0000000	0.0000000	15.7645174	0.0001127	-475.4269963
0.0390625	0.7500000	15.8296128	-0.0000137	-0.0169934	0.0000000	0.0000000	12.6719464	-0.0000002	-317.5787850
0.0390625	1.0000000	15.8293854	-0.0114940	0.0005378	0.0000000	0.0000000	15.7644810	-0.0001128	-476.8444974
0.0468750	0.0000000	15.8293979	-0.0113370	0.0005461	0.0000000	0.0000000	15.7639933	-0.0001321	-477.5482141
0.0468750	0.2500000	15.8284773	-0.0000026	0.0171983	0.0000000	0.0000000	19.4499343	-0.0000003	-677.7285615
0.0468750	0.5000000	15.8293759	0.0113210	0.0005053	0.0000000	0.0000000	15.7639854	0.0001319	-477.0463171
0.0468750	0.7500000	15.8297475	-0.0000133	-0.0166278	0.0000000	0.0000000	12.0689424	0.0000001	-318.2329987
0.0468750	1.0000000	15.8293979	-0.0113370	0.0005461	0.0000000	0.0000000	15.7639933	-0.0001321	-477.5482141
0.0546875	0.0000000	15.8294092	-0.0111524	0.0005512	0.0000000	0.0000000	15.7634477	-0.0001512	-476.8797487
0.0546875	0.2500000	15.8284193	-0.0000033	0.0169824	0.0000000	0.0000000	20.0410211	-0.0000009	-674.9762147
0.0546875	0.5000000	15.8293876	0.0111363	0.0005153	0.0000000	0.0000000	15.7633974	0.0001510	-477.8984983
0.0546875	0.7500000	15.8298842	-0.0000130	-0.0162280	0.0000000	0.0000000	11.4746725	0.0000003	-318.5258043
0.0546875	1.0000000	15.8294092	-0.0111524	0.0005512	0.0000000	0.0000000	15.7634477	-0.0001512	-476.8797487
0.0625000	0.0000000	15.8294201	-0.0109410	0.0005549	0.0000000	0.0000000	15.7628012	-0.0001697	-474.5972401
0.0625000	0.2500000	15.8283662	-0.0000040	0.0167187	0.0000000	0.0000000	20.6215745	-0.0000011	-673.8779792
0.0625000	0.5000000	15.8293976	0.0109247	0.0005222	0.0000000	0.0000000	15.7627240	0.0001696	-477.6657867
0.0625000	0.7500000	15.8300230	-0.0000125	-0.0157992	0.0000000	0.0000000	10.8905282	0.0000004	-316.1778078
0.0625000	1.0000000	15.8294201	-0.0109410	0.0005549	0.0000000	0.0000000	15.7628012	-0.0001697	-474.5972401
0.0703125	0.0000000	15.8294304	-0.0107030	0.0005571	0.0000000	0.0000000	15.7620316	-0.0001874	-472.5953592
0.0703125	0.2500000	15.8283175	-0.0000046	0.0164062	0.0000000	0.0000000	21.1901823	-0.0000010	-670.5331986
0.0703125	0.5000000	15.8294072	0.0106865	0.0005239	0.0000000	0.0000000	15.7619495	0.0001875	-477.7167347
0.0703125	0.7500000	15.8301632	-0.0000121	-0.0153400	0.0000000	0.0000000	10.3178994	0.0000004	-312.4421805
0.0703125	1.0000000	15.8294304	-0.0107030	0.0005571	0.0000000	0.0000000	15.7620316	-0.0001874	-472.5953592
0.0781250	0.0000000	15.8294401	-0.0104392	0.0005538	0.0000000	0.0000000	15.7611455	-0.0002043	-469.4978165
0.0781250	0.2500000	15.8282716	-0.0000053	0.0160437	0.0000000	0.0000000	21.7454793	-0.0000006	-669.1485363
0.0781250	0.5000000	15.8294168	0.0104227	0.0005265	0.0000000	0.0000000	15.7610825	0.0002047	-475.8231589
0.0781250	0.7500000	15.8303029	-0.0000116	-0.0148519	0.0000000	0.0000000	9.7581811	0.0000004	-308.8963092
0.0781250	1.0000000	15.8294401	-0.0104392	0.0005538	0.0000000	0.0000000	15.7611455	-0.0002043	-469.4978165
0.0859375	0.0000000	15.8294488	-0.0101503	0.0005500	0.0000000	0.0000000	15.7601832	-0.0002206	-468.8445471
0.0859375	0.2500000	15.8282307	-0.0000060	0.0156309	0.0000000	0.0000000	22.2861836	0.0000001	-665.4377181
0.0859375	0.5000000	15.8294244	0.0101337	0.0005282	0.0000000	0.0000000	15.7601576	0.0002213	-475.8013717
0.0859375	0.7500000	15.8304432	-0.0000110	-0.0143404	0.0000000	0.0000000	9.2127636	0.0000002	-305.0633041
0.0859375	1.0000000	15.8294488	-0.0101503	0.0005500	0.0000000	0.0000000	15.7601832	-0.0002206	-468.8445471
0.0937500	0.0000000	15.8294563	-0.0098370	0.0005427	0.0000000	0.0000000	15.7591951	-0.0002366	-468.3334262
0.0937500	0.2500000	15.8281921	-0.0000067	0.0151711	0.0000000	0.0000000	22.8110403	0.0000009	-663.2576184
0.0937500	0.5000000	15.8294312	0.0098203	0.0005242	0.0000000	0.0000000	15.7592168	0.0002376	-473.8507478
0.0937500	0.7500000	15.8305841	-0.0000103	-0.0138016	0.0000000	0.0000000	8.6830024	0.0000000	-302.4333974
0.0937500	1.0000000	15.8294563	-0.0098370	0.0005427	0.0000000	0.0000000	15.7591951	-0.0002366	-468.3334262
0.1015625	0.0000000	15.8294629	-0.0095002	0.0005312	0.0000000	0.0000000	15.7582100	-0.0002522	-469.1947083
0.1015625	0.2500000	15.8281565	-0.0000074	0.0146652	0.0000000	0.0000000	23.3188365	0.0000017	-658.6604481
0.1015625	0.5000000	15.8294361	0.0094834	0.0005167	0.0000000	0.0000000	15.7582737	0.0002533	-473.2874312
0.1015625	0.7500000	15.8307242	-0.0000096	-0.0132390	0.0000000	0.0000000	8.1702001	-0.0000002	-300.7044616
0.1015625	1.0000000	15.8294629	-0.0095002	0.0005312	0.0000000	0.0000000	15.7582100	-0.0002522	-469.1947083
0.1093750	0.0000000	15.8294692	-0.0091406	0.0005207	0.0000000	0.0000000	15.7572302	-0.0002673	-470.0728035
0.1093750	0.2500000	15.8281228	-0.0000082	0.0141138	0.0000000	0.0000000	23.8083387	0.0000024	-655.0018532
0.1093750	0.5000000	15.8294429	0.0091239	0.0005071	0.0000000	0.0000000	15.7573253	0.0002685	-470.6614549
0.1093750	0.7500000	15.8308604	-0.0000088	-0.0126609	0.0000000	0.0000000	7.6756007	-0.0000003	-299.5925270
0.1093750	1.0000000	15.8294692	-0.0091406	0.0005207	0.0000000	0.0000000	15.7572302	-0.0002673	-470.0728035
0.1171875	0.0000000	15.8294735	-0.0087594	0.0005039	0.0000000	0.0000000	15.7562360	-0.0002816	-470.5232914
0.1171875	0.2500000	15.8280922	-0.0000088	0.0135196	0.0000000	0.0000000	24.2783568	0.0000027	-649.8184607
0.1171875	0.5000000	15.8294460	0.0087427	0.0004960	0.0000000	0.0000000	15.7563460	0.0002828	-469.4415388
0.1171875	0.7500000	15.8309962	-0.0000082	-0.0120631	0.0000000	0.0000000	7.2003977	-0.0000004	-297.9036943
0.1171875	1.0000000	15.8294735	-0.0087594	0.0005039	0.0000000	0.0000000	15.7562360	-0.0002816	-470.5232914
0.1250000	0.0000000	15.8294772	-0.0083573	0.0004855	0.0000000	0.0000000	15.7552125	-0.0002952	-472.2854217
0.1250000	0.2500000	15.8280643	-0.0000097	0.0128804	0.0000000	0.0000000	24.7277287	0.0000026	-644.3757980
0.1250000	0.5000000	15.8294468	0.0083408	0.0004807	0.0000000	0.0000000	15.7553243	0.0002961	-466.9498319
0.1250000	0.7500000	15.8311284	-0.0000073	-0.0114461	0.0000000	0.0000000	6.7457468	-0.0000005	-297.2831949
0.1250000	1.0000000	15.8294772	-0.0083573	0.0004855	0.0000000	0.0000000	15.7552125	-0.0002952	-472.2854217
0.1328125	0.0000000	15.8294789	-0.0079354	0.0004639	0.0000000	0.0000000	15.7541607	-0.0003081	-471.8370741
0.1328125	0.2500000	15.8280372	-0.0000104	0.0122029	0.0000000	0.0000000	25.1553797	0.0000023	-639.1652594
0.1328125	0.5000000	15.8294487	0.0079190	0.0004633	0.0000000	0.0000000	15.7542656	0.0003086	-465.0777892
0.1328125	0.7500000	15.8312558	-0.0000064	-0.0108164	0.0000000	0.0000000	6.3127661	-0.0000005	-298.0441332
0.1328125	1.0000000	15.8294789	-0.0079354	0.0004639	0.0000000	0.0000000	15.7541607	-0.0003081	-471.8370741
0.1406250	0.0000000	15.8294799	-0.0074948	0.0004401	0.0000000	0.0000000	15.7531060	-0.0003205	-474.0967324
0.1406250	0.2500000	15.8280113	-0.0000113	0.0114851	0.0000000	0.0000000	25.5603229	0.0000017	-633.7634162
0.1406250	0.5000000	15.8294472	0.0074787	0.0004469	0.0000000	0.0000000	15.7531968	0.0003205	-464.5822475
0.1406250	0.7500000	15.8313787	-0.0000055	-0.0101758	0.0000000	0.0000000	5.9025283	-0.0000004	-299.7502907
0.1406250	1.0000000	15.8294799	-0.0074948	0.0004401	0.0000000	0.0000000	15.7531060	-0.0003205	-474.0967324
0.1484375	0.0000000	15.8294783	-0.0070367	0.0004136	0.0000000	0.0000000	15.7520822	-0.0003327	-473.8995532
0.1484375	0.2500000	15.8279874	-0.0000120	0.0107319	0.0000000	0.0000000	25.9416213	0.0000007	-628.5477346
0.1484375	0.5000000	15.8294435	0.0070206	0.0004250	0.0000000	0.0000000	15.7521457	0.0003320	-464.6127702
0.1484375	0.7500000	15.8314962	-0.0000045	-0.0095216	0.0000000	0.0000000	5.5160514	-0.0000004	-304.5268579
0.1484375	1.0000000	15.8294783	-0.0070367	0.0004136	0.0000000	0.0000000	15.7520822	-0.0003327	-473.8995532
0.1562500	0.0000000	15.8294764	-0.0065620	0.0003856	0.0000000	0.0000000	15.7511132	-0.0003446	-475.2384147
0.1562500	0.2500000	15.8279635	-0.0000129	0.0099453	0.0000000	0.0000000	26.2984173	-0.0000006	-623.7236462
0.1562500	0.5000000	15.8294394	0.0065461	0.0004020	0.0000000	0.0000000	15.7511339	0.0003433	-466.0351116
0.1562500	0.7500000	15.8316057	-0.0000034	-0.0088591	0.0000000	0.0000000	5.1542849	-0.0000002	-310.5696139
0.1562500	1.0000000	15.8294764	-0.0065620	0.0003856	0.0000000	0.0000000	15.7511132	-0.0003446	-475.2384147
0.1640625	0.0000000	15.8294708	-0.0060719	0.0003563	0.0000000	0.0000000	15.7502083	-0.0003563	-474.7645509
0.1640625	0.2500000	15.8279413	-0.0000139	0.0091255	0.0000000	0.0000000	26.6298601	-0.0000020	-618.1185413
0.1640625	0.5000000	15.8294328	0.0060562	0.0003791	0.0000000	0.0000000	15.7501764	0.0003543	-468.9331066
0.1640625	0.7500000	15.8317085	-0.0000024	-0.0081880	0.0000000	0.0000000	4.8181108	-0.0000001	-318.0218641
0.1640625	1.0000000	15.8294708	-0.0060719	0.0003563	0.0000000	0.0000000	15.7502083	-0.0003563	-474.7645509
0.1718750	0.0000000	15.8294631	-0.0055677	0.0003275	0.0000000	0.0000000	15.7493586	-0.0003673	-474.4504190
0.1718750	0.2500000	15.8279207	-0.0000148	0.0082739	0.0000000	0.0000000	26.9351579	-0.0000033	-613.2689962
0.1718750	0.5000000	15.8294228	0.0055522	0.0003566	0.0000000	0.0000000	15.7492735	0.0003649	-471.6422515
0.1718750	0.7500000	15.8318042	-0.0000011	-0.0075106	0.0000000	0.0000000	4.5083436	0.0000001	-325.8396944
0.1718750	1.0000000	15.8294631	-0.0055677	0.0003275	0.0000000	0.0000000	15.7493586	-0.0003673	-474.4504190
0.1796875	0.0000000	15.8294553	-0.0050504	0.0002964	0.0000000	0.0000000	15.7485565	-0.0003773	-472.7894954
0.1796875	0.2500000	15.8278988	-0.0000158	0.0073986	0.0000000	0.0000000	27.2135880	-0.0000039	-607.4289800
0.1796875	0.5000000	15.8294132	0.0050352	0.0003313	0.0000000	0.0000000	15.7484334	0.0003748	-475.1244569
0.1796875	0.7500000	15.8318883	-0.0000001	-0.0068252	0.0000000	0.0000000	4.2257351	0.0000002	-333.7171731
0.1796875	1.0000000	15.8294553	-0.0050504	0.0002964	0.0000000	0.0000000	15.7485565	-0.0003773	-472.7894954
0.1875000	0.0000000	15.8294450	-0.0045214	0.0002610	0.0000000	0.0000000	15.7477991	-0.0003857	-470.9102813
0.1875000	0.2500000	15.8278773	-0.0000169	0.0065023	0.0000000	0.0000000	27.4645090	-0.0000036	-602.1547481
0.1875000	0.5000000	15.8294005	0.0045064	0.0003044	0.0000000	0.0000000	15.7476714	0.0003839	-477.8686630
0.1875000	0.7500000	15.8319644	0.0000011	-0.0061313	0.0000000	0.0000000	3.9709757	0.0000003	-341.0545167
0.1875000	1.0000000	15.8294450	-0.0045214	0.0002610	0.0000000	0.0000000	15.7477991	-0.0003857	-470.9102813
0.1953125	0.0000000	15.8294325	-0.0039821	0.0002284	0.0000000	0.0000000	15.7470980	-0.0003923	-468.9188035
0.1953125	0.2500000	15.8278566	-0.0000179	0.0055840	0.0000000	0.0000000	27.6873374	-0.0000021	-596.2001700
0.1953125	0.5000000	15.8293858	0.0039671	0.0002763	0.0000000	0.0000000	15.7470093	0.0003918	-480.0454640
0.1953125	0.7500000	15.8320302	0.0000025	-0.0054322	0.0000000	0.0000000	3.7446907	0.0000003	-347.7540641
0.1953125	1.0000000	15.8294325	-0.0039821	0.0002284	0.0000000	0.0000000	15.7470980	-0.0003923	-468.9188035
0.2031250	0.0000000	15.8294195	-0.0034334	0.0001979	0.0000000	0.0000000	15.7464666	-0.0003971	-467.6436801
0.2031250	0.2500000	15.8278358	-0.0000191	0.0046469	0.0000000	0.0000000	27.8815765	0.0000002	-591.0881236
0.2031250	0.5000000	15.8293709	0.0034185	0.0002525	0.0000000	0.0000000	15.7464624	0.0003982	-480.0377398
0.2031250	0.7500000	15.8320835	0.0000037	-0.0047323	0.0000000	0.0000000	3.5474372	0.0000002	-355.0375653
0.2031250	1.0000000	15.8294195	-0.0034334	0.0001979	0.0000000	0.0000000	15.7464666	-0.0003971	-467.6436801
0.2109375	0.0000000	15.8294051	-0.0028768	0.0001686	0.0000000	0.0000000	15.7459220	-0.0004002	-467.4457598
0.2109375	0.2500000	15.8278152	-0.0000202	0.0036913	0.0000000	0.0000000	28.0467928	0.0000031	-584.8783267
0.2109375	0.5000000	15.8293538	0.0028620	0.0002335	0.0000000	0.0000000	15.7460327	0.0004030	-479.6800216
0.2109375	0.7500000	15.8321268	0.0000052	-0.0040286	0.0000000	0.0000000	3.3797006	0.0000000	-362.8985431
0.2109375	1.0000000	15.8294051	-0.0028768	0.0001686	0.0000000	0.0000000	15.7459220	-0.0004002	-467.4457598
0.2187500	0.0000000	15.8293886	-0.0023136	0.0001370	0.0000000	0.0000000	15.7454788	-0.0004022	-468.4475754
0.2187500	0.2500000	15.8277956	-0.0000214	0.0027274	0.0000000	0.0000000	28.1825799	0.0000056	-579.4351165
0.2187500	0.5000000	15.8293354	0.0022988	0.0002125	0.0000000	0.0000000	15.7456988	0.0004062	-477.2788913
0.2187500	0.7500000	15.8321595	0.0000066	-0.0033178	0.0000000	0.0000000	3.2418933	-0.0000002	-373.1491361
0.2187500	1.0000000	15.8293886	-0.0023136	0.0001370	0.0000000	0.0000000	15.7454788	-0.0004022	-468.4475754
0.2265625	0.0000000	15.8293723	-0.0017449	0.0001085	0.0000000	0.0000000	15.7451384	-0.0004035	-470.7697513
0.2265625	0.2500000	15.8277752	-0.0000228	0.0017560	0.0000000	0.0000000	28.2885841	0.0000073	-573.8429777
0.2265625	0.5000000	15.8293183	0.0017305	0.0001934	0.0000000	0.0000000	15.7454412	0.0004081	-475.0786446
0.2265625	0.7500000	15.8321796	0.0000079	-0.0026060	0.0000000	0.0000000	3.1343546	-0.0000003	-385.3718200
0.2265625	1.0000000	15.8293723	-0.0017449	0.0001085	0.0000000	0.0000000	15.7451384	-0.0004035	-470.7697513
0.2343750	0.0000000	15.8293543	-0.0011723	0.0000838	0.0000000	0.0000000	15.7449110	-0.0004049	-474.0673995
0.2343750	0.2500000	15.8277564	-0.0000240	0.0007745	0.0000000	0.0000000	28.3645255	0.0000076	-567.8143438
0.2343750	0.5000000	15.8293001	0.0011580	0.0001792	0.0000000	0.0000000	15.7452446	0.0004091	-472.5633196
0.2343750	0.7500000	15.8321881	0.0000093	-0.0018911	0.0000000	0.0000000	3.0573505	-0.0000004	-400.3129491
0.2343750	1.0000000	15.8293543	-0.0011723	0.0000838	0.0000000	0.0000000	15.7449110	-0.0004049	-474.0673995
0.2421875	0.0000000	15.8293359	-0.0005971	0.0000573	0.0000000	0.0000000	15.7447994	-0.0004063	-478.3424472
0.2421875	0.2500000	15.8277395	-0.0000253	-0.0002070	0.0000000	0.0000000	28.4102067	0.0000064	-561.5583807
0.2421875	0.5000000	15.8292820	0.0005827	0.0001644	0.0000000	0.0000000	15.7450996	0.0004093	-471.3412289
0.2421875	0.7500000	15.8321846	0.0000108	-0.0011701	0.0000000	0.0000000	3.0110717	-0.0000004	-415.4334401
0.2421875	1.0000000	15.8293359	-0.0005971	0.0000573	0.0000000	0.0000000	15.7447994	-0.0004063	-478.3424472
0.2500000	0.0000000	15.8293180	-0.0000204	0.0000359	0.0000000	0.0000000	15.7448025	-0.0004074	-480.1413538
0.2500000	0.2500000	15.8277218	-0.0000265	-0.0011893	0.0000000	0.0000000	28.4255141	0.0000042	-555.7518377
0.2500000	0.5000000	15.8292654	0.0000061	0.0001512	0.0000000	0.0000000	15.7450221	0.0004088	-471.0074391
0.2500000	0.7500000	15.8321705	0.0000121	-0.0004472	0.0000000	0.0000000	2.9956332	-0.0000003	-431.8713841
0.2500000	1.0000000	15.8293180	-0.0000204	0.0000359	0.0000000	0.0000000	15.7448025	-0.0004074	-480.1413538
0.2578125	0.0000000	15.8293004	0.0005562	0.0000171	0.0000000	0.0000000	15.7449107	-0.0004075	-483.2514522
0.2578125	0.2500000	15.8277064	-0.0000277	-0.0021702	0.0000000	0.0000000	28.4104306	0.0000015	-549.1931300
0.2578125	0.5000000	15.8292487	-0.0005706	0.0001422	0.0000000	0.0000000	15.7450250	0.0004073	-472.0735466
0.2578125	0.7500000	15.8321456	0.0000134	0.0002775	0.0000000	0.0000000	3.0110716	-0.0000002	-445.5372878
0.2578125	1.0000000	15.8293004	0.0005562	0.0000171	0.0000000	0.0000000	15.7449107	-0.0004075	-483.2514522
0.2656250	0.0000000	15.8292835	0.0011317	-0.0000019	0.0000000	0.0000000	15.7451059	-0.0004062	-481.3654551
0.2656250	0.2500000	15.8276923	-0.0000289	-0.0031409	0.0000000	0.0000000	28.3650146	-0.0000008	-544.5020217
0.2656250	0.5000000	15.8292332	-0.0011460	0.0001349	0.0000000	0.0000000	15.7451269	0.0004047	-472.5246300
0.2656250	0.7500000	15.8321091	0.0000145	0.0010036	0.0000000	0.0000000	3.0573460	-0.0000001	-460.7677487
0.2656250	1.0000000	15.8292835	0.0011317	-0.0000019	0.0000000	0.0000000	15.7451059	-0.0004062	-481.3654551
0.2734375	0.0000000	15.8292668	0.0017045	-0.0000171	0.0000000	0.0000000	15.7453740	-0.0004030	-481.8708734
0.2734375	0.2500000	15.8276800	-0.0000300	-0.0041033	0.0000000	0.0000000	28.2893999	-0.0000019	-538.1514036
0.2734375	0.5000000	15.8292189	-0.0017188	0.0001281	0.0000000	0.0000000	15.7453419	0.0004011	-475.4445624
0.2734375	0.7500000	15.8320626	0.0000156	0.0017321	0.0000000	0.0000000	3.1343396	-0.0000000	-471.9914691
0.2734375	1.0000000	15.8292668	0.0017045	-0.0000171	0.0000000	0.0000000	15.7453740	-0.0004030	-481.8708734
0.2812500	0.0000000	15.8292511	0.0022734	-0.0000284	0.0000000	0.0000000	15.7457201	-0.0003981	-479.2594679
0.2812500	0.2500000	15.8276699	-0.0000310	-0.0050531	0.0000000	0.0000000	28.1837833	-0.0000019	-533.4962821
0.2812500	0.5000000	15.8292067	-0.0022877	0.0001242	0.0000000	0.0000000	15.7456846	0.0003966	-476.7743204
0.2812500	0.7500000	15.8320056	0.0000166	0.0024576	0.0000000	0.0000000	3.2418621	0.0000000	-484.2523567
0.2812500	1.0000000	15.8292511	0.0022734	-0.0000284	0.0000000	0.0000000	15.7457201	-0.0003981	-479.2594679
0.2890625	0.0000000	15.8292364	0.0028368	-0.0000412	0.0000000	0.0000000	15.7461557	-0.0003916	-478.6734176
0.2890625	0.2500000	15.8276618	-0.0000319	-0.0059862	0.0000000	0.0000000	28.0484510	-0.0000009	-527.7705907
0.2890625	0.5000000	15.8291952	-0.0028514	0.0001217	0.0000000	0.0000000	15.7461616	0.0003909	-479.5206388
0.2890625	0.7500000	15.8319402	0.0000175	0.0031863	0.0000000	0.0000000	3.3796497	0.0000000	-494.3649363
0.2890625	1.0000000	15.8292364	0.0028368	-0.0000412	0.0000000	0.0000000	15.7461557	-0.0003916	-478.6734176
0.2968750	0.0000000	15.8292228	0.0033938	-0.0000450	0.0000000	0.0000000	15.7466971	-0.0003837	-476.7045652
0.2968750	0.2500000	15.8276570	-0.0000327	-0.0069067	0.0000000	0.0000000	27.8837233	0.0000006	-522.7410232
0.2968750	0.5000000	15.8291860	-0.0034084	0.0001244	0.0000000	0.0000000	15.7467646	0.0003842	-479.2663589
0.2968750	0.7500000	15.8318649	0.0000182	0.0039094	0.0000000	0.0000000	3.5473657	-0.0000001	-505.5763123
0.2968750	1.0000000	15.8292228	0.0033938	-0.0000450	0.0000000	0.0000000	15.7466971	-0.0003837	-476.7045652
0.3046875	0.0000000	15.8292088	0.0039428	-0.0000527	0.0000000	0.0000000	15.7473471	-0.0003748	-477.2245653
0.3046875	0.2500000	15.8276571	-0.0000334	-0.0078022	0.0000000	0.0000000	27.6899486	0.0000019	-515.6437413
0.3046875	0.5000000	15.8291761	-0.0039577	0.0001256	0.0000000	0.0000000	15.7474680	0.0003762	-480.1279442
0.3046875	0.7500000	15.8317830	0.0000187	0.0046343	0.0000000	0.0000000	3.7445982	-0.0000001	-514.2897961
0.3046875	1.0000000	15.8292088	0.0039428	-0.0000527	0.0000000	0.0000000	15.7473471	-0.0003748	-477.2245653
0.3125000	0.0000000	15.8291978	0.0044827	-0.0000578	0.0000000	0.0000000	15.7480813	-0.0003649	-475.8568324
0.3125000	0.2500000	15.8276588	-0.0000340	-0.0086724	0.0000000	0.0000000	27.4675096	0.0000028	-508.6224484
0.3125000	0.5000000	15.8291700	-0.0044979	0.0001247	0.0000000	0.0000000	15.7482336	0.0003669	-477.2022938
0.3125000	0.7500000	15.8316921	0.0000192	0.0053568	0.0000000	0.0000000	3.9708608	-0.0000002	-525.9692593
0.3125000	1.0000000	15.8291978	0.0044827	-0.0000578	0.0000000	0.0000000	15.7480813	-0.0003649	-475.8568324
0.3203125	0.0000000	15.8291877	0.0050123	-0.0000532	0.0000000	0.0000000	15.7488655	-0.0003545	-475.6914899
0.3203125	0.2500000	15.8276624	-0.0000344	-0.0095251	0.0000000	0.0000000	27.2168437	0.0000028	-500.2897143
0.3203125	0.5000000	15.8291671	-0.0050276	0.0001304	0.0000000	0.0000000	15.7490148	0.0003565	-475.6128341
0.3203125	0.7500000	15.8315932	0.0000194	0.0060703	0.0000000	0.0000000	4.2255932	-0.0000002	-535.6907824
0.3203125	1.0000000	15.8291877	0.0050123	-0.0000532	0.0000000	0.0000000	15.7488655	-0.0003545	-475.6914899
0.3281250	0.0000000	15.8291775	0.0055301	-0.0000486	0.0000000	0.0000000	15.7496771	-0.0003437	-476.4247047
0.3281250	0.2500000	15.8276727	-0.0000346	-0.0103498	0.0000000	0.0000000	26.9385180	0.0000020	-491.3309819
0.3281250	0.5000000	15.8291626	-0.0055457	0.0001368	0.0000000	0.0000000	15.7497936	0.0003451	-473.0723136
0.3281250	0.7500000	15.8314896	0.0000195	0.0067799	0.0000000	0.0000000	4.5081679	-0.0000002	-547.0689031
0.3281250	1.0000000	15.8291775	0.0055301	-0.0000486	0.0000000	0.0000000	15.7496771	-0.0003437	-476.4247047
0.3359375	0.0000000	15.8291684	0.0060352	-0.0000420	0.0000000	0.0000000	15.7505207	-0.0003327	-477.2909342
0.3359375	0.2500000	15.8276866	-0.0000346	-0.0111425	0.0000000	0.0000000	26.6332233	0.0000008	-482.2681681
0.3359375	0.5000000	15.8291603	-0.0060510	0.0001426	0.0000000	0.0000000	15.7505833	0.0003332	-472.4540678
0.3359375	0.7500000	15.8313803	0.0000193	0.0074821	0.0000000	0.0000000	4.8178944	-0.0000001	-557.9904866
0.3359375	1.0000000	15.8291684	0.0060352	-0.0000420	0.0000000	0.0000000	15.7505207	-0.0003327	-477.2909342
0.3437500	0.0000000	15.8291622	0.0065262	-0.0000382	0.0000000	0.0000000	15.7514183	-0.0003212	-478.0856986
0.3437500	0.2500000	15.8277026	-0.0000345	-0.0119006	0.0000000	0.0000000	26.3017674	-0.0000004	-474.1011247
0.3437500	0.5000000	15.8291602	-0.0065421	0.0001473	0.0000000	0.0000000	15.7514298	0.0003209	-472.9186552
0.3437500	0.7500000	15.8312642	0.0000190	0.0081797	0.0000000	0.0000000	5.1540226	0.0000000	-570.3811790
0.3437500	1.0000000	15.8291622	0.0065262	-0.0000382	0.0000000	0.0000000	15.7514183	-0.0003212	-478.0856986
0.3515625	0.0000000	15.8291571	0.0070019	-0.0000283	0.0000000	0.0000000	15.7524027	-0.0003093	-478.7207510
0.3515625	0.2500000	15.8277236	-0.0000343	-0.0126270	0.0000000	0.0000000	25.9450191	-0.0000016	-466.5884847
0.3515625	0.5000000	15.8291607	-0.0070180	0.0001555	0.0000000	0.0000000	15.7523662	0.0003083	-474.2186637
0.3515625	0.7500000	15.8311441	0.0000187	0.0088629	0.0000000	0.0000000	5.5157384	0.0000001	-581.9938884
0.3515625	1.0000000	15.8291571	0.0070019	-0.0000283	0.0000000	0.0000000	15.7524027	-0.0003093	-478.7207510
0.3593750	0.0000000	15.8291517	0.0074613	-0.0000141	0.0000000	0.0000000	15.7534666	-0.0002968	-480.1062527
0.3593750	0.2500000	15.8277497	-0.0000338	-0.0133209	0.0000000	0.0000000	25.5638276	-0.0000022	-458.1210404
0.3593750	0.5000000	15.8291614	-0.0074775	0.0001655	0.0000000	0.0000000	15.7533949	0.0002953	-476.9776835
0.3593750	0.7500000	15.8310212	0.0000181	0.0095343	0.0000000	0.0000000	5.9021577	0.0000002	-591.8394302
0.3593750	1.0000000	15.8291517	0.0074613	-0.0000141	0.0000000	0.0000000	15.7534666	-0.0002968	-480.1062527
0.3671875	0.0000000	15.8291486	0.0079032	0.0000044	0.0000000	0.0000000	15.7545743	-0.0002833	-479.0073744
0.3671875	0.2500000	15.8277786	-0.0000333	-0.0139803	0.0000000	0.0000000	25.1590381	-0.0000026	-451.7244110
0.3671875	0.5000000	15.8291645	-0.0079193	0.0001778	0.0000000	0.0000000	15.7544743	0.0002817	-478.4939260
0.3671875	0.7500000	15.8308944	0.0000175	0.0101914	0.0000000	0.0000000	6.3123253	0.0000004	-601.5759677
0.3671875	1.0000000	15.8291486	0.0079032	0.0000044	0.0000000	0.0000000	15.7545743	-0.0002833	-479.0073744
0.3750000	0.0000000	15.8291453	0.0083264	0.0000224	0.0000000	0.0000000	15.7556594	-0.0002689	-479.4418508
0.3750000	0.2500000	15.8278134	-0.0000325	-0.0145960	0.0000000	0.0000000	24.7315158	-0.0000025	-443.3973869
0.3750000	0.5000000	15.8291677	-0.0083426	0.0001908	0.0000000	0.0000000	15.7555439	0.0002674	-480.7108871
0.3750000	0.7500000	15.8307657	0.0000168	0.0108322	0.0000000	0.0000000	6.7452169	0.0000004	-607.7910933
0.3750000	1.0000000	15.8291453	0.0083264	0.0000224	0.0000000	0.0000000	15.7556594	-0.0002689	-479.4418508
0.3828125	0.0000000	15.8291448	0.0087301	0.0000411	0.0000000	0.0000000	15.7566762	-0.0002535	-478.1871358
0.3828125	0.2500000	15.8278521	-0.0000317	-0.0151714	0.0000000	0.0000000	24.2822036	-0.0000021	-437.3019590
0.3828125	0.5000000	15.8291712	-0.0087461	0.0002032	0.0000000	0.0000000	15.7565572	0.0002524	-482.1733548
0.3828125	0.7500000	15.8306356	0.0000160	0.0114603	0.0000000	0.0000000	7.1997555	0.0000004	-614.8377777
0.3828125	1.0000000	15.8291448	0.0087301	0.0000411	0.0000000	0.0000000	15.7566762	-0.0002535	-478.1871358
0.3906250	0.0000000	15.8291449	0.0091130	0.0000601	0.0000000	0.0000000	15.7576230	-0.0002374	-478.1713620
0.3906250	0.2500000	15.8278944	-0.0000307	-0.0157045	0.0000000	0.0000000	23.8121900	-0.0000016	-431.8116146
0.3906250	0.5000000	15.8291768	-0.0091289	0.0002160	0.0000000	0.0000000	15.7575107	0.0002367	-482.5112020
0.3906250	0.7500000	15.8305045	0.0000151	0.0120721	0.0000000	0.0000000	7.6748269	0.0000004	-621.7429207
0.3906250	1.0000000	15.8291449	0.0091130	0.0000601	0.0000000	0.0000000	15.7576230	-0.0002374	-478.1713620
0.3984375	0.0000000	15.8291468	0.0094743	0.0000823	0.0000000	0.0000000	15.7585412	-0.0002207	-479.1150210
0.3984375	0.2500000	15.8279410	-0.0000295	-0.0161927	0.0000000	0.0000000	23.3226691	-0.0000011	-427.4726343
0.3984375	0.5000000	15.8291837	-0.0094901	0.0002284	0.0000000	0.0000000	15.7584472	0.0002204	-484.6212198
0.3984375	0.7500000	15.8303722	0.0000142	0.0126625	0.0000000	0.0000000	8.1692814	0.0000003	-627.8212379
0.3984375	1.0000000	15.8291468	0.0094743	0.0000823	0.0000000	0.0000000	15.7585412	-0.0002207	-479.1150210
0.4062500	0.0000000	15.8291493	0.0098129	0.0001085	0.0000000	0.0000000	15.7594754	-0.0002035	-480.9870353
0.4062500	0.2500000	15.8279919	-0.0000282	-0.0166400	0.0000000	0.0000000	22.8148976	-0.0000006	-423.9928995
0.4062500	0.5000000	15.8291915	-0.0098284	0.0002450	0.0000000	0.0000000	15.7594114	0.0002034	-484.8424398
0.4062500	0.7500000	15.8302414	0.0000133	0.0132295	0.0000000	0.0000000	8.6819330	0.0000002	-634.8956870
0.4062500	1.0000000	15.8291493	0.0098129	0.0001085	0.0000000	0.0000000	15.7594754	-0.0002035	-480.9870353
0.4140625	0.0000000	15.8291532	0.0101280	0.0001373	0.0000000	0.0000000	15.7604453	-0.0001858	-482.1718130
0.4140625	0.2500000	15.8280489	-0.0000269	-0.0170409	0.0000000	0.0000000	22.2901264	-0.0000003	-420.7407318
0.4140625	0.5000000	15.8291994	-0.0101433	0.0002657	0.0000000	0.0000000	15.7604123	0.0001857	-485.2809359
0.4140625	0.7500000	15.8301118	0.0000123	0.0137670	0.0000000	0.0000000	9.2115410	0.0000001	-641.5347790
0.4140625	1.0000000	15.8291532	0.0101280	0.0001373	0.0000000	0.0000000	15.7604453	-0.0001858	-482.1718130
0.4218750	0.0000000	15.8291584	0.0104189	0.0001667	0.0000000	0.0000000	15.7614199	-0.0001675	-483.5349643
0.4218750	0.2500000	15.8281104	-0.0000254	-0.0173930	0.0000000	0.0000000	21.7495511	-0.0000002	-415.0937379
0.4218750	0.5000000	15.8292077	-0.0104337	0.0002845	0.0000000	0.0000000	15.7614077	0.0001675	-484.9669731
0.4218750	0.7500000	15.8299855	0.0000112	0.0142803	0.0000000	0.0000000	9.7568066	0.0000000	-647.9251239
0.4218750	1.0000000	15.8291584	0.0104189	0.0001667	0.0000000	0.0000000	15.7614199	-0.0001675	-483.5349643
0.4296875	0.0000000	15.8291651	0.0106846	0.0001972	0.0000000	0.0000000	15.7623317	-0.0001487	-481.5978661
0.4296875	0.2500000	15.8281765	-0.0000239	-0.0177008	0.0000000	0.0000000	21.1943569	-0.0000002	-409.5079965
0.4296875	0.5000000	15.8292185	-0.0106990	0.0003041	0.0000000	0.0000000	15.7623194	0.0001486	-482.4522582
0.4296875	0.7500000	15.8298604	0.0000102	0.0147676	0.0000000	0.0000000	10.3163729	0.0000001	-654.9331001
0.4296875	1.0000000	15.8291651	0.0106846	0.0001972	0.0000000	0.0000000	15.7623317	-0.0001487	-481.5978661
0.4375000	0.0000000	15.8291736	0.0109246	0.0002258	0.0000000	0.0000000	15.7631209	-0.0001297	-481.1783011
0.4375000	0.2500000	15.8282489	-0.0000224	-0.0179551	0.0000000	0.0000000	20.6257697	-0.0000006	-400.3760599
0.4375000	0.5000000	15.8292286	-0.0109385	0.0003225	0.0000000	0.0000000	15.7630828	0.0001295	-480.3556951
0.4375000	0.7500000	15.8297391	0.0000091	0.0152231	0.0000000	0.0000000	10.8888549	0.0000002	-661.4740590
0.4375000	1.0000000	15.8291736	0.0109246	0.0002258	0.0000000	0.0000000	15.7631209	-0.0001297	-481.1783011
0.4453125	0.0000000	15.8291835	0.0111381	0.0002564	0.0000000	0.0000000	15.7637649	-0.0001109	-478.2152292
0.4453125	0.2500000	15.8283248	-0.0000208	-0.0181632	0.0000000	0.0000000	20.0451098	-0.0000011	-392.2849633
0.4453125	0.5000000	15.8292414	-0.0111514	0.0003421	0.0000000	0.0000000	15.7636819	0.0001105	-477.4045021
0.4453125	0.7500000	15.8296211	0.0000081	0.0156450	0.0000000	0.0000000	11.4728604	0.0000005	-668.9947361
0.4453125	1.0000000	15.8291835	0.0111381	0.0002564	0.0000000	0.0000000	15.7637649	-0.0001109	-478.2152292
0.4531250	0.0000000	15.8291943	0.0113244	0.0002917	0.0000000	0.0000000	15.7642928	-0.0000923	-477.6129236
0.4531250	0.2500000	15.8284063	-0.0000191	-0.0183266	0.0000000	0.0000000	19.4538259	-0.0000016	-383.1083117
0.4531250	0.5000000	15.8292547	-0.0113374	0.0003683	0.0000000	0.0000000	15.7641486	0.0000917	-476.3818596
0.4531250	0.7500000	15.8295072	0.0000071	0.0160241	0.0000000	0.0000000	12.0669971	0.0000009	-675.4251035
0.4531250	1.0000000	15.8291943	0.0113244	0.0002917	0.0000000	0.0000000	15.7642928	-0.0000923	-477.6129236
0.4609375	0.0000000	15.8292068	0.0114832	0.0003234	0.0000000	0.0000000	15.7647493	-0.0000739	-475.9032308
0.4609375	0.2500000	15.8284937	-0.0000175	-0.0184390	0.0000000	0.0000000	18.8534201	-0.0000020	-375.2970984
0.4609375	0.5000000	15.8292679	-0.0114957	0.0003897	0.0000000	0.0000000	15.7645503	0.0000733	-476.6849692
0.4609375	0.7500000	15.8293981	0.0000060	0.0163708	0.0000000	0.0000000	12.6698644	0.0000012	-681.2805719
0.4609375	1.0000000	15.8292068	0.0114832	0.0003234	0.0000000	0.0000000	15.7647493	-0.0000739	-475.9032308
0.4687500	0.0000000	15.8292210	0.0116140	0.0003509	0.0000000	0.0000000	15.7651678	-0.0000558	-475.9099999
0.4687500	0.2500000	15.8285855	-0.0000160	-0.0185011	0.0000000	0.0000000	18.2453880	-0.0000023	-368.9236033
0.4687500	0.5000000	15.8292830	-0.0116258	0.0004076	0.0000000	0.0000000	15.7649305	0.0000551	-476.5595733
0.4687500	0.7500000	15.8292924	0.0000048	0.0166811	0.0000000	0.0000000	13.2800224	0.0000015	-684.8574734
0.4687500	1.0000000	15.8292210	0.0116140	0.0003509	0.0000000	0.0000000	15.7651678	-0.0000558	-475.9099999
0.4765625	0.0000000	15.8292357	0.0117162	0.0003763	0.0000000	0.0000000	15.7655405	-0.0000376	-474.3319921
0.4765625	0.2500000	15.8286824	-0.0000144	-0.0185144	0.0000000	0.0000000	17.6311968	-0.0000023	-362.2318632
0.4765625	0.5000000	15.8292978	-0.0117277	0.0004262	0.0000000	0.0000000	15.7652903	0.0000369	-478.0502814
0.4765625	0.7500000	15.8291923	0.0000037	0.0169486	0.0000000	0.0000000	13.8959838	0.0000017	-687.1316106
0.4765625	1.0000000	15.8292357	0.0117162	0.0003763	0.0000000	0.0000000	15.7655405	-0.0000376	-474.3319921
0.4843750	0.0000000	15.8292509	0.0117898	0.0004033	0.0000000	0.0000000	15.7658277	-0.0000194	-473.9745714
0.4843750	0.2500000	15.8287844	-0.0000129	-0.0184802	0.0000000	0.0000000	17.0122759	-0.0000020	-356.8766178
0.4843750	0.5000000	15.8293130	-0.0118008	0.0004429	0.0000000	0.0000000	15.7655935	0.0000187	-478.0579774
0.4843750	0.7500000	15.8290965	0.0000026	0.0171695	0.0000000	0.0000000	14.5162120	0.0000016	-685.4767859
0.4843750	1.0000000	15.8292509	0.0117898	0.0004033	0.0000000	0.0000000	15.7658277	-0.0000194	-473.9745714
0.4921875	0.0000000	15.8292663	0.0118343	0.0004300	0.0000000	0.0000000	15.7659826	-0.0000008	-471.8490496
0.4921875	0.2500000	15.8288911	-0.0000113	-0.0184016	0.0000000	0.0000000	16.3900705	-0.0000015	-351.1652612
0.4921875	0.5000000	15.8293289	-0.0118452	0.0004604	0.0000000	0.0000000	15.7657903	0.0000003	-478.0216976
0.4921875	0.7500000	15.8290055	0.0000015	0.0173423	0.0000000	0.0000000	15.1391512	0.0000013	-684.3161623
0.4921875	1.0000000	15.8292663	0.0118343	0.0004300	0.0000000	0.0000000	15.7659826	-0.0000008	-471.8490496
0.5000000	0.0000000	15.8292825	0.0118498	0.0004527	0.0000000	0.0000000	15.7659849	0.0000182	-470.9044068
0.5000000	0.2500000	15.8290023	-0.0000099	-0.0182793	0.0000000	0.0000000	15.7660641	-0.0000010	-347.0272314
0.5000000	0.5000000	15.8293442	-0.0118604	0.0004770	0.0000000	0.0000000	15.7658460	-0.0000186	-476.7223246
0.5000000	0.7500000	15.8289189	0.0000004	0.0174715	0.0000000	0.0000000	15.7632632	0.0000009	-680.7803336
0.5000000	1.0000000	15.8292825	0.0118498	0.0004527	0.0000000	0.0000000	15.7659849	0.0000182	-470.9044068
0.5078125	0.0000000	15.8292988	0.0118361	0.0004698	0.0000000	0.0000000	15.7658479	0.0000376	-471.1947758
0.5078125	0.2500000	15.8291179	-0.0000086	-0.0181086	0.0000000	0.0000000	15.1417725	-0.0000005	-341.5306557
0.5078125	0.5000000	15.8293592	-0.0118465	0.0004868	0.0000000	0.0000000	15.7657677	-0.0000379	-476.8505786
0.5078125	0.7500000	15.8288365	-0.0000008	0.0175566	0.0000000	0.0000000	16.3870455	0.0000003	-677.7077673
0.5078125	1.0000000	15.8292988	0.0118361	0.0004698	0.0000000	0.0000000	15.7658479	0.0000376	-471.1947758
0.5156250	0.0000000	15.8293143	0.0117932	0.0004877	0.0000000	0.0000000	15.7656081	0.0000572	-470.4497355
0.5156250	0.2500000	15.8292380	-0.0000074	-0.0178979	0.0000000	0.0000000	14.5187330	-0.0000000	-338.4838908
0.5156250	0.5000000	15.8293739	-0.0118035	0.0004964	0.0000000	0.0000000	15.7655835	-0.0000576	-475.1202621
0.5156250	0.7500000	15.8287589	-0.0000019	0.0175906	0.0000000	0.0000000	17.0090271	-0.0000003	-676.2127836
0.5156250	1.0000000	15.8293143	0.0117932	0.0004877	0.0000000	0.0000000	15.7656081	0.0000572	-470.4497355
0.5234375	0.0000000	15.8293294	0.0117214	0.0005028	0.0000000	0.0000000	15.7652958	0.0000771	-472.8057612
0.5234375	0.2500000	15.8293624	-0.0000062	-0.0176459	0.0000000	0.0000000	13.8984729	0.0000003	-332.5886363
0.5234375	0.5000000	15.8293885	-0.0117318	0.0005043	0.0000000	0.0000000	15.7653160	-0.0000773	-475.2470061
0.5234375	0.7500000	15.8286842	-0.0000031	0.0175743	0.0000000	0.0000000	17.6277541	-0.0000007	-674.7102066
0.5234375	1.0000000	15.8293294	0.0117214	0.0005028	0.0000000	0.0000000	15.7652958	0.0000771	-472.8057612
0.5312500	0.0000000	15.8293450	0.0116208	0.0005117	0.0000000	0.0000000	15.7649252	0.0000967	-474.1421733
0.5312500	0.2500000	15.8294882	-0.0000051	-0.0173506	0.0000000	0.0000000	13.2824826	0.0000005	-327.1896951
0.5312500	0.5000000	15.8294021	-0.0116313	0.0005087	0.0000000	0.0000000	15.7649759	-0.0000968	-474.6543200
0.5312500	0.7500000	15.8286148	-0.0000043	0.0175096	0.0000000	0.0000000	18.2417618	-0.0000010	-673.5409681
0.5312500	1.0000000	15.8293450	0.0116208	0.0005117	0.0000000	0.0000000	15.7649252	0.0000967	-474.1421733
0.5390625	0.0000000	15.8293582	0.0114916	0.0005235	0.0000000	0.0000000	15.7644817	0.0001157	-475.8936571
0.5390625	0.2500000	15.8296192	-0.0000042	-0.0170226	0.0000000	0.0000000	12.6722290	0.0000006	-319.9139652
0.5390625	0.5000000	15.8294133	-0.0115023	0.0005125	0.0000000	0.0000000	15.7645475	-0.0001158	-473.8352501
0.5390625	0.7500000	15.8285502	-0.0000055	0.0173918	0.0000000	0.0000000	18.8495924	-0.0000012	-674.5566079
0.5390625	1.0000000	15.8293582	0.0114916	0.0005235	0.0000000	0.0000000	15.7644817	0.0001157	-475.8936571
0.5468750	0.0000000	15.8293700	0.0113343	0.0005326	0.0000000	0.0000000	15.7639588	0.0001342	-477.3985255
0.5468750	0.2500000	15.8297526	-0.0000033	-0.0166621	0.0000000	0.0000000	12.0691703	0.0000005	-312.8566941
0.5468750	0.5000000	15.8294249	-0.0113454	0.0005180	0.0000000	0.0000000	15.7640139	-0.0001340	-473.7570164
0.5468750	0.7500000	15.8284886	-0.0000068	0.0172231	0.0000000	0.0000000	19.4497766	-0.0000010	-673.5574926
0.5468750	1.0000000	15.8293700	0.0113343	0.0005326	0.0000000	0.0000000	15.7639588	0.0001342	-477.3985255
0.5546875	0.0000000	15.8293815	0.0111493	0.0005354	0.0000000	0.0000000	15.7633473	0.0001519	-479.5125497
0.5546875	0.2500000	15.8298886	-0.0000025	-0.0162628	0.0000000	0.0000000	11.4747715	0.0000003	-305.3291178
0.5546875	0.5000000	15.8294336	-0.0111607	0.0005176	0.0000000	0.0000000	15.7633733	-0.0001515	-473.6821450
0.5546875	0.7500000	15.8284317	-0.0000081	0.0170077	0.0000000	0.0000000	20.0408699	-0.0000006	-674.6172496
0.5546875	1.0000000	15.8293815	0.0111493	0.0005354	0.0000000	0.0000000	15.7633473	0.0001519	-479.5125497
0.5625000	0.0000000	15.8293919	0.0109372	0.0005357	0.0000000	0.0000000	15.7626588	0.0001691	-480.8406888
0.5625000	0.2500000	15.8300253	-0.0000018	-0.0158292	0.0000000	0.0000000	10.8904917	0.0000001	-300.0987525
0.5625000	0.5000000	15.8294425	-0.0109491	0.0005131	0.0000000	0.0000000	15.7626380	-0.0001685	-474.5437556
0.5625000	0.7500000	15.8283773	-0.0000094	0.0167423	0.0000000	0.0000000	20.6214575	0.0000000	-673.1096626
0.5625000	1.0000000	15.8293919	0.0109372	0.0005357	0.0000000	0.0000000	15.7626588	0.0001691	-480.8406888
0.5703125	0.0000000	15.8294008	0.0106984	0.0005348	0.0000000	0.0000000	15.7619039	0.0001860	-482.9990574
0.5703125	0.2500000	15.8301634	-0.0000010	-0.0153674	0.0000000	0.0000000	10.3177739	-0.0000002	-295.7557320
0.5703125	0.5000000	15.8294507	-0.0107108	0.0005087	0.0000000	0.0000000	15.7618298	-0.0001852	-475.8112565
0.5703125	0.7500000	15.8283266	-0.0000107	0.0164256	0.0000000	0.0000000	21.1901389	0.0000007	-671.6815137
0.5703125	1.0000000	15.8294008	0.0106984	0.0005348	0.0000000	0.0000000	15.7619039	0.0001860	-482.9990574
0.5781250	0.0000000	15.8294072	0.0104337	0.0005380	0.0000000	0.0000000	15.7610835	0.0002028	-482.9464303
0.5781250	0.2500000	15.8303037	-0.0000002	-0.0148817	0.0000000	0.0000000	9.7580252	-0.0000004	-295.0053434
0.5781250	0.5000000	15.8294564	-0.0104468	0.0005054	0.0000000	0.0000000	15.7609639	-0.0002018	-476.4491899
0.5781250	0.7500000	15.8282800	-0.0000120	0.0160556	0.0000000	0.0000000	21.7455531	0.0000014	-668.4276982
0.5781250	1.0000000	15.8294072	0.0104337	0.0005380	0.0000000	0.0000000	15.7610835	0.0002028	-482.9464303
0.5859375	0.0000000	15.8294139	0.0101438	0.0005353	0.0000000	0.0000000	15.7602019	0.0002195	-483.8802761
0.5859375	0.2500000	15.8304428	0.0000006	-0.0143669	0.0000000	0.0000000	9.2126103	-0.0000005	-293.5695818
0.5859375	0.5000000	15.8294614	-0.0101575	0.0004961	0.0000000	0.0000000	15.7600515	-0.0002184	-477.7171412
0.5859375	0.7500000	15.8282360	-0.0000134	0.0156429	0.0000000	0.0000000	22.2863437	0.0000019	-664.0500343
0.5859375	1.0000000	15.8294139	0.0101438	0.0005353	0.0000000	0.0000000	15.7602019	0.0002195	-483.8802761
0.5937500	0.0000000	15.8294196	0.0098296	0.0005309	0.0000000	0.0000000	15.7592589	0.0002359	-481.8468652
0.5937500	0.2500000	15.8305814	0.0000013	-0.0138283	0.0000000	0.0000000	8.6828593	-0.0000005	-295.6140066
0.5937500	0.5000000	15.8294660	-0.0098438	0.0004848	0.0000000	0.0000000	15.7591059	-0.0002346	-477.3677395
0.5937500	0.7500000	15.8281950	-0.0000147	0.0151833	0.0000000	0.0000000	22.8112177	0.0000022	-658.7391186
0.5937500	1.0000000	15.8294196	0.0098296	0.0005309	0.0000000	0.0000000	15.7592589	0.0002359	-481.8468652
0.6015625	0.0000000	15.8294241	0.0094918	0.0005293	0.0000000	0.0000000	15.7582702	0.0002518	-480.7695865
0.6015625	0.2500000	15.8307191	0.0000023	-0.0132708	0.0000000	0.0000000	8.1700651	-0.0000004	-296.2667301
0.6015625	0.5000000	15.8294690	-0.0095065	0.0004743	0.0000000	0.0000000	15.7581363	-0.0002507	-476.6722440
0.6015625	0.7500000	15.8281568	-0.0000161	0.0146733	0.0000000	0.0000000	23.3189364	0.0000022	-653.6159775
0.6015625	1.0000000	15.8294241	0.0094918	0.0005293	0.0000000	0.0000000	15.7582702	0.0002518	-480.7695865
0.6093750	0.0000000	15.8294286	0.0091314	0.0005222	0.0000000	0.0000000	15.7572561	0.0002673	-477.2808809
0.6093750	0.2500000	15.8308544	0.0000030	-0.0126886	0.0000000	0.0000000	7.6754843	-0.0000003	-299.4245151
0.6093750	0.5000000	15.8294707	-0.0091465	0.0004586	0.0000000	0.0000000	15.7571617	-0.0002664	-475.4733021
0.6093750	0.7500000	15.8281220	-0.0000173	0.0141210	0.0000000	0.0000000	23.8083110	0.0000018	-648.7699913
0.6093750	1.0000000	15.8294286	0.0091314	0.0005222	0.0000000	0.0000000	15.7572561	0.0002673	-477.2808809
0.6171875	0.0000000	15.8294305	0.0087492	0.0005158	0.0000000	0.0000000	15.7562372	0.0002824	-477.1477710
0.6171875	0.2500000	15.8309884	0.0000039	-0.0120907	0.0000000	0.0000000	7.2003252	-0.0000002	-299.6560633
0.6171875	0.5000000	15.8294716	-0.0087647	0.0004437	0.0000000	0.0000000	15.7561891	-0.0002818	-475.0161531
0.6171875	0.7500000	15.8280894	-0.0000187	0.0135229	0.0000000	0.0000000	24.2782026	0.0000013	-643.2442922
0.6171875	1.0000000	15.8294305	0.0087492	0.0005158	0.0000000	0.0000000	15.7562372	0.0002824	-477.1477710
0.6250000	0.0000000	15.8294326	0.0083466	0.0005012	0.0000000	0.0000000	15.7552219	0.0002971	-473.7946439
0.6250000	0.2500000	15.8311188	0.0000047	-0.0114722	0.0000000	0.0000000	6.7457379	-0.0000001	-302.6251789
0.6250000	0.5000000	15.8294708	-0.0083623	0.0004255	0.0000000	0.0000000	15.7552150	-0.0002967	-472.8354327
0.6250000	0.7500000	15.8280592	-0.0000200	0.0128858	0.0000000	0.0000000	24.7274933	0.0000008	-640.3608228
0.6250000	1.0000000	15.8294326	0.0083466	0.0005012	0.0000000	0.0000000	15.7552219	0.0002971	-473.7946439
0.6328125	0.0000000	15.8294335	0.0079240	0.0004891	0.0000000	0.0000000	15.7542087	0.0003114	-473.6971195
0.6328125	0.2500000	15.8312446	0.0000056	-0.0108435	0.0000000	0.0000000	6.3128228	-0.0000000	-302.7897352
0.6328125	0.5000000	15.8294696	-0.0079400	0.0004079	0.0000000	0.0000000	15.7542234	-0.0003111	-472.2271980
0.6328125	0.7500000	15.8280311	-0.0000211	0.0122071	0.0000000	0.0000000	25.1551132	0.0000005	-636.3535636
0.6328125	1.0000000	15.8294335	0.0079240	0.0004891	0.0000000	0.0000000	15.7542087	0.0003114	-473.6971195
0.6406250	0.0000000	15.8294339	0.0074830	0.0004769	0.0000000	0.0000000	15.7531906	0.0003248	-472.2267144
0.6406250	0.2500000	15.8313662	0.0000065	-0.0102024	0.0000000	0.0000000	5.9026274	-0.0000000	-303.9843218
0.6406250	0.5000000	15.8294665	-0.0074991	0.0003887	0.0000000	0.0000000	15.7532087	-0.0003246	-471.6453089
0.6406250	0.7500000	15.8280033	-0.0000222	0.0114887	0.0000000	0.0000000	25.5600449	0.0000004	-633.3076307
0.6406250	1.0000000	15.8294339	0.0074830	0.0004769	0.0000000	0.0000000	15.7531906	0.0003248	-472.2267144
0.6484375	0.0000000	15.8294332	0.0070244	0.0004617	0.0000000	0.0000000	15.7521808	0.0003370	-472.1941515
0.6484375	0.2500000	15.8314815	0.0000074	-0.0095468	0.0000000	0.0000000	5.5161563	-0.0000000	-304.6203367
0.6484375	0.5000000	15.8294621	-0.0070406	0.0003639	0.0000000	0.0000000	15.7521883	-0.0003367	-471.7028624
0.6484375	0.7500000	15.8279772	-0.0000232	0.0107371	0.0000000	0.0000000	25.9413714	0.0000006	-630.2451559
0.6484375	1.0000000	15.8294332	0.0070244	0.0004617	0.0000000	0.0000000	15.7521808	0.0003370	-472.1941515
0.6562500	0.0000000	15.8294290	0.0065494	0.0004476	0.0000000	0.0000000	15.7512151	0.0003481	-471.0077636
0.6562500	0.2500000	15.8315906	0.0000083	-0.0088826	0.0000000	0.0000000	5.1543677	-0.0000001	-308.8109117
0.6562500	0.5000000	15.8294568	-0.0065656	0.0003396	0.0000000	0.0000000	15.7511934	-0.0003473	-470.8139050
0.6562500	0.7500000	15.8279536	-0.0000242	0.0099474	0.0000000	0.0000000	26.2982359	0.0000011	-627.4229746
0.6562500	1.0000000	15.8294290	0.0065494	0.0004476	0.0000000	0.0000000	15.7512151	0.0003481	-471.0077636
0.6640625	0.0000000	15.8294253	0.0060590	0.0004275	0.0000000	0.0000000	15.7503182	0.0003579	-471.0222915
0.6640625	0.2500000	15.8316923	0.0000093	-0.0082078	0.0000000	0.0000000	4.8181613	-0.0000001	-312.4034716
0.6640625	0.5000000	15.8294496	-0.0060753	0.0003143	0.0000000	0.0000000	15.7502700	-0.0003569	-472.2965796
0.6640625	0.7500000	15.8279311	-0.0000249	0.0091291	0.0000000	0.0000000	26.6298336	0.0000016	-622.6613385
0.6640625	1.0000000	15.8294253	0.0060590	0.0004275	0.0000000	0.0000000	15.7503182	0.0003579	-471.0222915
0.6718750	0.0000000	15.8294210	0.0055547	0.0004064	0.0000000	0.0000000	15.7495036	0.0003664	-470.0718122
0.6718750	0.2500000	15.8317852	0.0000101	-0.0075259	0.0000000	0.0000000	4.5083687	-0.0000002	-320.8087876
0.6718750	0.5000000	15.8294417	-0.0055708	0.0002870	0.0000000	0.0000000	15.7494349	-0.0003655	-471.5790807
0.6718750	0.7500000	15.8279079	-0.0000258	0.0082834	0.0000000	0.0000000	26.9353789	0.0000019	-617.6195685
0.6718750	1.0000000	15.8294210	0.0055547	0.0004064	0.0000000	0.0000000	15.7495036	0.0003664	-470.0718122
0.6796875	0.0000000	15.8294138	0.0050374	0.0003850	0.0000000	0.0000000	15.7487506	0.0003741	-468.4913358
0.6796875	0.2500000	15.8318707	0.0000110	-0.0068384	0.0000000	0.0000000	4.2257470	-0.0000002	-328.5981502
0.6796875	0.5000000	15.8294312	-0.0050534	0.0002610	0.0000000	0.0000000	15.7486750	-0.0003735	-472.5885921
0.6796875	0.7500000	15.8278860	-0.0000264	0.0074094	0.0000000	0.0000000	27.2140778	0.0000017	-610.9710057
0.6796875	1.0000000	15.8294138	0.0050374	0.0003850	0.0000000	0.0000000	15.7487506	0.0003741	-468.4913358
0.6875000	0.0000000	15.8294060	0.0045085	0.0003602	0.0000000	0.0000000	15.7480229	0.0003811	-468.0680892
0.6875000	0.2500000	15.8319464	0.0000116	-0.0061429	0.0000000	0.0000000	3.9709812	-0.0000002	-339.1232251
0.6875000	0.5000000	15.8294191	-0.0045242	0.0002318	0.0000000	0.0000000	15.7479610	-0.0003809	-471.9822825
0.6875000	0.7500000	15.8278652	-0.0000270	0.0065150	0.0000000	0.0000000	27.4651745	0.0000012	-603.3077997
0.6875000	1.0000000	15.8294060	0.0045085	0.0003602	0.0000000	0.0000000	15.7480229	0.0003811	-468.0680892
0.6953125	0.0000000	15.8293960	0.0039691	0.0003346	0.0000000	0.0000000	15.7473016	0.0003874	-466.7075158
0.6953125	0.2500000	15.8320119	0.0000122	-0.0054415	0.0000000	0.0000000	3.7446896	-0.0000001	-349.7005691
0.6953125	0.5000000	15.8294058	-0.0039846	0.0002032	0.0000000	0.0000000	15.7472698	-0.0003877	-471.1265270
0.6953125	0.7500000	15.8278461	-0.0000275	0.0055987	0.0000000	0.0000000	27.6880209	0.0000004	-596.5364356
0.6953125	1.0000000	15.8293960	0.0039691	0.0003346	0.0000000	0.0000000	15.7473016	0.0003874	-466.7075158
0.7031250	0.0000000	15.8293854	0.0034204	0.0003108	0.0000000	0.0000000	15.7465969	0.0003933	-468.2443712
0.7031250	0.2500000	15.8320656	0.0000128	-0.0047359	0.0000000	0.0000000	3.5474271	-0.0000000	-360.6383798
0.7031250	0.5000000	15.8293927	-0.0034358	0.0001750	0.0000000	0.0000000	15.7466105	-0.0003942	-471.8334547
0.7031250	0.7500000	15.8278262	-0.0000279	0.0046630	0.0000000	0.0000000	27.8820937	-0.0000007	-588.2034404
0.7031250	1.0000000	15.8293854	0.0034204	0.0003108	0.0000000	0.0000000	15.7465969	0.0003933	-468.2443712
0.7109375	0.0000000	15.8293727	0.0028636	0.0002848	0.0000000	0.0000000	15.7459600	0.0003989	-469.6884550
0.7109375	0.2500000	15.8321099	0.0000132	-0.0040262	0.0000000	0.0000000	3.3796848	0.0000000	-371.8970093
0.7109375	0.5000000	15.8293772	-0.0028789	0.0001495	0.0000000	0.0000000	15.7460234	-0.0004000	-471.9805691
0.7109375	0.7500000	15.8278071	-0.0000281	0.0037123	0.0000000	0.0000000	28.0470142	-0.0000015	-582.1392861
0.7109375	1.0000000	15.8293727	0.0028636	0.0002848	0.0000000	0.0000000	15.7459600	0.0003989	-469.6884550
0.7187500	0.0000000	15.8293587	0.0023004	0.0002617	0.0000000	0.0000000	15.7454518	0.0004038	-472.4082173
0.7187500	0.2500000	15.8321436	0.0000135	-0.0033160	0.0000000	0.0000000	3.2418805	0.0000001	-383.0769437
0.7187500	0.5000000	15.8293604	-0.0023154	0.0001276	0.0000000	0.0000000	15.7455522	-0.0004049	-472.9873689
0.7187500	0.7500000	15.8277890	-0.0000283	0.0027475	0.0000000	0.0000000	28.1825066	-0.0000020	-576.1848526
0.7187500	1.0000000	15.8293587	0.0023004	0.0002617	0.0000000	0.0000000	15.7454518	0.0004038	-472.4082173
0.7265625	0.0000000	15.8293453	0.0017316	0.0002384	0.0000000	0.0000000	15.7451106	0.0004078	-475.4881006
0.7265625	0.2500000	15.8321647	0.0000138	-0.0025986	0.0000000	0.0000000	3.1343555	0.0000001	-392.4812333
0.7265625	0.5000000	15.8293431	-0.0017466	0.0001017	0.0000000	0.0000000	15.7452255	-0.0004089	-473.9216005
0.7265625	0.7500000	15.8277714	-0.0000284	0.0017762	0.0000000	0.0000000	28.2883066	-0.0000020	-571.6217329
0.7265625	1.0000000	15.8293453	0.0017316	0.0002384	0.0000000	0.0000000	15.7451106	0.0004078	-475.4881006
0.7343750	0.0000000	15.8293306	0.0011589	0.0002214	0.0000000	0.0000000	15.7449288	0.0004106	-476.8894785
0.7343750	0.2500000	15.8321738	0.0000138	-0.0018822	0.0000000	0.0000000	3.0573694	0.0000001	-402.1108023
0.7343750	0.5000000	15.8293265	-0.0011737	0.0000819	0.0000000	0.0000000	15.7450280	-0.0004112	-475.4597126
0.7343750	0.7500000	15.8277546	-0.0000284	0.0007935	0.0000000	0.0000000	28.3641771	-0.0000014	-566.5304695
0.7343750	1.0000000	15.8293306	0.0011589	0.0002214	0.0000000	0.0000000	15.7449288	0.0004106	-476.8894785
0.7421875	0.0000000	15.8293149	0.0005834	0.0002011	0.0000000	0.0000000	15.7448759	0.0004117	-479.3433007
0.7421875	0.2500000	15.8321717	0.0000137	-0.0011610	0.0000000	0.0000000	3.0111033	0.0000001	-410.3918439
0.7421875	0.5000000	15.8293096	-0.0005980	0.0000638	0.0000000	0.0000000	15.7449268	-0.0004115	-475.7456462
0.7421875	0.7500000	15.8277391	-0.0000284	-0.0001902	0.0000000	0.0000000	28.4098877	-0.0000003	-561.8754884
0.7421875	1.0000000	15.8293149	0.0005834	0.0002011	0.0000000	0.0000000	15.7448759	0.0004117	-479.3433007
0.7500000	0.0000000	15.8292999	0.0000063	0.0001777	0.0000000	0.0000000	15.7449058	0.0004109	-478.0680939
0.7500000	0.2500000	15.8321589	0.0000136	-0.0004339	0.0000000	0.0000000	2.9956637	0.0000000	-422.5078679
0.7500000	0.5000000	15.8292922	-0.0000209	0.0000476	0.0000000	0.0000000	15.7448900	-0.0004100	-475.8015669
0.7500000	0.7500000	15.8277240	-0.0000282	-0.0011733	0.0000000	0.0000000	28.4252748	0.0000009	-557.2491508
0.7500000	1.0000000	15.8292999	0.0000063	0.0001777	0.0000000	0.0000000	15.7449058	0.0004109	-478.0680939
0.7578125	0.0000000	15.8292857	-0.0005708	0.0001582	0.0000000	0.0000000	15.7449893	0.0004083	-478.3360059
0.7578125	0.2500000	15.8321341	0.0000134	0.0002919	0.0000000	0.0000000	3.0110860	-0.0000001	-434.0376549
0.7578125	0.5000000	15.8292760	0.0005562	0.0000328	0.0000000	0.0000000	15.7449098	-0.0004072	-477.1831517
0.7578125	0.7500000	15.8277097	-0.0000280	-0.0021508	0.0000000	0.0000000	28.4102829	0.0000018	-552.1547549
0.7578125	1.0000000	15.8292857	-0.0005708	0.0001582	0.0000000	0.0000000	15.7449893	0.0004083	-478.3360059
0.7656250	0.0000000	15.8292721	-0.0011468	0.0001419	0.0000000	0.0000000	15.7451406	0.0004048	-478.3290196
0.7656250	0.2500000	15.8320989	0.0000131	0.0010211	0.0000000	0.0000000	3.0573370	-0.0000001	-449.0835477
0.7656250	0.5000000	15.8292595	0.0011320	0.0000168	0.0000000	0.0000000	15.7450147	-0.0004033	-479.3586395
0.7656250	0.7500000	15.8276965	-0.0000277	-0.0031226	0.0000000	0.0000000	28.3649680	0.0000025	-545.8712826
0.7656250	1.0000000	15.8292721	-0.0011468	0.0001419	0.0000000	0.0000000	15.7451406	0.0004048	-478.3290196
0.7734375	0.0000000	15.8292585	-0.0017201	0.0001315	0.0000000	0.0000000	15.7453804	0.0004005	-478.0420240
0.7734375	0.2500000	15.8320524	0.0000127	0.0017471	0.0000000	0.0000000	3.1343109	-0.0000001	-465.5618902
0.7734375	0.5000000	15.8292450	0.0017052	0.0000068	0.0000000	0.0000000	15.7452474	-0.0003989	-481.1843219
0.7734375	0.7500000	15.8276854	-0.0000273	-0.0040902	0.0000000	0.0000000	28.2894742	0.0000026	-539.8848721
0.7734375	1.0000000	15.8292585	-0.0017201	0.0001315	0.0000000	0.0000000	15.7453804	0.0004005	-478.0420240
0.7812500	0.0000000	15.8292443	-0.0022896	0.0001180	0.0000000	0.0000000	15.7457321	0.0003955	-478.4278434
0.7812500	0.2500000	15.8319977	0.0000122	0.0024744	0.0000000	0.0000000	3.2418253	-0.0000001	-481.4817941
0.7812500	0.5000000	15.8292291	0.0022746	-0.0000001	0.0000000	0.0000000	15.7456292	-0.0003942	-483.8668024
0.7812500	0.7500000	15.8276792	-0.0000268	-0.0050419	0.0000000	0.0000000	28.1839965	0.0000020	-532.2342287
0.7812500	1.0000000	15.8292443	-0.0022896	0.0001180	0.0000000	0.0000000	15.7457321	0.0003955	-478.4278434
0.7890625	0.0000000	15.8292317	-0.0028538	0.0001067	0.0000000	0.0000000	15.7461916	0.0003898	-476.6495465
0.7890625	0.2500000	15.8319327	0.0000115	0.0032043	0.0000000	0.0000000	3.3796182	-0.0000000	-497.6565118
0.7890625	0.5000000	15.8292154	0.0028387	-0.0000071	0.0000000	0.0000000	15.7461479	-0.0003891	-483.9986145
0.7890625	0.7500000	15.8276734	-0.0000264	-0.0059794	0.0000000	0.0000000	28.0487440	0.0000009	-524.8749436
0.7890625	1.0000000	15.8292317	-0.0028538	0.0001067	0.0000000	0.0000000	15.7461916	0.0003898	-476.6495465
0.7968750	0.0000000	15.8292209	-0.0034116	0.0000996	0.0000000	0.0000000	15.7467311	0.0003831	-476.1257444
0.7968750	0.2500000	15.8318584	0.0000110	0.0039302	0.0000000	0.0000000	3.5473470	0.0000001	-509.7913956
0.7968750	0.5000000	15.8292030	0.0033962	-0.0000107	0.0000000	0.0000000	15.7467633	-0.0003832	-484.3231559
0.7968750	0.7500000	15.8276696	-0.0000258	-0.0069016	0.0000000	0.0000000	27.8839613	-0.0000006	-516.1885935
0.7968750	1.0000000	15.8292209	-0.0034116	0.0000996	0.0000000	0.0000000	15.7467311	0.0003831	-476.1257444
0.8046875	0.0000000	15.8292106	-0.0039614	0.0000940	0.0000000	0.0000000	15.7473215	0.0003755	-473.5165267
0.8046875	0.2500000	15.8317765	0.0000102	0.0046529	0.0000000	0.0000000	3.7445920	0.0000002	-521.5596736
0.8046875	0.5000000	15.8291918	0.0039460	-0.0000100	0.0000000	0.0000000	15.7474220	-0.0003764	-482.0338657
0.8046875	0.7500000	15.8276694	-0.0000252	-0.0078040	0.0000000	0.0000000	27.6899486	-0.0000021	-508.2626069
0.8046875	1.0000000	15.8292106	-0.0039614	0.0000940	0.0000000	0.0000000	15.7473215	0.0003755	-473.5165267
0.8125000	0.0000000	15.8292023	-0.0045021	0.0000901	0.0000000	0.0000000	15.7479529	0.0003667	-472.9268873
0.8125000	0.2500000	15.8316856	0.0000094	0.0053713	0.0000000	0.0000000	3.9708617	0.0000003	-530.9193305
0.8125000	0.5000000	15.8291826	0.0044867	-0.0000055	0.0000000	0.0000000	15.7480986	-0.0003685	-479.9305221
0.8125000	0.7500000	15.8276712	-0.0000246	-0.0086839	0.0000000	0.0000000	27.4671770	-0.0000033	-500.8203615
0.8125000	1.0000000	15.8292023	-0.0045021	0.0000901	0.0000000	0.0000000	15.7479529	0.0003667	-472.9268873
0.8203125	0.0000000	15.8291951	-0.0050323	0.0000903	0.0000000	0.0000000	15.7486391	0.0003570	-473.2296510
0.8203125	0.2500000	15.8315881	0.0000087	0.0060858	0.0000000	0.0000000	4.2255981	0.0000003	-539.6234653
0.8203125	0.5000000	15.8291747	0.0050169	-0.0000006	0.0000000	0.0000000	15.7488065	-0.0003595	-477.9731196
0.8203125	0.7500000	15.8276760	-0.0000239	-0.0095408	0.0000000	0.0000000	27.2162321	-0.0000042	-493.9546685
0.8203125	1.0000000	15.8291951	-0.0050323	0.0000903	0.0000000	0.0000000	15.7486391	0.0003570	-473.2296510
0.8281250	0.0000000	15.8291881	-0.0055509	0.0000908	0.0000000	0.0000000	15.7494150	0.0003465	-475.1556364
0.8281250	0.2500000	15.8314853	0.0000081	0.0067967	0.0000000	0.0000000	4.5081794	0.0000003	-547.8583066
0.8281250	0.5000000	15.8291683	0.0055353	0.0000048	0.0000000	0.0000000	15.7495815	-0.0003494	-477.3409040
0.8281250	0.7500000	15.8276847	-0.0000232	-0.0103694	0.0000000	0.0000000	26.9378077	-0.0000044	-488.9270584
0.8281250	1.0000000	15.8291881	-0.0055509	0.0000908	0.0000000	0.0000000	15.7494150	0.0003465	-475.1556364
0.8359375	0.0000000	15.8291817	-0.0060564	0.0000926	0.0000000	0.0000000	15.7503037	0.0003352	-477.6579629
0.8359375	0.2500000	15.8313762	0.0000073	0.0075013	0.0000000	0.0000000	4.8179170	0.0000003	-557.0443585
0.8359375	0.5000000	15.8291632	0.0060411	0.0000111	0.0000000	0.0000000	15.7504513	-0.0003380	-475.3488575
0.8359375	0.7500000	15.8276976	-0.0000226	-0.0111674	0.0000000	0.0000000	26.6326354	-0.0000041	-484.4292809
0.8359375	1.0000000	15.8291817	-0.0060564	0.0000926	0.0000000	0.0000000	15.7503037	0.0003352	-477.6579629
0.8437500	0.0000000	15.8291785	-0.0065479	0.0000992	0.0000000	0.0000000	15.7513030	0.0003230	-480.6534460
0.8437500	0.2500000	15.8312612	0.0000068	0.0081927	0.0000000	0.0000000	5.1540532	0.0000003	-565.8773647
0.8437500	0.5000000	15.8291603	0.0065326	0.0000232	0.0000000	0.0000000	15.7514199	-0.0003253	-474.9827482
0.8437500	0.7500000	15.8277125	-0.0000220	-0.0119355	0.0000000	0.0000000	26.3014378	-0.0000034	-480.4596612
0.8437500	1.0000000	15.8291785	-0.0065479	0.0000992	0.0000000	0.0000000	15.7513030	0.0003230	-480.6534460
0.8515625	0.0000000	15.8291753	-0.0070239	0.0001054	0.0000000	0.0000000	15.7523804	0.0003097	-483.4983214
0.8515625	0.2500000	15.8311425	0.0000061	0.0088771	0.0000000	0.0000000	5.5157616	0.0000002	-574.2735961
0.8515625	0.5000000	15.8291576	0.0070089	0.0000338	0.0000000	0.0000000	15.7524524	-0.0003114	-474.1264702
0.8515625	0.7500000	15.8277321	-0.0000213	-0.0126684	0.0000000	0.0000000	25.9449557	-0.0000021	-474.9585159
0.8515625	1.0000000	15.8291753	-0.0070239	0.0001054	0.0000000	0.0000000	15.7523804	0.0003097	-483.4983214
0.8593750	0.0000000	15.8291719	-0.0074835	0.0001124	0.0000000	0.0000000	15.7534828	0.0002955	-484.0227262
0.8593750	0.2500000	15.8310211	0.0000057	0.0095508	0.0000000	0.0000000	5.9021513	0.0000000	-585.0754111
0.8593750	0.5000000	15.8291566	0.0074686	0.0000437	0.0000000	0.0000000	15.7535058	-0.0002963	-472.6959345
0.8593750	0.7500000	15.8277561	-0.0000207	-0.0133626	0.0000000	0.0000000	25.5639234	-0.0000007	-469.3609037
0.8593750	1.0000000	15.8291719	-0.0074835	0.0001124	0.0000000	0.0000000	15.7534828	0.0002955	-484.0227262
0.8671875	0.0000000	15.8291725	-0.0079254	0.0001233	0.0000000	0.0000000	15.7545709	0.0002808	-485.0369430
0.8671875	0.2500000	15.8308946	0.0000054	0.0102062	0.0000000	0.0000000	6.3122729	-0.0000001	-594.8326252
0.8671875	0.5000000	15.8291577	0.0079107	0.0000592	0.0000000	0.0000000	15.7545432	-0.0002807	-472.9877752
0.8671875	0.7500000	15.8277824	-0.0000202	-0.0140202	0.0000000	0.0000000	25.1591747	0.0000007	-461.3276420
0.8671875	1.0000000	15.8291725	-0.0079254	0.0001233	0.0000000	0.0000000	15.7545709	0.0002808	-485.0369430
0.8750000	0.0000000	15.8291737	-0.0083485	0.0001377	0.0000000	0.0000000	15.7556328	0.0002656	-483.6681092
0.8750000	0.2500000	15.8307661	0.0000050	0.0108491	0.0000000	0.0000000	6.7451234	-0.0000003	-606.2965879
0.8750000	0.5000000	15.8291594	0.0083341	0.0000755	0.0000000	0.0000000	15.7555568	-0.0002648	-472.6846630
0.8750000	0.7500000	15.8278136	-0.0000197	-0.0146416	0.0000000	0.0000000	24.7316469	0.0000018	-453.7882999
0.8750000	1.0000000	15.8291737	-0.0083485	0.0001377	0.0000000	0.0000000	15.7556328	0.0002656	-483.6681092
0.8828125	0.0000000	15.8291751	-0.0087517	0.0001527	0.0000000	0.0000000	15.7566697	0.0002501	-482.5485766
0.8828125	0.2500000	15.8306374	0.0000048	0.0114750	0.0000000	0.0000000	7.1996494	-0.0000005	-617.2572314
0.8828125	0.5000000	15.8291620	0.0087376	0.0000919	0.0000000	0.0000000	15.7565588	-0.0002488	-474.4793583
0.8828125	0.7500000	15.8278487	-0.0000192	-0.0152185	0.0000000	0.0000000	24.2823962	0.0000025	-445.3010460
0.8828125	1.0000000	15.8291751	-0.0087517	0.0001527	0.0000000	0.0000000	15.7566697	0.0002501	-482.5485766
0.8906250	0.0000000	15.8291777	-0.0091342	0.0001668	0.0000000	0.0000000	15.7576950	0.0002343	-480.7610431
0.8906250	0.2500000	15.8305067	0.0000046	0.0120830	0.0000000	0.0000000	7.6747423	-0.0000006	-627.7329517
0.8906250	0.5000000	15.8291650	0.0091201	0.0001107	0.0000000	0.0000000	15.7575703	-0.0002327	-475.8646413
0.8906250	0.7500000	15.8278898	-0.0000187	-0.0157518	0.0000000	0.0000000	23.8125296	0.0000028	-436.5912350
0.8906250	1.0000000	15.8291777	-0.0091342	0.0001668	0.0000000	0.0000000	15.7576950	0.0002343	-480.7610431
0.8984375	0.0000000	15.8291822	-0.0094947	0.0001852	0.0000000	0.0000000	15.7587040	0.0002180	-478.8793578
0.8984375	0.2500000	15.8303756	0.0000044	0.0126690	0.0000000	0.0000000	8.1692393	-0.0000006	-636.7828547
0.8984375	0.5000000	15.8291705	0.0094809	0.0001288	0.0000000	0.0000000	15.7585909	-0.0002165	-478.4043865
0.8984375	0.7500000	15.8279342	-0.0000183	-0.0162400	0.0000000	0.0000000	23.3231650	0.0000025	-428.2983962
0.8984375	1.0000000	15.8291822	-0.0094947	0.0001852	0.0000000	0.0000000	15.7587040	0.0002180	-478.8793578
0.9062500	0.0000000	15.8291877	-0.0098324	0.0002052	0.0000000	0.0000000	15.7596739	0.0002013	-477.0727720
0.9062500	0.2500000	15.8302455	0.0000043	0.0132320	0.0000000	0.0000000	8.6819278	-0.0000005	-644.0617525
0.9062500	0.5000000	15.8291771	0.0098189	0.0001477	0.0000000	0.0000000	15.7595952	-0.0002001	-479.8356729
0.9062500	0.7500000	15.8279834	-0.0000180	-0.0166819	0.0000000	0.0000000	22.8154506	0.0000018	-419.9723565
0.9062500	1.0000000	15.8291877	-0.0098324	0.0002052	0.0000000	0.0000000	15.7596739	0.0002013	-477.0727720
0.9140625	0.0000000	15.8291948	-0.0101467	0.0002238	0.0000000	0.0000000	15.7605828	0.0001842	-475.2854372
0.9140625	0.2500000	15.8301166	0.0000043	0.0137706	0.0000000	0.0000000	9.2115480	-0.0000002	-650.1825290
0.9140625	0.5000000	15.8291833	0.0101332	0.0001689	0.0000000	0.0000000	15.7605554	-0.0001835	-481.2278064
0.9140625	0.7500000	15.8280383	-0.0000176	-0.0170762	0.0000000	0.0000000	22.2905451	0.0000009	-412.7036354
0.9140625	1.0000000	15.8291948	-0.0101467	0.0002238	0.0000000	0.0000000	15.7605828	0.0001842	-475.2854372
0.9218750	0.0000000	15.8292020	-0.0104364	0.0002480	0.0000000	0.0000000	15.7614177	0.0001669	-474.3765671
0.9218750	0.2500000	15.8299898	0.0000041	0.0142815	0.0000000	0.0000000	9.7568081	0.0000001	-655.2373195
0.9218750	0.5000000	15.8291898	0.0104230	0.0001892	0.0000000	0.0000000	15.7614455	-0.0001666	-481.1993510
0.9218750	0.7500000	15.8280991	-0.0000173	-0.0174255	0.0000000	0.0000000	21.7496809	-0.0000001	-405.9919340
0.9218750	1.0000000	15.8292020	-0.0104364	0.0002480	0.0000000	0.0000000	15.7614177	0.0001669	-474.3765671
0.9296875	0.0000000	15.8292098	-0.0107009	0.0002710	0.0000000	0.0000000	15.7621845	0.0001495	-474.6601295
0.9296875	0.2500000	15.8298659	0.0000040	0.0147637	0.0000000	0.0000000	10.3163801	0.0000004	-658.3900343
0.9296875	0.5000000	15.8291978	0.0106876	0.0002120	0.0000000	0.0000000	15.7622567	-0.0001496	-481.8945248
0.9296875	0.7500000	15.8281658	-0.0000170	-0.0177266	0.0000000	0.0000000	21.1941620	-0.0000009	-400.6961133
0.9296875	1.0000000	15.8292098	-0.0107009	0.0002710	0.0000000	0.0000000	15.7621845	0.0001495	-474.6601295
0.9375000	0.0000000	15.8292203	-0.0109395	0.0002944	0.0000000	0.0000000	15.7628943	0.0001318	-476.0260758
0.9375000	0.2500000	15.8297447	0.0000038	0.0152145	0.0000000	0.0000000	10.8889061	0.0000006	-661.3501667
0.9375000	0.5000000	15.8292063	0.0109262	0.0002348	0.0000000	0.0000000	15.7629915	-0.0001322	-481.9903506
0.9375000	0.7500000	15.8282360	-0.0000169	-0.0179788	0.0000000	0.0000000	20.6253658	-0.0000013	-395.8314339
0.9375000	1.0000000	15.8292203	-0.0109395	0.0002944	0.0000000	0.0000000	15.7628943	0.0001318	-476.0260758
0.9453125	0.0000000	15.8292293	-0.0111516	0.0003177	0.0000000	0.0000000	15.7635495	0.0001138	-477.5959996
0.9453125	0.2500000	15.8296281	0.0000036	0.0156312	0.0000000	0.0000000	11.4729844	0.0000007	-664.3250792
0.9453125	0.5000000	15.8292153	0.0111382	0.0002586	0.0000000	0.0000000	15.7636489	-0.0001143	-481.1200083
0.9453125	0.7500000	15.8283125	-0.0000165	-0.0181828	0.0000000	0.0000000	20.0446777	-0.0000013	-392.2509754
0.9453125	1.0000000	15.8292293	-0.0111516	0.0003177	0.0000000	0.0000000	15.7635495	0.0001138	-477.5959996
0.9531250	0.0000000	15.8292406	-0.0113364	0.0003420	0.0000000	0.0000000	15.7641406	0.0000950	-479.5081348
0.9531250	0.2500000	15.8295134	0.0000033	0.0160095	0.0000000	0.0000000	12.0671807	0.0000006	-666.6458121
0.9531250	0.5000000	15.8292270	0.0113231	0.0002827	0.0000000	0.0000000	15.7642220	-0.0000955	-481.0749012
0.9531250	0.7500000	15.8283933	-0.0000165	-0.0183358	0.0000000	0.0000000	19.4535092	-0.0000011	-387.6344266
0.9531250	1.0000000	15.8292406	-0.0113364	0.0003420	0.0000000	0.0000000	15.7641406	0.0000950	-479.5081348
0.9609375	0.0000000	15.8292539	-0.0114937	0.0003683	0.0000000	0.0000000	15.7646497	0.0000757	-480.6929784
0.9609375	0.2500000	15.8294014	0.0000030	0.0163500	0.0000000	0.0000000	12.6700364	0.0000005	-669.6448082
0.9609375	0.5000000	15.8292386	0.0114802	0.0003095	0.0000000	0.0000000	15.7647028	-0.0000760	-479.4974244
0.9609375	0.7500000	15.8284793	-0.0000162	-0.0184445	0.0000000	0.0000000	18.8532676	-0.0000007	-383.4075958
0.9609375	1.0000000	15.8292539	-0.0114937	0.0003683	0.0000000	0.0000000	15.7646497	0.0000757	-480.6929784
0.9687500	0.0000000	15.8292661	-0.0116231	0.0003879	0.0000000	0.0000000	15.7650686	0.0000558	-482.0648338
0.9687500	0.2500000	15.8292949	0.0000027	0.0166583	0.0000000	0.0000000	13.2800908	0.0000002	-672.0413090
0.9687500	0.5000000	15.8292500	0.0116094	0.0003279	0.0000000	0.0000000	15.7650919	-0.0000559	-479.9029040
0.9687500	0.7500000	15.8285720	-0.0000160	-0.0184994	0.0000000	0.0000000	18.2453773	-0.0000002	-376.0417433
0.9687500	1.0000000	15.8292661	-0.0116231	0.0003879	0.0000000	0.0000000	15.7650686	0.0000558	-482.0648338
0.9765625	0.0000000	15.8292806	-0.0117239	0.0004070	0.0000000	0.0000000	15.7654027	0.0000357	-481.7061834
0.9765625	0.2500000	15.8291919	0.0000023	0.0169238	0.0000000	0.0000000	13.8958884	0.0000000	-675.5911060
0.9765625	0.5000000	15.8292629	0.0117101	0.0003477	0.0000000	0.0000000	15.7654034	-0.0000357	-478.7290844
0.9765625	0.7500000	15.8286683	-0.0000158	-0.0185062	0.0000000	0.0000000	17.6312821	0.0000000	-368.6196354
0.9765625	1.0000000	15.8292806	-0.0117239	0.0004070	0.0000000	0.0000000	15.7654027	0.0000357	-481.7061834
0.9843750	0.0000000	15.8292922	-0.0117962	0.0004297	0.0000000	0.0000000	15.7656592	0.0000160	-481.3454763
0.9843750	0.2500000	15.8290953	0.0000019	0.0171405	0.0000000	0.0000000	14.5159689	-0.0000001	-677.4417258
0.9843750	0.5000000	15.8292749	0.0117822	0.0003718	0.0000000	0.0000000	15.7656505	-0.0000158	-479.5411770
0.9843750	0.7500000	15.8287717	-0.0000156	-0.0184694	0.0000000	0.0000000	17.0124319	0.0000001	-358.3774534
0.9843750	1.0000000	15.8292922	-0.0117962	0.0004297	0.0000000	0.0000000	15.7656592	0.0000160	-481.3454763
0.9921875	0.0000000	15.8293055	-0.0118396	0.0004497	0.0000000	0.0000000	15.7658332	-0.0000033	-478.6699037
0.9921875	0.2500000	15.8290026	0.0000014	0.0173142	0.0000000	0.0000000	15.1388539	-0.0000000	-681.3113800
0.9921875	0.5000000	15.8292879	0.0118254	0.0003934	0.0000000	0.0000000	15.7658367	0.0000034	-477.8240175
0.9921875	0.7500000	15.8288786	-0.0000154	-0.0183858	0.0000000	0.0000000	16.3902853	0.0000000	-348.5584093
0.9921875	1.0000000	15.8293055	-0.0118396	0.0004497	0.0000000	0.0000000	15.7658332	-0.0000033	-478.6699037
1.0000000	0.0000000	15.8293198	-0.0118540	0.0004670	0.0000000	0.0000000	15.7659079	-0.0000219	-478.0780392
1.0000000	0.2500000	15.8289137	0.0000009	0.0174443	0.0000000	0.0000000	15.7630281	0.0000001	-681.1014794
1.0000000	0.5000000	15.8293018	0.0118395	0.0004119	0.0000000	0.0000000	15.7659322	0.0000220	-478.2416583
1.0000000	0.7500000	15.8289894	-0.0000152	-0.0182554	0.0000000	0.0000000	15.7663069	-0.0000001	-336.9246854
1.0000000	1.0000000	15.8293198	-0.0118540	0.0004670	0.0000000	0.0000000	15.7659079	-0.0000219	-478.0780392
