X,Y,surf vx,surf vy,tauxy integr.,tauxy dir.,secinvare integr.,secinvar dir.,P integr.,P dir.,
0.0,1000.0,32.0284856508,7.60104795101,74534.182762,75273.3214089,75877.9945283,76466.2130946,8278070.51987,8278061.98427
312.5,1024.53383716,29.8064438261,7.06095812191,72987.2281488,73135.5807541,74344.409749,74397.0876234,8036962.778,8036975.12812
625.0,1049.00857016,27.5801275812,6.68207701856,71672.3577501,71395.058523,72998.0962899,72830.0509583,7809526.4029,7809520.09681
937.5,1073.36523723,25.4589064694,6.15357930302,69941.4908617,70308.2659011,71256.5069745,71558.8960951,7592990.62711,7592991.25119
1250.0,1097.54516101,23.3677984651,5.72838635149,68609.8041861,69040.7148006,69859.5617921,70387.3069764,7386162.74668,7386160.00728
1562.5,1121.49008995,21.4026939596,5.24647315291,66595.5997508,66035.9884003,67850.832184,67256.648008,7174411.3371,7174409.93773
1875.0,1145.14233863,19.5002617068,4.80889784258,65257.9604893,66133.4974195,66453.5711391,67393.5582063,6976542.58737,6976540.7632
2187.5,1168.4449267,17.7297581839,4.36486116636,63303.7600967,63063.8604238,64498.3831174,64233.426716,6755530.71372,6755529.00969
2500.0,1191.34171618,16.0409890326,3.93403090491,62021.9145823,61655.9067988,63127.4936575,62911.3422211,6525223.83751,6525222.12153
2812.5,1213.77754672,14.4801501212,3.55364657817,59879.041929,59855.593046,60962.5784648,60935.5188584,6349785.1092,6349783.45314
3125.0,1235.69836841,13.0288261743,3.14613152899,58504.9992427,58381.1098604,59549.1086465,59493.6904769,6164362.65556,6164361.04201
3437.5,1257.0513721,11.6907110016,2.81528654113,56796.8866889,57416.0128421,57754.8609568,58391.6767738,5959152.60492,5959151.05146
3750.0,1277.78511651,10.4748228401,2.45957844634,54989.4097616,54772.8018969,55933.3874531,55716.9830375,5768358.65707,5768357.10873
4062.5,1297.84965225,9.35844385945,2.17492812197,53691.3395131,54921.8942237,54521.0824383,55776.7949395,5603244.91638,5603243.43998
4375.0,1317.19664208,8.3525888133,1.88236584759,51628.9623289,51233.7377051,52430.9037496,52006.4094016,5423610.32686,5423608.88399
4687.5,1335.77947742,7.44452526121,1.65452296916,50459.4799839,51742.171349,51185.9184286,52491.3968085,5255512.71838,5255511.35707
5000.0,1353.55339059,6.64644869318,1.41489779239,48613.8383525,48282.5048216,49297.0113667,48950.3803741,5091336.68685,5091335.3435
5312.5,1370.47556268,5.92444290764,1.2237631629,47500.511144,48598.5718475,48102.5320311,49215.8528114,4951068.57474,4951067.31155
5625.0,1386.50522668,5.29596738848,1.04145584747,45817.4659463,45271.6811928,46366.2244032,45836.2415401,4819305.67433,4819304.47061
5937.5,1401.60376574,4.74206565002,0.888918166055,44777.1056891,45431.9070945,45261.4944044,45923.3598086,4665569.79036,4665568.66333
6250.0,1415.73480615,4.25951386388,0.748639128566,43414.3021806,42560.862688,43833.5949901,43023.5459154,4503479.72879,4503478.63867
6562.5,1428.864305,3.84838591991,0.627927552253,42447.1497149,42473.5271182,42807.0021921,42853.7666667,4421430.37732,4421429.4334
6875.0,1440.96063217,3.49120757368,0.514290345141,41489.1015788,42154.3427749,41763.7743608,42428.9813099,4334006.90834,4334005.9819
7187.5,1451.99464656,3.18457930152,0.425378653496,40337.1593557,39345.3572049,40570.0437112,39614.4399798,4223014.79329,4223013.92913
7500.0,1461.93976626,2.93936024115,0.350250969968,39719.9327209,39496.5967311,39909.4007919,39699.7613385,4145154.05947,4145153.33681
7812.5,1470.77203259,2.73706706155,0.270254361405,39074.7660894,39172.2620241,39210.3280143,39319.1370749,4044953.35457,4044952.63001
8125.0,1478.47016787,2.5706777927,0.208593477149,38487.0250493,39022.2380706,38575.7067858,39112.8398747,3959933.30792,3959932.703
8437.5,1485.0156266,2.44413676244,0.155383171825,37976.1504561,38767.4647482,38034.4906109,38824.661412,3906414.08979,3906413.58071
8750.0,1490.3926402,2.34873711833,0.114074376867,37606.0692734,36763.9348855,37645.4829566,36813.8883215,3829306.64341,3829306.20927
9062.5,1494.58825498,2.28625055409,0.0822015643938,37269.7401252,36581.7392979,37295.0527753,36609.8661807,3817043.99133,3817043.64899
9375.0,1497.59236334,2.24366290581,0.0550958030142,37264.1052106,36845.1312298,37277.7220243,36862.571184,3778577.53422,3778577.27941
9687.5,1499.3977281,2.21840711294,0.0262541925475,37220.6810618,36851.355745,37224.5456053,36856.3405759,3775322.6059,3775322.44983
10000.0,1500.0,2.20814187586,-0.00175989089896,37180.5463987,36800.0274716,37181.3593774,36800.8543344,3760703.3134,3760703.25455
10312.5,1499.3977281,2.21429948506,-0.0256395224662,37212.2570373,36851.0625888,37214.7763312,36852.7446039,3771730.96222,3771731.00041
10625.0,1497.59236334,2.23852398018,-0.0541516078829,37310.9386181,36827.3779582,37321.4930454,36834.0368247,3775490.00494,3775490.15054
10937.5,1494.58825498,2.27908401269,-0.0855078469082,37455.3543284,36847.6085867,37482.9227569,36871.0057419,3803702.95618,3803703.19345
11250.0,1490.3926402,2.3375602354,-0.12498321257,37599.4072744,36722.592944,37647.573307,36767.9954791,3822362.61923,3822362.97454
11562.5,1485.0156266,2.42484021604,-0.159909892238,37879.9520529,38753.6355237,37944.2928834,38808.473322,3885412.29856,3885412.72971
11875.0,1478.47016787,2.5527821731,-0.209394354647,38394.593502,38965.6598189,38480.2688709,39032.8622004,3951133.20712,3951133.75436
12187.5,1470.77203259,2.71211787366,-0.265566870319,39003.2689148,39217.9405958,39128.4456692,39324.4595999,4039903.68711,4039904.35635
12500.0,1461.93976626,2.9155993043,-0.339779136062,39707.6325914,39486.8064116,39884.1185829,39643.1627059,4142106.04194,4142106.77704
12812.5,1451.99464656,3.15755289845,-0.41850642605,40419.4551729,39617.1275586,40647.5509845,39843.7672129,4243170.55831,4243171.39942
13125.0,1440.96063217,3.45575974491,-0.508150341431,41312.8480904,41844.9097626,41586.9744046,42076.4629199,4329415.57883,4329416.53867
13437.5,1428.864305,3.81067959927,-0.606315398008,42451.3242862,42483.4342464,42783.4413413,42776.9205181,4406370.68579,4406371.75803
13750.0,1415.73480615,4.22400627162,-0.734711339235,43499.7136842,42737.096827,43902.8752767,43132.6143317,4482521.49325,4482522.64202
14062.5,1401.60376574,4.7050167516,-0.865004782826,44699.6712752,45273.4109168,45162.0828137,45672.6759138,4641278.07375,4641279.34369
14375.0,1386.50522668,5.25902006551,-1.02561195093,46047.597907,45888.7474914,46574.585267,46373.7203892,4810013.62982,4810014.94879
14687.5,1370.47556268,5.89165453354,-1.19805323538,47372.0814446,48088.1773474,47959.4827368,48600.3455463,4953463.6856,4953465.11972
15000.0,1353.55339059,6.61422094134,-1.4027272138,48918.2067806,48972.5045073,49570.5647607,49558.3660797,5074202.42047,5074203.96538
15312.5,1335.77947742,7.42370041075,-1.62732607831,50353.5983099,51285.0786166,51086.6778132,51924.1293231,5213951.29444,5213952.89635
15625.0,1317.19664208,8.32699523919,-1.88677262283,51943.6854259,52140.5885724,52746.922145,52870.7506338,5408126.17315,5408127.8757
15937.5,1297.84965225,9.33294705094,-2.16620883907,53328.0324272,53869.8109647,54189.4283626,54665.6701443,5596460.49856,5596462.2788
16250.0,1277.78511651,10.4482215211,-2.45738016054,55211.6481624,55416.120612,56106.9802323,56223.5170318,5748496.26907,5748498.1568
16562.5,1257.0513721,11.672435443,-2.80051839873,56752.3552583,57373.1167855,57737.1266673,58295.6532498,5926213.23124,5926215.15993
16875.0,1235.69836841,13.0029060232,-3.15632601331,58327.0571404,58044.7589238,59346.2208115,59033.1601214,6150542.50071,6150544.49502
17187.5,1213.77754672,14.4589895934,-3.53154874122,60201.184279,60814.5969578,61260.9019234,61780.9915529,6330195.51561,6330197.59103
17500.0,1191.34171618,16.0180106049,-3.94360538518,61803.1006636,61197.5855489,62935.1403369,62334.410237,6491922.80504,6491924.95279
17812.5,1168.4449267,17.6837637094,-4.37094162953,63376.9157397,63321.1318982,64535.7832112,64447.1733429,6730175.37802,6730177.5714
18125.0,1145.14233863,19.4726834203,-4.80254454765,65283.2961011,66131.4856548,66472.0744469,67205.4705376,6962004.26342,6962006.44765
18437.5,1121.49008995,21.3547408388,-5.26334443177,66845.0336083,66474.062978,68123.4320758,67747.1926311,7147279.34313,7147281.57778
18750.0,1097.54516101,23.3134032533,-5.73241819655,68237.8709196,68258.0630791,69543.3479332,69540.9827235,7359519.25662,7359521.55284
19062.5,1073.36523723,25.3816735042,-6.17999653168,69920.8453614,70648.7862536,71207.3924784,71861.4757699,7572013.78395,7572016.08738
19375.0,1049.00857016,27.5200569991,-6.62357733203,71507.1858398,71137.2638819,72801.1079958,72426.0862876,7781769.90299,7781772.23332
19687.5,1024.53383716,29.7321944741,-7.06066624976,73176.552961,73431.9651163,74477.7982338,74679.1123944,8014759.36071,8014761.70688
20000.0,1000.0,31.9950048259,-7.49163007189,74615.6853699,75200.4351283,75943.9569444,76501.4473832,8242994.23557,8242996.54914
20312.5,975.466162836,34.2984396135,-7.9010994636,75965.7026768,75542.9967392,77274.7152174,76853.7761151,8461395.04362,8461397.35475
20625.0,950.991429835,36.6287404422,-8.26971277435,77646.1679132,77964.9859241,78938.3613578,79198.1734825,8670076.26474,8670078.59899
20937.5,926.634762772,38.9635056734,-8.6204498428,78913.6768006,79475.1322196,80250.696262,80798.3750902,8873247.15159,8873249.47531
21250.0,902.454838992,41.3003500693,-8.92841461679,79964.7833107,79544.9982651,81284.3640875,80879.9836913,9099997.67347,9099999.96992
21562.5,878.509910048,43.6045252266,-9.17711234638,81280.320086,81406.9657447,82533.6549577,82648.1850914,9316668.61489,9316670.89277
21875.0,854.857661373,45.8930382829,-9.3582794434,82504.4419532,82931.279511,83713.1626163,84129.0861441,9528670.63751,9528672.86281
22187.5,831.555073304,48.1416977954,-9.49823240679,83825.6305153,83632.5294386,84997.2531388,84792.1749105,9754204.60986,9754206.79104
22500.0,808.658283817,50.3314548751,-9.58382890302,84850.0396826,84958.8626164,86014.6879726,86119.572844,9939928.45893,9939930.62132
22812.5,786.222453285,52.4285401086,-9.61593539612,85686.8113746,86128.8982688,86796.4754056,87239.7297809,10113132.3466,10113134.4594
23125.0,764.301631587,54.4505460435,-9.5716390913,86781.0019223,86679.6170458,87810.7025669,87713.3476699,10339468.8888,10339470.9479
23437.5,742.948627903,56.3929676791,-9.47707780837,87780.8920713,88085.3534045,88763.0198022,89065.2738795,10542678.2974,10542680.2878
23750.0,722.21488349,58.2268113572,-9.30945674921,88616.1512699,88201.9636015,89551.9423596,89163.0348436,10705884.0037,10705885.9237
24062.5,702.150347754,59.9411031613,-9.09963688924,89314.2901806,89333.4800329,90183.2196662,90223.8509218,10888110.6949,10888112.5632
24375.0,682.803357918,61.5491490386,-8.81475283709,90220.3848204,89851.5507538,91017.0306436,90660.5857275,11076032.4051,11076034.1867
24687.5,664.220522576,63.0372515339,-8.49555081285,90850.6100687,90829.9810607,91597.2303924,91599.5735412,11231688.0115,11231689.7315
25000.0,646.446609407,64.4026285334,-8.10428533897,91407.2056534,90839.4037319,92079.5202961,91539.2054425,11381827.4227,11381829.0394
25312.5,629.524437323,65.637689533,-7.68119463529,92106.4547622,92270.0860586,92704.5903207,92879.8731659,11541624.1021,11541625.6549
25625.0,613.494773319,66.7587215584,-7.21061000445,92633.7884864,92176.8780812,93170.7843249,92729.9113685,11696799.391,11696800.8488
25937.5,598.39623426,67.758405515,-6.720256465,93129.1205772,93345.4705383,93599.3223179,93817.8926087,11832952.7808,11832954.1533
26250.0,584.265193849,68.6305967027,-6.18648750991,93581.6843846,93329.9885791,93993.8995988,93765.6964386,11944347.0098,11944348.2874
26562.5,571.135695,69.3912874749,-5.6538630054,93956.5833603,94382.7491899,94307.3790647,94742.1168577,12038835.3016,12038836.4894
26875.0,559.039367826,70.040137922,-5.09417921848,94328.8979852,94415.2829907,94621.8097942,94725.7402793,12175320.9376,12175322.0281
27187.5,548.005353438,70.5801926648,-4.54152110492,94632.2537728,94362.7800624,94872.858518,94612.5534166,12294444.8847,12294445.867
27500.0,538.060233744,71.0261329301,-3.97618605777,94949.0151568,95485.1252334,95143.1182328,95691.0327785,12373463.6381,12373464.523
27812.5,529.227967408,71.3790169813,-3.43692449669,95155.2447077,95343.7982418,95306.6455021,95500.2679816,12455900.0328,12455900.8183
28125.0,521.529832134,71.6473097947,-2.89710726783,95365.1221948,95366.3116114,95477.0462406,95494.298714,12514006.1605,12514006.8459
28437.5,514.984373403,71.8353931715,-2.38887684592,95586.4571098,95398.1126219,95664.4768497,95476.454953,12556669.173,12556669.756
28750.0,509.607359798,71.9619785011,-1.88272304817,95788.6159305,95429.4047936,95840.0101018,95493.1288919,12615701.1493,12615701.624
29062.5,505.411745018,72.0310323165,-1.40578889338,95942.2119089,95475.122403,95971.987051,95505.3335927,12624125.396,12624125.7692
29375.0,502.407636664,72.0775090889,-0.929093063821,96059.232799,96600.1796396,96074.3767477,96619.3031243,12681077.5653,12681077.8327
29687.5,500.602271897,72.1045631692,-0.465047029763,96055.7309105,96428.3441307,96060.0387543,96433.0699469,12672142.0636,12672142.2298
30000.0,500.0,72.1142076776,0.00870100625142,96070.5120649,96506.6430741,96071.9573331,96507.8694646,12707411.539,12707411.6018
30312.5,500.602271897,72.1050099145,0.470685004194,96040.3068535,96484.4009142,96043.8836375,96487.5504652,12670872.507,12670872.4681
30625.0,502.407636664,72.0792144023,0.947048738384,95967.5887843,96407.9323735,95984.4502897,96417.3659789,12686674.3438,12686674.2052
30937.5,505.411745018,72.033342118,1.40829927945,95927.3391204,95466.8535346,95957.7938155,95496.732241,12620850.6338,12620850.395
31250.0,509.607359798,71.9642019903,1.90186168708,95801.9859304,95496.5745967,95857.5298766,95537.4396074,12624507.9853,12624507.649
31562.5,514.984373403,71.8421560075,2.37743310951,95600.477066,95412.0046266,95679.0635518,95498.7220402,12554796.5439,12554796.1111
31875.0,521.529832134,71.655441513,2.91810911791,95360.9557016,95368.5947411,95477.1012058,95452.0718466,12527647.4493,12527646.9182
32187.5,529.227967408,71.3889381612,3.40632554551,95190.4599568,95440.8990802,95345.3713282,95614.0600712,12454842.7841,12454842.1686
32500.0,538.060233744,71.0413435657,4.00036685647,94994.8203349,95628.9632003,95188.5273867,95781.4261802,12394653.1593,12394652.4517
32812.5,548.005353438,70.5949736272,4.48713796162,94578.7558817,94208.9998076,94819.492014,94465.9538465,12289812.2353,12289811.445
33125.0,559.039367826,70.058679793,5.13009032531,94384.3449884,94596.2837261,94684.194465,94853.6222602,12204952.1535,12204951.2688
33437.5,571.135695,69.4095127878,5.57997006479,94005.0692748,94395.9161061,94349.097101,94753.8735648,12033879.5388,12033878.5802
33750.0,584.265193849,68.6578188706,6.2485563507,93536.5738864,93352.9799058,93945.3425067,93713.8696774,11982357.3499,11982356.3059
34062.5,598.39623426,67.7783124441,6.62127258738,93116.9549998,93333.9342524,93588.4611656,93818.163475,11824301.1354,11824300.0279
34375.0,613.494773319,66.7857305966,7.29771772027,92625.0366748,92241.5032947,93161.1516281,92761.7334869,11735303.7011,11735302.5089
34687.5,629.524437323,65.6748363042,7.5594231624,92044.5537635,92026.2802997,92649.2019056,92609.0299229,11533048.7751,11533047.526
35000.0,646.446609407,64.4326111405,8.20235500405,91559.464218,91186.3895486,92223.8811832,91864.7537192,11434830.1999,11434828.8815
35312.5,664.220522576,63.0815403477,8.34232101868,90767.8892064,90758.0838143,91499.909679,91429.7821724,11223609.6121,11223608.2407
35625.0,682.803357918,61.5771575252,8.93475055953,90135.296277,89678.4571518,90951.5102306,90534.1707554,11118089.0211,11118087.5756
35937.5,702.150347754,59.990233555,8.94049144015,89484.549116,89749.5885209,90332.6351104,90526.7644045,10882851.7168,10882850.2345
36250.0,722.21488349,58.2370554898,9.43904303222,88461.9513983,88026.4306441,89403.6946148,89026.6346027,10762631.5567,10762630.0169
36562.5,742.948627903,56.4393626047,9.3161776208,87776.7699471,88332.8914411,88748.2617193,89224.9051624,10535954.8914,10535953.3209
36875.0,764.301631587,54.4720113459,9.69892282716,86692.7953305,86391.3891007,87764.8573839,87547.5353696,10385326.2579,10385324.6148
37187.5,786.222453285,52.4750464168,9.46554501568,85940.6673695,86751.7089248,87005.6638369,87721.0983704,10123367.6803,10123366.0337
37500.0,808.658283817,50.3296023116,9.71351435344,84611.6759464,84459.0708752,85783.6080706,85709.8512458,9987166.63105,9987164.88491
37812.5,831.555073304,48.1810186541,9.37443186867,83786.0223498,83622.7275483,84957.1374606,84746.5101289,9757123.97435,9757122.33526
38125.0,854.857661373,45.9142484891,9.48595628115,82413.5102605,82542.09816,83678.0195844,83873.3650259,9581021.91443,9581019.95992
38437.5,878.509910048,43.6592525458,9.06107212289,81531.2560313,81862.4575145,82753.7406339,82999.2440762,9325133.8926,9325132.67247
38750.0,902.454838992,41.3001275317,9.0339028889,79858.7335132,79147.6814236,81182.715102,80599.5762226,9140797.13775,9140793.97086
39062.5,926.634762772,39.0094732646,8.54299348498,78942.1053329,79922.7645323,80217.6114877,81078.0546882,8891075.78098,8891076.92096
39375.0,950.991429835,36.6328799725,8.39202491755,77164.4704839,76857.9414986,78530.4666757,78305.1953446,8706559.88034,8706554.42983
39687.5,975.466162836,34.3574866038,7.87024118498,76152.3568896,75962.5225676,77487.3181074,77231.8567245,8477844.09396,8477857.47645
40000.0,1000.0,32.0284856508,7.60104795101,74534.182762,74984.214552,75877.9945283,76394.4095391,8278070.51987,8278061.98427
