<?xml version="1.0" encoding="UTF-8" standalone="no"?>
<svg
   xmlns:dc="http://purl.org/dc/elements/1.1/"
   xmlns:cc="http://creativecommons.org/ns#"
   xmlns:rdf="http://www.w3.org/1999/02/22-rdf-syntax-ns#"
   xmlns:svg="http://www.w3.org/2000/svg"
   xmlns="http://www.w3.org/2000/svg"
   xmlns:xlink="http://www.w3.org/1999/xlink"
   xmlns:sodipodi="http://sodipodi.sourceforge.net/DTD/sodipodi-0.dtd"
   xmlns:inkscape="http://www.inkscape.org/namespaces/inkscape"
   width="210mm"
   height="297mm"
   viewBox="0 0 210 297"
   version="1.1"
   id="svg8"
   inkscape:version="1.0.1 (3bc2e813f5, 2020-09-07)"
   sodipodi:docname="fig02.svg"
   inkscape:export-filename="/home/till/Development/gitlab/ismip-hom/0_Final_Code_Results_Text/submission/figures/png/fig02.png"
   inkscape:export-xdpi="300"
   inkscape:export-ydpi="300">
  <defs
     id="defs2">
    <g
       id="g2634">
      <symbol
         overflow="visible"
         id="symbol4058">
        <path
           style="stroke:none;"
           d=""
           id="path2750" />
      </symbol>
      <symbol
         overflow="visible"
         id="symbol8031">
        <path
           style="stroke:none;"
           d="M 5.046875 -3.75 C 5.109375 -3.890625 5.140625 -3.953125 5.78125 -3.953125 L 5.78125 -4.421875 C 5.53125 -4.40625 5.25 -4.390625 5 -4.390625 C 4.75 -4.390625 4.296875 -4.421875 4.09375 -4.421875 L 4.09375 -3.953125 C 4.28125 -3.953125 4.5625 -3.921875 4.5625 -3.84375 C 4.5625 -3.84375 4.5625 -3.8125 4.515625 -3.734375 L 3.359375 -1.234375 L 2.09375 -3.953125 L 2.625 -3.953125 L 2.625 -4.421875 C 2.296875 -4.40625 1.40625 -4.390625 1.390625 -4.390625 C 1.109375 -4.390625 0.671875 -4.421875 0.265625 -4.421875 L 0.265625 -3.953125 L 0.890625 -3.953125 L 2.640625 -0.203125 C 2.765625 0.046875 2.890625 0.046875 3.015625 0.046875 C 3.1875 0.046875 3.296875 0.015625 3.390625 -0.203125 Z M 5.046875 -3.75 "
           id="path2332" />
      </symbol>
      <symbol
         overflow="visible"
         id="symbol7726">
        <path
           style="stroke:none;"
           d=""
           id="path6480" />
      </symbol>
      <symbol
         overflow="visible"
         id="symbol879">
        <path
           style="stroke:none;"
           d="M 1.84375 -4.625 C 1.84375 -4.640625 1.875 -4.734375 1.875 -4.734375 C 1.875 -4.78125 1.84375 -4.84375 1.75 -4.84375 C 1.609375 -4.84375 1.03125 -4.78125 0.859375 -4.765625 C 0.8125 -4.765625 0.703125 -4.75 0.703125 -4.609375 C 0.703125 -4.515625 0.8125 -4.515625 0.890625 -4.515625 C 1.21875 -4.515625 1.21875 -4.453125 1.21875 -4.40625 C 1.21875 -4.359375 1.15625 -4.078125 1.109375 -3.921875 L 0.953125 -3.28125 C 0.890625 -3.03125 0.515625 -1.515625 0.5 -1.421875 C 0.453125 -1.25 0.453125 -1.15625 0.453125 -1.078125 C 0.453125 -0.375 0.90625 0.0625 1.484375 0.0625 C 2.359375 0.0625 3.28125 -0.875 3.28125 -1.90625 C 3.28125 -2.71875 2.71875 -3.078125 2.234375 -3.078125 C 1.875 -3.078125 1.5625 -2.875 1.359375 -2.6875 Z M 1.484375 -0.125 C 1.15625 -0.125 0.953125 -0.421875 0.953125 -0.84375 C 0.953125 -1.09375 1.015625 -1.328125 1.21875 -2.125 C 1.25 -2.25 1.25 -2.265625 1.390625 -2.421875 C 1.65625 -2.71875 1.96875 -2.875 2.21875 -2.875 C 2.484375 -2.875 2.71875 -2.671875 2.71875 -2.203125 C 2.71875 -1.921875 2.578125 -1.203125 2.359375 -0.796875 C 2.1875 -0.453125 1.84375 -0.125 1.484375 -0.125 Z M 1.484375 -0.125 "
           id="path1828" />
      </symbol>
      <symbol
         overflow="visible"
         id="symbol9955">
        <path
           style="stroke:none;"
           d="M 1.734375 -0.734375 C 1.671875 -0.5 1.4375 -0.125 1.078125 -0.125 C 1.0625 -0.125 0.84375 -0.125 0.703125 -0.21875 C 0.984375 -0.3125 1.015625 -0.5625 1.015625 -0.609375 C 1.015625 -0.765625 0.890625 -0.859375 0.734375 -0.859375 C 0.53125 -0.859375 0.328125 -0.703125 0.328125 -0.4375 C 0.328125 -0.09375 0.71875 0.0625 1.0625 0.0625 C 1.390625 0.0625 1.671875 -0.125 1.84375 -0.421875 C 2.015625 -0.0625 2.390625 0.0625 2.671875 0.0625 C 3.484375 0.0625 3.90625 -0.796875 3.90625 -1 C 3.90625 -1.09375 3.8125 -1.09375 3.796875 -1.09375 C 3.6875 -1.09375 3.6875 -1.046875 3.65625 -0.96875 C 3.515625 -0.484375 3.09375 -0.125 2.703125 -0.125 C 2.421875 -0.125 2.28125 -0.3125 2.28125 -0.578125 C 2.28125 -0.765625 2.453125 -1.390625 2.640625 -2.171875 C 2.78125 -2.703125 3.09375 -2.875 3.328125 -2.875 C 3.34375 -2.875 3.546875 -2.875 3.703125 -2.78125 C 3.484375 -2.71875 3.390625 -2.515625 3.390625 -2.390625 C 3.390625 -2.25 3.515625 -2.140625 3.671875 -2.140625 C 3.828125 -2.140625 4.0625 -2.265625 4.0625 -2.5625 C 4.0625 -2.953125 3.609375 -3.078125 3.34375 -3.078125 C 2.984375 -3.078125 2.703125 -2.84375 2.5625 -2.578125 C 2.4375 -2.859375 2.109375 -3.078125 1.71875 -3.078125 C 0.9375 -3.078125 0.5 -2.21875 0.5 -2 C 0.5 -1.921875 0.59375 -1.921875 0.609375 -1.921875 C 0.703125 -1.921875 0.703125 -1.9375 0.75 -2.03125 C 0.921875 -2.578125 1.359375 -2.875 1.703125 -2.875 C 1.9375 -2.875 2.125 -2.75 2.125 -2.421875 C 2.125 -2.28125 2.03125 -1.9375 1.96875 -1.6875 Z M 1.734375 -0.734375 "
           id="path4122" />
      </symbol>
    </g>
  </defs>
  <sodipodi:namedview
     id="base"
     pagecolor="#ffffff"
     bordercolor="#666666"
     borderopacity="1.0"
     inkscape:pageopacity="0.0"
     inkscape:pageshadow="2"
     inkscape:zoom="0.9899495"
     inkscape:cx="402.0962"
     inkscape:cy="207.0902"
     inkscape:document-units="mm"
     inkscape:current-layer="layer1"
     inkscape:document-rotation="0"
     showgrid="false"
     inkscape:window-width="1325"
     inkscape:window-height="991"
     inkscape:window-x="595"
     inkscape:window-y="0"
     inkscape:window-maximized="0"
     showguides="true"
     inkscape:guide-bbox="true">
    <sodipodi:guide
       position="110.34542,234.98829"
       orientation="1,0"
       id="guide81" />
  </sodipodi:namedview>
  <metadata
     id="metadata5">
    <rdf:RDF>
      <cc:Work
         rdf:about="">
        <dc:format>image/svg+xml</dc:format>
        <dc:type
           rdf:resource="http://purl.org/dc/dcmitype/StillImage" />
        <dc:title />
      </cc:Work>
    </rdf:RDF>
  </metadata>
  <g
     inkscape:label="Ebene 1"
     inkscape:groupmode="layer"
     id="layer1">
    <image
       width="89.570953"
       height="67.178207"
       preserveAspectRatio="none"
       style="image-rendering:optimizeQuality"
       xlink:href="data:image/png;base64,iVBORw0KGgoAAAANSUhEUgAAAoAAAAHgCAYAAAA10dzkAAAAOXRFWHRTb2Z0d2FyZQBNYXRwbG90 bGliIHZlcnNpb24zLjMuMCwgaHR0cHM6Ly9tYXRwbG90bGliLm9yZy86wFpkAAAACXBIWXMAAA9h AAAPYQGoP6dpAABdn0lEQVR4nO3daXhTdf428DtN0nShDV3oRktpgbK1QCnQBQRUKKBQcQMEKijg jjLIqMyM2zwzMjp/l5lB1EEEZREVBHGAakFZ27IUipS10H1JS0ubdE2b5DwvQqOVHdqcJOf+XFde kJymdzIZz91fzvkemSAIAoiIiIhIMpzEDkBERERE1sUCSERERCQxLIBEREREEsMCSERERCQxLIBE REREEsMCSERERCQxLIBEREREEsMCSERERCQxLIBEREREEsMCSERERCQxLIBEREREEsMCSERERCQx LIBEREREEsMCSERERCQxLIBEREREEsMCSERERCQxLIBEREREEsMCSERERCQxLIBEREREEsMCSERE RCQxLIBEREREEsMCSERERCQxLIBEREREEsMCSERERCQxLIBEREREEsMCSERERCQxLIBEREREEsMC SERERCQxLIBEREREEsMCSERERCQxLIBEREREEsMCSERERCQxLIBEREREEsMCSERERCQxLIBERERE EsMCSERERCQxLIBEREREEsMCSERERCQxLIBEREREEsMCSERERCQxLIBEREREEsMCSERERCQxLIBE REREEsMCSERERCQxLIBEREREEsMCSERERCQxLIBEREREEsMCSERERCQxLIBEREREEsMCSERERCQx LIBEREREEsMCSERERCQxLIBEREREEsMCSERERCQxLIBEREREEsMCSERERCQxCrED2DOTyYTS0lJ4 eHhAJpOJHYeIiIhugCAIqK2tRVBQEJycpLkWxgJ4G0pLSxESEiJ2DCIiIroFRUVFCA4OFjuGKFgA b4OHhwcA8wfI09NT5DRERER0I3Q6HUJCQiz7cSliAbwNrV/7enp6sgASERHZGSkfviXNL76JiIiI JIwFkIiIiEhiWACJiIiIJIYFkIiIiEhiWACJiIiIJIYFkIiIiEhiWACJiIiIJIYFkIiIiEhiWACJ iIiIJMbmCuCSJUswdOhQeHh4wM/PD5MnT8aZM2fabCMIAt544w0EBQXB1dUVo0ePxokTJ9pso9fr MX/+fPj6+sLd3R1JSUkoLi5us011dTWSk5OhVquhVquRnJyMmpqajn6JRERERKKyuQK4e/duPPvs s8jIyEBqaioMBgMSExNRX19v2eadd97Be++9h6VLl+LQoUMICAjA2LFjUVtba9lmwYIF2LRpE9av X499+/ahrq4OEydOhNFotGwzffp0ZGVlISUlBSkpKcjKykJycrJVXy8RERGRtckEQRDEDnEtFy5c gJ+fH3bv3o2RI0dCEAQEBQVhwYIFePnllwGYV/v8/f3x9ttv48knn4RWq0WXLl2wevVqTJ06FQBQ WlqKkJAQbNu2DePGjcOpU6fQr18/ZGRkIDY2FgCQkZGB+Ph4nD59Gr17975uNp1OB7VaDa1Wy2sB ExER2QnuvwGF2AGuR6vVAgC8vb0BAHl5edBoNEhMTLRso1KpMGrUKKSlpeHJJ59EZmYmWlpa2mwT FBSEyMhIpKWlYdy4cUhPT4darbaUPwCIi4uDWq1GWlraFQugXq+HXq+3/Fun07X76yX7c6FWj1Nl OhRXN6KitgmVdXq0GAQYBQFymQyd3ZTwcndGoNoFvfw8EN7FHS5KudixiYhIwmy6AAqCgIULF2LE iBGIjIwEAGg0GgCAv79/m239/f1RUFBg2cbZ2RleXl6XbdP68xqNBn5+fpf9Tj8/P8s2v7dkyRK8 +eabt/eiyO4VXWzAnpwL2Hu2EpmF1bhQq7/+D/2GkwzoF+SJ+HAfxPfwQUIPXxZCIiKyKpsugM89 9xx++eUX7Nu377LHZDJZm38LgnDZfb/3+22utP21nmfx4sVYuHCh5d86nQ4hISHX/J3kGCrr9NiS VYpNR0twvETb5jGZDAj3dUd3H3f4earQpZMKKqUcTjIZjCYTahpacLG+GUXVDThbXgdtYwuyS3TI LtFh+d48eKgUGNvPH0mDgjCyVxc4OV37c0xERHS7bLYAzp8/H1u2bMGePXsQHBxsuT8gIACAeQUv MDDQcn9FRYVlVTAgIADNzc2orq5uswpYUVGBhIQEyzbl5eWX/d4LFy5ctrrYSqVSQaVS3f6LI7tx slSHT/fmYsuxUhhM5sNl5U4yDO7WGSN7dUFCTx/0DfSEm/ON/V9JEARodE04mHcR6eersOvMBWh0 Tfj2aAm+PVqC7j5umJXQHQ/FBMPDRdmRL42IiCTM5gqgIAiYP38+Nm3ahF27diEsLKzN42FhYQgI CEBqaiqio6MBAM3Nzdi9ezfefvttAEBMTAyUSiVSU1MxZcoUAEBZWRmys7PxzjvvAADi4+Oh1Wpx 8OBBDBs2DABw4MABaLVaS0kk6cou0eKdH85gz9kLlvsGBqvxwOBgTBwQCJ9Ot/aHgEwmQ6DaFfcN 6or7BnWFySTgSGE1thwzry7mVzXgze9P4l87c/DEyHDMTuh+w+WSiIjoRtncWcDPPPMM1q1bh+++ +67NiRhqtRqurq4AgLfffhtLlizBypUr0atXL7z11lvYtWsXzpw5Aw8PDwDA008/jf/9739YtWoV vL29sWjRIlRVVSEzMxNyufl4qwkTJqC0tBSffPIJAOCJJ55AaGgovv/++xvKyrOIHE/RxQa8nXIa //ulDIB5tW9CZADm3RGOgSGdO/R31+sN2HS0BJ/tz0PuBfPYI99Ozlg4tjemDg2BnF8NExG1C+6/ bbAAXu34u5UrV2L27NkAzKuEb775Jj755BNUV1cjNjYWH374oeVEEQBoamrCH//4R6xbtw6NjY24 ++67sWzZsjbH7F28eBHPP/88tmzZAgBISkrC0qVL0blz5xvKyg+Q42gxmrB8by7+tSMHeoMJMhlw 38AgLBzbG9183KyaxWgSsOVYCT7YkYOCqgYAwIBgNf7ffZEdXkKJiKSA+28bLID2hB8gx3C8WIsX v8nC2fI6AEB8uA9endgP/YLE/d+0xWjC6vQCvJ96FrV6A2Qy4Ik7wvGHsRE8a5iI6DZw/80CeFv4 AbJvJpOA/+7Nxbs/nkGLUYC3uzP+cm9f3B/d9bpnlFtTRW0Tlmw7jU1HSwAAEf6d8N6UQYjsqhY5 GRGRfeL+mwXwtvADZL/KdU1YsD4L6blVAIDx/QOw5IEoeLk7i5zs6lJPlmPxt7+gsq4ZznInvJHU H48MC7GpskpEZA+4/2YBvC38ANmnzIJqPLUmExdq9XBVyvFGUj9MGWIfRaqqTo+XNx7HjlPmEUYP Dg7G3yZHwtWZXwkTEd0o7r8BJ7EDEFnT14eK8Mh/M3ChVo/e/h7Y+vwITB3azS7KHwD4dFJh+aMx eHl8HzjJgI1HivHAR2korWkUOxoREdkRFkCSBJNJwN/+dxIvbfwFzUYTxvcPwLfPJCC8Syexo900 mUyGp0f3wJq5sfBxd8apMh3uX7YfJ0t5bWoiIroxLIDk8JoNJvzh6yx8ui8PALBwbASWzRgMd5V9 D1hO6OGL754bjp5+nVCu02PKJ+ltBlcTERFdDQsgObR6vQFzPj+E77JKoXCS4YOpg/D83b0c5nq7 wV5u2PhUAuLCvVGnN+DxVYew5Vip2LGIiMjGsQCSw9I1tWDGpwewN6cSbs5yrJg9FJOju4odq92p 3ZT4/PFhuG9QEAwmAQvWH8WGzGKxYxERkQ2z7+/AiK5C19SC5BUHcayoBp3dlFj12DAMcuCraKgU crw/ZRDcnOX48mAR/rjhGJoNJkyP7SZ2NCIiskFcASSH8/vyt25unEOXv1ZOTjK8dX8UZid0hyAA f9p0HGsPFIgdi4iIbBALIDmUer0Bj/6u/Il9STdrkslkeH1SPzw5MhwA8JfN2fguq0TkVEREZGtY AMlhNBtMeGpNJrIkWv5ayWQyvDKhD2bFh0IQgIVfH8OPJzRixyIiIhvCAkgOwWQSsOibY9ibUwlX pRyrHhsmyfLXyrwS2B8PDg6G0STguXVHkXauUuxYRERkI1gAye4JgoD/t/Ukthwzj3r5ODlGEsf8 XY+TkwxvPxiF8f0D0Gw04cnVmThbXit2LCIisgEsgGT3/rsnFyv35wMA/u/hgRgV0UXcQDZEIXfC vx4ZhGHdvVGrN+CxlYdQUdskdiwiIhIZCyDZtdST5fhHymkAwF/u7euQc/5ul0ohxyfJMQjzdUdJ TSPmfn4YDc0GsWMREZGIWADJbp0q0+GF9UchCEByXCjm3hEudiSb5eXujJWzh8Lb3Rm/FGvxwvos GE2C2LGIiEgkLIBklyrr9JdWsowY3tMHr03qJ3Ykm9fd1x3LH42Bs8IJqSfL8X7qWbEjERGRSFgA ye7oDUY8tToTJTWNCPN1x7LpMVDK+VG+ETGh3njnwQEAgKU/n0NKNsfDEBFJEfeaZHf+9r9TOFxQ DQ8XBT6dNQRqN6XYkezK5OiueHx4GADgxa+zcK6CZwYTEUkNCyDZle+ySrA6w3x5s39Pi0aPLp1E TmSfFt/TB3Hh3qhvNuKJLzKha2oROxIREVkRCyDZjZzyWryy8TgAYP5dPXFnHz+RE9kvpdwJS6cP RqDaBbmV9Xjx62MQBJ4UQkQkFSyAZBfq9AY8tSYTjS1GjOjpiwVjIsSOZPd8O6nw8cwYOMvNJ4Ws SssXOxIREVkJCyDZPEEQ8Kdvj+P8hXoEeLrgX9MGQe4kEzuWQxgY0hl/uqcPAGDJttPILtGKnIiI iKyBBZBs3rdHSiyXeftwRjR8OqnEjuRQZiV0R2I/fzQbTXhu3RHU6TkkmojI0bEAkk0rqKrHa99l AwD+MDYCMaHeIidyPDKZDO88NABBahfkVzXgz5uO83hAIiIHxwJINqvFaMIL67NQ32zEsDBvPDWq h9iRHFZnN2f8+5FoyJ1k+C6rFBuPlIgdiYiIOhALINms/+zMQVZRDTxcFHh/Ko/762hDunvjD2N6 AQDe3HICxdUNIiciIqKOwgJINulg3kUs/fkcAOCt+6PQtbOryImk4alRPTC4W2fU6g344ze/wMTr BRMROSQWQLI5dXoD/vBVFkwC8ODgYEwaGCR2JMlQyJ3w7pRBcFXKkZ5bxdEwREQOigWQbM4/tp9C SU0jgr1c8UZSP7HjSE6Yrzv+dG9fAMDbKadxrqJO5ERERNTebK4A7tmzB5MmTUJQUBBkMhk2b97c 5nGZTHbF2z//+U/LNqNHj77s8WnTprV5nurqaiQnJ0OtVkOtViM5ORk1NTVWeIV0LWnnK7EmoxAA 8M6DA+Dhwuv8imFmbDeMjOgCvcGEhV9nocVoEjsSERG1I5srgPX19Rg4cCCWLl16xcfLysra3D77 7DPIZDI8+OCDbbabN29em+0++eSTNo9Pnz4dWVlZSElJQUpKCrKyspCcnNxhr4uur15vwMsbfwEA zIjthoSeviInki6ZTIZ3HhwATxcFfinW4uNd58WORERE7UghdoDfmzBhAiZMmHDVxwMCAtr8+7vv vsOdd96J8PDwNve7ubldtm2rU6dOISUlBRkZGYiNjQUALF++HPHx8Thz5gx69+59m6+CbsU7KadR dLERXTu7YvE9fcWOI3kBahf89b5ILPgqC//56RwmRAWip18nsWMREVE7sLkVwJtRXl6OrVu3Ys6c OZc9tnbtWvj6+qJ///5YtGgRamtrLY+lp6dDrVZbyh8AxMXFQa1WIy0t7aq/T6/XQ6fTtblR+8jI rcLn6QUAgH88GIVOKpv720SS7hsUhNG9u6DZaMLib3lWMBGRo7DrAvj555/Dw8MDDzzwQJv7Z8yY gS+//BK7du3Cq6++io0bN7bZRqPRwM/P77Ln8/Pzg0ajuervW7JkieWYQbVajZCQkPZ7MRLW1GK0 fPX7yLAQ3NGri8iJqJVMJsPfJkfCzVmOQ/nVWHuwUOxIRETUDuy6AH722WeYMWMGXFxc2tw/b948 jBkzBpGRkZg2bRo2bNiAHTt24MiRI5ZtZLLLhwoLgnDF+1stXrwYWq3WcisqKmq/FyNh//kpBwVV DQjwdOFXvzYo2MsNL40zHxbx9vbTKNM2ipyIiIhul90WwL179+LMmTOYO3fudbcdPHgwlEolcnJy AJiPIywvL79suwsXLsDf3/+qz6NSqeDp6dnmRrcnp7wW/92TCwB4I6k/PHnWr01Kju+O6G6dUac3 4C+bsnmtYCIiO2e3BXDFihWIiYnBwIEDr7vtiRMn0NLSgsDAQABAfHw8tFotDh48aNnmwIED0Gq1 SEhI6LDM1JbJJODPm7LRYhQwpq8fxvW/evkmccmdZHj7wQFQymXYeboCW4+XiR2JiIhug80VwLq6 OmRlZSErKwsAkJeXh6ysLBQW/nrskU6nwzfffHPF1b/z58/jr3/9Kw4fPoz8/Hxs27YNDz/8MKKj ozF8+HAAQN++fTF+/HjMmzcPGRkZyMjIwLx58zBx4kSeAWxFGzKLcTD/IlyVcryR1P+aX7+T+CL8 PfD06J4AgL9+fxK1TS0iJyIioltlcwXw8OHDiI6ORnR0NABg4cKFiI6OxmuvvWbZZv369RAEAY88 8shlP+/s7IydO3di3Lhx6N27N55//nkkJiZix44dkMvllu3Wrl2LqKgoJCYmIjExEQMGDMDq1as7 /gUSAKCqTo+3tp8CAPxhbC8Ee7mJnIhuxDOjeyDUxw0VtXr8a0eO2HGIiOgWyQQezHPLdDod1Go1 tFotjwe8SS9+fQwbjxSjT4AHvp8/Akq5zf0tQlex60wFZq88BLmTDFufH4E+AfzsE5F94f7bBlcA yfFl5FZh45FiyGTAWw9EsfzZmdG9zcdrGk0CXtt8gieEEBHZIe55yaoMRhNe/+4EAOCRYd0wuJuX yInoVrw2qT9clXIczL+ITUdLxI5DREQ3iQWQrGrdwUKcKa9FZzelZbYc2Z+unV0x/27zCSFvbTsF bSNPCCEisicsgGQ11fXNePfHswCAF8dGoLObs8iJ6HbMHRGOHl3cUVnXjPdTz4odh4iIbgILIFnN u6lnoG1sQZ8ADzwyrJvYceg2OSuc8Nf7IgEAqzMKcK6i9jo/QUREtoIFkKziZKkO6w6YZzm+kdQf Cp744RCG9/TF2H7mE0L+tvWU2HGIiOgGcS9MHU4QBLz5/QmYBODeqEDEhfuIHYna0Z/u6QulXIZd Zy7g5zMVYschIqIbwAJIHW7bcQ0O5F2ESuGExff0ETsOtbMwX3c8NjwMAPC3/51Ei9EkciIiIroe FkDqUE0tRry1zfzV4NOje/CKHw7qubt6wsfdGecv1GNNRoHYcYiI6DpYAKlDfbY/DyU1jQhSu+DJ kT3EjkMdxNNFiYWJEQCAD3bkoLq+WeRERER0LSyA1GGq6vT46OfzAIBF43rD1Vl+nZ8gezZtaDf0 CfCAtrEF/9rJ6wQTEdkyFkDqMP/56Rxq9Qb0D/LE5EFdxY5DHUzuJMNrE/sBaB0LUydyIiIiuhoW QOoQ+ZW/Hgv2p3v6wslJJnIisoaEnr4Y09cPRpOAf/5wWuw4RER0FSyA1CHe+eE0DCYBo3t3wfCe vmLHISt6eXwfOMmAH06UI7OgWuw4RER0BSyA1O4yC6qx7bgGTjJg8YS+YschK+vl74GHY0IAAP/Y fgqCIIiciIiIfo8FkNqVIAiWsS8Px4Sgd4CHyIlIDAvG9oJK4YRD+dXYeYrDoYmIbA0LILWrH05o kFlQDRelE/4wNkLsOCSSQLUrHh9hHg79dsppGDgcmojIprAAUrtpMZrwdsoZAMC8O8IRoHYRORGJ 6alRPdDZTYmcijp8e6RE7DhERPQbLIDUbjZkFiOvsh4+7s54chSHPkud2lWJ5+7sCQB4L/UsGpuN IiciIqJWLIDULppajPj3peG/z9zZE51UCpETkS2YGReKrp1dodE1YVVavthxiIjoEhZAahdrDxSi TNuEQLULZsR2EzsO2QgXpRwLLx0LumzXOdQ08BJxRES2gAWQblu93oBlP58DALxwdy+4KHnJN/rV 5Oiu6BPggdomA5bvzRU7DhERgQWQ2sHK/Xmoqm9GmK87HowJFjsO2Ri5k8yyCrhyfz4q6/QiJyIi IhZAui01Dc34ZI95VWfBmF5QyvmRosuN7eePAcFqNDQb8fGu82LHISKSPO6t6bZ8sicXtU0G9Anw wKQBQWLHIRslk/26Crg6owDluiaRExERSRsLIN2yitomrNqfDwBYlNgbTk4ycQORTRsV0QVDQr2g N5jw4aVjRomISBwsgHTLlv18Ho0tRgwK6Yy7+/qJHYdsnEwmw4uJvQEAXx4sRHF1g8iJiIikiwWQ bklpTSPWHSgEAPxxXG/IZFz9o+uL7+GD4T190GIUsPQnrgISEYmFBZBuyUe7zqPZaEJcuDeG9/QV Ow7ZkYVjzauA32QWI7+yXuQ0RETSxAJIN61M24ivDhUBAF64O0LkNGRvYkK9cGfvLjCaBPzr0tVj iIjIulgA6aa1rv7FhnkjvoeP2HHIDrWuAm7OKsG5ijqR0xARSY/NFcA9e/Zg0qRJCAoKgkwmw+bN m9s8Pnv2bMhksja3uLi4Ntvo9XrMnz8fvr6+cHd3R1JSEoqLi9tsU11djeTkZKjVaqjVaiQnJ6Om pqaDX539K9M2Yv1B8+rfgjFc/aNbExWsRmI/fwgCLFeRISIi67G5AlhfX4+BAwdi6dKlV91m/Pjx KCsrs9y2bdvW5vEFCxZg06ZNWL9+Pfbt24e6ujpMnDgRRqPRss306dORlZWFlJQUpKSkICsrC8nJ yR32uhzFx5dW/4Zx9Y9u0/N39wJgXgXksYBERNalEDvA702YMAETJky45jYqlQoBAQFXfEyr1WLF ihVYvXo1xowZAwBYs2YNQkJCsGPHDowbNw6nTp1CSkoKMjIyEBsbCwBYvnw54uPjcebMGfTu3bt9 X5SD0Gib8KVl9a+XyGnI3kV2VeOuPn746XQFPvz5HP758ECxIxERSYbNrQDeiF27dsHPzw8RERGY N28eKioqLI9lZmaipaUFiYmJlvuCgoIQGRmJtLQ0AEB6ejrUarWl/AFAXFwc1Gq1ZZsr0ev10Ol0 bW5S8vHuS6t/3b0RH87VP7p98+/qCQD49mgJii5yLiARkbXYXQGcMGEC1q5di59++gnvvvsuDh06 hLvuugt6vfkC8xqNBs7OzvDy8mrzc/7+/tBoNJZt/PwuH1zs5+dn2eZKlixZYjlmUK1WIyQkpB1f mW3TaJuw7qB57t+CMb0494/aRXQ3L4yMMJ8RvGwXjwUkIrIWuyuAU6dOxb333ovIyEhMmjQJ27dv x9mzZ7F169Zr/pwgCG1Ky5UKzO+3+b3FixdDq9VabkVFRbf+QuzMx7vPo9lwafWPx/5RO3rhbvMq 4IbMYl4dhIjISuyuAP5eYGAgQkNDkZNjnicWEBCA5uZmVFdXt9muoqIC/v7+lm3Ky8sve64LFy5Y trkSlUoFT0/PNjcpKNf9uvr3Alf/qJ3FhHpbrg7y8e7zYschIpIEuy+AVVVVKCoqQmBgIAAgJiYG SqUSqamplm3KysqQnZ2NhIQEAEB8fDy0Wi0OHjxo2ebAgQPQarWWbehX/92Ti2aDCUNCvZDA1T/q AM/fZT6p6OtDxSjTNoqchojI8dlcAayrq0NWVhaysrIAAHl5ecjKykJhYSHq6uqwaNEipKenIz8/ H7t27cKkSZPg6+uL+++/HwCgVqsxZ84cvPjii9i5cyeOHj2KmTNnIioqynJWcN++fTF+/HjMmzcP GRkZyMjIwLx58zBx4kSeAfw7F+ubLdf8nX83V/+oY8SG+yA2zBvNRhM+2Z0rdhwiIodncwXw8OHD iI6ORnR0NABg4cKFiI6OxmuvvQa5XI7jx4/jvvvuQ0REBGbNmoWIiAikp6fDw8PD8hzvv/8+Jk+e jClTpmD48OFwc3PD999/D7lcbtlm7dq1iIqKQmJiIhITEzFgwACsXr3a6q/X1q3an4fGFiMiu3pi ZC9e85c6zguX5gKuO1iICl2TyGmIiBybTBAEQewQ9kqn00GtVkOr1Trk8YC1TS0Y/o+foGsy4KMZ gzEhKlDsSOTABEHAwx+n43BBNeaOCMNfJvYTOxIROShH33/fCJtbASTbsSajELomA3p0cce4/lce vE3UXmQyGZ69NBdw3cFCVNc3i5yIiMhxsQDSFTW1GLFin/lYrGdG94STE4/9o443OqIL+gV6oqHZ iM/T88WOQ0TksFgA6Yq+PlyEyrpmdO3siqRBQWLHIYmQyWR4enQPAMCqtHzU6w0iJyIickwsgHSZ lt+cifnUqHAo5fyYkPXcExWI7j5uqGlowZeX5k8SEVH74p6dLvNdVilKahrh20mFh4dI53J3ZBvk TjI8Ocq8Cvjp3jzoDUaRExEROR4WQGrjt9dknXdHGFyU8uv8BFH7e2BwV/h7qqDRNWHz0RKx4xAR ORwWQGrjhxMa5F6oh6eLAjPiQsWOQxKlUsgxd0Q4AODj3bkwmjitioioPbEAkoUgCPjwZ/Pq3+zh YeikUoiciKTskdhuULsqkVdZj5RsjdhxiIgcCgsgWezJqcSJUh3cnOV4LKG72HFI4jqpFJh16XO4 bNc5cGY9EVH7YQEki092nwcATBvaDV7uziKnIQIeS+gOV6UcJ0p12JNTKXYcIiKHwQJIAIDjxVqk na+C3EmGOXeEiR2HCADg5e6MR4Z1AwAsu3R4AhER3T4WQAIAfLLHvPo3aUAgunZ2FTkN0a/mjQyD Ui7DgbyLyCyoFjsOEZFDYAEkFF1swLbjZQCAJ0b2EDkNUVuBaldMHtQVALB8T67IaYiIHAMLIOHT vbkwCcDIiC7oF+Qpdhyiyzwx0jwS5oeTGuRV1ouchojI/rEAStzF+mZ8dbgIAPDkpZ0ska3p5e+B u/r4QRCAFfu4CkhEdLtYACVudXoBmlpMiOzqiYQePmLHIbqq1lXAbw4Xo6pOL3IaIiL7xgIoYY3N Rnyeng/AfOyfTCYTNxDRNcSGeWNAsBp6gwmrMwrEjkNEZNdYACVsw5FiXKxvRrCXK+6JDBA7DtE1 yWQyyyrgF+kFaGw2ipyIiMh+sQBKlNEk4NO95mOp5o4Ig0LOjwLZvvH9AxDs5YqL9c3YeKRY7DhE RHaLe32J+uGEBgVVDejspsSUoSFixyG6IQq5E+aOMA8q/3RvLowmXh6OiOhWsABKkCAIlsu+PRoX CjdnhciJiG7cw0NCoHZVIr+qAakny8WOQ0Rkl1gAJehA3kUcK9ZCpXDCowndxY5DdFPcVQokx4UC AP576Qo2RER0c1gAJah19e+hmGD4dlKJnIbo5j2aEApnuROOFNYgs+Ci2HGIiOwOC6DE5JTX4ucz FyCTAfPu4OBnsk9+Hi54YLD58nCf7OZgaCKim8UCKDGf7c8DACT280d3X3eR0xDdurmX/oBJPVWO 3At1IqchIrIvLIASUlWnx8YjJQB+3XkS2auefp0wpq/58nCf7ssTOw4RkV1hAZSQtQcK0WwwYUCw GkNCvcSOQ3TbnhjZAwCwIbMYlbw8HBHRDWMBlAi9wYgv0s2Xz5ozIoyXfSOHMLS7FwYGq9FsMGFt RqHYcYiI7AYLoERsySpFZZ0egWoX3BMVKHYconYhk8nw+KXB0KszCqA38PJwREQ3ggVQAgRBwIpL x0jNSugOJS/7Rg7knqhABKpdUFmnx/fHysSOQ0RkF9gEJCDtfBVOa2rhqpTjkaHdxI5D1K6Ucic8 Gt8dALBiXx4EgZeHIyK6HpsrgHv27MGkSZMQFBQEmUyGzZs3Wx5raWnByy+/jKioKLi7uyMoKAiP PvooSktL2zzH6NGjIZPJ2tymTZvWZpvq6mokJydDrVZDrVYjOTkZNTU1VniF1vfpXvOctClDgqF2 U4qchqj9TR/WDa5KOU6V6ZCeWyV2HCIim2dzBbC+vh4DBw7E0qVLL3usoaEBR44cwauvvoojR47g 22+/xdmzZ5GUlHTZtvPmzUNZWZnl9sknn7R5fPr06cjKykJKSgpSUlKQlZWF5OTkDntdYjlXUWcZ /PzY8DCx4xB1CLWbEg/FBAMAPuNIGCKi61KIHeD3JkyYgAkTJlzxMbVajdTU1Db3/ec//8GwYcNQ WFiIbt1+/XrTzc0NAQEBV3yeU6dOISUlBRkZGYiNjQUALF++HPHx8Thz5gx69+7dTq9GfK2Dn8f0 5eBncmyPDe+O1RkF2Hm6AnmV9Qjj552I6KpsbgXwZmm1WshkMnTu3LnN/WvXroWvry/69++PRYsW oba21vJYeno61Gq1pfwBQFxcHNRqNdLS0q76u/R6PXQ6XZubLbtY34xvjxQDMI9+IXJk4V064e4+ 5sHQK/dzFZCI6FrsugA2NTXhlVdewfTp0+Hp6Wm5f8aMGfjyyy+xa9cuvPrqq9i4cSMeeOABy+Ma jQZ+fn6XPZ+fnx80Gs1Vf9+SJUssxwyq1WqEhIS07wtqZ+sOFKCpxYTIrp6IDfMWOw5Rh2sdCfPN 4WJoG1pETkNEZLvstgC2tLRg2rRpMJlMWLZsWZvH5s2bhzFjxiAyMhLTpk3Dhg0bsGPHDhw5csSy zZUGIQuCcM0ByYsXL4ZWq7XcioqK2u8FtTO9wYjPOfiZJCahhw/6BHigscWILw9xMDQR0dXYZQFs aWnBlClTkJeXh9TU1Darf1cyePBgKJVK5OTkAAACAgJQXl5+2XYXLlyAv7//VZ9HpVLB09Ozzc1W /e9YGS7U6uHvqcK9UUFixyGyit8Ohv48LR8tRpPIiYiIbJPdFcDW8peTk4MdO3bAx8fnuj9z4sQJ tLS0IDDQfAWM+Ph4aLVaHDx40LLNgQMHoNVqkZCQ0GHZreW3g58fje8OZ4Xd/c9MdMuSBgbBt5Mz yrRNSMm++iEdRERSZnPNoK6uDllZWcjKygIA5OXlISsrC4WFhTAYDHjooYdw+PBhrF27FkajERqN BhqNBs3NzQCA8+fP469//SsOHz6M/Px8bNu2DQ8//DCio6MxfPhwAEDfvn0xfvx4zJs3DxkZGcjI yMC8efMwceJEhzgDOD23CifLdHBVyjEjloOfSVpclHLMjAsFAMsfQkRE1JbNFcDDhw8jOjoa0dHR AICFCxciOjoar732GoqLi7FlyxYUFxdj0KBBCAwMtNxaz951dnbGzp07MW7cOPTu3RvPP/88EhMT sWPHDsjlcsvvWbt2LaKiopCYmIjExEQMGDAAq1evFuU1t7fWOWgPxnRFZzdnkdMQWd/MuFA4K5yQ VVSDzIJqseMQEdkcmcDrJt0ynU4HtVoNrVZrM8cD5lXW487/2wUA+OnFUQjv0kncQEQieWnDMXx9 uBj3RgXiwxmDxY5DRDbEFvff1mZzK4B0ez5PywcA3NXHj+WPJK31ZJDt2WUorm4QOQ0RkW1hAXQg tU0t2JBpHvz82PDu4oYhElmfAE8M7+kDk/DrH0ZERGTGAuhANmQWo05vQE+/ThjR01fsOESia70C zvqDRajTG0ROQ0RkO1gAHYTJJFhWOWYldOfgZyIAoyP8EN7FHbV6AzZeWh0nIiIWQIex++wF5Fc1 wMNFgQeiu4odh8gmODnJMDuhOwDz18AmE895IyICWAAdxspLq39Th4TAXaUQNwyRDXlgcDA8VArk VtZjT84FseMQEdkEFkAHcK6iDnvOXoBMZv76l4h+1UmlwJShIQCAVTwZhIgIAAugQ2g99m9MX3+E eLuJG4bIBj0aHwqZDNh15gJyL9SJHYeISHQsgHZO29iCjUcujX7h6h/RFYX6uOPuPn4AOBKGiAhg AbR73xwuQkOzERH+nRDfw0fsOEQ2a3aCeSTMhsxi6JpaRE5DRCQuFkA7ZjQJ+CK9AIB558bRL0RX N7ynD3r5dUJ9sxEbDnMkDBFJGwugHfvpdAUKLzZA7arE/Rz9QnRNMpkMsy9dIefzdI6EISJpYwG0 Y6vS8gAA04aFwNVZLnIaItt3f3RXeLooUFDVgF1nK8SOQ0QkGhZAO3W2vBb7z1XBSQYkx4WKHYfI Lrg5KzBtWDcAwMr9+eKGISISEQugnWqdZ5bYLwDBXhz9QnSjkuNC4SQD9uZU4lxFrdhxiIhEwQJo h7QNLfj20uiX1mOaiOjGhHi7YUxffwAcDE1E0sUCaIfWHypEU4sJfQM9ERvmLXYcIrvz2HDzSJiN mSXQNnIkDBFJDwugnTEYTZbRL48ldOfoF6JbEBfujT4BHmhsMeKbw0VixyEisjoWQDuz41QFSmoa 4eWmRNKgILHjENklmUyG2ZeunPN5ej6MHAlDRBLDAmhnWke/PDKsG1yUHP1CdKvuG9QVnd2UKLrY iJ9OcyQMEUkLC6AdOVWmQ0buRcidZJjJ0S9Et8XVWY5pQ80jYVr/sCIikgoWQDuy6tLcsvGRAQjq 7CpuGCIHkBwfCrmTDPvPVeGMhiNhiEg6WADtxMX6ZmzOKgFgPvmDiG5f186uGNefI2GISHpYAO3E +kOF0BtMiOzqiZhQL7HjEDmM2QnmkTCbjhajpqFZ5DRERNbBAmgHDEYTVl8a/TI7IYyjX4ja0dDu XugX6ImmFhO+OsSRMEQkDSyAduDHk+Uo0zbBx90ZEwcEih2HyKHIZDLLFXW+SC+AwWgSNxARkRWw ANqBlfvNZyjOiOXoF6KOkDQwCN7uziipacSOUxwJQ0SOjwXQxmWXaHEovxoKJxlmcPQLUYdwUcox fZh5JEzrH1xERI6MBdDGtZ6ZeE9UIPw9XcQNQ+TAZsaZR8IcyLuIk6U6seMQEXUoFkAbVlmnx5as UgCwHKNERB0jQO2CCZEBADgYmogcHwugDVt/sBDNRhMGBqsRHdJZ7DhEDu+x4eaRMN9lleJiPUfC EJHjsrkCuGfPHkyaNAlBQUGQyWTYvHlzm8cFQcAbb7yBoKAguLq6YvTo0Thx4kSbbfR6PebPnw9f X1+4u7sjKSkJxcXFbbaprq5GcnIy1Go11Go1kpOTUVNT08Gv7sa1GE1YnWEe/fLYcI5+IbKGwd06 Y0CwGnqDCesPFYodh4iow9hcAayvr8fAgQOxdOnSKz7+zjvv4L333sPSpUtx6NAhBAQEYOzYsait /fUyTgsWLMCmTZuwfv167Nu3D3V1dZg4cSKMRqNlm+nTpyMrKwspKSlISUlBVlYWkpOTO/z13ajt 2RqU6/To4qHCPVEc/UJkDTKZDLMvXWlnNUfCEJEDkwmCIIgd4mpkMhk2bdqEyZMnAzCv/gUFBWHB ggV4+eWXAZhX+/z9/fH222/jySefhFarRZcuXbB69WpMnToVAFBaWoqQkBBs27YN48aNw6lTp9Cv Xz9kZGQgNjYWAJCRkYH4+HicPn0avXv3vqF8Op0OarUaWq0Wnp6e7fraH1i2H0cKa7BgTC8sGBPR rs9NRFenNxgx/B8/obKuGctmDOYfYEQOqCP33/bC5lYAryUvLw8ajQaJiYmW+1QqFUaNGoW0tDQA QGZmJlpaWtpsExQUhMjISMs26enpUKvVlvIHAHFxcVCr1ZZtrkSv10On07W5dYRjRTU4UlgDpVyG 6bHdOuR3ENGVqRRyTI81j1xatT9f3DBEEvbT6XLM+uwg9p+rFDuKQ7KrAqjRaAAA/v7+be739/e3 PKbRaODs7AwvL69rbuPn53fZ8/v5+Vm2uZIlS5ZYjhlUq9UICQm5rddzNZ+n5wMAJg4Igp8HR78Q WdvM2G5QOMlwMP8isku0YschkqSV+/Ox++wF7D57QewoDsmuCmCr358QIQjCdU+S+P02V9r+es+z ePFiaLVay62oqGOuG/rSuD547s6emDMirEOen4iuzc/TBfdeuuxi6yxOIrKecxV12JtTCZkMSOZF EDqEXRXAgADzjK7fr9JVVFRYVgUDAgLQ3NyM6urqa25TXl5+2fNfuHDhstXF31KpVPD09Gxz6wgB ahcsGtcbkV3VHfL8RHR9rSeDbMkqRWWdXtwwRBLzxaVvwsb09UeIt5u4YRyUXRXAsLAwBAQEIDU1 1XJfc3Mzdu/ejYSEBABATEwMlEplm23KysqQnZ1t2SY+Ph5arRYHDx60bHPgwAFotVrLNkQkbdHd vDAwpDOajSasP8iRMETWomtqwYZM8+i21j/EqP3ZXAGsq6tDVlYWsrKyAJhP/MjKykJhYSFkMhkW LFiAt956C5s2bUJ2djZmz54NNzc3TJ8+HQCgVqsxZ84cvPjii9i5cyeOHj2KmTNnIioqCmPGjAEA 9O3bF+PHj8e8efOQkZGBjIwMzJs3DxMnTrzhM4CJyPE91joSJqMALRwJQ2QVGw4Xo6HZiF5+nZDQ w0fsOA5LIXaA3zt8+DDuvPNOy78XLlwIAJg1axZWrVqFl156CY2NjXjmmWdQXV2N2NhY/Pjjj/Dw 8LD8zPvvvw+FQoEpU6agsbERd999N1atWgW5XG7ZZu3atXj++ectZwsnJSVddfYgEUnTPVGB+Pu2 UyjX6ZGSrcGkgUFiRyJyaCaTYPn6d1ZCd14EoQPZ9BxAW8c5QkSO74MdZ/HBjhzEhHph49M8RISo I/18ugKPrToEDxcFMhbfDXdVx6xTcf9tg18BExHZkhmxoVDKZcgsqMYvxTVixyFyaCsvnXU/ZUhI h5U/MmMBJCK6hi4eKkwaYP7ql4OhiTrOuYo67Dl7ATIZ8Gg8R790NBZAIqLrmHXpZJDvfylFRW2T uGGIHFTrsX939/FDqI+7uGEkgAWQiOg6BoZ0xuBundFiFPDlgY4ZAE8kZb8d/fLYcF4EwRpYAImI bsDsSzulNQcK0GzgSBii9vQNR79YHQsgEdENmBAZAH9PFS7U6rE9u0zsOEQOw2gS8Pmlkz9mD+fo F2thASQiugFKuRNmxpoPTF/Jk0GI2s3PpytQeLEBni4K3B/dVew4ksECSER0gx6J7QZnuROyimpw tLD6+j9ARNe16tLq3yPDusHNmaNfrIUFkIjoBvl2UlmuBtL6lRUR3bqc8lrsO1cJJxkwM46jX6yJ BZCI6Ca0Xpx+6/EyVOg4EobodrQOfh7bzx8h3m7ihpEYFkAiopsQFazGkFAvtBgFrDlQKHYcIrul bWjBt0fMo19mJ3D0i7WxABIR3aTWOWXrDhRAbzCKnIbIPn11uBBNLSb0CfBAXLi32HEkhwWQiOgm Jfb3R6DaBZV1zdj6C0fCEN0s8+iXAgDAYxz9IgoWQCKim6SUO1kOWF+5Px+CIIiciMi+7DhVjpKa RnR2U+K+QRz9IgYWQCKiW/DIsG5wVjjheIkWRwprxI5DZFdW7s8DYP7/kYtSLnIaaWIBJCK6Bd7u zpg8yDwSZhVHwhDdsFNlOmTkXoTcSYZkjn4RDQsgEdEtmnVpJMz242XQaDkShuhGtM7QHN8/AEGd XcUNI2EsgEREt6h/kBrDwrxhMAlYe6BA7DhENq+6vhmbjpYAMF/3l8TDAkhEdBseu7QKuO5AIZpa OBKG6Fq+PFQIvcGE/kGeGBLqJXYcSWMBJCK6DWP7+SNI7YKq+mZ8f6xU7DhENstgNGF1euvolzCO fhEZCyAR0W1QyJ2QHN8dgPlkEI6EIbqyH0+Wo0zbBB93Z0wcECh2HMljASQiuk3ThobARemEE6U6 HC6oFjsOkU1atT8fADA9lqNfbAELIBHRbfJyd8b90eZhtq07OSL6VXaJFgfzL0LhJLMMUSdxsQAS EbWD1pEwKSc0KK1pFDcMkY1pnZV5T1Qg/D1dxA1DAFgAiYjaRZ8AT8SH+8BoErAmgyNhiFpV1umx Jct8ghRHv9gOFkAionbSunP78iBHwhC1+vJAIZqNJgwMViM6pLPYcegSFkAionYypq8/unZ2RXVD i2XFg0jKmg0mrL60Ij57eHeOfrEhLIBERO1E7iTDrATzAe6f7c/jSBiSvP/9UoqKWj38PFS4NypI 7Dj0GyyARETtaOqQbnBVynFaU4sDeRfFjkMkGkEQsGJfHgDzSVLOClYOW8L/NYiI2pHaTYn7B5tH wnx2aedHJEUH8i7iRKkOLkonTB/WTew49DssgERE7az1+sCpp8pRUFUvbhgikbSu/j0wOBhe7s4i p6Hfs8sC2L27+UDS39+effZZAMDs2bMveywuLq7Nc+j1esyfPx++vr5wd3dHUlISiouLxXg5RORg evl7YHTvLhAEYCUHQ5ME5VfWY8epcgDA48PDRE5DV2KXBfDQoUMoKyuz3FJTUwEADz/8sGWb8ePH t9lm27ZtbZ5jwYIF2LRpE9avX499+/ahrq4OEydOhNHI0Q1EdPvmjDDv9L4+XARtY4vIaYisy3xd bGB07y7o6ddJ7Dh0BQqxA9yKLl26tPn3P/7xD/To0QOjRo2y3KdSqRAQEHDFn9dqtVixYgVWr16N MWPGAADWrFmDkJAQ7NixA+PGjeu48EQkCSN6+qK3vwfOlNdi/cFCPDmqh9iRiKxC29iCrw8XAfj1 DyGyPXa5Avhbzc3NWLNmDR5//PE284V27doFPz8/REREYN68eaioqLA8lpmZiZaWFiQmJlruCwoK QmRkJNLS0q76u/R6PXQ6XZsbEdGVyGQyy87v87R8tBhNIiciso6vDhWiodmI3v4eGNHTV+w4dBV2 XwA3b96MmpoazJ4923LfhAkTsHbtWvz000949913cejQIdx1113Q6/UAAI1GA2dnZ3h5ebV5Ln9/ f2g0mqv+riVLlkCtVltuISEhHfKaiMgxJA0Kgm8nZ5Rqm7A9++r/bSFyFAajCZ+nmQc/Pz6Cg59t md0XwBUrVmDChAkICvp1wOTUqVNx7733IjIyEpMmTcL27dtx9uxZbN269ZrPJQjCNT+sixcvhlar tdyKiora7XUQkeNxUcqRHNcdALBiby4HQ5PDSzmhQUlNI3zcnXHfoK5ix6FrsOsCWFBQgB07dmDu 3LnX3C4wMBChoaHIyckBAAQEBKC5uRnV1dVttquoqIC/v/9Vn0elUsHT07PNjYjoWmbEdYOzwgnH irXILKi+/g8Q2bHW0S8z4kLhopSLnIauxa4L4MqVK+Hn54d77733mttVVVWhqKgIgYGBAICYmBgo lUrL2cMAUFZWhuzsbCQkJHRoZiKSFt9OKjwQbV4J+XQvB0OT4zpSWI2jhTVwljshOS5U7Dh0HXZb AE0mE1auXIlZs2ZBofj1ZOa6ujosWrQI6enpyM/Px65duzBp0iT4+vri/vvvBwCo1WrMmTMHL774 Inbu3ImjR49i5syZiIqKspwVTETUXh6/dDLIjyc1KKxqEDkNUcdoXf1LGhSELh4qkdPQ9dhtAdyx YwcKCwvx+OOPt7lfLpfj+PHjuO+++xAREYFZs2YhIiIC6enp8PDwsGz3/vvvY/LkyZgyZQqGDx8O Nzc3fP/995DLuWRNRO0rwt8DIyO6wCQAK9O4CkiOp6SmESmXTnTi4Gf7IBN4VPIt0+l0UKvV0Gq1 PB6QiK5pz9kLePSzg3B3liP9T3fD00UpdiSidvPWtlP4755cJPTwwbp5cdf/AZFx/23HK4BERPbk jl6+iPDvhPpmI746yAkC5Djq9QZ8ebAQAAc/2xMWQCIiK/jtYOhVafkwcDA0OYhvDhehtsmAcF93 3NnbT+w4dINYAImIrOS+QV3h4+5sPl7qBAdDk/0zmgR8tj8fAPDY8O5wcuLgZ3vBAkhEZCUuSjlm XhqPsXxvHgdDk91Lydag8GIDvNyUeCiGV8eyJyyARERWNDMu1DwYuqgGRwo5GJrslyAI+O+e8wCA 5LhQuDpzioY9YQEkIrKiLh4qTB5kvnQlB0OTPTuYdxHHirVQKZzwaEJ3sePQTWIBJCKysrl3hAMw Xzc1v7Je5DREt+a/e3IBAA/GBMO3Ewc/2xsWQCIiK4vw98CdvbtAEIDle3PFjkN003LKa7HzdAVk MmAuR7/YJRZAIiIRPDmqBwDgm8xiVNbpRU5DdHNaD18Y29cf4V06iZyGbgULIBGRCGLDvDEwpDOa DSZ8kZYvdhyiG1aha8KmoyUAgCdHhYuchm4VCyARkQhkMhmeGmneeX6eXoB6vUHkREQ3ZlVaPpqN Jgzu1hkxod5ix6FbxAJIRCSSxP4B6O7jBm1jC74+zMvDke2r1xuwJqMAAPDEyB4ip6HbwQJIRCQS uZPMckbwp3vzeHk4snlfHSqCrsmAMF93jO3nL3Ycug0sgEREInooJthyebitx8vEjkN0VQajCSv2 mU/+mHtHGOS87JtdYwEkIhKRi1KOWZeG6H6yO5eXhyObtfV4GUpqGuHj7owHBweLHYduEwsgEZHI kuNC4aqU42SZDvvOVYodh+gygiBYZlY+Gt8dLkpe9s3esQASEYnMy90ZU4eGAPj16gpEtiT9fBWy S3RwUTohOT5U7DjUDlgAiYhswJwR5mOq9uZUIrtEK3YcojY+2n0eAPBwTAi83Z1FTkPtgQWQiMgG hHi74d6oQABcBSTbcrxYi705lZA7yfDESA5+dhQsgERENqJ157r1eBmKLjaInIbIbNmucwCApIFB CPF2EzkNtRcWQCIiGxHZVY0RPX1hNAn4dC9XAUl85yrqkHJCAwB4ejQHPzsSFkAiIhvSupNdf6gI F2r1Iqchqftk93kIAjCmrz8i/D3EjkPtiAWQiMiGJPTwwaCQztAbTPhsf57YcUjCSmsaseloCQDg mTu5+udoWACJiGyITCbDs3f2BACsTi+AtqFF5EQkVcv35sJgEhAX7o3B3bzEjkPtjAWQiMjG3N3H D30CPFCnN+CL9Hyx45AEXaxvxvqDRQCAZ0b3FDkNdQQWQCIiG+PkJLMcC/jZ/jzU6w0iJyKpWbU/ D40tRkR1VeOOXr5ix6EOwAJIRGSD7o0KRKiPG6obWvDlwUKx45CE1OkNWJWWDwB4ZnQPyGQycQNR h2ABJCKyQQq5E54eZV4FXL43F3qDUeREJBVrMwqgazIgvIs7xvUPEDsOdRAWQCIiG3X/4K4I8HRB uU6PjZklYschCWhqMeLTfeazz58a1QNOTlz9c1QsgERENkqlkFuuDvLx7vMwGE0iJyJHtyGzGBdq 9QhUu2DyoK5ix6EOxAJIRGTDpg0Lgbe7MwovNmDr8TKx45ADazaY8NGu8wCAJ0eGw1nBiuDI7PJ/ 3TfeeAMymazNLSDg1+MUBEHAG2+8gaCgILi6umL06NE4ceJEm+fQ6/WYP38+fH194e7ujqSkJBQX F1v7pRARXZObswKPD+8OAPjw53MwmQRxA5HD+vZIMUpqGuHnocK0Yd3EjkMdzC4LIAD0798fZWVl ltvx48ctj73zzjt47733sHTpUhw6dAgBAQEYO3YsamtrLdssWLAAmzZtwvr167Fv3z7U1dVh4sSJ MBp5oDUR2Zbk+O7wUClwtrwOP54sFzsOOaAWowlLfz4HAHhyVA+4KOUiJ6KOZrcFUKFQICAgwHLr 0qULAPPq3wcffIA///nPeOCBBxAZGYnPP/8cDQ0NWLduHQBAq9VixYoVePfddzFmzBhER0djzZo1 OH78OHbs2CHmyyIiuozaVYlHE0IBAP/emQNB4Cogta9NR0tQXN0I307OmM7VP0mw2wKYk5ODoKAg hIWFYdq0acjNzQUA5OXlQaPRIDEx0bKtSqXCqFGjkJaWBgDIzMxES0tLm22CgoIQGRlp2eZK9Ho9 dDpdmxsRkTXMHREOd2c5TpbpkMpVQGpHBqMJH15a/XtiZDhcnbn6JwV2WQBjY2PxxRdf4IcffsDy 5cuh0WiQkJCAqqoqaDQaAIC/v3+bn/H397c8ptFo4OzsDC8vr6tucyVLliyBWq223EJCQtr5lRER XZmXuzNmXzoW8IMdXAWk9rPlWCkKqhrg7e6MGbGhYschK7HLAjhhwgQ8+OCDiIqKwpgxY7B161YA wOeff27Z5veTywVBuO408+tts3jxYmi1WsutqKjoNl4FEdHN4SogtTejScDSn8yrf3PvCIO7SiFy IrIWuyyAv+fu7o6oqCjk5ORYzgb+/UpeRUWFZVUwICAAzc3NqK6uvuo2V6JSqeDp6dnmRkRkLVwF pPb2v19KkVtZj85uSjwa313sOGRFDlEA9Xo9Tp06hcDAQISFhSEgIACpqamWx5ubm7F7924kJCQA AGJiYqBUKttsU1ZWhuzsbMs2RES2iKuA1F6MJgH/aV39GxGGTlz9kxS7LICLFi3C7t27kZeXhwMH DuChhx6CTqfDrFmzIJPJsGDBArz11lvYtGkTsrOzMXv2bLi5uWH69OkAALVajTlz5uDFF1/Ezp07 cfToUcycOdPylTIRka3iKiC1l+3ZZThXUQdPFwUeTegudhyyMrus+8XFxXjkkUdQWVmJLl26IC4u DhkZGQgNNR+8+tJLL6GxsRHPPPMMqqurERsbix9//BEeHh6W53j//fehUCgwZcoUNDY24u6778aq Vasgl/PsJyKybXNHhGPV/nzLKmBi/4Dr/xDRbxhNAv69MwcA8PiIMHi6KEVORNYmE/jn4y3T6XRQ q9XQarU8HpCIrOqdlNNYtus8+gV6YuvzI657khvRb32XVYIX1mfB00WBvS/fBbWrtAog9992+hUw EZHUzb2DxwLSrTEYTXg/9SwA81U/pFb+yIwFkIjIDnm7O2PWpeO23t+Rw2sE0w379kgJ8i/N/ZvN Y/8kiwWQiMhOzbsjHJ1UCpwq02FbdpnYccgO6A1G/OvSsX/PjO7BuX8SxgJIRGSnvNydMe+OcADA ez+ehcFoEjkR2bqvDxWhpKYRfh4qzIzjVT+kjAWQiMiOzbkjDN7uzsitrMe3R0rEjkM2rKnFaJn7 N/+unnBRcuqFlLEAEhHZsU4qBZ4Z3QMA8MGOs9AbjCInIlu1JqMAFbV6dO3siilDeS17qWMBJCKy czPjQhHg6YJSbRPWHSgUOw7ZoHq9Act2nQcAvHB3L6gUXP2TOhZAIiI756KU4/m7ewEAPvz5HOr1 BpETka1ZuT8PF+ubEebrjgcGdxU7DtkAFkAiIgfw8JBghPq4obKuGavS8sWOQzbkYn0zPtmdCwBY MKYXFHLu+okFkIjIISjlTlg4NgIA8PHu89A2tIiciGzFhz+fQ63egH6Bnpg0IEjsOGQjWACJiBzE pAFB6BPggdomAz7ec17sOGQDii42YHV6AQDglQl94OTESwaSGQsgEZGDcHKS4cXE3gCAz/bloUzb KHIiEtu7P55Bs9GEET19MTKii9hxyIawABIROZAxff0wtLsX9AYT3v3xrNhxSETZJVpszioFYF79 I/otFkAiIgcik8nwp3v6AgA2HinGyVKdyIlILG+nnAYA3DcoCJFd1SKnIVvDAkhE5GCiu3lh4oBA CAKwZPspseOQCPblVGJvTiWc5U5YdOmwAKLfYgEkInJAL43rA6Vchr05ldh99oLYcciKTCbBUvxn xoUixNtN5ERki1gAiYgcUDcfNzwa3x0AsGTbKRhNgriByGq+/6UUJ0p18FAp8NxdPcWOQzaKBZCI yEHNv6snPF0UOK2pxcbMYrHjkBU0tRjxTsoZAMBTo3vA291Z5ERkq1gAiYgcVGc3Z8y/y3yJuHdT z6ChmZeIc3TL9+SipKYRXTu7Ys6IMLHjkA1jASQicmCPJoQi2MsV5To9Pt2bJ3Yc6kAabROW7TIP AH9lQh+4KOUiJyJbxgJIROTAVAo5XhpvngH30a7zHA7twN5JOY3GFiOGhJrPAie6FhZAIiIHN2lA IIaEeqGxxYgl206LHYc6wNHCanx7tAQA8NqkfpDJeMk3ujYWQCIiByeTyfBGUn/IZMCWY6U4mHdR 7EjUjgRBwF//dxIA8ODgYAwI7ixuILILLIBERBIQ2VWNaUO7AQBe33KCY2EcyHdZpThaWAM3Zzle Gs+hz3RjWACJiCRiUWIEPF0UOFWmw/pDhWLHoXbQ0GzAP7abv9Z/9s6e8Pd0ETkR2QsWQCIiifDp pMIfxkYAAP7vhzOoaWgWORHdrv/8dA4aXRPHvtBNYwEkIpKQmXGhiPDvhOqGFryfelbsOHQbzlXU 4dO9uQCA1yf149gXuiksgEREEqKUO+H1Sf0BAKszCnCyVCdyIroVgiDgte+y0WIUcFcfP4zt5y92 JLIzLIBERBIzvKcv7okKgEkA/rz5OEw8IcTufP9LGdLOV0GlcMIbk/pz7AvdNBZAIiIJenViP7g7 y3G0sAZf8oQQu1Lb1IK/XRr78uydPdHNx03kRGSPWACJiCQoUO2KFxPNI0Pe3n4aF2r1IieiG/V+ ag4qavUI83XHEyPDxY5DdsouC+CSJUswdOhQeHh4wM/PD5MnT8aZM2fabDN79mzIZLI2t7i4uDbb 6PV6zJ8/H76+vnB3d0dSUhKKi4ut+VKIiEQzK6E7Irt6QtdkwN+2nhQ7Dt2AE6VafJ6eDwB4M6k/ T/ygW2aXBXD37t149tlnkZGRgdTUVBgMBiQmJqK+vr7NduPHj0dZWZnltm3btjaPL1iwAJs2bcL6 9euxb98+1NXVYeLEiTAajdZ8OUREopA7yfDW/VFwkpmHCe/NuSB2JLoGg9GElzf+AqNJwL1RgRgZ 0UXsSGTHFGIHuBUpKSlt/r1y5Ur4+fkhMzMTI0eOtNyvUqkQEBBwxefQarVYsWIFVq9ejTFjxgAA 1qxZg5CQEOzYsQPjxo3ruBdARGQjBgR3xqPx3bEqLR+vbs5GyoKRXFWyUSv25SG7RAe1qxKvJ/UT Ow7ZObtcAfw9rVYLAPD29m5z/65du+Dn54eIiAjMmzcPFRUVlscyMzPR0tKCxMREy31BQUGIjIxE WlraFX+PXq+HTqdrcyMisncvJkbA31OF/KoGfLAjR+w4dAX5lfV479Lcxj/f2xd+HrziB90euy+A giBg4cKFGDFiBCIjIy33T5gwAWvXrsVPP/2Ed999F4cOHcJdd90Fvd58oLNGo4GzszO8vLzaPJ+/ vz80Gs0Vf9eSJUugVqstt5CQkI57YUREVuLhosT/u8/838//7jmPY0U14gaiNgRBwOJvj0NvMGFE T188HBMsdiRyAHZfAJ977jn88ssv+PLLL9vcP3XqVNx7772IjIzEpEmTsH37dpw9exZbt2695vMJ gnDVeUqLFy+GVqu13IqKitrtdRARiSmxfwCSBgbBJAB/3HAMegOPhbYVXx0qQnpuFVyVcrx1fxRn /lG7sOsCOH/+fGzZsgU///wzgoOv/RdRYGAgQkNDkZNj/nojICAAzc3NqK6ubrNdRUUF/P2vPFFd pVLB09OzzY2IyFG8kdQfvp2ccba8Dkt/Oid2HAJQrmvC37edAmD+qp4z/6i92GUBFAQBzz33HL79 9lv89NNPCAu7/gWwq6qqUFRUhMDAQABATEwMlEolUlNTLduUlZUhOzsbCQkJHZadiMhWebs7W74K XrbrPLJLtCInkjZBEPDShl9Q22TAgGA1Zid0FzsSORC7LIDPPvss1qxZg3Xr1sHDwwMajQYajQaN jY0AgLq6OixatAjp6enIz8/Hrl27MGnSJPj6+uL+++8HAKjVasyZMwcvvvgidu7ciaNHj2LmzJmI ioqynBVMRCQ1E6ICcW9UIIwmAYu+OYZmg0nsSJK19kAhdp+9AGeFE959eCAUcrvcZZONsstP00cf fQStVovRo0cjMDDQcvvqq68AAHK5HMePH8d9992HiIgIzJo1CxEREUhPT4eHh4fled5//31MnjwZ U6ZMwfDhw+Hm5obvv/8ecjlHIBCRdL15X394uzvjtKYWH+w4K3YcScqvrMfft5q/+n15fB/08ve4 zk8Q3RyZIAi8Cvgt0ul0UKvV0Gq1PB6QiBzK9uNleHrtEchkwPp5cYgN9xE7kmQYjCZM+SQdRwpr EB/ug7VzY+HkxBM/2hP333a6AkhERB1rQlQgHo4JhiAAC78+Bm1ji9iRJOOTPbk4UlgDD5UC/zdl IMsfdQgWQCIiuqLXk/oj1McNJTWNeHVztthxJCG7RGv52v31pP7o2tlV5ETkqFgAiYjoijqpFPhg 6iDInWTYcqwUm4+WiB3JodXpDXhu3RG0GAWM6++PBwd3FTsSOTAWQCIiuqrobl544e5eAIBXN2ej 6GKDyIkckyAI+POm48ivakCQ2gVvPziAA5+pQ7EAEhHRNT0zugeGhHqhVm/As+uO8CohHeCbw8X4 LqsUcicZ/v1INDq7OYsdiRwcCyAREV2TQu6Efz0Sjc5uSvxSrMXf/ndK7EgOJae8Fq9tMR9juXBs BIZ09xY5EUkBCyAREV1X186u+GDqIMhkwOqMAnyXxeMB20P9pVXVphYT7ujli6dH9RA7EkkECyAR Ed2Q0b398NydPQEAi789jpzyWpET2TdBEPDHDcdwtrwOXTxUeG/KII58IathASQiohu2YEwEEnr4 oKHZiKfWZKK2ifMBb9XHu3Ox7bgGSrkMH88cjC4eKrEjkYSwABIR0Q1rPUnB31OF8xfq8cL6LBhN vKDUzdp99gLe+eE0AOCNpP6ICeVxf2RdLIBERHRTfDup8N/kIVApnPDT6Qq8k3Ja7Eh2pbCqAc9/ eRSCADwyLAQzYkPFjkQSxAJIREQ3bWBIZ/zfwwMBmC9dtiGzWORE9kHb0ILHVh2EtrEF0d06442k /mJHIoliASQiolsyaWAQnr/LfFLIn749jsP5F0VOZNv0BiOeXHMY5y/UI1Dtgo9nxkClkIsdiySK BZCIiG7ZgjERGN8/AM1GE+Z+cRjnKnhm8JUIgoBXNh5HRu5FdFIpsPKxofD3dBE7FkkYCyAREd0y JycZ3ps6EINCOqOmoQWPrjgIjbZJ7Fg25/3Us9h0tAQKJxk+mjkYfQI8xY5EEscCSEREt8XNWYHP Zg9FeBd3lGqbMOuzg9A2cDxMqy/S8/Hvn84BAP5+fyTu6NVF5ERELIBERNQOvN2d8cXjw+DvqcKZ 8lrM/eIQGpt5zeBvDhfhte9OAACev7sXpg7tJnIiIjMWQCIiahfBXm74/PFh8HBR4FB+NeZ+cQhN LdItgVt/KcPLG38BADw+PAx/GNNL5EREv2IBJCKidtMnwBOrHhsKd2c59p+rwrwvDkuyBP5wQoMX 1h+FSQCmDQ3BqxP7QibjZd7IdrAAEhFRu4oJ9caqx4fBzVmOvTmVkiuBW46V4pm1R2AwCUgaGIS/ 3x/F8kc2hwWQiIja3dDu3lj12K8l8NHPDkIngesGf324CC+sPwqjScADg7vivSkDIXdi+SPbwwJI REQdYliYuQR6qBQ4mHcRUz/JQIXOMUfECIKAT/fm4qUNv0AQgOmx3fB/Dw2EQs7dLNkmfjKJiKjD DAvzxvon4+DbSYVTZTo8+HEa8irrxY7VrowmAW9sOYG/bT0FwHzCx98nR8KJK39kw1gAiYioQ/UP UuPbpxMQ6uOGoouNuG/pPuzNuSB2rHbR0GzAk6sP4/P0AgDAn+7pwxM+yC6wABIRUYfr5uOGDU8l ILpbZ+iaDJj12UF8ujcXgiCIHe2W5V6owwPL0rDjVAVUCicsmzEYT4zswfJHdoEFkIiIrKKLhwrr n4jDwzHBMAnA37aewoKvslBrhyeHbD9ehqSl+3FaUwvfTiqsmxeHe6ICxY5FdMNYAImIyGpUCjne eWgAXpvYD3InGb7LKsU9/96LI4XVYke7IU0tRryx5QSeXnsEdXoDhnX3xrbnRyAm1EvsaEQ3RSbY 8/q7yHQ6HdRqNbRaLTw9eWFvIqKbkVlwEc9/mYWSmkbInWR4/q5eeHp0DzgrbHNt4mhhNV785hhy L5hPYnlyZDj+OK43z/S1Q9x/swDeFn6AiIhuj7axBX/ZnI3vj5UCAHr5dcJbD0RhaHdvkZP9StfU gg9Sc7AqLQ8mAfDzUOHthwbgzt5+YkejW8T9NwvgbeEHiIjo9gmCgC3HSvHX70+iqr4ZAPBAdFcs TIxAsJebaLmMJgGbjpbgH9tPo7JODwC4b1AQ3kzqj85uzqLlotvH/TcL4G3hB4iIqP3UNDRjybbT +OpwEQDAWeGEWfGhmDcyHH4eLlbLYTIJ2J6twQc7ziKnog4AEO7rjteT+mNURBer5aCOw/03CyCW LVuGf/7znygrK0P//v3xwQcf4I477rihn+UHiIio/R0rqsE/tp9Gem4VAMBZ7oT7o7tizh1hiPD3 6LDfW6c3YNORYnyeXoBzl4qfp4sCz9zZE48PD7PZYxPp5nH/LfEC+NVXXyE5ORnLli3D8OHD8ckn n+DTTz/FyZMn0a1bt+v+PD9AREQdQxAE7Dp7AUt/OofMgl/PEB4QrMYD0V0xISoQ/p63vyrYYjRh /7lKbP2lDNuzNajTGwAAHioF5twRhsdHhMHTRXnbv4dsC/ffEi+AsbGxGDx4MD766CPLfX379sXk yZOxZMmS6/48P0BERB0vs+Ailu/Jw45T5TCYft1l9QnwwKiILhgU0hmRXdUI9nK97hBmbWMLzl+o w5GCahzIu4gDuVXQNRksj4d3ccejcaF4ICaYxc+Bcf8NKMQOIJbm5mZkZmbilVdeaXN/YmIi0tLS rvgzer0eer3e8m+dTtehGYmICIgJ9UZMsjeq6vTYcqwUm7NK8UtxDU5ranFaU2vZzlUpR4DaBQGe LnBXKaCUyyCTAbVNBtQ0tECja8KFWv1lz+/bSYUJkQG4d0AgYsO8eSUPkgTJFsDKykoYjUb4+/u3 ud/f3x8ajeaKP7NkyRK8+eab1ohHRES/49NJhceGh+Gx4WGoqtNj37lKpJ+vQnapFmc0tWhsMSKv sh55lfXXfB5/TxX6B6kRG+aN2HAfRHVVQ+7E0kfSItkC2Or3f+kJgnDVv/4WL16MhQsXWv6t0+kQ EhLSofmIiOhyPp1UuG9QV9w3qCsAoNlgQmlNIzS6JpTrmtDQbITBaILRJMDTVQm1qxI+nVQI7+LO r3aJIOEC6OvrC7lcftlqX0VFxWWrgq1UKhVUKpU14hER0U1wVjihu687uvu6ix2FyC5I9px2Z2dn xMTEIDU1tc39qampSEhIECkVERERUceT7AogACxcuBDJyckYMmQI4uPj8d///heFhYV46qmnxI5G RERE1GEkXQCnTp2Kqqoq/PWvf0VZWRkiIyOxbds2hIaGih2NiIiIqMNIeg7g7eIcISIiIvvD/beE jwEkIiIikioWQCIiIiKJYQEkIiIikhgWQCIiIiKJYQEkIiIikhgWQCIiIiKJYQEkIiIikhgWQCIi IiKJYQEkIiIikhhJXwrudrVeREWn04mchIiIiG5U635byhdDYwG8DbW1tQCAkJAQkZMQERHRzaqt rYVarRY7hih4LeDbYDKZUFpaCg8PD8hksnZ9bp1Oh5CQEBQVFUn2OoXWwPfZOvg+WwffZ+vg+2wd Hfk+C4KA2tpaBAUFwclJmkfDcQXwNjg5OSE4OLhDf4enpyf/A2MFfJ+tg++zdfB9tg6+z9bRUe+z VFf+Wkmz9hIRERFJGAsgERERkcSwANoolUqF119/HSqVSuwoDo3vs3XwfbYOvs/WwffZOvg+dyye BEJEREQkMVwBJCIiIpIYFkAiIiIiiWEBJCIiIpIYFkAiIiIiiWEBFMmyZcsQFhYGFxcXxMTEYO/e vdfcfvfu3YiJiYGLiwvCw8Px8ccfWymp/buZ9/rbb7/F2LFj0aVLF3h6eiI+Ph4//PCDFdPar5v9 TLfav38/FAoFBg0a1LEBHcTNvs96vR5//vOfERoaCpVKhR49euCzzz6zUlr7dbPv89q1azFw4EC4 ubkhMDAQjz32GKqqqqyU1j7t2bMHkyZNQlBQEGQyGTZv3nzdn+G+sB0JZHXr168XlEqlsHz5cuHk yZPCCy+8ILi7uwsFBQVX3D43N1dwc3MTXnjhBeHkyZPC8uXLBaVSKWzYsMHKye3Pzb7XL7zwgvD2 228LBw8eFM6ePSssXrxYUCqVwpEjR6yc3L7c7PvcqqamRggPDxcSExOFgQMHWiesHbuV9zkpKUmI jY0VUlNThby8POHAgQPC/v37rZja/tzs+7x3717ByclJ+Ne//iXk5uYKe/fuFfr37y9MnjzZysnt y7Zt24Q///nPwsaNGwUAwqZNm665PfeF7YsFUATDhg0TnnrqqTb39enTR3jllVeuuP1LL70k9OnT p819Tz75pBAXF9dhGR3Fzb7XV9KvXz/hzTffbO9oDuVW3+epU6cKf/nLX4TXX3+dBfAG3Oz7vH37 dkGtVgtVVVXWiOcwbvZ9/uc//ymEh4e3ue/f//63EBwc3GEZHc2NFEDuC9sXvwK2submZmRmZiIx MbHN/YmJiUhLS7viz6Snp1+2/bhx43D48GG0tLR0WFZ7dyvv9e+ZTCbU1tbC29u7IyI6hFt9n1eu XInz58/j9ddf7+iIDuFW3uctW7ZgyJAheOedd9C1a1dERERg0aJFaGxstEZku3Qr73NCQgKKi4ux bds2CIKA8vJybNiwAffee681IksG94XtSyF2AKmprKyE0WiEv79/m/v9/f2h0Wiu+DMajeaK2xsM BlRWViIwMLDD8tqzW3mvf+/dd99FfX09pkyZ0hERHcKtvM85OTl45ZVXsHfvXigU/M/QjbiV9zk3 Nxf79u2Di4sLNm3ahMrKSjzzzDO4ePEijwO8ilt5nxMSErB27VpMnToVTU1NMBgMSEpKwn/+8x9r RJYM7gvbF1cARSKTydr8WxCEy+673vZXup8ud7Pvdasvv/wSb7zxBr766iv4+fl1VDyHcaPvs9Fo xPTp0/Hmm28iIiLCWvEcxs18nk0mE2QyGdauXYthw4bhnnvuwXvvvYdVq1ZxFfA6buZ9PnnyJJ5/ /nm89tpryMzMREpKCvLy8vDUU09ZI6qkcF/Yfvint5X5+vpCLpdf9pdkRUXFZX/ZtAoICLji9gqF Aj4+Ph2W1d7dynvd6quvvsKcOXPwzTffYMyYMR0Z0+7d7PtcW1uLw4cP4+jRo3juuecAmIuKIAhQ KBT48ccfcdddd1kluz25lc9zYGAgunbtCrVabbmvb9++EAQBxcXF6NWrV4dmtke38j4vWbIEw4cP xx//+EcAwIABA+Du7o477rgDf/vb37gy1U64L2xfXAG0MmdnZ8TExCA1NbXN/ampqUhISLjiz8TH x1+2/Y8//oghQ4ZAqVR2WFZ7dyvvNWBe+Zs9ezbWrVvHY3huwM2+z56enjh+/DiysrIst6eeegq9 e/dGVlYWYmNjrRXdrtzK53n48OEoLS1FXV2d5b6zZ8/CyckJwcHBHZrXXt3K+9zQ0AAnp7a7U7lc DuDXFSq6fdwXtjORTj6RtNYRAytWrBBOnjwpLFiwQHB3dxfy8/MFQRCEV155RUhOTrZs33rq+x/+ 8Afh5MmTwooVK3jq+w262fd63bp1gkKhED788EOhrKzMcqupqRHrJdiFm32ff49nAd+Ym32fa2tr heDgYOGhhx4STpw4IezevVvo1auXMHfuXLFegl242fd55cqVgkKhEJYtWyacP39e2LdvnzBkyBBh 2LBhYr0Eu1BbWyscPXpUOHr0qABAeO+994SjR49axu1wX9ixWABF8uGHHwqhoaGCs7OzMHjwYGH3 7t2Wx2bNmiWMGjWqzfa7du0SoqOjBWdnZ6F79+7CRx99ZOXE9utm3utRo0YJAC67zZo1y/rB7czN fqZ/iwXwxt3s+3zq1ClhzJgxgqurqxAcHCwsXLhQaGhosHJq+3Oz7/O///1voV+/foKrq6sQGBgo zJgxQyguLrZyavvy888/X/O/t9wXdiyZIHB9moiIiEhKeAwgERERkcSwABIRERFJDAsgERERkcSw ABIRERFJDAsgERERkcSwABIRERFJDAsgERERkcSwABIRERFJDAsgERERkcSwABIRERFJDAsgERER kcSwABIRERFJDAsgERERkcSwABIRERFJDAsgERERkcSwABIRERFJDAsgERERkcSwABIRERFJDAsg ERERkcSwABIRERFJDAsgERERkcSwABIRERFJDAsgERERkcSwABIRERFJDAsgERERkcSwABIRERFJ DAsgERERkcSwABIRERFJDAsgERERkcSwABIRERFJDAsgERERkcT8f8LFpTaJsfa5AAAAAElFTkSu QmCC "
       id="image843"
       x="15.284745"
       y="19.085871" />
    <image
       width="89.570953"
       height="67.178207"
       preserveAspectRatio="none"
       style="image-rendering:optimizeQuality"
       xlink:href="data:image/png;base64,iVBORw0KGgoAAAANSUhEUgAAAoAAAAHgCAYAAAA10dzkAAAAOXRFWHRTb2Z0d2FyZQBNYXRwbG90 bGliIHZlcnNpb24zLjMuMCwgaHR0cHM6Ly9tYXRwbG90bGliLm9yZy86wFpkAAAACXBIWXMAAA9h AAAPYQGoP6dpAAA5RElEQVR4nO3dfXhU9Z3//9eZTO5NRm5MQgQV2ohYqKVBQ6BbaLnzUkxdv7u4 Gzdrd1nUHypGpa5ctBX8rrBiRVepipQKKyD+tpWuv12bErstlYKAkWwVKLZKFSwB1GQSIORuPr8/ JnNmzmQSbiSTyZnn47rmSubMZyafOWLmlffn5ljGGCMAAAAkDU9fdwAAAADxRQAEAABIMgRAAACA JEMABAAASDIEQAAAgCRDAAQAAEgyBEAAAIAkQwAEAABIMgRAAACAJEMABAAASDIEQAAAgCRDAAQA AEgyBEAAAIAkQwAEAABIMgRAAACAJEMABAAASDIEQAAAgCRDAAQAAEgyBEAAAIAkQwAEAABIMgRA AACAJEMABAAASDIEQAAAgCRDAAQAAEgyBEAAAIAkQwAEAABIMgRAAACAJEMABAAASDIEQAAAgCRD AAQAAEgyBEAAAIAkQwAEAABIMgRAAACAJEMABAAASDIEQAAAgCRDAAQAAEgyBEAAAIAkQwAEAABI MgRAAACAJEMABAAASDIEQAAAgCRDAAQAAEgyBEAAAIAkQwAEAABIMgRAAACAJEMABAAASDIEQAAA gCRDAAQAAEgyBEAAAIAkQwAEAABIMgRAAACAJEMABAAASDJxDYC/+c1vdMMNN6iwsFCWZelnP/uZ 43FjjBYtWqTCwkJlZmZq8uTJ2rNnj6NNS0uL7r77bg0ePFjZ2dkqKyvToUOHHG3q6+tVUVEhn88n n8+niooKNTQ0ONp89NFHuuGGG5Sdna3Bgwdr3rx5am1t7Y23DQAAkFDiGgBPnDihq666SitWrIj5 +LJly7R8+XKtWLFCu3btUkFBgaZNm6ampia7TWVlpTZt2qSNGzdq69atOn78uGbOnKmOjg67TXl5 uWpra1VVVaWqqirV1taqoqLCfryjo0PXX3+9Tpw4oa1bt2rjxo366U9/qvvvv7/33jwAAECiMH1E ktm0aZN9PxAImIKCAvOv//qv9rFTp04Zn89nnnvuOWOMMQ0NDSY1NdVs3LjRbvPxxx8bj8djqqqq jDHG7N2710gyb775pt1m+/btRpL5/e9/b4wx5rXXXjMej8d8/PHHdpuXXnrJpKenG7/f3yvvFwAA IFEkzBzAAwcOqK6uTtOnT7ePpaena9KkSdq2bZskqaamRm1tbY42hYWFGj16tN1m+/bt8vl8Kikp sduMHz9ePp/P0Wb06NEqLCy028yYMUMtLS2qqanp1fcJAADQ17x93YGQuro6SVJ+fr7jeH5+vj78 8EO7TVpamgYMGNClTej5dXV1ysvL6/L6eXl5jjbRP2fAgAFKS0uz28TS0tKilpYW+34gENBnn32m QYMGybKsM32rAACgDxlj1NTUpMLCQnk8CVMLi6uECYAh0UHKGHPacBXdJlb7c2kTbenSpVq8eHGP fQEAAP3DwYMHNXTo0L7uRp9ImABYUFAgKVidGzJkiH386NGjdrWuoKBAra2tqq+vd1QBjx49qgkT Jthtjhw50uX1jx075nidHTt2OB6vr69XW1tbl8pgpAULFui+++6z7/v9fl1yySU6ePCgcnNzz/Yt AwB6wfz/t1ZVe47oOzMu12O/eE+StPWfv6ELs9L6uGdIFI2NjRo2bJhycnL6uit9JmEC4PDhw1VQ UKDq6mqNHTtWktTa2qotW7bo0UcflSQVFxcrNTVV1dXVmjVrliTp8OHDevfdd7Vs2TJJUmlpqfx+ v3bu3KlrrrlGkrRjxw75/X47JJaWluqRRx7R4cOH7bC5efNmpaenq7i4uNs+pqenKz09vcvx3Nxc AiAAJIjUrAvkSW9SZnaOPOlZkjp/TxMAESWZp2/FNQAeP35cf/zjH+37Bw4cUG1trQYOHKhLLrlE lZWVWrJkiYqKilRUVKQlS5YoKytL5eXlkiSfz6fZs2fr/vvv16BBgzRw4EDNnz9fY8aM0dSpUyVJ o0aN0rXXXqs5c+Zo5cqVkqTbbrtNM2fO1MiRIyVJ06dP15VXXqmKigo99thj+uyzzzR//nzNmTOH IAcALhH54W5MH3YESEBxDYBvvfWWvvGNb9j3Q8Opt956q9asWaMHHnhAzc3Nmjt3rurr61VSUqLN mzc7SrRPPPGEvF6vZs2apebmZk2ZMkVr1qxRSkqK3Wb9+vWaN2+evVq4rKzMsfdgSkqK/vu//1tz 587VxIkTlZmZqfLycv3gBz/o7VMAAIiTyNoO+Q9wsozh76Jz1djYKJ/PJ7/fT+UQABLEnevf1n+/ c1gP3XClFv9/eyVJb39vmgZmMwSMID6/uRYwAMClHBVAah2AAwEQAOAqpnPA1zEHsK86AyQoAiAA wJWSeIEncFoEQACA6zECDDgRAAEArhIZ9kJVQMMgMOBAAAQAuJIl50IQAGEEQACA+1EABBwIgAAA V7GHgC3LXglM/gOcCIAAANdiCBiIjQAIAHCVWAs+WAUMOBEAAQCuZIm9AIHuEAABAK7HNjCAEwEQ AOAqoeFey5KszlmADAEDTgRAAIB7MQQMxEQABAC4HgVAwIkACABwFXsbQHsAWDKMAQMOBEAAgGux ChiIjQAIAHCVWMU+CoCAEwEQAOBKkauAATgRAAEArsUQMBAbARAA4DLB8d7I7McQMOBEAAQAuJa9 CpiNYAAHAiAAwLUsxoCBmAiAAABXibwUXPQxAEEEQACAa1H/A2IjAAIAXCXySiDRxwAEEQABAO7V mQG5FBzgRAAEALgWQ8BAbARAAICr2NW+yEUgfdMVIGERAAEArhXaBoYRYMCJAAgAcCVLXAoO6A4B EADgKrGLfZQAgUgEQACAa9mXgiP/AQ4EQACAq4SvBGJxKTigGwRAAIDrUQAEnAiAAADXYggYiI0A CABwlfCl4FgFDHSHAAgAcD3DIDDgQAAEALhK6EogweofG0EDsRAAAQCuxRAwEBsBEADgelQAAScC IADAlSwrvAoYgBMBEADgeiwCAZwIgAAAV7Jk2XMAGQIGnAiAAABXiQx7FoPAQEwEQAAAgCRDAAQA uEpovp9liSFgoBsEQACAazEADMRGAAQAuB6rgAEnAiAAwFUci0AsLgUHxEIABAAASDIEQACAK1kR FwKmAAg4EQABAK7iHAIOHSMCApEIgAAA17JYBgzERAAEALiKvQ+g4xiASARAAIBrcSk4IDYCIADA lSKHf5kCCDgRAAEArhJrEQiDwIATARAA4FoMAAOxEQABAK4UOf+PIWDAiQAIAHCVyKxnXwqub7oC JCwCIADAlSyLIWCgOwkXANvb2/Xd735Xw4cPV2ZmpkaMGKGHH35YgUDAbmOM0aJFi1RYWKjMzExN njxZe/bscbxOS0uL7r77bg0ePFjZ2dkqKyvToUOHHG3q6+tVUVEhn88nn8+niooKNTQ0xONtAgB6 S4xyH0PAgFPCBcBHH31Uzz33nFasWKF9+/Zp2bJleuyxx/T000/bbZYtW6bly5drxYoV2rVrlwoK CjRt2jQ1NTXZbSorK7Vp0yZt3LhRW7du1fHjxzVz5kx1dHTYbcrLy1VbW6uqqipVVVWptrZWFRUV cX2/AIBexKXggJi8fd2BaNu3b9e3vvUtXX/99ZKkyy67TC+99JLeeustScH/iZ988kktXLhQN910 kyRp7dq1ys/P14YNG3T77bfL7/dr9erVevHFFzV16lRJ0rp16zRs2DC9/vrrmjFjhvbt26eqqiq9 +eabKikpkSStWrVKpaWl2r9/v0aOHNkH7x4AcL5YYggY6E7CVQC/9rWv6Ze//KXee+89SdL//u// auvWrbruuuskSQcOHFBdXZ2mT59uPyc9PV2TJk3Stm3bJEk1NTVqa2tztCksLNTo0aPtNtu3b5fP 57PDnySNHz9ePp/PbgMA6H9MjDFg6n+AU8JVAP/5n/9Zfr9fV1xxhVJSUtTR0aFHHnlEf/u3fytJ qqurkyTl5+c7npefn68PP/zQbpOWlqYBAwZ0aRN6fl1dnfLy8rr8/Ly8PLtNtJaWFrW0tNj3Gxsb z/FdAgB6m2VFrAImAQIOCVcBfPnll7Vu3Tpt2LBBb7/9ttauXasf/OAHWrt2raOdZTkL+8aYLsei RbeJ1b6n11m6dKm9YMTn82nYsGFn+rYAAH2AIWAgtoQLgN/5znf04IMP6m/+5m80ZswYVVRU6N57 79XSpUslSQUFBZLUpUp39OhRuypYUFCg1tZW1dfX99jmyJEjXX7+sWPHulQXQxYsWCC/32/fDh48 +PneLADgvItV7Ys1LAwks4QLgCdPnpTH4+xWSkqKvQ3M8OHDVVBQoOrqavvx1tZWbdmyRRMmTJAk FRcXKzU11dHm8OHDevfdd+02paWl8vv92rlzp91mx44d8vv9dpto6enpys3NddwAAInKCl8LmPwH OCTcHMAbbrhBjzzyiC655BJ96Utf0u7du7V8+XL94z/+o6TgsG1lZaWWLFmioqIiFRUVacmSJcrK ylJ5ebkkyefzafbs2br//vs1aNAgDRw4UPPnz9eYMWPsVcGjRo3Stddeqzlz5mjlypWSpNtuu00z Z85kBTAA9GOOK4EwCAzElHAB8Omnn9b3vvc9zZ07V0ePHlVhYaFuv/12ff/737fbPPDAA2pubtbc uXNVX1+vkpISbd68WTk5OXabJ554Ql6vV7NmzVJzc7OmTJmiNWvWKCUlxW6zfv16zZs3z14tXFZW phUrVsTvzQIA4oICIOBkGXbHPGeNjY3y+Xzy+/0MBwNAgvg/z25TzYf1WllRrCeq39Pv65q0/p9K NPGLg/u6a0gQfH4n4BxAAAA+j1h1DUodgBMBEADgSpGz/1gFDDgRAAEArnW6/WGBZEUABAC4Sqxa H0PAgBMBEADgSpYV3gSG/Ac4EQABAK4SWe1jBBiIjQAIAHAlxyIQxoABBwIgAMC1QhVA4h/gRAAE ALgKl4IDTo8ACABwl87hXsu5ESCACARAAICrhLKeZUUOAZMAgUgEQACAq4TWe1gMAAPdIgACAFzF rvZFpD8WAQNOBEAAgKuYyPzHRoBATARAAICr2AEwIvxRAQScCIAAAFexF4FIXAoO6AYBEADgKiZi GxhGgIHYCIAAAFeKXAPMpeAAJwIgAMBVwnMAGQIGukMABAC4SmgbGEvOhSAAwgiAAABXMZGrQKKP AZBEAAQAuEw4/zlmAfZNZ4AERQAEALgKq4CB0yMAAgBcJcYIMEPAQBQCIADAXSKuBBIaBCb/AU4E QACAq9gVwMhLgQBwIAACAFzFngPoONY3fQESFQEQAOAqkRXA8EbQJEAgEgEQAOAq4WqfxSpgoBsE QACAq9hXAmEjaKBbBEAAgKvY1wKWHFtBAwgjAAIAXMVEbANjH+ujvgCJigAIAHAlS+FhYMMYMOBA AAQAuAqXggNOjwAIAHCV8KXgSH9AdwiAAABXCc8BDIdARoABJwIgAMBVIjd9ZggYiI0ACABwlcgK oH2MdcCAAwEQAOAqseYAMgQMOBEAAQCu4pgDyBgwEBMBEADgMlwKDjgdAiAAwFXCl4ILDwKT/wAn AiAAwFXsOYBsBA10iwAIAHAV+0ogMY4BCCIAAgBcxVEB7NOeAImLAAgAcJVwsS9iG5g+6QmQuAiA AABXsYeAI7eBIQECDgRAAICrhDeCZggY6A4BEADgLvZG0JFDwJQAgUgEQACAqzgqgKERYPIf4EAA BAC4SuQcQAaBgdgIgAAAVwlXAFkFDHSHAAgAcBX7UnAWQ8BAdwiAAABXiVzwwQAwEBsBEADgKpEV QPsYg8CAAwEQAOAq4UvBWQwBA90gAAIA3CVUAZRzIQiAMAIgAMBVQsO9ziFgAJEIgAAAV7HnACo8 BMwYMOBEAAQAuEp4DqCzCgggjAAIAHAV+0ogkcf6pitAwiIAAgBcxQ57FotAgO4kZAD8+OOP9Xd/ 93caNGiQsrKy9JWvfEU1NTX248YYLVq0SIWFhcrMzNTkyZO1Z88ex2u0tLTo7rvv1uDBg5Wdna2y sjIdOnTI0aa+vl4VFRXy+Xzy+XyqqKhQQ0NDPN4iAKCXRM4BjD4GICjhAmB9fb0mTpyo1NRU/fzn P9fevXv1+OOP68ILL7TbLFu2TMuXL9eKFSu0a9cuFRQUaNq0aWpqarLbVFZWatOmTdq4caO2bt2q 48ePa+bMmero6LDblJeXq7a2VlVVVaqqqlJtba0qKiri+XYBAL3ECu4DIyk8LAwgyNvXHYj26KOP atiwYXrhhRfsY5dddpn9vTFGTz75pBYuXKibbrpJkrR27Vrl5+drw4YNuv322+X3+7V69Wq9+OKL mjp1qiRp3bp1GjZsmF5//XXNmDFD+/btU1VVld58802VlJRIklatWqXS0lLt379fI0eOjN+bBgCc F5FBLyL/AYiScBXAV199VePGjdNf//VfKy8vT2PHjtWqVavsxw8cOKC6ujpNnz7dPpaenq5JkyZp 27ZtkqSamhq1tbU52hQWFmr06NF2m+3bt8vn89nhT5LGjx8vn89ntwEA9C+RhT4rYgkw9T/AKeEC 4AcffKBnn31WRUVF+sUvfqE77rhD8+bN07//+79Lkurq6iRJ+fn5jufl5+fbj9XV1SktLU0DBgzo sU1eXl6Xn5+Xl2e3idbS0qLGxkbHDQCQOCKDnqVwCGQEGHBKuCHgQCCgcePGacmSJZKksWPHas+e PXr22Wf193//93Y7K2pzJ2NMl2PRotvEat/T6yxdulSLFy8+4/cCAIgvxxCwxRAw0J2EqwAOGTJE V155pePYqFGj9NFHH0mSCgoKJKlLle7o0aN2VbCgoECtra2qr6/vsc2RI0e6/Pxjx451qS6GLFiw QH6/374dPHjwHN4hAKC3OCuADAED3Um4ADhx4kTt37/fcey9997TpZdeKkkaPny4CgoKVF1dbT/e 2tqqLVu2aMKECZKk4uJipaamOtocPnxY7777rt2mtLRUfr9fO3futNvs2LFDfr/fbhMtPT1dubm5 jhsAIHGYqDFgi1XAQEwJNwR87733asKECVqyZIlmzZqlnTt36vnnn9fzzz8vKThsW1lZqSVLlqio qEhFRUVasmSJsrKyVF5eLkny+XyaPXu27r//fg0aNEgDBw7U/PnzNWbMGHtV8KhRo3Tttddqzpw5 WrlypSTptttu08yZM1kBDAD9lBFDwMCZSLgAePXVV2vTpk1asGCBHn74YQ0fPlxPPvmkbrnlFrvN Aw88oObmZs2dO1f19fUqKSnR5s2blZOTY7d54okn5PV6NWvWLDU3N2vKlClas2aNUlJS7Dbr16/X vHnz7NXCZWVlWrFiRfzeLADgvHKsAu67bgAJzzLUxc9ZY2OjfD6f/H4/w8EAkABOtXXoiu9VSZLe XTxD3/vZu9q0+2MtvG6U5nx9RB/3DomCz+8EnAMIAMC5iq4AUgUEYiMAAgBcI3oOYKzjAAiAAAAX cVYAWQUCdIcACABwDccuMJEVQAqAgAMBEADgGtHrGkObQZP/ACcCIADANaIrgB57I+g+6Q6QsAiA AADXiJ4DGBoGDpAAAQcCIADAPSIDoCV5LFaBALEQAAEAruHYBkbhhSCBABVAIBIBEADgGo4hYCu8 FTTxD3AiAAIAXMOxCEThRSDMAQScCIAAANeI3AbGssJDwOQ/wIkACABwDec2MJa9CIT8BzgRAAEA rhE91BtaAxy9QTSQ7AiAAAD36Mx5oaFfK1QBJP8BDgRAAIBrhHJeqPLHRtBAbARAAIBrGLsCGEx+ zAEEYiMAAgBcI7QRtF0B7PxKBRBwIgACAFzDRM0B9IQ2AiT/AQ4EQACAa4TnAFqdX4OoAAJOBEAA gGvY271EjQGT/wAnAiAAwDWi819oEUiAAAg4EAABAK5j7wPYed8wCRBwIAACAFwjXAGM2gaG/Ac4 EAABAK5hbwNjXwmk8zgJEHAgAAIAXKPLGhDmAAIxEQABAK5hbwNjObeBYQ4g4EQABAC4Rmiol1XA QM8IgAAA17BzXpc5gH3RGyBxEQABAK7RdR/A0HESIBCJAAgAcJHQKmDL8ZX8BzgRAAEArmFXAKOH gFkEAjgQAAEArmGvAra/sggEiIUACABwjXAFMDQE7DwOIIgACABwDftKIJ33WQQCxEYABAC4Rpc5 gJ1RkPgHOBEAAQCuYaI2AgwFwQAVQMCBAAgAcA17CNheBcw2MEAsBEAAgGt0txE0FUDAiQAIAHCd 8BzAIOIf4EQABAC4RrgCGIx+Hk9oCJgICEQiAAIAXKPLHMDQcfIf4EAABAC4RvQcwNAiEOYAAk4E QACAa9iXguNKIECPCIAAANeInuvnsbgWMBALARAA4BrhCmDn1y6PAJAIgAAAF+lyKTh7H8C+6Q+Q qAiAAAAX6VwFbF8Kjm1ggFgIgAAA1+hSAew8TgUQcCIAAgBcw54D2Pk1tAiE/Ac4EQABAK4RrgBG bwNDBAQiEQABAK4RCnqh4GdXAMl/gAMBEADgGqG5fp7oCiCDwIADARAA4BqhCqDH3gamcyPoQF/1 CEhMBEAAgGt0qQB2HqcCCDgRAAEArhGw5wAGox+XggNiIwACAFwj0GUIuPMBAiDgQAAEALiGiRoC 9tiXgiMBApEIgAAA14iuAIZmARL/ACcCIADANQLdbARNBRBwIgACAFwjugLIRtBAbARAAIBrhPcB jNoGhgQIOBAAAQCuYe8D2FkC9HR+yhH/AKeEDoBLly6VZVmqrKy0jxljtGjRIhUWFiozM1OTJ0/W nj17HM9raWnR3XffrcGDBys7O1tlZWU6dOiQo019fb0qKirk8/nk8/lUUVGhhoaGOLwrAEBv6bIN jCzHcQBBCRsAd+3apeeff15f/vKXHceXLVum5cuXa8WKFdq1a5cKCgo0bdo0NTU12W0qKyu1adMm bdy4UVu3btXx48c1c+ZMdXR02G3Ky8tVW1urqqoqVVVVqba2VhUVFXF7fwCA868jEDUEHLoWMPkP cEjIAHj8+HHdcsstWrVqlQYMGGAfN8boySef1MKFC3XTTTdp9OjRWrt2rU6ePKkNGzZIkvx+v1av Xq3HH39cU6dO1dixY7Vu3Tq98847ev311yVJ+/btU1VVlX70ox+ptLRUpaWlWrVqlf7rv/5L+/fv 75P3DAD4/KL3AbS4EggQU0IGwDvvvFPXX3+9pk6d6jh+4MAB1dXVafr06fax9PR0TZo0Sdu2bZMk 1dTUqK2tzdGmsLBQo0ePttts375dPp9PJSUldpvx48fL5/PZbWJpaWlRY2Oj4wYASBzhS8EF73vs CiAJEIjk7esORNu4caPefvtt7dq1q8tjdXV1kqT8/HzH8fz8fH344Yd2m7S0NEflMNQm9Py6ujrl 5eV1ef28vDy7TSxLly7V4sWLz+4NAQDiJhBdARTbwACxJFQF8ODBg7rnnnu0bt06ZWRkdNvOsi/u GGSM6XIsWnSbWO1P9zoLFiyQ3++3bwcPHuzxZwIA4qvrPoDBr4Z1wIBDQgXAmpoaHT16VMXFxfJ6 vfJ6vdqyZYueeuopeb1eu/IXXaU7evSo/VhBQYFaW1tVX1/fY5sjR450+fnHjh3rUl2MlJ6ertzc XMcNAJA4ovcBFItAgJgSKgBOmTJF77zzjmpra+3buHHjdMstt6i2tlYjRoxQQUGBqqur7ee0trZq y5YtmjBhgiSpuLhYqampjjaHDx/Wu+++a7cpLS2V3+/Xzp077TY7duyQ3++32wAA+p/oS8F5LLaB AWJJqDmAOTk5Gj16tONYdna2Bg0aZB+vrKzUkiVLVFRUpKKiIi1ZskRZWVkqLy+XJPl8Ps2ePVv3 33+/Bg0apIEDB2r+/PkaM2aMvahk1KhRuvbaazVnzhytXLlSknTbbbdp5syZGjlyZBzfMQDgfOq6 D2AQ8Q9wSqgAeCYeeOABNTc3a+7cuaqvr1dJSYk2b96snJwcu80TTzwhr9erWbNmqbm5WVOmTNGa NWuUkpJit1m/fr3mzZtnrxYuKyvTihUr4v5+AADnT5dFIFwLGIjJMqyNP2eNjY3y+Xzy+/3MBwSA BPDv2/+k7//nHl03pkDP3FKst/70mf7que26bFCWfv2db/R195Ag+PxOsDmAAAB8HoFAaB9A55VA 2AgacCIAAgBco9shYGYBAg4EQACAa4QWgaRELQIJBPqmP0CiIgACAFwj+lrAntNcJABIVgRAAIBr hK8FHD0HkCFgIBIBEADgGuE5gKGvbAMDxEIABAC4RiD6UnBRxwEEEQABAK5hXwu489PNrgD2VYeA BEUABAC4RvS1gEOFQK55ADgRAAEArtERcF4LOFQBZCNowIkACABwDRM1B9DDKmAgJgIgAMA1oq8E 4ulMgB2UAAEHAiAAwDXC+wAG76eEhoAJgIADARAA4BrRFcCUUAWQIWDAgQAIAHCN8BzA4P3QEDAF QMCJAAgAcI3ojaDtRSAkQMCBAAgAcI3ofQBDcwAZAgacCIAAANcIVQBTQlcC8YSvBcxm0EAYARAA 4BomehFIxDWB2QoGCCMAAgBcI7wNjHMfwOBjfdIlICERAAEArhGIWgWc4giAJEAghAAIAHCNLlcC Cec/hoCBCARAAIBrdNkHMHIOIBVAwEYABAC4RiAQ/GpFXQlEkkygL3oEJCYCIADANaI3gk6hAgjE RAAEALhGeA5g51cP28AAsRAAAQCuYaIqgMHvg19ZBQyEEQABAK4R3gcwfCw0D5AKIBBGAAQAuEb0 NjCR31MBBMIIgAAA1+iI2gZGClcAA6wCBmwEQACAa9hzACMSYGglMKuAgTACIADANUJVvsgh4NC3 zAEEwgiAAADX6GkRiKECCNgIgAAA1wgFwMgNoO1VwARAwEYABAC4RnvnMG/kJeBCw8EMAQNhBEAA gGuEQp43pWsFkFXAQBgBEADgGqEAGGsfQIaAgTACIADANUJDwF5P+OMt9C0bQQNhBEAAgGsEYswB DC0ICTAHELARAAEArhFzEQjXAga6IAACAFzDXgTClUCAHhEAAQCu0dHDNjDkPyCMAAgAcI2YAZAh YKALAiAAwDXaOzf7cywC6fykYwgYCCMAAgBco6c5gKwCBsIIgAAA1whV+TwMAQM9IgACAFyjo6Nr BTC0CIT8B4QRAAEArhFrH0B7CJg5gICNAAgAcI1QyHOuAg5+ZQgYCCMAAgBcoz3WIhAPFUAgGgEQ AOAaoTmAKZ7wx1toDiAVQCCMAAgAcI3QKuDQvD8pXA1sJwACNgIgAMA17EUgKREBsHMn6PYOAiAQ QgAEALhGrI2gU1NCFcBAn/QJSEQEQACAKxhj7ADosSIXgVABBKIRAAEArhA5xc9RAfRQAQSiEQAB AK4QGfCccwCD37dRAQRsBEAAgCtEbvPiWAXMIhCgCwIgAMAVHAHQ03UbmA6GgAEbARAA4AqRAdDr CIDBj7o29gEEbARAAIArtHdTAbS3gemgAgiEEAABAK4QsLeAkSyLRSBATxIuAC5dulRXX321cnJy lJeXpxtvvFH79+93tDHGaNGiRSosLFRmZqYmT56sPXv2ONq0tLTo7rvv1uDBg5Wdna2ysjIdOnTI 0aa+vl4VFRXy+Xzy+XyqqKhQQ0NDb79FAEAvaLc3gXZ+tIX2AeRawEBYwgXALVu26M4779Sbb76p 6upqtbe3a/r06Tpx4oTdZtmyZVq+fLlWrFihXbt2qaCgQNOmTVNTU5PdprKyUps2bdLGjRu1detW HT9+XDNnzlRHR4fdpry8XLW1taqqqlJVVZVqa2tVUVER1/cLADg/7E2goz7Z2AcQ6Mrb1x2IVlVV 5bj/wgsvKC8vTzU1Nfr6178uY4yefPJJLVy4UDfddJMkae3atcrPz9eGDRt0++23y+/3a/Xq1Xrx xRc1depUSdK6des0bNgwvf7665oxY4b27dunqqoqvfnmmyopKZEkrVq1SqWlpdq/f79GjhwZ3zcO APhcuqsAhraBYQgYCEu4CmA0v98vSRo4cKAk6cCBA6qrq9P06dPtNunp6Zo0aZK2bdsmSaqpqVFb W5ujTWFhoUaPHm232b59u3w+nx3+JGn8+PHy+Xx2m2gtLS1qbGx03AAAiaGtc5FHmtf50cYiEKCr hA6Axhjdd999+trXvqbRo0dLkurq6iRJ+fn5jrb5+fn2Y3V1dUpLS9OAAQN6bJOXl9flZ+bl5dlt oi1dutSeL+jz+TRs2LDP9wYBAOdNa3sw4KVGXAVECq8IbmcOIGBL6AB411136Xe/+51eeumlLo9F rvCSgmEx+li06Dax2vf0OgsWLJDf77dvBw8ePJO3AQCIg1AFMDUl9hAwVwIBwhI2AN5999169dVX 9atf/UpDhw61jxcUFEhSlyrd0aNH7apgQUGBWltbVV9f32ObI0eOdPm5x44d61JdDElPT1dubq7j BgBIDKE5fmlRAZBFIEBXCRcAjTG666679Morr+h//ud/NHz4cMfjw4cPV0FBgaqrq+1jra2t2rJl iyZMmCBJKi4uVmpqqqPN4cOH9e6779ptSktL5ff7tXPnTrvNjh075Pf77TYAgP7jdBVAFoEAYQm3 CvjOO+/Uhg0b9J//+Z/KycmxK30+n0+ZmZmyLEuVlZVasmSJioqKVFRUpCVLligrK0vl5eV229mz Z+v+++/XoEGDNHDgQM2fP19jxoyxVwWPGjVK1157rebMmaOVK1dKkm677TbNnDmTFcAA0A+1hgKg 1zmNJ3wtYAIgEJJwAfDZZ5+VJE2ePNlx/IUXXtC3v/1tSdIDDzyg5uZmzZ07V/X19SopKdHmzZuV k5Njt3/iiSfk9Xo1a9YsNTc3a8qUKVqzZo1SUlLsNuvXr9e8efPs1cJlZWVasWJF775BAECvCM3x 61oBDF0JhCFgICThAqAxp/8LzbIsLVq0SIsWLeq2TUZGhp5++mk9/fTT3bYZOHCg1q1bdy7dBAAk mG6HgDv3BWQVMBCWcHMAAQA4F/Y+gNGLQNgHEOiCAAgAcAX2AQTOHAEQAOAKbd3MAQxVBEMBEQAB EADgEvYcwKhLwaWndgZAhoABGwEQAOAK3c0BTOvc/YEKIBBGAAQAuIK9D2DUHMBQBbCFAAjYCIAA AFdoa2cOIHCmCIAAAFfobh/ANC8BEIhGAAQAuII9BzB6EYg3vAgkwFYwgCQCIADAJbqbAxgZCFkJ DAQRAAEArhCqAIYu/RYSGQBZCAIEEQABAK5wqi0Y7jJSUxzHI7eFYR4gEEQABAC4wqm2DklSRqrz o82yrPBCEIaAAUkEQACAS3RXAZTCC0FaOkMikOwIgAAAV+iuAig5VwIDIAACAFzCDoDerhXA0DzA ljYCICARAAEALnGqPVQBjDEE3HmMCiAQRAAEALhCaA5geowhYCqAgBMBEADgCuE5gF0rgBlpwWPN LAIBJBEAAQAuEaoAZsYIgFmdx062tse1T0CiIgACAFyhpYcKYFaoAthKBRCQCIAAAJcILwLp+tGW mRaqABIAAYkACABwgfaOgNo6jKTY28BkMQcQcCAAAgD6vVMR1/iNPQTslcQcQCCEAAgA6PdOtASD ncdiCBg4EwRAAEC/13QqGACz072yLKvL46FVwCwCAYIIgACAfi9UAbwg3RvzcSqAgBMBEADQ74UC YHY3ATA8B5AACEgEQACACxw/TQDMTg9WAENBEUh2BEAAQL93ojU0BNx1BbAk5WakSpKaWtri1icg kREAAQD93vGW4NBudlrsCmBuZvB4YzMVQEAiAAIAXOB0i0ByQhXAU1QAAYkACABwgeOd28BckNFN BbAzADaeapcxJm79AhIVARAA0O81NLdKki7MSov5eE5nMOwIGC4HB4gACABwgfqTwaHdCzNTYz6e lZaiFE9wg2jmAQIEQACAC/hDATArdgC0LEu5nVVAfzPzAAECIACg3wsPAccOgJI06IJ0SdKnx1vi 0icgkREAAQD9XoNdAYw9B1CSLuoMgMcIgAABEADQ/zWcZg6gJF2U0xkAmwiAAAEQANCvNbd22JeC G9wZ8mIhAAJhBEAAQL8WCnQZqR7ldLMRtEQABCIRAAEA/dqx46ckBQOeZVndtmMOIBBGAAQA9GtH G4OBLi8no8d2VACBMAIgAKBfq2sMVgDzepj/JxEAgUgEQABAv/ZxfbMk6eILM3tsFwqAn51sVVtH oNf7BSQyAiAAoF/7uCEYAIcO6DkADshKU1qKR8ZIdf5T8egakLAIgACAfu1QfSgAZvXYLsVj6bLB wTbvHzve6/0CEhkBEADQbxljdOCTE5KkSwb1HAAl6QsXXSBJev/YiV7tF5DoCIAAgH7rSGOLjre0 B6t7g7JP2z4UAP94lAogkhsBEADQb/3haJMk6dKBWUrznv4j7Qt5wZDIEDCSHQEQANBv/e/BBknS lYW5Z9T+ixflSJLeP3pcxpje6haQ8AiAAIB+a/dHDZKksZcMOKP2X8y7QF6PpU9PtNqLR4BkRAAE APRLxhjt7qwAjr3kwjN6TmZair481CdJevODT3upZ0DiIwACAPqlA5+c0GcnWpWW4tGXznAIWJJK RgySJO088FlvdQ1IeARAAEC/9Pq+I5Kk4ksHKN2bcsbPu2b4QEnSb//4iQIB5gEiOREAAQD90mvv 1EmSrhtTcFbPKx0xSBeke/Vn/ynVfFTfG10DEh4BEADQ73xw7LhqDzbIsqQZXzq7AJiRmqJrRwef 88rbH/dG94CERwAEAPQ7q974QJL0zZF5ysvNOOvn3/TViyVJm3Yf0tEmrguM5EMABAD0K3882qSf 1BySJN0x+Qvn9BqlIwZp7CUX6lRbQE//8o/ns3tAv0AABAD0Gy3tHZr/H79TW4fRN6/I09WXDTyn 17EsS9+ZPlKS9OKbH2rrHz45n90EEh4BEADQL5xq61DlxlrVHmxQToZX//fG0Z/r9SZ8cbD+9ppL JEn/z/oa+6oiQDIgAAIAEt6BT07olh/t0M/frZPXY+mH5V/VxRdmfu7XfeiGKzXu0gFqOtWuWSu3 66WdH7E1DJJC0gfAZ555RsOHD1dGRoaKi4v1xhtv9HWXAAAKXulj3+FGLXjld5rxxG9U82G9ctK9 WvuP1+jrl190Xn5GRmqKXviHqzXlijy1tAe04JV3VPbDrfppzSGdaus4Lz8DSESWSeKrYb/88suq qKjQM888o4kTJ2rlypX60Y9+pL179+qSSy457fMbGxvl8/nk9/uVm3vmu9ADALpq6wjog2MntPew X7s/atCv9x/TR5+dtB//i6LB+r/fGq3LBmef95/dETD68dYD+rdf/kHHW9olSZmpKRo/YqAmfnGw rizM1aiCXA3ITjvvPxvxx+d3kgfAkpISffWrX9Wzzz5rHxs1apRuvPFGLV269LTP5x8QAIQZY9TS HlBrR0Ct7YHg9+0BtbR36ERLuxqb29V4qk2NzW1qPNUuf3Ob6vyndNjfrD83nNKRxlNqjxp+TU2x NHVUvr494TJdM3ygLMvq1ffwyfEWvbzroDbs+EgfNzR3eXxAVqqG+DJVeGGGhvgyNSArVbmZqfJF 3DLTUpSRmqIMb4oyUj1KTw1+TUvx9Hr/cWb4/Ja8fd2BvtLa2qqamho9+OCDjuPTp0/Xtm3b+qhX QVveO6Yt+4/F9WfG+3dSvH8F9sXv3Hj/ou+rj5XIj+vovycj75pujgcfM90+1u1rd/tzun+t7vvQ Q78/52tHPkc9Psd0c/zsnxN9wMioI2AUMFIgYBQwRh0m+PyOzvuBgDqPR7ULGBkTfswY2c/pCBi1 tkeEvY5AdC/O2gXpXo0akqMrh+Tqa0UXacIXBik7PX4fVYMvSNed3/ii5k7+gn5f16TfvHdMNR/W 6/d1Tfros5OqP9mm+pNt2nu48axf22NJaV6PUj0epaRY8nospXgseT2ezq/B+ykeS94USykej33M UvD3mMeyZFmSpc6vliWPpc7Hg99Lncc623k8wa8KPb+zL5Zl2c+zLOfvkNCvLyviqH3M8csmxuNn +DqRbWP9vgwdmnT5RZo8Mq+HM4tzkbQB8JNPPlFHR4fy8/Mdx/Pz81VXVxfzOS0tLWppabHvNzae /S+AM7H7o3r9+LcHeuW1ASBe0rwepad4lOb16IIMr3IzUpWb2fm18/u8nAwN6aymFV6YofycDHk8 fV8lsyxLo4bkatSQcHXoeEu7DtWf1OGGU/qzv1l1/lNqONkmf3Pw1tDcpqbmNjW3dehUW4dOtQV0 qr3DDvEBo+Axff6gnEx8makEwF6QtAEwJPqvDmNMt5WbpUuXavHixb3ep6svG6i557i56bmI9xyA eE86MHF/h4r7SY3/f0Pn/yfdFAQ67/b8l3/sx87sOeqmD929Vk+vF/2/fXe/Bz7va/f0nO5+fs/n KvZzott5rGAlydNZBQrdtyx1Hg/d1ONjwePh10r3pgSDnjcY9OzvXTjceUG6V1cU5OqKgjMfMjTG qLUjoFNtAbW0dailPaCOgFF7wHR+jbrf0fV4e4eRUbD6ajpfM/h9sHJrFKzQKnTMyK7ammAnOo+Z zrbO1wi27ezvaarxoapzrOp+rMq3Mc42kQdjVbpj/fxz3esRPUvaADh48GClpKR0qfYdPXq0S1Uw ZMGCBbrvvvvs+42NjRo2bNh579vELw7WxC8OPu+vCwCIL8uylO5NUbo3RcpM7evuALakDYBpaWkq Li5WdXW1/vIv/9I+Xl1drW9961sxn5Oenq709HT7fugvod4aCgYAAOdf6HM7idfBJm8AlKT77rtP FRUVGjdunEpLS/X888/ro48+0h133HFGz29qapKkXqkCAgCA3tXU1CSfz9fX3egTSR0Ab775Zn36 6ad6+OGHdfjwYY0ePVqvvfaaLr300jN6fmFhoQ4ePKicnJzzPtclNLx88ODBpF2iHg+c5/jgPMcH 5zk+OM/x0Zvn2RijpqYmFRYWntfX7U+Seh/ARMYeRfHBeY4PznN8cJ7jg/McH5zn3pX0l4IDAABI NgRAAACAJEMATFDp6el66KGHHKuOcf5xnuOD8xwfnOf44DzHB+e5dzEHEAAAIMlQAQQAAEgyBEAA AIAkQwAEAABIMgRAAACAJEMA7CPPPPOMhg8froyMDBUXF+uNN97osf2WLVtUXFysjIwMjRgxQs89 91ycetr/nc25fuWVVzRt2jRddNFFys3NVWlpqX7xi1/Esbf919n+mw757W9/K6/Xq6985Su920GX ONvz3NLSooULF+rSSy9Venq6vvCFL+jHP/5xnHrbf53teV6/fr2uuuoqZWVlaciQIfqHf/gHffrp p3Hqbf/0m9/8RjfccIMKCwtlWZZ+9rOfnfY5fBaeRwZxt3HjRpOammpWrVpl9u7da+655x6TnZ1t Pvzww5jtP/jgA5OVlWXuueces3fvXrNq1SqTmppqfvKTn8S55/3P2Z7re+65xzz66KNm586d5r33 3jMLFiwwqamp5u23345zz/uXsz3PIQ0NDWbEiBFm+vTp5qqrropPZ/uxcznPZWVlpqSkxFRXV5sD Bw6YHTt2mN/+9rdx7HX/c7bn+Y033jAej8f827/9m/nggw/MG2+8Yb70pS+ZG2+8Mc49719ee+01 s3DhQvPTn/7USDKbNm3qsT2fhecXAbAPXHPNNeaOO+5wHLviiivMgw8+GLP9Aw88YK644grHsdtv v92MHz++1/roFmd7rmO58sorzeLFi89311zlXM/zzTffbL773e+ahx56iAB4Bs72PP/85z83Pp/P fPrpp/Honmuc7Xl+7LHHzIgRIxzHnnrqKTN06NBe66PbnEkA5LPw/GIIOM5aW1tVU1Oj6dOnO45P nz5d27Zti/mc7du3d2k/Y8YMvfXWW2pra+u1vvZ353KuowUCATU1NWngwIG90UVXONfz/MILL+j9 99/XQw891NtddIVzOc+vvvqqxo0bp2XLluniiy/W5Zdfrvnz56u5uTkeXe6XzuU8T5gwQYcOHdJr r70mY4yOHDmin/zkJ7r++uvj0eWkwWfh+eXt6w4km08++UQdHR3Kz893HM/Pz1ddXV3M59TV1cVs 397erk8++URDhgzptf72Z+dyrqM9/vjjOnHihGbNmtUbXXSFcznPf/jDH/Tggw/qjTfekNfLr6Ez cS7n+YMPPtDWrVuVkZGhTZs26ZNPPtHcuXP12WefMQ+wG+dynidMmKD169fr5ptv1qlTp9Te3q6y sjI9/fTT8ehy0uCz8PyiAthHLMty3DfGdDl2uvaxjqOrsz3XIS+99JIWLVqkl19+WXl5eb3VPdc4 0/Pc0dGh8vJyLV68WJdffnm8uucaZ/PvORAIyLIsrV+/Xtdcc42uu+46LV++XGvWrKEKeBpnc573 7t2refPm6fvf/75qampUVVWlAwcO6I477ohHV5MKn4XnD396x9ngwYOVkpLS5S/Jo0ePdvnLJqSg oCBme6/Xq0GDBvVaX/u7cznXIS+//LJmz56t//iP/9DUqVN7s5v93tme56amJr311lvavXu37rrr LknBoGKMkdfr1ebNm/XNb34zLn3vT87l3/OQIUN08cUXy+fz2cdGjRolY4wOHTqkoqKiXu1zf3Qu 53np0qWaOHGivvOd70iSvvzlLys7O1t/8Rd/oX/5l3+hMnWe8Fl4flEBjLO0tDQVFxerurracby6 uloTJkyI+ZzS0tIu7Tdv3qxx48YpNTW11/ra353LuZaClb9vf/vb2rBhA3N4zsDZnufc3Fy98847 qq2ttW933HGHRo4cqdraWpWUlMSr6/3Kufx7njhxov785z/r+PHj9rH33ntPHo9HQ4cO7dX+9lfn cp5Pnjwpj8f5cZqSkiIpXKHC58dn4XnWR4tPklpoi4HVq1ebvXv3msrKSpOdnW3+9Kc/GWOMefDB B01FRYXdPrT0/d577zV79+41q1evZun7GTrbc71hwwbj9XrND3/4Q3P48GH71tDQ0FdvoV842/Mc jVXAZ+Zsz3NTU5MZOnSo+au/+iuzZ88es2XLFlNUVGT+6Z/+qa/eQr9wtuf5hRdeMF6v1zzzzDPm /fffN1u3bjXjxo0z11xzTV+9hX6hqanJ7N692+zevdtIMsuXLze7d++2t9vhs7B3EQD7yA9/+ENz 6aWXmrS0NPPVr37VbNmyxX7s1ltvNZMmTXK0//Wvf23Gjh1r0tLSzGWXXWaeffbZOPe4/zqbcz1p 0iQjqcvt1ltvjX/H+5mz/TcdiQB45s72PO/bt89MnTrVZGZmmqFDh5r77rvPnDx5Ms697n/O9jw/ 9dRT5sorrzSZmZlmyJAh5pZbbjGHDh2Kc6/7l1/96lc9/r7ls7B3WcZQnwYAAEgmzAEEAABIMgRA AACAJEMABAAASDIEQAAAgCRDAAQAAEgyBEAAAIAkQwAEAABIMgRAAACAJEMABAAASDIEQAAAgCRD AAQAAEgyBEAAAIAkQwAEAABIMgRAAACAJEMABAAASDIEQAAAgCRDAAQAAEgyBEAAAIAkQwAEAABI MgRAAACAJEMABAAASDIEQAAAgCRDAAQAAEgyBEAAAIAkQwAEAABIMgRAAACAJEMABAAASDIEQAAA gCRDAAQAAEgyBEAAAIAkQwAEAABIMv8/GYXGOnKHWPcAAAAASUVORK5CYII= "
       id="image857"
       x="110.14732"
       y="19.085871" />
    <text
       xml:space="preserve"
       style="font-style:normal;font-weight:normal;font-size:3.32114px;line-height:1.25;font-family:sans-serif;fill:#000000;fill-opacity:1;stroke:none;stroke-width:0.083029"
       x="53.595757"
       y="85.006798"
       id="text863"><tspan
         sodipodi:role="line"
         id="tspan861"
         x="53.595757"
         y="85.006798"
         style="stroke-width:0.083029">norm. x</tspan></text>
    <text
       xml:space="preserve"
       style="font-style:normal;font-weight:normal;font-size:3.32114px;line-height:1.25;font-family:sans-serif;fill:#000000;fill-opacity:1;stroke:none;stroke-width:0.083029"
       x="148.45833"
       y="85.006798"
       id="text867"><tspan
         sodipodi:role="line"
         id="tspan865"
         x="148.45833"
         y="85.006798"
         style="stroke-width:0.083029">norm. x</tspan></text>
    <text
       xml:space="preserve"
       style="font-style:normal;font-weight:normal;font-size:3.76573px;line-height:1.25;font-family:sans-serif;baseline-shift:baseline;fill:#000000;fill-opacity:1;stroke:none;stroke-width:0.083029"
       x="-54.709251"
       y="17.563551"
       id="text893"
       transform="rotate(-90)"><tspan
         sodipodi:role="line"
         id="tspan904"
         x="-54.709251"
         y="17.563551"
         style="stroke-width:0.083029">β<tspan
   style="font-size:2.44773px;baseline-shift:super;stroke-width:0.083029"
   id="tspan906">2</tspan></tspan></text>
    <text
       xml:space="preserve"
       style="font-style:normal;font-variant:normal;font-weight:normal;font-stretch:normal;font-size:14.6667px;line-height:1.25;font-family:sans-serif;font-variant-ligatures:normal;font-variant-position:normal;font-variant-caps:normal;font-variant-numeric:normal;font-variant-alternates:normal;font-variant-east-asian:normal;font-feature-settings:normal;font-variation-settings:normal;text-indent:0;text-align:start;text-decoration:none;text-decoration-line:none;text-decoration-style:solid;text-decoration-color:#000000;letter-spacing:normal;word-spacing:normal;text-transform:none;writing-mode:lr-tb;direction:ltr;text-orientation:mixed;dominant-baseline:auto;baseline-shift:baseline;text-anchor:start;white-space:normal;shape-padding:0;shape-margin:0;inline-size:0;opacity:1;vector-effect:none;fill:#000000;fill-opacity:1;stroke:none;stroke-width:0.999999;stroke-linecap:butt;stroke-linejoin:miter;stroke-miterlimit:4;stroke-dasharray:none;stroke-dashoffset:0;stroke-opacity:1;stop-color:#000000;stop-opacity:1"
       x="57.769115"
       y="72.135574"
       id="text32"
       transform="matrix(0.26458333,0,0,0.26458333,-3.4723832,8.8552579)"><tspan
         sodipodi:role="line"
         id="tspan30"
         x="57.769115"
         y="72.135574">(a)</tspan></text>
    <text
       xml:space="preserve"
       style="font-style:normal;font-variant:normal;font-weight:normal;font-stretch:normal;font-size:14.6667px;line-height:1.25;font-family:sans-serif;font-variant-ligatures:normal;font-variant-position:normal;font-variant-caps:normal;font-variant-numeric:normal;font-variant-alternates:normal;font-variant-east-asian:normal;font-feature-settings:normal;font-variation-settings:normal;text-indent:0;text-align:start;text-decoration:none;text-decoration-line:none;text-decoration-style:solid;text-decoration-color:#000000;letter-spacing:normal;word-spacing:normal;text-transform:none;writing-mode:lr-tb;direction:ltr;text-orientation:mixed;dominant-baseline:auto;baseline-shift:baseline;text-anchor:start;white-space:normal;shape-padding:0;shape-margin:0;inline-size:0;opacity:1;vector-effect:none;fill:#000000;fill-opacity:1;stroke:none;stroke-width:0.999999;stroke-linecap:butt;stroke-linejoin:miter;stroke-miterlimit:4;stroke-dasharray:none;stroke-dashoffset:0;stroke-opacity:1;stop-color:#000000;stop-opacity:1"
       x="416.30484"
       y="72.135574"
       id="text36"
       transform="matrix(0.26458333,0,0,0.26458333,-3.4723832,8.8552579)"><tspan
         sodipodi:role="line"
         id="tspan34"
         x="416.30484"
         y="72.135574">(b)</tspan></text>
    <g
       id="g93"
       transform="translate(0,-2.8701993)">
      <text
         xml:space="preserve"
         style="font-style:normal;font-weight:normal;font-size:3.32114px;line-height:1.25;font-family:sans-serif;fill:#000000;fill-opacity:1;stroke:none;stroke-width:0.083029"
         x="-58.582664"
         y="112.15479"
         id="text871"
         transform="rotate(-90)"><tspan
           sodipodi:role="line"
           id="tspan869"
           x="-58.582664"
           y="112.15479"
           style="stroke-width:0.083029"> (m/a)</tspan></text>
      <g
         inkscape:label=""
         transform="matrix(0,-0.4839606,0.4839606,0,72.78648,106.87528)"
         id="g58">
        <g
           id="g1077">
          <g
             style="fill:#000000;fill-opacity:1"
             id="g6463">
            <use
               xlink:href="#symbol8031"
               x="91.925003"
               y="81.962997"
               id="use5720"
               width="100%"
               height="100%" />
          </g>
          <g
             style="fill:#000000;fill-opacity:1"
             id="g678">
            <use
               xlink:href="#symbol879"
               x="98.130997"
               y="77.848999"
               id="use9083"
               width="100%"
               height="100%" />
          </g>
          <g
             style="fill:#000000;fill-opacity:1"
             id="g6885">
            <use
               xlink:href="#symbol9955"
               x="97.972"
               y="84.426003"
               id="use3790"
               width="100%"
               height="100%" />
          </g>
        </g>
      </g>
    </g>
  </g>
</svg>
