<?xml version="1.0" encoding="UTF-8" standalone="no"?>
<svg
   width="210mm"
   height="297mm"
   viewBox="0 0 210 297"
   version="1.1"
   id="svg8"
   inkscape:version="1.2 (1:1.2.1+202207142221+cd75a1ee6d)"
   sodipodi:docname="fig-06.svg"
   inkscape:export-filename="fig-06.png"
   inkscape:export-xdpi="300"
   inkscape:export-ydpi="300"
   xmlns:inkscape="http://www.inkscape.org/namespaces/inkscape"
   xmlns:sodipodi="http://sodipodi.sourceforge.net/DTD/sodipodi-0.dtd"
   xmlns="http://www.w3.org/2000/svg"
   xmlns:svg="http://www.w3.org/2000/svg"
   xmlns:rdf="http://www.w3.org/1999/02/22-rdf-syntax-ns#"
   xmlns:cc="http://creativecommons.org/ns#"
   xmlns:dc="http://purl.org/dc/elements/1.1/">
  <defs
     id="defs2" />
  <sodipodi:namedview
     id="base"
     pagecolor="#ffffff"
     bordercolor="#666666"
     borderopacity="1.0"
     inkscape:pageopacity="0.0"
     inkscape:pageshadow="2"
     inkscape:zoom="0.7"
     inkscape:cx="496.42857"
     inkscape:cy="300"
     inkscape:document-units="mm"
     inkscape:current-layer="g929"
     inkscape:document-rotation="0"
     showgrid="false"
     showguides="true"
     inkscape:guide-bbox="true"
     inkscape:window-width="1872"
     inkscape:window-height="1011"
     inkscape:window-x="48"
     inkscape:window-y="32"
     inkscape:window-maximized="1"
     inkscape:showpageshadow="2"
     inkscape:pagecheckerboard="0"
     inkscape:deskcolor="#d1d1d1">
    <sodipodi:guide
       position="53.381175,284.08128"
       orientation="1,0"
       id="guide64"
       inkscape:locked="false" />
    <sodipodi:guide
       position="62.607885,282.43382"
       orientation="0,-1"
       id="guide66"
       inkscape:locked="false" />
    <sodipodi:guide
       position="176.79879,234.25848"
       orientation="1,0"
       id="guide68"
       inkscape:locked="false" />
    <sodipodi:guide
       position="195.03571,211.95536"
       orientation="0,-1"
       id="guide70"
       inkscape:locked="false" />
    <sodipodi:guide
       position="51.403493,249.27302"
       orientation="1,0"
       id="guide72"
       inkscape:locked="false" />
    <sodipodi:guide
       position="55.609746,258.91891"
       orientation="0,-1"
       id="guide74"
       inkscape:locked="false" />
    <sodipodi:guide
       position="60.192707,235.57888"
       orientation="0,-1"
       id="guide76"
       inkscape:locked="false" />
    <sodipodi:guide
       position="94.279324,209.43583"
       orientation="1,0"
       id="guide78"
       inkscape:locked="false" />
    <sodipodi:guide
       position="135.56756,204.20716"
       orientation="1,0"
       id="guide80"
       inkscape:locked="false" />
    <sodipodi:guide
       position="95.627974,210.67969"
       orientation="0,-1"
       id="guide82"
       inkscape:locked="false" />
  </sodipodi:namedview>
  <metadata
     id="metadata5">
    <rdf:RDF>
      <cc:Work
         rdf:about="">
        <dc:format>image/svg+xml</dc:format>
        <dc:type
           rdf:resource="http://purl.org/dc/dcmitype/StillImage" />
        <dc:title />
      </cc:Work>
    </rdf:RDF>
  </metadata>
  <g
     inkscape:label="Ebene 1"
     inkscape:groupmode="layer"
     id="layer1">
    <text
       xml:space="preserve"
       style="font-style:normal;font-variant:normal;font-weight:normal;font-stretch:normal;font-size:18.6667px;line-height:1.25;font-family:sans-serif;-inkscape-font-specification:'sans-serif, Normal';font-variant-ligatures:normal;font-variant-position:normal;font-variant-caps:normal;font-variant-numeric:normal;font-variant-alternates:normal;font-variant-east-asian:normal;text-indent:0;text-align:start;text-decoration:none;text-decoration-line:none;text-decoration-style:solid;text-decoration-color:#000000;letter-spacing:normal;word-spacing:normal;text-transform:none;writing-mode:lr-tb;direction:ltr;text-orientation:mixed;dominant-baseline:auto;baseline-shift:baseline;text-anchor:start;white-space:normal;shape-padding:0;shape-margin:0;inline-size:0;opacity:1;vector-effect:none;fill:#000000;fill-opacity:1;stroke:none;stroke-width:0.999999;stroke-linecap:butt;stroke-linejoin:miter;stroke-miterlimit:4;stroke-dasharray:none;stroke-dashoffset:0;stroke-opacity:1;stop-color:#000000;stop-opacity:1"
       x="381.37378"
       y="434.91519"
       id="text26"
       transform="matrix(0.26458333,0,0,0.26458333,-11.906907,-18.843559)"><tspan
         sodipodi:role="line"
         id="tspan24"
         x="381.37378"
         y="434.91519">Degrees of freedom (N)</tspan></text>
    <text
       xml:space="preserve"
       style="font-style:normal;font-variant:normal;font-weight:normal;font-stretch:normal;font-size:18.6667px;line-height:1.25;font-family:sans-serif;-inkscape-font-specification:'sans-serif, Normal';font-variant-ligatures:normal;font-variant-position:normal;font-variant-caps:normal;font-variant-numeric:normal;font-variant-alternates:normal;font-variant-east-asian:normal;text-indent:0;text-align:start;text-decoration:none;text-decoration-line:none;text-decoration-style:solid;text-decoration-color:#000000;letter-spacing:normal;word-spacing:normal;text-transform:none;writing-mode:lr-tb;direction:ltr;text-orientation:mixed;dominant-baseline:auto;baseline-shift:baseline;text-anchor:start;white-space:normal;shape-padding:0;shape-margin:0;inline-size:0;opacity:1;vector-effect:none;fill:#000000;fill-opacity:1;stroke:none;stroke-width:0.999999;stroke-linecap:butt;stroke-linejoin:miter;stroke-miterlimit:4;stroke-dasharray:none;stroke-dashoffset:0;stroke-opacity:1;stop-color:#000000;stop-opacity:1"
       x="71.090103"
       y="210.07658"
       id="text30"
       transform="matrix(0,-0.26458333,0.26458333,0,-18.45487,76.025257)"><tspan
         sodipodi:role="line"
         id="tspan28"
         x="71.090103"
         y="210.07658">time (s)</tspan></text>
    <text
       xml:space="preserve"
       style="font-style:normal;font-variant:normal;font-weight:normal;font-stretch:normal;font-size:18.6667px;line-height:1.25;font-family:sans-serif;-inkscape-font-specification:'sans-serif, Normal';font-variant-ligatures:normal;font-variant-position:normal;font-variant-caps:normal;font-variant-numeric:normal;font-variant-alternates:normal;font-variant-east-asian:normal;text-indent:0;text-align:start;text-decoration:none;text-decoration-line:none;text-decoration-style:solid;text-decoration-color:#000000;letter-spacing:normal;word-spacing:normal;text-transform:none;writing-mode:lr-tb;direction:ltr;text-orientation:mixed;dominant-baseline:auto;baseline-shift:baseline;text-anchor:start;white-space:normal;shape-padding:0;shape-margin:0;inline-size:0;opacity:1;vector-effect:none;fill:#000000;fill-opacity:1;stroke:none;stroke-width:0.999999;stroke-linecap:butt;stroke-linejoin:miter;stroke-miterlimit:4;stroke-dasharray:none;stroke-dashoffset:0;stroke-opacity:1;stop-color:#000000;stop-opacity:1"
       x="255.10803"
       y="454.88586"
       id="text34"
       transform="matrix(0.26458333,0,0,0.26458333,-22.185875,-29.452377)"><tspan
         sodipodi:role="line"
         id="tspan32"
         x="255.10803"
         y="454.88586">1000</tspan></text>
    <text
       xml:space="preserve"
       style="font-style:normal;font-variant:normal;font-weight:normal;font-stretch:normal;font-size:18.6667px;line-height:1.25;font-family:sans-serif;-inkscape-font-specification:'sans-serif, Normal';font-variant-ligatures:normal;font-variant-position:normal;font-variant-caps:normal;font-variant-numeric:normal;font-variant-alternates:normal;font-variant-east-asian:normal;text-indent:0;text-align:start;text-decoration:none;text-decoration-line:none;text-decoration-style:solid;text-decoration-color:#000000;letter-spacing:normal;word-spacing:normal;text-transform:none;writing-mode:lr-tb;direction:ltr;text-orientation:mixed;dominant-baseline:auto;baseline-shift:baseline;text-anchor:start;white-space:normal;shape-padding:0;shape-margin:0;inline-size:0;opacity:1;vector-effect:none;fill:#000000;fill-opacity:1;stroke:none;stroke-width:0.999999;stroke-linecap:butt;stroke-linejoin:miter;stroke-miterlimit:4;stroke-dasharray:none;stroke-dashoffset:0;stroke-opacity:1;stop-color:#000000;stop-opacity:1"
       x="346.57751"
       y="446.86414"
       id="text38"
       transform="matrix(0.26458333,0,0,0.26458333,-6.5895707,-27.329961)"><tspan
         sodipodi:role="line"
         id="tspan36"
         x="346.57751"
         y="446.86414">10000</tspan></text>
    <text
       xml:space="preserve"
       style="font-style:normal;font-variant:normal;font-weight:normal;font-stretch:normal;font-size:18.6667px;line-height:1.25;font-family:sans-serif;-inkscape-font-specification:'sans-serif, Normal';font-variant-ligatures:normal;font-variant-position:normal;font-variant-caps:normal;font-variant-numeric:normal;font-variant-alternates:normal;font-variant-east-asian:normal;text-indent:0;text-align:start;text-decoration:none;text-decoration-line:none;text-decoration-style:solid;text-decoration-color:#000000;letter-spacing:normal;word-spacing:normal;text-transform:none;writing-mode:lr-tb;direction:ltr;text-orientation:mixed;dominant-baseline:auto;baseline-shift:baseline;text-anchor:start;white-space:normal;shape-padding:0;shape-margin:0;inline-size:0;opacity:1;vector-effect:none;fill:#000000;fill-opacity:1;stroke:none;stroke-width:0.999999;stroke-linecap:butt;stroke-linejoin:miter;stroke-miterlimit:4;stroke-dasharray:none;stroke-dashoffset:0;stroke-opacity:1;stop-color:#000000;stop-opacity:1"
       x="444.82767"
       y="447.48834"
       id="text42"
       transform="matrix(0.26458333,0,0,0.26458333,7.3087508,-27.495116)"><tspan
         sodipodi:role="line"
         id="tspan40"
         x="444.82767"
         y="447.48834">100000</tspan></text>
    <text
       xml:space="preserve"
       style="font-style:normal;font-variant:normal;font-weight:normal;font-stretch:normal;font-size:18.6667px;line-height:1.25;font-family:sans-serif;-inkscape-font-specification:'sans-serif, Normal';font-variant-ligatures:normal;font-variant-position:normal;font-variant-caps:normal;font-variant-numeric:normal;font-variant-alternates:normal;font-variant-east-asian:normal;text-indent:0;text-align:start;text-decoration:none;text-decoration-line:none;text-decoration-style:solid;text-decoration-color:#000000;letter-spacing:normal;word-spacing:normal;text-transform:none;writing-mode:lr-tb;direction:ltr;text-orientation:mixed;dominant-baseline:auto;baseline-shift:baseline;text-anchor:start;white-space:normal;shape-padding:0;shape-margin:0;inline-size:0;opacity:1;vector-effect:none;fill:#000000;fill-opacity:1;stroke:none;stroke-width:0.999999;stroke-linecap:butt;stroke-linejoin:miter;stroke-miterlimit:4;stroke-dasharray:none;stroke-dashoffset:0;stroke-opacity:1;stop-color:#000000;stop-opacity:1"
       x="570.08337"
       y="437.1987"
       id="text46"
       transform="matrix(0.26458333,0,0,0.26458333,14.212106,-24.772648)"><tspan
         sodipodi:role="line"
         id="tspan44"
         x="570.08337"
         y="437.1987">1000000</tspan></text>
    <text
       xml:space="preserve"
       style="font-style:normal;font-variant:normal;font-weight:normal;font-stretch:normal;font-size:18.6667px;line-height:1.25;font-family:sans-serif;-inkscape-font-specification:'sans-serif, Normal';font-variant-ligatures:normal;font-variant-position:normal;font-variant-caps:normal;font-variant-numeric:normal;font-variant-alternates:normal;font-variant-east-asian:normal;text-indent:0;text-align:start;text-decoration:none;text-decoration-line:none;text-decoration-style:solid;text-decoration-color:#000000;letter-spacing:normal;word-spacing:normal;text-transform:none;writing-mode:lr-tb;direction:ltr;text-orientation:mixed;dominant-baseline:auto;baseline-shift:baseline;text-anchor:start;white-space:normal;shape-padding:0;shape-margin:0;inline-size:0;opacity:1;vector-effect:none;fill:#000000;fill-opacity:1;stroke:none;stroke-width:0.999999;stroke-linecap:butt;stroke-linejoin:miter;stroke-miterlimit:4;stroke-dasharray:none;stroke-dashoffset:0;stroke-opacity:1;stop-color:#000000;stop-opacity:1"
       x="199.22202"
       y="464.11935"
       id="text50"
       transform="matrix(0.26458333,0,0,0.26458333,-7.3239839,-36.244692)"><tspan
         sodipodi:role="line"
         id="tspan48"
         x="199.22202"
         y="464.11935">1</tspan></text>
    <text
       xml:space="preserve"
       style="font-style:normal;font-variant:normal;font-weight:normal;font-stretch:normal;font-size:18.6667px;line-height:1.25;font-family:sans-serif;-inkscape-font-specification:'sans-serif, Normal';font-variant-ligatures:normal;font-variant-position:normal;font-variant-caps:normal;font-variant-numeric:normal;font-variant-alternates:normal;font-variant-east-asian:normal;text-indent:0;text-align:start;text-decoration:none;text-decoration-line:none;text-decoration-style:solid;text-decoration-color:#000000;letter-spacing:normal;word-spacing:normal;text-transform:none;writing-mode:lr-tb;direction:ltr;text-orientation:mixed;dominant-baseline:auto;baseline-shift:baseline;text-anchor:start;white-space:normal;shape-padding:0;shape-margin:0;inline-size:0;opacity:1;vector-effect:none;fill:#000000;fill-opacity:1;stroke:none;stroke-width:0.999999;stroke-linecap:butt;stroke-linejoin:miter;stroke-miterlimit:4;stroke-dasharray:none;stroke-dashoffset:0;stroke-opacity:1;stop-color:#000000;stop-opacity:1"
       x="238.11868"
       y="503.63226"
       id="text54"
       transform="matrix(0.26458333,0,0,0.26458333,-20.184754,-70.416518)"><tspan
         sodipodi:role="line"
         id="tspan52"
         x="238.11868"
         y="503.63226">10</tspan></text>
    <text
       xml:space="preserve"
       style="font-style:normal;font-variant:normal;font-weight:normal;font-stretch:normal;font-size:18.6667px;line-height:1.25;font-family:sans-serif;-inkscape-font-specification:'sans-serif, Normal';font-variant-ligatures:normal;font-variant-position:normal;font-variant-caps:normal;font-variant-numeric:normal;font-variant-alternates:normal;font-variant-east-asian:normal;text-indent:0;text-align:start;text-decoration:none;text-decoration-line:none;text-decoration-style:solid;text-decoration-color:#000000;letter-spacing:normal;word-spacing:normal;text-transform:none;writing-mode:lr-tb;direction:ltr;text-orientation:mixed;dominant-baseline:auto;baseline-shift:baseline;text-anchor:start;white-space:normal;shape-padding:0;shape-margin:0;inline-size:0;opacity:1;vector-effect:none;fill:#000000;fill-opacity:1;stroke:none;stroke-width:0.999999;stroke-linecap:butt;stroke-linejoin:miter;stroke-miterlimit:4;stroke-dasharray:none;stroke-dashoffset:0;stroke-opacity:1;stop-color:#000000;stop-opacity:1"
       x="313.9863"
       y="472.25668"
       id="text58"
       transform="matrix(0.26458333,0,0,0.26458333,-42.726993,-85.434351)"><tspan
         sodipodi:role="line"
         id="tspan56"
         x="313.9863"
         y="472.25668">100</tspan></text>
    <text
       xml:space="preserve"
       style="font-style:normal;font-variant:normal;font-weight:normal;font-stretch:normal;font-size:18.6667px;line-height:1.25;font-family:sans-serif;-inkscape-font-specification:'sans-serif, Normal';font-variant-ligatures:normal;font-variant-position:normal;font-variant-caps:normal;font-variant-numeric:normal;font-variant-alternates:normal;font-variant-east-asian:normal;text-indent:0;text-align:start;text-decoration:none;text-decoration-line:none;text-decoration-style:solid;text-decoration-color:#000000;letter-spacing:normal;word-spacing:normal;text-transform:none;writing-mode:lr-tb;direction:ltr;text-orientation:mixed;dominant-baseline:auto;baseline-shift:baseline;text-anchor:start;white-space:normal;shape-padding:0;shape-margin:0;inline-size:0;opacity:1;vector-effect:none;fill:#000000;fill-opacity:1;stroke:none;stroke-width:0.999999;stroke-linecap:butt;stroke-linejoin:miter;stroke-miterlimit:4;stroke-dasharray:none;stroke-dashoffset:0;stroke-opacity:1;stop-color:#000000;stop-opacity:1"
       x="370.36716"
       y="477.94489"
       id="text62"
       transform="matrix(0.26458333,0,0,0.26458333,-60.113362,-110.30508)"><tspan
         sodipodi:role="line"
         id="tspan60"
         x="370.36716"
         y="477.94489">1000</tspan></text>
    <rect
       style="opacity:1;fill:none;stroke:#000000;stroke-width:0.3;stroke-opacity:1;stroke-miterlimit:4;stroke-dasharray:none"
       id="rect84"
       width="123.41762"
       height="70.478462"
       x="53.381172"
       y="14.56618" />
    <path
       style="fill:none;stroke:#000000;stroke-width:0.264583px;stroke-linecap:butt;stroke-linejoin:miter;stroke-opacity:1"
       d="m 51.403493,85.044639 h 1.977681"
       id="path909" />
    <path
       style="fill:none;stroke:#000000;stroke-width:0.264583px;stroke-linecap:butt;stroke-linejoin:miter;stroke-opacity:1"
       d="M 53.381174,61.42112 H 51.403493"
       id="path911" />
    <path
       style="fill:none;stroke:#000000;stroke-width:0.264583px;stroke-linecap:butt;stroke-linejoin:miter;stroke-opacity:1"
       d="m 51.403493,38.08109 h 1.977681"
       id="path913" />
    <path
       style="fill:none;stroke:#000000;stroke-width:0.264583px;stroke-linecap:butt;stroke-linejoin:miter;stroke-opacity:1"
       d="m 51.403493,14.566181 h 1.977681"
       id="path915" />
    <path
       style="fill:none;stroke:#000000;stroke-width:0.264583px;stroke-linecap:butt;stroke-linejoin:miter;stroke-opacity:1"
       d="m 53.381174,85.044639 v 1.27567"
       id="path917" />
    <path
       style="fill:none;stroke:#000000;stroke-width:0.264583px;stroke-linecap:butt;stroke-linejoin:miter;stroke-opacity:1"
       d="m 94.279322,85.044639 v 1.27567"
       id="path919" />
    <path
       style="fill:none;stroke:#000000;stroke-width:0.264583px;stroke-linecap:butt;stroke-linejoin:miter;stroke-opacity:1"
       d="m 135.56756,85.044639 v 1.27567"
       id="path921" />
    <path
       style="fill:none;stroke:#000000;stroke-width:0.264583px;stroke-linecap:butt;stroke-linejoin:miter;stroke-opacity:1"
       d="m 176.79879,85.044639 v 1.27567"
       id="path923" />
    <path
       style="fill:#008000;stroke:#008000;stroke-width:0.465;stroke-linecap:butt;stroke-linejoin:miter;stroke-opacity:1;stroke-miterlimit:4;stroke-dasharray:none"
       d="M 69.233562,79.380034 157.01479,18.500581"
       id="path925" />
    <path
       style="fill:#008000;stroke:#008000;stroke-width:0.264583px;stroke-linecap:butt;stroke-linejoin:miter;stroke-opacity:1"
       d="m 67.403307,78.289972 h 3.044182 l -1.576866,2.731214 z"
       id="path927" />
    <path
       style="fill:#008000;stroke:#008000;stroke-width:0.264583px;stroke-linecap:butt;stroke-linejoin:miter;stroke-opacity:1"
       d="m 92.186436,61.421121 h 3.044182 l -1.576866,2.731214 z"
       id="path927-3" />
    <path
       style="fill:#008000;stroke:#008000;stroke-width:0.264583px;stroke-linecap:butt;stroke-linejoin:miter;stroke-opacity:1"
       d="m 106.78494,48.009508 h 3.04418 l -1.57686,2.731214 z"
       id="path927-6" />
    <path
       style="fill:#008000;stroke:#008000;stroke-width:0.264583px;stroke-linecap:butt;stroke-linejoin:miter;stroke-opacity:1"
       d="m 116.95411,46.462324 h 3.04418 l -1.57686,2.731214 z"
       id="path927-7" />
    <path
       style="fill:#008000;stroke:#008000;stroke-width:0.264583px;stroke-linecap:butt;stroke-linejoin:miter;stroke-opacity:1"
       d="m 125.04194,38.081091 h 3.04418 l -1.57687,2.731214 z"
       id="path927-5" />
    <path
       style="fill:#008000;stroke:#008000;stroke-width:0.264583px;stroke-linecap:butt;stroke-linejoin:miter;stroke-opacity:1"
       d="m 131.41809,35.060857 h 3.04418 l -1.57687,2.731214 z"
       id="path927-35" />
    <path
       style="fill:#008000;stroke:#008000;stroke-width:0.264583px;stroke-linecap:butt;stroke-linejoin:miter;stroke-opacity:1"
       d="m 136.9498,24.814611 h 3.04418 l -1.57687,2.731214 z"
       id="path927-62" />
    <path
       style="fill:#008000;stroke:#008000;stroke-width:0.264583px;stroke-linecap:butt;stroke-linejoin:miter;stroke-opacity:1"
       d="m 141.71013,24.908492 h 3.04418 l -1.57687,2.731214 z"
       id="path927-9" />
    <path
       style="fill:#008000;stroke:#008000;stroke-width:0.264583px;stroke-linecap:butt;stroke-linejoin:miter;stroke-opacity:1"
       d="m 145.96498,24.640128 h 3.04419 l -1.57687,2.731214 z"
       id="path927-1" />
    <path
       style="fill:#008000;stroke:#008000;stroke-width:0.264583px;stroke-linecap:butt;stroke-linejoin:miter;stroke-opacity:1"
       d="m 153.16963,19.821131 h 3.04418 l -1.57686,2.731214 z"
       id="path927-2" />
    <path
       style="fill:#008000;stroke:#008000;stroke-width:0.264583px;stroke-linecap:butt;stroke-linejoin:miter;stroke-opacity:1"
       d="m 156.32883,17.889392 h 3.04419 l -1.57687,2.731214 z"
       id="path927-70" />
    <path
       style="fill:none;stroke:#0000ff;stroke-width:0.465;stroke-linecap:butt;stroke-linejoin:miter;stroke-opacity:1;stroke-miterlimit:4;stroke-dasharray:none"
       d="M 68.817127,81.771674 157.70934,28.140017"
       id="path998" />
    <path
       style="fill:#0000ff;stroke:#0000ff;stroke-width:0.264583px;stroke-linecap:butt;stroke-linejoin:miter;stroke-opacity:1"
       d="m 92.066564,65.591925 h 3.11558 v 2.819574 h -3.107346 z"
       id="path1000"
       sodipodi:nodetypes="ccccc" />
    <path
       style="fill:#0000ff;stroke:#0000ff;stroke-width:0.264583px;stroke-linecap:butt;stroke-linejoin:miter;stroke-opacity:1"
       d="m 106.61446,56.869417 h 3.11558 v 2.819574 h -3.10734 z"
       id="path1000-9"
       sodipodi:nodetypes="ccccc" />
    <path
       style="fill:#0000ff;stroke:#0000ff;stroke-width:0.264583px;stroke-linecap:butt;stroke-linejoin:miter;stroke-opacity:1"
       d="m 116.81982,49.994975 h 3.11558 v 2.819574 h -3.10734 z"
       id="path1000-3"
       sodipodi:nodetypes="ccccc" />
    <path
       style="fill:#0000ff;stroke:#0000ff;stroke-width:0.264583px;stroke-linecap:butt;stroke-linejoin:miter;stroke-opacity:1"
       d="m 125.0408,45.766366 h 3.11558 v 2.819574 h -3.10734 z"
       id="path1000-6"
       sodipodi:nodetypes="ccccc" />
    <path
       style="fill:#0000ff;stroke:#0000ff;stroke-width:0.264583px;stroke-linecap:butt;stroke-linejoin:miter;stroke-opacity:1"
       d="m 131.39553,41.490511 h 3.11558 v 2.819574 h -3.10735 z"
       id="path1000-0"
       sodipodi:nodetypes="ccccc" />
    <path
       style="fill:#0000ff;stroke:#0000ff;stroke-width:0.264583px;stroke-linecap:butt;stroke-linejoin:miter;stroke-opacity:1"
       d="m 136.87618,38.32496 h 3.11558 v 2.819574 h -3.10734 z"
       id="path1000-62"
       sodipodi:nodetypes="ccccc" />
    <path
       style="fill:#0000ff;stroke:#0000ff;stroke-width:0.264583px;stroke-linecap:butt;stroke-linejoin:miter;stroke-opacity:1"
       d="m 141.69447,35.080154 h 3.11558 v 2.819574 h -3.10734 z"
       id="path1000-61"
       sodipodi:nodetypes="ccccc" />
    <path
       style="fill:#0000ff;stroke:#0000ff;stroke-width:0.264583px;stroke-linecap:butt;stroke-linejoin:miter;stroke-opacity:1"
       d="m 145.90001,32.884234 h 3.11558 v 2.819574 h -3.10734 z"
       id="path1000-8"
       sodipodi:nodetypes="ccccc" />
    <path
       style="fill:#0000ff;stroke:#0000ff;stroke-width:0.264583px;stroke-linecap:butt;stroke-linejoin:miter;stroke-opacity:1"
       d="m 149.6377,30.772534 h 3.11558 v 2.819574 h -3.10735 z"
       id="path1000-7"
       sodipodi:nodetypes="ccccc" />
    <path
       style="fill:#0000ff;stroke:#0000ff;stroke-width:0.264583px;stroke-linecap:butt;stroke-linejoin:miter;stroke-opacity:1"
       d="m 153.23357,28.795162 h 3.11558 v 2.819574 h -3.10735 z"
       id="path1000-92"
       sodipodi:nodetypes="ccccc" />
    <path
       style="fill:#0000ff;stroke:#0000ff;stroke-width:0.264583px;stroke-linecap:butt;stroke-linejoin:miter;stroke-opacity:1"
       d="m 156.17659,26.867557 h 3.11558 v 2.819574 h -3.10734 z"
       id="path1000-02"
       sodipodi:nodetypes="ccccc" />
    <path
       style="fill:none;stroke:#ff0000;stroke-width:0.465;stroke-linecap:butt;stroke-linejoin:miter;stroke-opacity:1;stroke-miterlimit:4;stroke-dasharray:none"
       d="M 69.66219,85.044639 157.47464,27.358443"
       id="path1071" />
    <path
       style="fill:#ff0000;stroke:#ff0000;stroke-width:0.264583px;stroke-linecap:butt;stroke-linejoin:miter;stroke-opacity:1"
       d="m 67.487696,85.044639 1.361125,-1.361125 1.361128,1.361125 -1.393757,1.27567 z"
       id="path1073"
       sodipodi:nodetypes="ccccc" />
    <path
       style="fill:#ff0000;stroke:#ff0000;stroke-width:0.264583px;stroke-linecap:butt;stroke-linejoin:miter;stroke-opacity:1"
       d="m 92.375855,69.159443 1.361124,-1.361125 1.361129,1.361125 -1.393757,1.27567 z"
       id="path1073-3"
       sodipodi:nodetypes="ccccc" />
    <path
       style="fill:#ff0000;stroke:#ff0000;stroke-width:0.264583px;stroke-linecap:butt;stroke-linejoin:miter;stroke-opacity:1"
       d="m 106.84736,60.733619 1.36113,-1.361125 1.36113,1.361125 -1.39376,1.27567 z"
       id="path1073-7"
       sodipodi:nodetypes="ccccc" />
    <path
       style="fill:#ff0000;stroke:#ff0000;stroke-width:0.264583px;stroke-linecap:butt;stroke-linejoin:miter;stroke-opacity:1"
       d="m 117.10494,53.499515 1.36112,-1.361124 1.36113,1.361124 -1.39376,1.275671 z"
       id="path1073-5"
       sodipodi:nodetypes="ccccc" />
    <path
       style="fill:#ff0000;stroke:#ff0000;stroke-width:0.264583px;stroke-linecap:butt;stroke-linejoin:miter;stroke-opacity:1"
       d="m 125.28434,48.18972 1.36112,-1.361125 1.36113,1.361125 -1.39376,1.27567 z"
       id="path1073-9"
       sodipodi:nodetypes="ccccc" />
    <path
       style="fill:#ff0000;stroke:#ff0000;stroke-width:0.264583px;stroke-linecap:butt;stroke-linejoin:miter;stroke-opacity:1"
       d="m 131.61993,43.779296 1.36113,-1.361125 1.36112,1.361125 -1.39375,1.27567 z"
       id="path1073-2"
       sodipodi:nodetypes="ccccc" />
    <path
       style="fill:#ff0000;stroke:#ff0000;stroke-width:0.264583px;stroke-linecap:butt;stroke-linejoin:miter;stroke-opacity:1"
       d="m 137.14637,40.580261 1.36113,-1.361125 1.36113,1.361125 -1.39376,1.275671 z"
       id="path1073-28"
       sodipodi:nodetypes="ccccc" />
    <path
       style="fill:#ff0000;stroke:#ff0000;stroke-width:0.264583px;stroke-linecap:butt;stroke-linejoin:miter;stroke-opacity:1"
       d="m 141.88442,37.184071 1.36113,-1.361125 1.36113,1.361125 -1.39376,1.27567 z"
       id="path1073-97"
       sodipodi:nodetypes="ccccc" />
    <path
       style="fill:#ff0000;stroke:#ff0000;stroke-width:0.264583px;stroke-linecap:butt;stroke-linejoin:miter;stroke-opacity:1"
       d="m 149.80296,31.608492 1.36112,-1.361125 1.36113,1.361125 -1.39375,1.27567 z"
       id="path1073-36"
       sodipodi:nodetypes="ccccc" />
    <path
       style="fill:#ff0000;stroke:#ff0000;stroke-width:0.264583px;stroke-linecap:butt;stroke-linejoin:miter;stroke-opacity:1"
       d="m 146.01893,34.350799 1.36113,-1.361125 1.36112,1.361125 -1.39375,1.27567 z"
       id="path1073-1"
       sodipodi:nodetypes="ccccc" />
    <path
       style="fill:#ff0000;stroke:#ff0000;stroke-width:0.264583px;stroke-linecap:butt;stroke-linejoin:miter;stroke-opacity:1"
       d="m 153.23357,28.795162 1.36112,-1.361125 1.36113,1.361125 -1.39375,1.27567 z"
       id="path1073-29"
       sodipodi:nodetypes="ccccc" />
    <path
       style="fill:#ff0000;stroke:#ff0000;stroke-width:0.264583px;stroke-linecap:butt;stroke-linejoin:miter;stroke-opacity:1"
       d="m 156.42201,27.084137 1.36113,-1.361125 1.36112,1.361125 -1.39375,1.27567 z"
       id="path1073-31"
       sodipodi:nodetypes="ccccc" />
    <rect
       style="fill:none;stroke:#000000;stroke-width:0.267235;stroke-miterlimit:4;stroke-dasharray:none;stroke-dashoffset:0"
       id="rect83"
       width="39.749981"
       height="20.895132"
       x="131.91432"
       y="57.425465"
       ry="4.7413697" />
    <g
       id="g929"
       transform="translate(-0.17813237,0.02969793)">
      <g
         id="g27370"
         transform="translate(-0.94412739,-1.0402466)">
        <text
           xml:space="preserve"
           style="font-style:normal;font-variant:normal;font-weight:normal;font-stretch:normal;font-size:18.6667px;line-height:1.25;font-family:sans-serif;-inkscape-font-specification:'sans-serif, Normal';font-variant-ligatures:normal;font-variant-position:normal;font-variant-caps:normal;font-variant-numeric:normal;font-variant-alternates:normal;font-variant-east-asian:normal;text-indent:0;text-align:start;text-decoration:none;text-decoration-line:none;text-decoration-style:solid;text-decoration-color:#000000;letter-spacing:normal;word-spacing:normal;text-transform:none;writing-mode:lr-tb;direction:ltr;text-orientation:mixed;dominant-baseline:auto;baseline-shift:baseline;text-anchor:start;white-space:normal;shape-padding:0;shape-margin:0;inline-size:0;opacity:1;vector-effect:none;fill:#000000;fill-opacity:1;stroke:none;stroke-width:0.999999;stroke-linecap:butt;stroke-linejoin:miter;stroke-miterlimit:4;stroke-dasharray:none;stroke-dashoffset:0;stroke-opacity:1;stop-color:#000000;stop-opacity:1"
           x="512.38135"
           y="243.71777"
           id="text910"
           transform="matrix(0.26458333,0,0,0.26458333,11.059441,-0.45457353)"><tspan
             sodipodi:role="line"
             id="tspan908"
             x="512.38135"
             y="243.71777">MUMPS</tspan><tspan
             sodipodi:role="line"
             x="512.38135"
             y="267.05115"
             id="tspan912">LU</tspan><tspan
             sodipodi:role="line"
             x="512.38135"
             y="290.38452"
             id="tspan914">multi-grid</tspan></text>
        <rect
           style="fill:#0000ff;fill-opacity:1;stroke:none;stroke-width:0.285001;stroke-miterlimit:4;stroke-dasharray:none;stroke-dashoffset:0"
           id="rect916"
           width="8.4541264"
           height="0.95864832"
           x="135.56757"
           y="62.188541"
           ry="0.47932416"
           rx="0" />
        <rect
           style="fill:#ff0000;fill-opacity:1;stroke:none;stroke-width:0.285001;stroke-miterlimit:4;stroke-dasharray:none;stroke-dashoffset:0;stroke-opacity:1"
           id="rect918"
           width="8.4541264"
           height="0.95864832"
           x="135.56757"
           y="67.065712"
           ry="0.0013088683"
           rx="0" />
        <rect
           style="fill:#008000;fill-opacity:1;stroke:none;stroke-width:0.285001;stroke-miterlimit:4;stroke-dasharray:none;stroke-dashoffset:0"
           id="rect920"
           width="8.4541264"
           height="0.95864832"
           x="135.56757"
           y="71.942879"
           ry="0"
           rx="0" />
      </g>
    </g>
  </g>
</svg>
