<?xml version="1.0" encoding="UTF-8" standalone="no"?>
<svg
   width="210mm"
   height="297mm"
   viewBox="0 0 595.27559 841.88976"
   version="1.1"
   id="svg396"
   sodipodi:docname="fig_expf_v_all.svg"
   xml:space="preserve"
   inkscape:version="1.2 (1:1.2.1+202207142221+cd75a1ee6d)"
   inkscape:export-filename="fig_expf_v_all.png"
   inkscape:export-xdpi="300"
   inkscape:export-ydpi="300"
   xmlns:inkscape="http://www.inkscape.org/namespaces/inkscape"
   xmlns:sodipodi="http://sodipodi.sourceforge.net/DTD/sodipodi-0.dtd"
   xmlns:xlink="http://www.w3.org/1999/xlink"
   xmlns="http://www.w3.org/2000/svg"
   xmlns:svg="http://www.w3.org/2000/svg"
   xmlns:rdf="http://www.w3.org/1999/02/22-rdf-syntax-ns#"
   xmlns:cc="http://creativecommons.org/ns#"
   xmlns:dc="http://purl.org/dc/elements/1.1/"><sodipodi:namedview
     id="namedview398"
     pagecolor="#ffffff"
     bordercolor="#000000"
     borderopacity="0.25"
     inkscape:showpageshadow="2"
     inkscape:pageopacity="0.0"
     inkscape:pagecheckerboard="0"
     inkscape:deskcolor="#d1d1d1"
     inkscape:document-units="pt"
     showgrid="false"
     showguides="true"
     inkscape:zoom="0.44010418"
     inkscape:cx="299.92899"
     inkscape:cy="515.78697"
     inkscape:window-width="1872"
     inkscape:window-height="1011"
     inkscape:window-x="48"
     inkscape:window-y="32"
     inkscape:window-maximized="1"
     inkscape:current-layer="svg396"><sodipodi:guide
       position="29.511884,613.48352"
       orientation="0,-1"
       id="guide3607"
       inkscape:locked="false" /><sodipodi:guide
       position="31.033921,803.41725"
       orientation="0,-1"
       id="guide3609"
       inkscape:locked="false" /><sodipodi:guide
       position="26.452824,328.51152"
       orientation="0,-1"
       id="guide3611"
       inkscape:locked="false" /><sodipodi:guide
       position="564.54735,822.60962"
       orientation="0,-1"
       id="guide5241"
       inkscape:locked="false" /><sodipodi:guide
       position="504.42602,808.65901"
       orientation="1,0"
       id="guide5299"
       inkscape:locked="false" /><sodipodi:guide
       position="509.75147,809.19156"
       orientation="1,0"
       id="guide5301"
       inkscape:locked="false" /><sodipodi:guide
       position="563.53845,831.66493"
       orientation="0,-1"
       id="guide5308"
       inkscape:locked="false" /><sodipodi:guide
       position="563.34233,264.08731"
       orientation="0,-1"
       id="guide986"
       inkscape:locked="false" /><sodipodi:guide
       position="35.09117,152.13761"
       orientation="1,0"
       id="guide1043"
       inkscape:locked="false" /><sodipodi:guide
       position="470.75283,772.60297"
       orientation="0,-1"
       id="guide2788"
       inkscape:locked="false" /><sodipodi:guide
       position="573.44376,245.44008"
       orientation="1,0"
       id="guide18168"
       inkscape:locked="false" /><sodipodi:guide
       position="441.48566,145.09253"
       orientation="1,0"
       id="guide18226"
       inkscape:locked="false" /><sodipodi:guide
       position="7.8325671,446.64638"
       orientation="1,0"
       id="guide18739"
       inkscape:locked="false" /></sodipodi:namedview><metadata
     id="metadata2"><rdf:RDF><cc:Work><dc:type
           rdf:resource="http://purl.org/dc/dcmitype/StillImage" /><dc:date>2022-03-01T22:10:13.875107</dc:date><dc:format>image/svg+xml</dc:format><dc:creator><cc:Agent><dc:title>Matplotlib v3.5.0, https://matplotlib.org/</dc:title></cc:Agent></dc:creator></cc:Work></rdf:RDF></metadata><defs
     id="defs6"><rect
       x="753.24129"
       y="15.828583"
       width="69.580693"
       height="41.461261"
       id="rect5245" /><style
       type="text/css"
       id="style4">*{stroke-linejoin: round; stroke-linecap: butt}</style><defs
       id="defs264"><path
         id="DejaVuSans-56"
         d="M 1831,0 50,4666 H 709 L 2188,738 3669,4666 h 656 L 2547,0 Z"
         transform="scale(0.015625)" /><path
         id="DejaVuSans-6c"
         d="m 603,4863 h 575 V 0 H 603 Z"
         transform="scale(0.015625)" /><path
         id="DejaVuSans-79"
         d="m 2059,-325 q -243,-625 -475,-815 -231,-191 -618,-191 H 506 v 481 h 338 q 237,0 368,113 132,112 291,531 L 1606,56 191,3500 H 800 L 1894,763 2988,3500 h 609 z"
         transform="scale(0.015625)" /><path
         id="DejaVuSans-2f"
         d="m 1625,4666 h 531 L 531,-594 H 0 Z"
         transform="scale(0.015625)" /></defs><defs
       id="defs360"><path
         id="DejaVuSans-68"
         d="M 3513,2113 V 0 h -575 v 2094 q 0,497 -194,743 -194,247 -581,247 -466,0 -735,-297 -269,-296 -269,-809 V 0 H 581 v 4863 h 578 V 2956 q 207,316 486,472 280,156 646,156 603,0 912,-373 310,-373 310,-1098 z"
         transform="scale(0.015625)" /></defs><defs
       id="defs343"><path
         id="DejaVuSans-67"
         d="m 2906,1791 q 0,625 -258,968 -257,344 -723,344 -462,0 -720,-344 -258,-343 -258,-968 0,-622 258,-966 258,-344 720,-344 466,0 723,344 258,344 258,966 z M 3481,434 q 0,-893 -397,-1329 -396,-436 -1215,-436 -303,0 -572,45 -269,45 -522,139 v 559 q 253,-137 500,-202 247,-66 503,-66 566,0 847,295 281,295 281,892 V 616 Q 2728,306 2450,153 2172,0 1784,0 1141,0 747,490 353,981 353,1791 q 0,812 394,1302 394,491 1037,491 388,0 666,-153 278,-153 456,-462 v 531 h 575 z"
         transform="scale(0.015625)" /></defs><defs
       id="defs108"><path
         id="DejaVuSans-64"
         d="m 2906,2969 v 1894 h 575 V 0 H 2906 V 525 Q 2725,213 2448,61 2172,-91 1784,-91 1150,-91 751,415 353,922 353,1747 q 0,825 398,1331 399,506 1033,506 388,0 664,-152 277,-151 458,-463 z M 947,1747 q 0,-634 261,-995 261,-361 717,-361 456,0 718,361 263,361 263,995 0,634 -263,995 -262,361 -718,361 -456,0 -717,-361 -261,-361 -261,-995 z"
         transform="scale(0.015625)" /><path
         id="DejaVuSans-69"
         d="m 603,3500 h 575 V 0 H 603 Z m 0,1363 h 575 V 4134 H 603 Z"
         transform="scale(0.015625)" /><path
         id="DejaVuSans-73"
         d="m 2834,3397 v -544 q -243,125 -506,187 -262,63 -544,63 -428,0 -642,-131 -214,-131 -214,-394 0,-200 153,-314 153,-114 616,-217 l 197,-44 q 612,-131 870,-370 258,-239 258,-667 0,-488 -386,-773 Q 2250,-91 1575,-91 1294,-91 989,-36 684,19 347,128 v 594 q 319,-166 628,-249 309,-82 613,-82 406,0 624,139 219,139 219,392 0,234 -158,359 -157,125 -692,241 l -200,47 q -534,112 -772,345 -237,233 -237,639 0,494 350,762 350,269 994,269 318,0 599,-47 282,-46 519,-140 z"
         transform="scale(0.015625)" /><path
         id="DejaVuSans-74"
         d="M 1172,4494 V 3500 H 2356 V 3053 H 1172 V 1153 q 0,-428 117,-550 117,-122 477,-122 h 590 V 0 H 1766 Q 1100,0 847,248 594,497 594,1153 V 3053 H 172 v 447 h 422 v 994 z"
         transform="scale(0.015625)" /><path
         id="DejaVuSans-61"
         d="m 2194,1759 q -697,0 -966,-159 -269,-159 -269,-544 0,-306 202,-486 202,-179 548,-179 479,0 768,339 289,339 289,901 v 128 z m 1147,238 V 0 H 2766 V 531 Q 2569,213 2275,61 1981,-91 1556,-91 q -537,0 -855,302 -317,302 -317,808 0,590 395,890 396,300 1180,300 h 807 v 57 q 0,397 -261,614 -261,217 -733,217 -300,0 -585,-72 -284,-72 -546,-216 v 532 q 315,122 612,182 297,61 578,61 760,0 1135,-394 375,-393 375,-1193 z"
         transform="scale(0.015625)" /><path
         id="DejaVuSans-6e"
         d="M 3513,2113 V 0 h -575 v 2094 q 0,497 -194,743 -194,247 -581,247 -466,0 -735,-297 -269,-296 -269,-809 V 0 H 581 v 3500 h 578 v -544 q 207,316 486,472 280,156 646,156 603,0 912,-373 310,-373 310,-1098 z"
         transform="scale(0.015625)" /><path
         id="DejaVuSans-63"
         d="m 3122,3366 v -538 q -244,135 -489,202 -245,67 -495,67 -560,0 -870,-355 -309,-354 -309,-995 0,-641 309,-996 310,-354 870,-354 250,0 495,67 245,67 489,202 V 134 Q 2881,22 2623,-34 2366,-91 2075,-91 1284,-91 818,406 353,903 353,1747 q 0,856 470,1346 471,491 1290,491 265,0 518,-55 253,-54 491,-163 z"
         transform="scale(0.015625)" /><path
         id="DejaVuSans-65"
         d="M 3597,1894 V 1613 H 953 q 38,-594 358,-905 320,-311 892,-311 331,0 642,81 311,81 618,244 V 178 Q 3153,47 2828,-22 2503,-91 2169,-91 1331,-91 842,396 353,884 353,1716 q 0,859 464,1363 464,505 1252,505 706,0 1117,-455 411,-454 411,-1235 z m -575,169 q -6,471 -264,752 -258,282 -683,282 -481,0 -770,-272 -289,-272 -333,-766 z"
         transform="scale(0.015625)" /><path
         id="DejaVuSans-20"
         transform="scale(0.015625)"
         d="" /><path
         id="DejaVuSans-66"
         d="m 2375,4863 v -479 h -550 q -309,0 -430,-125 -120,-125 -120,-450 v -309 h 947 V 3053 H 1275 V 0 H 697 V 3053 H 147 v 447 h 550 v 244 q 0,584 272,851 272,268 862,268 z"
         transform="scale(0.015625)" /><path
         id="DejaVuSans-72"
         d="m 2631,2963 q -97,56 -211,82 -114,27 -251,27 -488,0 -749,-317 -261,-317 -261,-911 V 0 H 581 v 3500 h 578 v -544 q 182,319 472,473 291,155 707,155 59,0 131,-8 72,-7 159,-23 z"
         transform="scale(0.015625)" /><path
         id="DejaVuSans-6f"
         d="m 1959,3097 q -462,0 -731,-361 -269,-361 -269,-989 0,-628 267,-989 268,-361 733,-361 460,0 728,362 269,363 269,988 0,622 -269,986 -268,364 -728,364 z m 0,487 q 750,0 1178,-488 429,-487 429,-1349 Q 3566,888 3137,398 2709,-91 1959,-91 1206,-91 779,398 353,888 353,1747 q 0,862 426,1349 427,488 1180,488 z"
         transform="scale(0.015625)" /><path
         id="DejaVuSans-6d"
         d="m 3328,2828 q 216,388 516,572 300,184 706,184 547,0 844,-383 297,-382 297,-1088 V 0 h -578 v 2094 q 0,503 -179,746 -178,244 -543,244 -447,0 -707,-297 -259,-296 -259,-809 V 0 h -578 v 2094 q 0,506 -178,748 -178,242 -550,242 -441,0 -701,-298 -259,-298 -259,-808 V 0 H 581 v 3500 h 578 v -544 q 197,322 472,475 275,153 653,153 382,0 649,-194 267,-193 395,-562 z"
         transform="scale(0.015625)" /><path
         id="DejaVuSans-28"
         d="m 1984,4856 q -418,-718 -622,-1422 -203,-703 -203,-1425 0,-721 205,-1429 205,-708 620,-1424 h -500 q -468,735 -701,1444 -233,709 -233,1409 0,697 231,1403 232,707 703,1444 z"
         transform="scale(0.015625)" /><path
         id="DejaVuSans-6b"
         d="m 581,4863 h 578 V 1991 l 1716,1509 h 734 L 1753,1863 3688,0 H 2938 L 1159,1709 V 0 H 581 Z"
         transform="scale(0.015625)" /><path
         id="DejaVuSans-29"
         d="m 513,4856 h 500 q 468,-737 701,-1444 233,-706 233,-1403 0,-700 -233,-1409 -233,-709 -701,-1444 H 513 q 415,716 620,1424 205,708 205,1429 0,722 -205,1425 -205,704 -620,1422 z"
         transform="scale(0.015625)" /></defs><defs
       id="defs373"><path
         id="DejaVuSans-75"
         d="m 544,1381 v 2119 h 575 V 1403 q 0,-497 193,-746 194,-248 582,-248 465,0 735,297 271,297 271,810 v 1984 h 575 V 0 H 2900 V 538 Q 2691,219 2414,64 2138,-91 1772,-91 1169,-91 856,284 544,659 544,1381 Z m 1447,2203 z"
         transform="scale(0.015625)" /></defs><defs
       id="defs165"><path
         id="mde73766602"
         d="M 0,0 H -3.5"
         style="stroke:#000000;stroke-width:0.8" /></defs><defs
       id="defs15"><path
         id="m0304fec007"
         d="M 0,0 V 3.5"
         style="stroke:#000000;stroke-width:0.8" /></defs><defs
       id="defs326"><path
         id="DejaVuSans-31"
         d="M 794,531 H 1825 V 4091 L 703,3866 v 575 l 1116,225 h 631 V 531 H 3481 V 0 H 794 Z"
         transform="scale(0.015625)" /></defs><defs
       id="defs25"><path
         id="DejaVuSans-2212"
         d="M 678,2272 H 4684 V 1741 H 678 Z"
         transform="scale(0.015625)" /><path
         id="DejaVuSans-34"
         d="M 2419,4116 825,1625 h 1594 z m -166,550 h 794 V 1625 h 666 V 1100 H 3047 V 0 H 2419 V 1100 H 313 v 609 z"
         transform="scale(0.015625)" /><path
         id="DejaVuSans-30"
         d="m 2034,4250 q -487,0 -733,-480 -245,-479 -245,-1442 0,-959 245,-1439 246,-480 733,-480 491,0 736,480 246,480 246,1439 0,963 -246,1442 -245,480 -736,480 z m 0,500 q 785,0 1199,-621 414,-620 414,-1801 0,-1178 -414,-1799 -414,-620 -1199,-620 -784,0 -1198,620 -414,621 -414,1799 0,1181 414,1801 414,621 1198,621 z"
         transform="scale(0.015625)" /></defs><defs
       id="defs43"><path
         id="DejaVuSans-32"
         d="M 1228,531 H 3431 V 0 H 469 v 531 q 359,372 979,998 621,627 780,809 303,340 423,576 121,236 121,464 0,372 -261,606 -261,235 -680,235 -297,0 -627,-103 -329,-103 -704,-313 v 638 q 381,153 712,231 332,78 607,78 725,0 1156,-363 431,-362 431,-968 0,-288 -108,-546 -107,-257 -392,-607 -78,-91 -497,-524 Q 1991,1309 1228,531 Z"
         transform="scale(0.015625)" /></defs><defs
       id="defs237"><path
         id="DejaVuSans-38"
         d="m 2034,2216 q -450,0 -708,-241 -257,-241 -257,-662 0,-422 257,-663 258,-241 708,-241 450,0 709,242 260,243 260,662 0,421 -258,662 -257,241 -711,241 z m -631,268 q -406,100 -633,378 -226,279 -226,679 0,559 398,884 399,325 1092,325 697,0 1094,-325 397,-325 397,-884 0,-400 -227,-679 -226,-278 -629,-378 456,-106 710,-416 255,-309 255,-755 Q 3634,634 3220,271 2806,-91 2034,-91 1263,-91 848,271 434,634 434,1313 q 0,446 256,755 257,310 713,416 z m -231,997 q 0,-362 226,-565 227,-203 636,-203 407,0 636,203 230,203 230,565 0,363 -230,566 -229,203 -636,203 -409,0 -636,-203 -226,-203 -226,-566 z"
         transform="scale(0.015625)" /></defs><defs
       id="defs221"><path
         id="DejaVuSans-37"
         d="M 525,4666 H 3525 V 4397 L 1831,0 H 1172 L 2766,4134 H 525 Z"
         transform="scale(0.015625)" /></defs><defs
       id="defs205"><path
         id="DejaVuSans-36"
         d="m 2113,2584 q -425,0 -674,-291 -248,-290 -248,-796 0,-503 248,-796 249,-292 674,-292 425,0 673,292 248,293 248,796 0,506 -248,796 -248,291 -673,291 z m 1253,1979 v -575 q -238,112 -480,171 -242,60 -480,60 -625,0 -955,-422 -329,-422 -376,-1275 184,272 462,417 279,145 613,145 703,0 1111,-427 408,-426 408,-1160 0,-719 -425,-1154 -425,-434 -1131,-434 -810,0 -1238,620 -428,621 -428,1799 0,1106 525,1764 525,658 1409,658 238,0 480,-47 242,-47 505,-140 z"
         transform="scale(0.015625)" /></defs><defs
       id="defs173"><path
         id="DejaVuSans-39"
         d="m 703,97 v 575 q 238,-113 481,-172 244,-59 479,-59 625,0 954,420 330,420 377,1277 -181,-269 -460,-413 -278,-144 -615,-144 -700,0 -1108,423 -408,424 -408,1159 0,718 425,1152 425,435 1131,435 810,0 1236,-621 427,-620 427,-1801 Q 3622,1225 3098,567 2575,-91 1691,-91 1453,-91 1209,-44 966,3 703,97 Z m 1256,1978 q 425,0 673,290 249,291 249,798 0,503 -249,795 -248,292 -673,292 -425,0 -673,-292 -248,-292 -248,-795 0,-507 248,-798 248,-290 673,-290 z"
         transform="scale(0.015625)" /></defs><defs
       id="defs189"><path
         id="DejaVuSans-35"
         d="M 691,4666 H 3169 V 4134 H 1269 V 2991 q 137,47 274,70 138,23 276,23 781,0 1237,-428 457,-428 457,-1159 Q 3513,744 3044,326 2575,-91 1722,-91 1428,-91 1123,-41 819,9 494,109 v 635 q 281,-153 581,-228 300,-75 634,-75 541,0 856,284 316,284 316,772 0,487 -316,771 -315,285 -856,285 -253,0 -505,-56 -251,-56 -513,-175 z"
         transform="scale(0.015625)" /></defs><clipPath
       id="p37ba244fa0"><rect
         x="44.783054"
         y="3.0002401"
         width="672.21674"
         height="683.64325"
         id="rect393" /></clipPath><clipPath
       id="clipPath16399"><rect
         x="44.783054"
         y="3.0002401"
         width="672.21674"
         height="683.64325"
         id="rect16397" /></clipPath><rect
       x="753.24127"
       y="15.828583"
       width="69.580696"
       height="41.461262"
       id="rect5245-3" /><path
       id="m5e401a652d"
       d="M 0,0 V 3.5"
       style="stroke:#000000;stroke-width:0.8" /><path
       id="mbcab9a2963"
       d="M 0,0 H -3.5"
       style="stroke:#000000;stroke-width:0.8" /><path
       id="DejaVuSans-31-3"
       d="M 794,531 H 1825 V 4091 L 703,3866 v 575 l 1116,225 h 631 V 531 H 3481 V 0 H 794 Z"
       transform="scale(0.015625)" /><path
       id="DejaVuSans-33"
       d="m 2597,2516 q 453,-97 707,-404 255,-306 255,-756 0,-690 -475,-1069 -475,-378 -1350,-378 -293,0 -604,58 -311,58 -642,174 v 609 q 262,-153 574,-231 313,-78 654,-78 593,0 904,234 311,234 311,681 0,413 -289,645 -289,233 -804,233 h -544 v 519 h 569 q 465,0 712,186 247,186 247,536 0,359 -255,551 -254,193 -729,193 -260,0 -557,-57 -297,-56 -653,-174 v 562 q 360,100 674,150 314,50 592,50 719,0 1137,-327 419,-326 419,-882 0,-388 -222,-655 -222,-267 -631,-370 z"
       transform="scale(0.015625)" /><path
       id="DejaVuSans-75-2"
       d="m 544,1381 v 2119 h 575 V 1403 q 0,-497 193,-746 194,-248 582,-248 465,0 735,297 271,297 271,810 v 1984 h 575 V 0 H 2900 V 538 Q 2691,219 2414,64 2138,-91 1772,-91 1169,-91 856,284 544,659 544,1381 Z m 1447,2203 z"
       transform="scale(0.015625)" /><path
       id="DejaVuSans-68-9"
       d="M 3513,2113 V 0 h -575 v 2094 q 0,497 -194,743 -194,247 -581,247 -466,0 -735,-297 -269,-296 -269,-809 V 0 H 581 v 4863 h 578 V 2956 q 207,316 486,472 280,156 646,156 603,0 912,-373 310,-373 310,-1098 z"
       transform="scale(0.015625)" /><path
       id="DejaVuSans-67-3"
       d="m 2906,1791 q 0,625 -258,968 -257,344 -723,344 -462,0 -720,-344 -258,-343 -258,-968 0,-622 258,-966 258,-344 720,-344 466,0 723,344 258,344 258,966 z M 3481,434 q 0,-893 -397,-1329 -396,-436 -1215,-436 -303,0 -572,45 -269,45 -522,139 v 559 q 253,-137 500,-202 247,-66 503,-66 566,0 847,295 281,295 281,892 V 616 Q 2728,306 2450,153 2172,0 1784,0 1141,0 747,490 353,981 353,1791 q 0,812 394,1302 394,491 1037,491 388,0 666,-153 278,-153 456,-462 v 531 h 575 z"
       transform="scale(0.015625)" /><rect
       x="753.24127"
       y="15.828583"
       width="69.580696"
       height="41.461262"
       id="rect5245-7" /><rect
       x="753.24127"
       y="15.828583"
       width="69.580696"
       height="41.461262"
       id="rect5245-8" /><rect
       x="753.24127"
       y="15.828583"
       width="69.580696"
       height="41.461262"
       id="rect5245-8-9" /></defs><g
     inkscape:groupmode="layer"
     id="layer1"
     inkscape:label="Pattyn-solution"
     style="display:none"
     sodipodi:insensitive="true"><image
       width="702.94073"
       height="1026.0223"
       preserveAspectRatio="none"
       xlink:href="data:image/png;base64,iVBORw0KGgoAAAANSUhEUgAAAkcAAAFVCAYAAADltUv6AAAABHNCSVQICAgIfAhkiAAAIABJREFU eJzt3XtU1PW+//EX5gVFcouXvFCJmUgGpiGp0U1LIim6QLCNLLspmm5Lt+mx3+7CUWu1d0F61F1p tt2UZZoeh02pKJlyMrNdx7TMLpahaQoYapTI5/eHC86ACMPwGZmB52Mt14ovw/vznWk+8319P9/3 zPgZY4wAAAAgSX7NGnoPAAAAvAnhCAAAwAnhCAAAwAnhCAAAwAnhCAAAwAnhCAAAwAnhCAAAwAnh CAAAwAnhCAAAwInb4eill15S27ZtNXfu3Erbt23bpoEDB+rcc8/VRRddpKVLl9a4HQAAwJu4FY5S U1P1/vvvq2/fvpW2//bbb4qPj9cDDzygoqIiLVmyRA899JA+++yzard/+eWXVu4EAACALW6Fo/vu u0+ZmZkKDAystH3jxo3y9/fXmDFj1KxZMw0ZMkQ333yzxo8fX+32N99808qdAAAAsMWtcDRw4MBq t3/xxRcKCwurtK1Pnz7avHlztdt37tzpzvAAAAAe09xmsWPHjsnf37/StjZt2khStduPHTtWaZvD 4bC5OwAANJi4uLiG3gW4yWo4atu2rY4cOVJpW1FRkSRVu73qZbkzPZEcDgdPMgCAz+Bk37dZfSv/ JZdcoh07dsgYU7Ft+/btuu6666rdfumll9ocHgAAoN6shqOrr75aLVq0UEZGhkpLS7Vu3Tpt2LBB f//736vdftddd9kcHgAAoN7qHI5Onjwpf39/+fv7a8OGDXrkkUfk7++vCRMmqEWLFlq1apVef/11 tWvXTuPGjdM///lPXXzxxdVu79GjhwfuEgAAgPvq3HN0zjnnqKSk5Iy/79evnz766COXtwMAAHgT vj4EAADACeEIAADACeEIAADACeEIAADACeEIAADACeEIAADACeEIAADACeEIAADACeEIAADACeEI AADACeEIAADACeEIAADACeEIAADACeEIAADACeEIAADACeEIAADACeEIAADACeEIAADACeEIAADA SfOG3oGmym/4bI/VNmume6w2AACNHeHIMk+GHhv7QHACAKBmVsNRbm6upkyZom+//VadOnVSenq6 YmNjz7jd13hD8Kmv6u4DgQkAgP9jLRwdPHhQ8fHxWrhwoRISEpSdna3ExERt3ry52u27d+9W165d bQ1vzdkOQDaDibv7XvXvCEsAgKbMzxhjbBRauXKlZsyYoR07dlRsGzp0qFq0aKEff/zxtO2JiYlK TU11qbbD4VBcXJyN3aykKfX9uHtfve1+AIAv8NRxC2eFn7WVI2OMysrKKm0LCAjQ9u3b1bp169O2 f/XVV7aGrpUnQpCvhYbq9teVx6X8Nr52fwEAcJe1cBQdHa38/HxlZmYqKSlJa9eu1aZNmzR06FCt Xbv2tO3du3e3NXQltoJQUwgDzvextseNkAQAaCqsXVaTpJycHE2dOlX79u1TTEyMSkpK1LNnTw0b Nqza7bNmzar09w6Ho07j3fzidiv7vXpiuJU6jYUrjyuPGQDUjMtqPsvPajiqKiIiQn/5y1+UkJDg 0vYzKb92W99VIVY96saVx5vHFABOR8+RT7PXc1RcXKyIiAgtXbpUAwcO1IIFC1RUVKSrr75aISEh p20fMWKEy7VvfnG75MYqEQfu+nHlshuX2wAAjY21cBQYGKi0tDQlJyersLBQYWFhysrKUufOnavd XrVJuz44MHte+WNcU0ji/wOApsz59ZHWA9/m0ctqtvA5PN6HT+EG0NTV9Dq4emI4l9V8l73Lap7E k8z7mDXTWUUC0OQ0hm9KQO18IhzBO9V0qY1eJACNgTthyKyZXud3X8O7EI5Qb6wiAWhM3A1EaDwI R7CCgATAVxGGUBXhCNbUdpmNFxMA3oJAhJoQjmDdmVaRCEgAGlpdQhGvV00X4QgeQUAC4C0IRKgr whE8hoAEoCHU9ZIZr0eoinAEjyIgAThbWCGCLYQjeBwBCYAnuRqKeL2BqwhHOCtqeqs/ANQVgQie 1KyhdwBNh/OLVG1fZAsA1fEbPrvW1w2zZnrFP8AdhCOcVdWFIgISgNrUJRQB9UU4wllX3YsXAQlA dQhFaAj0HKFBVNeDRIM2AMm1kyVeK+BJhCMAgFcgFMFbcFkNDYbLawAkLp3B+xCO0KAISEDTRSiC tyIcocERkICmhVAEb0fPEQDgrHAlEAHegJUjeAVWj4DGq7aVIlaJ4G0IR/AaBCSg8WG1CL7IajjK zc1VZGSkgoKCFBoaquzsbEnSunXrFBkZqT59+uiSSy7RggULbA6LRoQXSqBxYLUIvsxaz9HBgwcV Hx+vhQsXKiEhQdnZ2UpMTNQnn3yi2267TQ6HQ9dcc4327t2r8PBw9evXT4MHD7Y1PBoxPhwS8B2s FKExsLZylJeXp+DgYCUkJEiSYmNjFRUVpfT0dP3++++65pprJEnnn3++QkND9fnnn9saGo0ML56A b2KlCI2FtXBkjFFZWVmlbQEBAfLz81PXrl21bNkySdKXX36pr7/+WldffbWtodEE0HsEeK+aLqER iuCL/Iwxxkahn3/+WRdddJHmz5+vpKQkrV27ViNHjlRSUpISExN12223qXXr1iooKNCsWbP05z// +bQaDofDxq6gkbj5xe2Vfl49MbyB9gTAmVSdp86a+pyNi4tr6F2Ae/yshSNJysnJ0dSpU7Vv3z7F xMSopKRExhitX79eq1at0pAhQ5Sfn6/hw4drxowZGjlypEt1HQ4HT7ImqurZKGeggHeo7RJaU8dx y6f5Wf0QyGHDhmnbtm0VP0dERKhbt24KCQnRkCFDJEndu3fX8OHDtWbNGpfDEVCO5mygYdFwjabA Ws9RcXGxQkJCtGXLFpWVlWnevHkqKirS9OnT9cUXX2jnzp2SpCNHjmj9+vW67LLLbA2NRowXWsB7 0HCNpsLaylFgYKDS0tKUnJyswsJChYWFKSsrS+Hh4crIyNCdd96pkpISSdLtt9+uCRMm2BoaTQyr R8DZx2U0NCVWe448hWu3oPcIaBiEIvdw3PJpfnx9CHwSb+0HPI+356OpIhzBJ/BCDJxdNQUjoLEj HMFnVH1RZvUIsK+2D3QEmgKrb+UHAPguQhFwCitH8CmsHgGeQTAC/g/hCACaOIIRUBnhCD6H1SPA jjP1F/FuNDR1hCMAaIJYLQLOjHAEn8TqEeA+ghFQM8IRADQhBCOgdoQjNBqsHgE1IxgBriEcwWfx gg64jmAEuI5whEaF1SPgdAQjoG4IR/BpvLgDNeOt+kDdEY4AoJE6UzACUDPCEXweb+sHTkcwAtxH OAKARoZgBNQP4QiNAqtHwCkEI6D+CEcA0EgQjAA7CEdoNFg9QlNGMALsIRwBgI8jGAF2EY7QqLF6 hMaOYATYZzUc5ebmKjIyUkFBQQoNDVV2drbeeecd+fv7V/rXvHlzTZgwwebQgCQOCmhaCEaAZ1gL RwcPHlR8fLymTZumgoICpaenKzExUYMGDVJJSUnFv19++UV9+vTRyJEjbQ0N1IjVIzRGBCPAc6yF o7y8PAUHByshIUGSFBsbq6ioKK1cubLS7Z599llFR0dr8ODBtoYGKuEAgcaOwA94VnNbhYwxKisr q7QtICBAX331VcXP+fn5mjNnjnbs2GFrWABoUvgSWcDzrIWj6Oho5efnKzMzU0lJSVq7dq02bdqk 7t27V9zmueee03333adOnTpVW8PhcJyxfk2/A6paPTFcN7+4veJnv+GztXpieAPuEeA5qyeG8xoJ WORnjDG2iuXk5Gjq1Knat2+fYmJiVFJSop49e2rWrFk6fvy4OnfurP/93/9Vz54961TX4XAoLi7O 1m6iiah6hs2ZNXwdfUa+g+OWT/Oz+m61YcOGadu2bdq/f78WL16snTt3asCAAZJOBacLL7ywzsEI cBcfConGhGAEnD3WwlFxcbFCQkK0ZcsWlZWVad68eSoqKtKIESMkSZs3b64ISgAA1xGMgLPLWs9R YGCg0tLSlJycrMLCQoWFhSkrK0utW7eWdKoZu0uXLraGA4Ami2AEeJbVniNP4dot6oPeI/gyVo18 E8ctn2a35wgAYA/BCGgYhCM0ejRmwxcRjICGQzgCAC9DMAIaFuEIAADACeEITQKX1uArWDUCGh7h CAC8BMEI8A6EIzQZrB7BmxGMAO9BOAIAAHBCOAKABsaqEeBdCEdoUri0Bm9DMAK8D+EIABoIwQjw ToQjAAAAJ4QjNDlcWoM3YNUI8F6EIwA4ywhGgHcjHKFJYvUI3oRgBHgXwhEAnEUEccD7EY4A4Czh chrgGwhHaLK4tIaGRjACvBPhCADOAsI34DsIR2jSWD3C2cDlNMC3EI4A4CwjGAHezWo4ys3NVWRk pIKCghQaGqrs7GxJ0pEjR/THP/5R7du313nnnacnn3zS5rBAvXCggiexGgn4Hmvh6ODBg4qPj9e0 adNUUFCg9PR0JSYmav/+/RozZoxat26t/fv366OPPtLq1av12Wef2RoasIqDGTyJMA54v+a2CuXl 5Sk4OFgJCQmSpNjYWEVFRemVV17RqlWr9OOPP8rf318XXnihtm3bZmtYAPBaVYM2wQjwDdZWjowx Kisrq7QtICBAy5YtU7du3TR//nz17t1bYWFheuGFF2wNC1jBQQu2sQIJ+C5r4Sg6Olr5+fnKzMxU aWmpsrOztWnTJu3bt08//PCDOnTooF27dmn58uWaPXu2Vq9ebWtowDoObLCNAA74Dj9jjLFVLCcn R1OnTtW+ffsUExOjkpIS7dmzRzt27FBxcXHF7SZOnKjS0lLNmzev0t87HA5buwLU2c0vbq/08+qJ 4Q20J/B1VZ9LEs+npiguLq6hdwHu8bMajqqKiIjQvffeq6lTp+rIkSMKCAiQJE2YMEHNmjVTRkaG S3UcDgdPMpwV9IigvvhMI0gct3ycn7XLasXFxQoJCdGWLVtUVlamefPmqaioSKmpqRo2bJj+4z/+ Q6Wlpdq9e7feeust3XTTTbaGBgCvRTACfI+1d6sFBgYqLS1NycnJKiwsVFhYmLKystS6dWstXLhQ DzzwgDp27Kj27dtrxowZiomJsTU0AHgFetWAxsGjl9VsYXkSZxOX1uAunjsox3HLp9m7rAYATRnB CGg8CEdAFXwZLeqK5wjQuBCOAMAyVo0A30Y4AqrBwQ2u4nIa0PgQjgAXcNkE1eF5ATROhCMAsIRV I6BxIBwBZ0BjNmrC8wFovAhHAFBHfEUI0LgRjoAacMCDK3ieAI0L4QioAy6lgOcA0PgRjgCgHlg1 AhofwhFQCxqzUY7/90DTQDgCABfQhA00HYQjwA2sIIBgBDRehCPABRwImzbCMNC0EI4AN3HAbBq4 nAY0PYQjwEUcECHxPACaAsIRAJwBq4NA00Q4AuqAt/U3HVxOA5ouwhEAVEEwApo2whFQR6weAWhK 9u7dq5EjR6p79+7q1KmTgoODNXbsWB07dsztmnv27JGfn59KS0slSW+++aYKCgrcqrV8+XJFR0cr MDBQbdq0UVhYmNLS0nTixAm3949wBABOWDUCKhs5cqQ6dOig3bt36+eff9bWrVv1+eef609/+pO1 MR5//HG3wtGLL76o+++/X/fff7++/fZbHTlyRIsWLdKKFSv00EMPub0/VsNRbm6uIiMjFRQUpNDQ UGVnZ0uSAgIC5O/vX+nfV199ZXNooEGxetQ4EIyA0+3YsUNxcXFq06aNJKlr165auXKlZs6cqW++ +Ub+/v6aM2eOhg4dqrCwME2YMEEnT56UJL377rvq16+fevTooV69eunVV189rX5CQoK+/vprxcTE 6M0335Qkffjhhxo8eLBCQ0PVr18/vfHGG6f93dGjR/X4448rIyNDo0ePVqdOndSiRQsNHjxY69ev 1/PPP+/2fW7u9l9WcfDgQcXHx2vhwoVKSEhQdna2EhMTtXPnTh0/flwHDhxQ586dbQ0HNCizZjqB qAkgGKEhNcRrTHXP+eTkZN1///2aPHmyhg4dqvDwcHXs2FGS9Ouvv+q3337T8ePHtX79eh09elTh 4eG66qqrFB8fr6SkJL3++usaMWKENm7cqGHDhikuLq5S/aVLl6pFixZ677331KtXLxUVFWnEiBF6 +eWXdfvtt+vbb7/V5ZdfroiICPXt27fi77Zu3aqjR48qOTn5tH1u3759vR4HaytHeXl5Cg4OVkJC giQpNjZWUVFRWrx4sSTpD3/4g62hAK9EWPJt/P8Dqjdv3jylp6dr8+bNGj58uDp06KD77rtP+/fv r7hNSkqKJKlt27aKiYlRbm6uWrVqpR9++EE33XSTJOnqq69WixYt9N1339U4Xk5OjoKCgnT77bdL knr27Kmbb75Zy5Ytq3S7wsJCBQUFqVWrVhXbxo4dqy5dulT827Nnj1v32Vo4MsaorKys0raAgABt 2bJFzZs316hRoxQcHKy+fftqwYIFtoYFGgyrCo0Hl9OAmiUkJOjtt9/WgQMHtHHjRh06dEixsbEV v+/QoUPFf7dr166if2jRokW68sorNWjQIA0aNEi///77aVmhqp9++kl79+5Vjx49Kv6tWbNGhw4d qnS78847TwUFBZUaw5999ll9+umn+vTTT1VUVFTR8F1X1i6rRUdHKz8/X5mZmUpKStLatWu1adMm DRo0SCkpKRo1apRef/11bd26VTfeeKO6deumW265pVINh8Nxxvo1/Q7wFn7DZ2v1xPCG3g3U0+qJ 4bzmoMF5Q0Dfv3+/PvjgA915550V28LDw/XUU0/p8ssvV0lJiaRTrTUXXHCBJOnw4cPq2LGjVq9e rZkzZ2rr1q0KCQlRWVmZ2rZtW+uY3bp108UXX6zt27fXeLuBAweqffv2Wrx4scaPHy/pVDBr166d u3e3grVw1KlTJ73zzjuaOnWqpkyZopiYGMXExKhnz56aNWtWxe2uuOIK3X333Vq1atVp4ajqdchy DofjjL8DGpKJiztt1YHnqm+pbtWI/4eor8YSrsvKyjR69Gjt2bNH48aNU9u2bXXo0CG9+OKLGjx4 sPz9/SVJr7zyip5++mkdPnxY2dnZmjt3rn7++Wd17txZF154ocrKyjRr1iz5+fnp6NGjlcZo1qyZ zjnnHBUWFkqShg4dqgcffFD/+te/dNNNN+nYsWOaNGmSxo0bp/79+1f8XcuWLZWRkaHU1FQZY5SQ kKCOHTvq008/1cyZM9WlS5dKK1p1YfXdasOGDdO2bdu0f/9+LV68WDt37lT37t21bdu2Srf7/fff 1bJlS5tDA16D3hXfweU0oGbdu3fX+++/r40bNyokJETt27fX5ZdfrhYtWmjFihUVt+vWrZsiIiLU r18/3XnnnYqPj1diYqK6d++uXr16acCAAQoLC9Pdd9+te+65R1988UXF3zZr1kzJycm6/vrrlZ6e rnbt2snhcCgtLU29evVSeHi4goKCFBERcdr+paSkaPny5Vq5cqXCwsIUGBioUaNGqW/fvvr3v//t dmO2nzHGuPWXVRQXFysiIkJLly7VwIEDtWDBAj3zzDNavHix4uPj9d5772nIkCH68MMPFRMTo7ff fls33HCDS7VZOYK3q3qQ9dUDrDvBrjHdV1+9L/A+TeW4tWfPHoWEhKi0tFTnnHNOQ++OLX7WLqsF BgYqLS1NycnJKiwsVFhYmLKyshQeHq45c+Zo9OjROnDggLp27aqMjAyXgxHgi/yGz/aZA219V7qc /76p3GcAlVlaZ/Ea1sKRdGp5q/ztfM7uvfde3XvvvTaHAryKL37ukSf2t7ymr4QkZ764zwA8w2o4 ApqyqgHJm1ePXAlGNe17bX/vzSGJy2mAPT169Gh0q0YS4QjwKG8LSLWFGlf31fl2NdX0tpBEMALg Cr54FrDImw+0NYUYs2a62/vuyt96wyVHghEAVxGOAA/z1mAg1S8U1bWW3/DZDfZYEIwA1AXhCLCs uoNuQ4aCmoKRJ7gSks6WM91/ghGAmhCOgEaqtstonlZTSDobq0hnOxQCaDwIR4AHNPTq0dm4jOaq hrjURjACUB+EI8BDGiIgNcRlNFecrX4kb73/AHwL4Qg4yzwVkBr6MporPBmSfOH+A/ANfM4R4EHl B+WqB27bn3/ka6slZ3pcyrn6+Ui2PrcJAJwRjoAGYiMg+fpqSW1fu1KfVTZfuP8AvBOX1YCzoKZ3 bbnL14NROdtN4g3RdA6gcWHlCDhLzrRKUtcVpMYSiqpy9StJXPl7AKgPwhFwFtUUkMp/fyZNqb+m Md0XAL6HcAScZTX12bBiAgANj3AENIDa3q1VlxoAALsIR0ADcickEYoAwLMIR4AXIPAAgPfgrfwA AABOCEcAAABOCEcAAABOrIaj3NxcRUZGKigoSKGhocrOzq70+yNHjuj888/X2LFjbQ4LAABgjbVw dPDgQcXHx2vatGkqKChQenq6EhMTtX///orbTJo0Sa1atbI1JAAAgHXWwlFeXp6Cg4OVkJAgSYqN jVVUVJRWrlwpScrKytKuXbs0atQoW0MCAABYZy0cGWNUVlZWaVtAQIC++uorFRYWauLEiXr11VfV rBltTgAAwHtZSyrR0dHKz89XZmamSktLlZ2drU2bNunXX3/VhAkTNH78eIWGhtoaDgAAwCOsfQhk p06d9M4772jq1KmaMmWKYmJiFBMTo40bN6pTp076xz/+UWsNh8Ph1u8AAABs8TPGGE8Vj4iI0M6d O9W5c2e1bNlS0ql3rJWWlioqKko5OTku1XE4HIqLi/PUbgIAYBXHLZ/mZ23lqLi4WBEREVq6dKkG DhyoBQsWqKioSMXFxWrdunXF7f7zP/9TP/74oxYsWGBraAAAAGushaPAwEClpaUpOTlZhYWFCgsL U1ZWVqVgBAAA4O08elnNFpYnAQC+hOOWT/PjffUAAABOCEcAAABOCEcAAABOCEcAAABOCEcAAABO CEcAAABOCEcAAABOCEcAAABOCEcAAABOCEcAAABOCEcAAABOCEcAAABOCEcAAABOCEcAAABOCEcA AABOCEcAAABOCEcAAABOCEcAAABOCEcAAABOCEcAAABOCEcAAABOCEcAAABOrIaj3NxcRUZGKigo SKGhocrOzpYkrVmzRgMGDFD79u110UUXaf78+TaHBQAAsMZaODp48KDi4+M1bdo0FRQUKD09XYmJ idq2bZvuuOMOzZw5U4WFhXrzzTc1efJkffzxx7aGBgAAsMZaOMrLy1NwcLASEhIkSbGxsYqKitI7 77yjxYsXKzY2VpIUGRmp3r1768svv7Q1NAAAgDXNbRUyxqisrKzStoCAAB07dkx33HGHJOnEiRPK ysrS/v37dd1119kaGgAAwBpr4Sg6Olr5+fnKzMxUUlKS1q5dq02bNql79+6SpDfeeEMpKSkKCgrS yy+/XLHdmcPhOGP9mn4HAABgi58xxtgqlpOTo6lTp2rfvn2KiYlRSUmJevbsqVmzZkmSSktL9ckn nygxMVEZGRm69dZbXarrcDgUFxdnazcBAPAojls+zc/qu9WGDRumbdu2af/+/Vq8eLF27twpf39/ rVy5UpLUvHlzRUVFKS4uTllZWTaHBgAAsMJaOCouLlZISIi2bNmisrIyzZs3T0VFRYqOjlZKSoo2 bdokSdqzZ4/effddDRgwwNbQAAAA1ljrOQoMDFRaWpqSk5NVWFiosLAwZWVlKTw8XHPnztWDDz6o /fv369xzz1VKSorGjBlja2gAAABrrPYceQrXbgEAvoTjlk+z23MEAADg6whHAAAATghHAAAATghH AAAATghHAAAATghHAAAATghHAAAATghHAAAATghHAAAATghHAAAATghHAAAATghHAAAATghHAAAA TghHAAAATghHAAAATghHAAAATghHAAAATghHAAAATghHAAAATghHAAAATghHAAAATqyGo9zcXEVG RiooKEihoaHKzs6WJG3cuFFRUVFq3769evTooYyMDJvDAgAAWGMtHB08eFDx8fGaNm2aCgoKlJ6e rsTERH3xxReKi4vTpEmTVFhYqFWrVunxxx9XXl6eraEBAACssRaO8vLyFBwcrISEBElSbGysoqKi 9NZbb2nOnDkaOXKkJKlfv34KCwvTrl27bA0NAABgjbVwZIxRWVlZpW0BAQEqKirSPffcU7Ft7969 2rVrl6655hpbQwMAAFhjLRxFR0crPz9fmZmZKi0tVXZ2tjZt2qRff/214jb5+fkaMWKEZs6cqZ49 e9oaGgAAwBo/Y4yxVSwnJ0dTp07Vvn37FBMTo5KSEvXs2VOzZs3Sxx9/rDvvvFNPPPFEpZUkZw6H w9auAADQoOLi4hp6F+AeP6vhqKqIiAj95S9/0fnnn6/ExERlZmbqqquuqnMdh8PBkwwA4DM4bvk0 P2uX1YqLixUSEqItW7aorKxM8+bNU1FRka677jolJSVp4cKFbgUjAACAs8laOAoMDFRaWpqSk5MV FBSkJUuWKCsrSxs2bND333+vm2++Wf7+/hX/HnnkEVtDAwAAWNPcZrGUlBSlpKRU2hYeHi4PXrkD AACwiq8PAQAAcEI4AgAAcEI4AgAAcEI4AgAAcEI4AgAAcEI4AgAAcEI4AgAAcEI4AgAAcEI4AgAA cEI4AgAAcEI4AgAAcEI4AgAAcEI4AgAAcEI4AgAAcEI4AgAAcEI4AgAAcEI4AgAAcEI4AgAAcEI4 AgAAcEI4AgAAcEI4AgAAcEI4AgAAcGI1HOXm5ioyMlJBQUEKDQ1VdnZ2xe9eeukltW3bVnPnzrU5 JAAAgFXNbRU6ePCg4uPjtXDhQiUkJCg7O1uJiYnavXu3nn76af3yyy/q27evreEAAAA8wtrKUV5e noKDg5WQkCBJio2NVVRUlFauXKn77rtPmZmZCgwMtDUcAACAR1gLR8YYlZWVVdoWEBCgr776SgMH DrQ1DAAAgEdZu6wWHR2t/Px8ZWZmKikpSWvXrtWmTZvUvXt3l2s4HA6eYDHUAAAQhklEQVS3fgcA AGCNsWjdunVmwIABpkuXLuaee+4xSUlJZvr06RW/HzZsmJkzZ06d665evbra/67pd67ezltqNNax 2F/vr8H+Np795bHxzv2Fz7G3ciRJw4YN07Zt2yp+joiIqOhBAgAA8AXWeo6Ki4sVEhKiLVu2qKys TPPmzVNRUZFGjBhhawgAAACPsxaOAgMDlZaWpuTkZAUFBWnJkiXKyspSy5Yt5e/vL39/f23YsEGP PPKI/P39NWHCBFtDAwAAWGP1slpKSopSUlJO215SUmJzGAAAAI/xM8aYht4JAAAAL+HHd6sBAAA4 IRwBAAA4IRwBAAA4IRwBAAA4IRwBAAA48ZpwdPLkSf32228eHWP58uV6+OGH9frrr1uvffLkSW3f vt16XTRuJ0+e1OzZs3Xs2LGG3pUmhzkLdzBnm4ZznnzyyScbeickafLkyZo7d64SExPVvLnVj1+S JI0bN06bN2/WpZdeqscff1wtWrTQ4MGDrdQ+efKk7rnnHm3cuNEjX5eyYsUKLVy4UCdOnFDv3r2t 11+/fr1ycnIUGBioDh06WK1tjNGiRYv0wgsvqHnz5goNDbVa/+2339acOXN07NgxXXrppVZrS1JW VpYcDofOOeecOn2JsivKnzcvvfSSzj//fA0YMMBqfUm65557dODAAUVGRlqte/LkSZ04ccIjc7Xc 8uXLKz5pPzw83Gpt5uyZeXrOSp6dt74+Z+EVnvKalaPPPvtMBw4c0K233mp9BWnNmjX6+uuvtXLl Sk2dOlX/+Mc/tGLFCiu1yydLcXGxXnvtNSs1nY0fP17PPPOMjh8/rpEjR+rpp5+2Wv/BBx/Uww8/ rMzMTPXt21epqalWP7TzT3/6k5YtW6bLL79cF154obW60qnA+9xzz6lNmzYaM2aM5s2bZ7X+mDFj NHv2bH377be65ZZbdOutt+rw4cNWajs/b/7+97/r3XfftVK3qh07dmjy5MlasGCB1bpTpkzxyFwt N27cOC1ZskQXXHCBJk6cqBdeeMFabeZszTw5ZyXPztvGMGfhJRr2i2//T3R0tDl8+LDp37+/ufHG G01JSYm12k8//bR5+OGHK35et26d6devn7ntttvM1KlTzZEjR9yqW1paau666y5zyy23mN9++83W 7lbIzc01l1xyifn999+NMcZ89tlnpnXr1uann36yUn/Dhg2mb9++5sSJE8YYY3bu3GlCQ0NNdHS0 +eWXX+pd//Dhw6ZDhw4eeWyys7PNgAEDKh6bpUuXmhEjRlir/+GHH5rw8HBTWlpqjDGmsLDQ3HLL Lebiiy8233//fb1qV33eHD582LRv397qc77clClTzPTp001QUJCZP3++tbrXXXedR+aqMca89957 5oYbbqj4OSsry0RHR1upzZytmSfnrDGenbeNZc7CK3hPz1F4eLiCgoK0bt066ytI119/vV5++WVl ZGRo2bJlGjt2rO677z6lpqbqgw8+0LXXXuvWWIcOHVJubq4GDRqkli1bVmx78MEHNWDAAKWmpqqw sNDt/f7444/Vr18/tWjRQpIUERGhK664Qnl5eW7XdLZr1y5dcMEFFZdGwsLCtGbNGm3dulW33Xab Tp48Wa/6JSUlOnHihJo1O/U0++mnn3T33XerX79+mjRpko4ePep27by8PEVHR1c8NpLk7++vcePG aebMmW73A5T3oezZs0fBwcE655xzJEl/+MMftGLFCg0ePFg33HCD2/9fT548qRkzZqi4uFjLli1T y5YtFRQUpP79++tf//qXWzVrct111+mnn37S2rVrNWPGjHqtIDn3Wpw4ccL6XC2vv379+kqXclq1 aqXi4mLdfvvteuyxx/TLL7+4PQZztmaenLOS5+atJI/NWUlaunTpWZuz8BINHc/Klad9Y0y1K0gF BQWmuLjY7fpZWVlm5MiRZujQoeaJJ56o2H706FETGhpqFixYUKd9Ld+v7du3m/bt25vFixebo0eP mksuucRMmTLFvPHGGyY6OtqEhYWZY8eO1Wlfly9fbiZPnmxmzJhh4uPjK/3u7rvvNq+88kqd6p2p /jPPPGNatWpltm/fXun30dHRJjIy0syePdut+suWLTNjx441S5cuNf369TMvvfSSKS0tNf379zfP P/+8yc7ONldddZUZNGhQxRmkq0aNGmXmz59vVq9ebVJSUowxxuzdu9d069bNpKSkmLlz55rLLrvM DBgwwPz66691ql1+dpicnGz27dtnAgICzI4dO067TWxsrBk5cmSdaletX37mX27RokVm8ODBda7p rKyszLzyyismJSXFrFq1yhhjzC+//GIuuOACY4wx27ZtM0FBQSY9Pd0kJCSY7777rs773qZNG/PK K6+Y1NRUY0z1c9UdzvXvv/9+06pVK5Oenm7eeust06tXL5ORkWHWrFljBg8ebPr37+/WWG+//bYZ P368mT59uvU5m5OTY15++WXz2muveWTOltdfsWKFR+asM9tz1pkn5m05T8xZZ56Ys/Ba3hOOqnJ+ 0d23b5/p37+/WbRoUb3rjh8/3mRkZFTa9vjjj5tHH33U5RqTJk2qdDDIzc01bdu2NXfddZeZMmVK xe2OHTtmevXqZV566SWXa48bN84MHDjQpKammnPPPdc8+eSTlX4/cuRI89prr1X8XNfQWLW+JBMc HGz+53/+xxhjzCeffGIGDBhgdu/e7dbyempqqomKijKPPvqoadeunYmPjzft2rUzr732mnnkkUcq bvfrr7+aPn36mMWLF9ep/uWXX27atGlj5s+fXxGojx07ZlasWFFxmyNHjpiQkBAzb948l+tWd7ll xowZJiwszBQUFFS67YEDB8y5555rdu/eXa/6zo4fP246dOhgVq9e7XLNqiZMmGBiYmLMCy+8YD79 9NOK7VFRURU/b9682UgyMTExbu37kiVLTEJCgtWTmerq2zyZMebU8zI+Pt48++yzpkOHDiY+Pt7a nH3ggQdMWFiYufbaa02LFi3MmDFjKh3g6ztnq9aXZDp27GhtzjocDvO3v/3NbNmyxRhz6rKmrTnr fCLpvM0YO/O2/ETP4XAYY+zO2erqO7MxZ+G1vDccGfN/L7r+/v6nhQR3vfrqq6Zr167mm2++Mcac mvCRkZFmw4YNLteort9i2bJlxt/fv9JByRhjHnzwQfPUU0+5VNeVfoVbb73VvPnmm8aYUy+ydQmN 1dX39/c3EydONK1atTI9evQwHTp0MO+//74xxpjLLrvstDPUmpypn+CJJ54wbdq0MY899lil20+e PLnSgckVrvbQpKamulz7TMHlxIkT5sYbbzQDBw487cX21ltvNW+99Va96leVnp5u+vbt69aqSE29 Io899ph55plnTElJiYmJiTGjR492uQfJ1V4Ld09maqtv42TmTD1MNuasKz1A9Zmz1dXv3bu3kWQk 1XvOPvTQQ+bKK68048ePN+edd56Jj483hw4dsjZnq55I1qYu87bqid5TTz1lbc6eqX5V9Zmz8Gre HY7KX0hsBSNjTl16uPPOO027du1MSkqKufTSS83f/va3OtU4U/P43r17K92u/Ezoo48+cqnuX//6 V/PHP/6x0rZrr7220tlVcnKyWbJkiVuPTU31i4qKzIYNG8yhQ4eMMace+y5dulT87Ir/9//+n5k4 cWLFz0uXLjV33HGHSU1NrXgxX758uTHGmEOHDpk+ffqYnJwcl+sbc+rANnr06IpLRNUd4AsKCkxI SEjFAaM2P/30k+nevbuZNWtWxbaff/7ZPPDAA6ZPnz5GkuncubP597//bYw59f+1Z8+epy3fu1O/ f//+ZuzYsaagoMCcOHHCREREVFyyqov8/Hxz7rnnVhxE9+/fb1JSUkxERITp06ePueyyy0xMTIyZ Nm2aMebUJbZnn3221rr//Oc/Twt1Q4cOrfScLOfOyUxt9W2czNT0hoyRI0dWekNGXefsggULTGxs bKVt33//vWnVqpUZNmyYKS0trdecral+ZGSkWbdundtztrYG5mnTppnWrVvXa87WpXG/LvO2phPJ 48ePm5tuusmEhoa6PWddbayvz5yFV/PucDR8+HCrwciZw+EwGRkZ5vPPP6/z39bWb/HnP//ZTJo0 yVx88cXmueeec7luXl5erf0K06dPN/fff79bodGV+uXhIzQ01Dz//PN1ql9bP4Ek07VrV9OlSxfT oUOHOodSY87cQ3PllVeaTp06mQceeMD06NHD/PWvf61T3Zp6xwYPHmwkmWbNmpkrrrjCBAcHW63v 3Oeya9cu0759e5Obm1un+sacuVdkwIABRpKZPHlynWsa43qvhbsnMzXVt3Eyk5eXV2sP08SJE92a s9u3b6+1B6g+c9aV+u7O2aVLl54WvEpLS82oUaNM7969TUFBgXn77bdNSEiI23O2tnch79u3zwwc OLDO87a2E8nS0lKTlpZm2rZt69acdeVEtVx95iy8lneHowMHDjT0LlSrpn6LEydOmJkzZ5px48aZ vLy8OtcuKyur9HPVfoX//u//NpLcDo211V+zZo2ZPn26+eCDD9yqX1s/wX/913+Zb775xhQVFblV 35jqe2iuv/56k5mZaZ5++mmzbds2t+rW1jv23HPPmdzcXPPDDz94pH55n4u7bzuuqVekXbt2de7v OpMz9VrYOpmprn59TmaMqfkNGRdddJHp16+fmTp1qltz9tFHH62xby8nJ6dec7a2+ps3bzYzZ850 ac469wC52sBcVlbm8pyt2mNU24lkaWmpy/PWubYrJ3rGGFNUVOTynHWnfrn6flQAvI53hyNf4anm cWOq71dISkqyUvtM9W3te1V16SeoSX16aGpjow+lIevb7O+qSXW9FjZPZjzVy2Gjh6mqsrIyM3Pm zBr79t59912P1ndV1R4g2w3MVevbbNyvWru2E726Nr57uj58CuHIFk80jxtTvx4jb6hfrq59QDV5 9913TXR0tFs9NK6ob+9YQ9e30StSG0/3Wniqvo0epjOx0bfn6fpVe4BsNjBXV7+q+pxI1la7vid6 nq4Pn0I4ssVT4aI+/QoNXd/dfoLaHD161HTs2LEiGHmKu71j3lC/vr0irvB0r4Un6tvoYapNffr2 PF2/uh4gGw3MNdWvyt0Tydpq1/dEz9P14VMIR7Z4qnn8gw8+qFe/QkPWr0s/QV3t27fPar2qTpw4 YebNm+d2H0pD1zembr0i7vJ0r4Wn6te3h6kmW7dudbkH6GzXP1MPUH0bmGur78zdcFFb7fqe6Hm6 PnwK4cgWTzaP16dfwRvqA/AOtfUAfffdd8bhcLj9pgNXeoyGDBniVriorXZ936zi6frwKfIzxpiz /ZUlAICGV1BQoOuvv17nnXeeFi1apBEjRmjChAkaPXq0x+onJSXpscce80jt3r17a+nSpRb23PP1 4dX8vOaLZwEAZ5fzl3337NlT8fHx1oLRmerbCEZnqm0zuHi6Prwb4QgAmjA/Pz9J0rRp0/TEE0/4 VH1f3nd4Ny6rAUATFhMToyFDhnjs4O/J+r687/BqfoQjAGjCDh48qM6dO/tkfV/ed3g1whEAAIAT GrIBAACcEY4AAACcEI4AAACcEI4AAACcEI4AAACcEI4AAACcEI4AAACcEI4AAACcNJfk19A7AQAA 4C3+P36mUKF86245AAAAAElFTkSuQmCC "
       id="image3421"
       x="2.684803"
       y="-101.09662" /></g><path
     d="M 12.528361,600.85235 H 574.9082 V 38.472514 H 12.528361 Z"
     style="fill:#ffffff;stroke-width:0.781083"
     id="path8" /><path
     d="M 40.962415,574.79816 H 572.56475 V 40.81595 H 40.962415 Z"
     style="fill:#ffffff;stroke-width:0.781083"
     id="path11" /><use
     xlink:href="#m0304fec007"
     x="129.21196"
     y="686.64349"
     style="stroke:#000000;stroke-width:0.8"
     id="use17"
     transform="matrix(0.7810831,0,0,0.7810831,12.528361,38.472514)" /><use
     xlink:href="#m0304fec007"
     x="252.95676"
     y="686.64349"
     style="stroke:#000000;stroke-width:0.8"
     id="use37"
     transform="matrix(0.7810831,0,0,0.7810831,12.528361,38.472514)" /><use
     xlink:href="#m0304fec007"
     x="376.70157"
     y="686.64349"
     style="stroke:#000000;stroke-width:0.8"
     id="use55"
     transform="matrix(0.7810831,0,0,0.7810831,12.528361,38.472514)" /><use
     xlink:href="#m0304fec007"
     x="500.44635"
     y="686.64349"
     style="stroke:#000000;stroke-width:0.8"
     id="use66"
     transform="matrix(0.7810831,0,0,0.7810831,12.528361,38.472514)" /><use
     xlink:href="#m0304fec007"
     x="624.19116"
     y="686.64349"
     style="stroke:#000000;stroke-width:0.8"
     id="use79"
     transform="matrix(0.7810831,0,0,0.7810831,12.528361,38.472514)" /><use
     xlink:href="#DejaVuSans-20"
     x="423.73047"
     id="use126"
     transform="matrix(0.0801702,0,0,-0.0801702,247.30145,596.526)" /><use
     xlink:href="#DejaVuSans-20"
     x="688.17969"
     id="use136"
     transform="matrix(0.0801702,0,0,-0.0801702,247.30145,596.526)" /><use
     xlink:href="#DejaVuSans-20"
     x="1041.6953"
     id="use150"
     transform="matrix(0.0801702,0,0,-0.0801702,247.30145,596.526)" /><use
     xlink:href="#mde73766602"
     x="36.403366"
     y="615.7973"
     style="stroke:#000000;stroke-width:0.8"
     id="use167"
     transform="matrix(0.7810831,0,0,0.7810831,12.528361,38.472514)" /><use
     xlink:href="#mde73766602"
     x="36.403366"
     y="501.80603"
     style="stroke:#000000;stroke-width:0.8"
     id="use183"
     transform="matrix(0.7810831,0,0,0.7810831,12.528361,38.472514)" /><use
     xlink:href="#mde73766602"
     x="36.403366"
     y="387.81479"
     style="stroke:#000000;stroke-width:0.8"
     id="use199"
     transform="matrix(0.7810831,0,0,0.7810831,12.528361,38.472514)" /><use
     xlink:href="#mde73766602"
     x="36.403366"
     y="273.82355"
     style="stroke:#000000;stroke-width:0.8"
     id="use215"
     transform="matrix(0.7810831,0,0,0.7810831,12.528361,38.472514)" /><use
     xlink:href="#mde73766602"
     x="36.403366"
     y="159.83231"
     style="stroke:#000000;stroke-width:0.8"
     id="use231"
     transform="matrix(0.7810831,0,0,0.7810831,12.528361,38.472514)" /><use
     xlink:href="#mde73766602"
     x="36.403366"
     y="45.841072"
     style="stroke:#000000;stroke-width:0.8"
     id="use247"
     transform="matrix(0.7810831,0,0,0.7810831,12.528361,38.472514)" /><use
     xlink:href="#DejaVuSans-20"
     x="392.29883"
     id="use282"
     transform="matrix(0,-0.0801702,-0.0801702,0,6.1797376,327.65663)" /><path
     d="m 67.339565,130.92413 15.4681,-8.53794 15.4681,-7.37523 15.468095,-6.18973 15.4681,-4.86742 15.4681,-3.26015 15.4681,-1.060121 15.4681,2.120241 15.4681,6.93066 15.4681,14.28311 15.4681,25.27185 15.4681,40.63788 15.4681,59.77701 15.4681,79.53168 15.4681,93.68941 15.4681,94.80651 15.4681,78.15239 15.4681,46.04107 15.4681,9.35868 15.4681,-15.95878 15.4681,-18.62617 15.4681,-1.81246 15.4681,17.18988 15.4681,20.58682 15.4681,3.9555 15.4681,-23.32261 15.4681,-47.92192 15.4681,-61.87444 15.4681,-64.48485 15.4681,-59.45783 15.4681,-51.13647 15.4681,-42.49593 15.4681,-34.96112 15.4681,-28.85118 15.4681,-24.02935 15.4681,-20.24485 15.4681,-17.23547 15.4681,-14.80747 15.4681,-12.84681 15.4681,-11.19394 15.4681,-9.78045"
     clip-path="url(#pd93297cbfd)"
     style="fill:none;stroke:#20b2aa;stroke-width:3.62912175;stroke-linecap:square;stroke-dasharray:none"
     id="path298"
     transform="matrix(0.7810831,0,0,0.7810831,12.528361,38.472514)" /><path
     d="m 67.339565,194.02968 14.230652,-11.39912 14.230652,-22.79825 13.611931,-22.79825 12.9932,-11.39912 12.9932,-11.39912 12.99321,-11.39913 12.37448,-11.399121 11.75575,-11.399124 11.75576,-11.399124 h 11.75576 l 11.13703,11.399124 11.13703,11.399124 10.51831,11.399121 10.51831,22.79825 9.89958,34.19737 9.89958,45.5965 9.89959,56.99562 9.89958,56.99562 9.28086,56.99562 8.66214,56.99562 9.28086,45.59649 8.66213,45.5965 8.10529,34.19737 8.2909,22.79825 8.04341,11.39912 7.8578,11.39913 7.6103,-11.39913 h 7.48656 l 7.36282,-11.39912 7.11532,-11.39912 h 7.11533 7.36281 l 7.48656,11.39912 7.61031,11.39912 7.85779,11.39913 8.04342,22.79825 8.2909,11.39912 h 8.10528 8.66214 l 9.28086,-11.39912 8.66213,-11.39913 9.28086,-34.19737 9.89959,-22.79825 9.89958,-34.19737 9.89959,-34.19737 9.89958,-34.19737 10.51831,-22.79825 10.51831,-34.19737 11.13703,-22.79825 11.13703,-11.39913 11.75575,-22.79824 11.75576,-11.39913 11.75576,-22.79825 12.37448,-11.39912 12.9932,-22.79825 12.9932,-11.39912 12.99321,-11.39913 13.61193,-22.79824 14.23065,-11.39913 14.23065,-22.79825"
     clip-path="url(#pd93297cbfd)"
     style="fill:none;stroke:#32cd32;stroke-width:3.62912175;stroke-linecap:square;stroke-dasharray:none"
     id="path301"
     transform="matrix(0.7810831,0,0,0.7810831,12.528361,38.472514)" /><g
     id="g1110"
     style="stroke-width:2;stroke-dasharray:none"><path
       d="M 40.962415,574.79816 V 40.81595"
       style="fill:none;stroke:#000000;stroke-width:2;stroke-linecap:square;stroke-linejoin:miter;stroke-dasharray:none"
       id="path307" /><path
       d="M 572.56475,574.79816 V 40.81595"
       style="fill:none;stroke:#000000;stroke-width:2;stroke-linecap:square;stroke-linejoin:miter;stroke-dasharray:none"
       id="path310" /><path
       d="M 40.962415,574.79816 H 572.56475"
       style="fill:none;stroke:#000000;stroke-width:2;stroke-linecap:square;stroke-linejoin:miter;stroke-dasharray:none"
       id="path313" /><path
       d="M 40.962415,40.81595 H 572.56475"
       style="fill:none;stroke:#000000;stroke-width:2;stroke-linecap:square;stroke-linejoin:miter;stroke-dasharray:none"
       id="path316" /></g><path
     style="display:inline;fill:none;stroke:#d40000;stroke-width:4.25196851;stroke-dasharray:none"
     d="m 64.577189,84.018612 c 0,0 17.505372,-10.179915 27.986459,-14.654586 10.481082,-4.474671 25.236262,-10.194231 34.865292,-11.73349 9.62903,-1.53926 14.54299,-1.83137 21.72037,0.165121 7.17738,1.996492 11.52859,3.573403 19.76743,11.715476 8.23883,8.142073 16.44952,21.859531 24.18998,39.737517 7.74044,17.87799 13.58778,45.84051 18.7942,67.8128 5.20642,21.9723 9.24028,44.7315 12.61483,63.88162 3.37454,19.15013 5.31279,33.74481 7.90242,50.9466 2.58963,17.2018 5.15318,36.41221 7.62963,52.26402 2.47647,15.85183 4.52887,28.16408 7.13567,42.85662 2.6068,14.69252 5.65234,31.90623 8.53178,45.28876 2.87945,13.38251 5.69623,26.36507 8.48669,35.03413 2.79047,8.66908 4.69552,13.83075 6.98645,17.23287 2.29094,3.40213 2.7716,3.23865 4.3148,4.18967 1.54321,0.951 2.57648,2.25914 4.59355,1.59338 2.01707,-0.66577 4.76094,-3.58751 9.44513,-10.16419 4.68421,-6.57668 11.54008,-24.19821 16.24077,-30.51831 4.7007,-6.32009 5.7893,-7.66732 9.01308,-8.93128 3.22376,-1.26396 3.74768,-1.77477 8.08293,0.27113 4.33525,2.04592 9.14854,9.86367 13.67099,15.51014 4.52248,5.64647 9.95727,15.02319 13.35802,18.39165 3.40074,3.36843 2.56354,3.03366 4.87894,3.47298 2.31538,0.4393 5.20215,-0.18784 7.91068,-1.96623 2.70855,-1.77839 2.38879,-0.85849 6.85424,-8.97098 4.46546,-8.11249 7.38739,-15.98711 15.34426,-41.52779 7.95684,-25.54067 19.92798,-81.60096 28.7663,-112.62071 8.83832,-31.01974 14.6991,-51.03122 23.21402,-73.72079 8.51491,-22.68957 18.84243,-46.87901 27.33811,-62.39229 8.49569,-15.51328 13.49949,-21.66951 21.11557,-31.59884 7.61609,-9.92934 17.01971,-20.0852 24.43594,-27.88729 7.41621,-7.80209 12.93927,-14.02669 19.74387,-19.153907 6.80462,-5.127213 20.47662,-11.757644 20.47662,-11.757644"
     id="path3743"
     sodipodi:nodetypes="czzzzzzzzzzzzzzzzzzzzzzzzzzzzzzzc" /><path
     d="m 67.339565,66.470505 4.15251,-1.69577 4.15251,-0.237251 4.15251,-0.768041 4.15251,-1.9357 4.15251,-2.208813 4.15251,-1.198535 4.15251,-0.752415 8.305015,-3.631177 4.15252,-2.0889 4.1525,-1.312424 4.15252,-2.448264 4.1525,-1.476852 4.15252,-1.701944 4.1525,-0.593334 4.15252,-2.827504 4.1525,-0.359723 4.15251,-0.79859 4.15251,-1.953575 4.15252,-0.749921 4.15251,-2.678965 4.15251,0.525356 4.15251,-0.293678 4.15251,-1.209551 8.30502,0.308245 4.15251,0.286148 4.15251,-0.231521 4.15251,0.230158 8.30502,2.926986 4.15251,2.142972 4.15251,1.656533 4.15251,2.784687 4.15251,4.862708 4.15251,5.804312 8.30502,14.031349 8.30502,18.227643 4.15251,9.910669 4.15251,10.930377 4.15251,14.5749 4.15251,15.1879 4.15251,19.6326 8.30502,47.29445 4.15251,25.52766 4.15251,22.5571 4.15251,26.31129 4.15251,27.54135 4.15251,28.84987 4.15251,30.08979 4.15251,32.37009 8.30502,60.56671 8.30502,54.01862 8.30502,48.82928 4.15251,19.00015 4.15251,16.56869 4.15251,12.05021 4.15251,9.91102 4.15251,4.44573 4.15251,-0.47741 4.15251,-6.16365 4.15251,-7.42793 4.15251,-11.23808 4.15251,-9.34511 4.15251,-15.57694 4.15251,-15.00657 4.15251,-12.40345 4.15251,-9.96197 4.15251,-3.26591 4.15251,-0.77837 4.15251,2.8516 4.15251,5.01344 4.15251,5.99155 8.30502,16.91214 4.15251,9.58909 4.15251,8.44221 4.15251,6.31887 4.15251,3.6167 4.15251,2.90693 4.15251,0.19275 4.15251,-2.88042 4.15251,-5.37977 4.15251,-8.08556 4.15251,-11.05059 4.15251,-14.20771 4.15251,-14.94168 4.15251,-16.22965 4.15251,-17.92377 4.15251,-18.87741 4.15251,-19.61943 12.45753,-64.10319 12.45753,-58.02231 12.45753,-53.94923 4.15251,-15.79475 4.15251,-14.18454 4.15251,-14.96886 4.15251,-12.83439 4.15251,-11.18272 4.15251,-12.6806 4.15251,-9.50596 4.15251,-9.83831 4.15251,-8.69714 4.15251,-7.82099 4.15251,-8.06019 4.15251,-7.26717 8.30502,-13.28337 4.15251,-5.51312 4.15251,-5.85186 4.15251,-4.11487 4.15251,-5.28268 4.15251,-3.92488 4.15251,-2.74394 4.15251,-3.36404 4.15251,-3.98847 4.15251,-2.66512 4.15251,-3.12553 4.15251,-2.499188 4.15251,-1.208845 4.15251,-3.872246 4.15251,-0.638746 4.15251,-3.110391 4.15251,-2.369464 8.30502,-3.704752 8.30502,-2.038648 4.15251,-2.685418 4.15251,-3.145624 4.15251,-1.566055 4.15251,-0.544485 4.15251,-0.809452 4.15251,-0.409618 4.15251,-1.934468 4.15251,-2.806248 4.15251,-1.563127 v 0"
     clip-path="url(#pd93297cbfd)"
     style="fill:none;stroke:#000000;stroke-width:7.25824371;stroke-linecap:square;stroke-dasharray:none"
     id="path304"
     transform="matrix(0.7810831,0,0,0.7810831,12.528361,38.472514)" /><defs
     id="defs394"><clipPath
       id="pd93297cbfd"><rect
         x="36.403366"
         y="3.0002401"
         width="680.59637"
         height="683.64325"
         id="rect391" /></clipPath></defs><text
     xml:space="preserve"
     style="font-size:14px;font-family:sans-serif;-inkscape-font-specification:'sans-serif, Normal';fill:none;stroke:#d40000;stroke-width:4.20088;font-weight:normal;font-style:normal;font-stretch:normal;font-variant:normal;font-variant-ligatures:normal;font-variant-caps:normal;font-variant-numeric:normal;font-variant-east-asian:normal"
     x="220.77998"
     y="611.73529"
     id="text862"><tspan
       sodipodi:role="line"
       id="tspan860"
       style="font-size:14px;fill:#000000;stroke:none;stroke-width:4.20088;-inkscape-font-specification:'sans-serif, Normal';font-family:sans-serif;font-weight:normal;font-style:normal;font-stretch:normal;font-variant:normal;font-variant-ligatures:normal;font-variant-caps:normal;font-variant-numeric:normal;font-variant-east-asian:normal"
       x="220.77998"
       y="611.73529">distance from center (km)</tspan></text><text
     xml:space="preserve"
     style="font-size:14px;font-family:sans-serif;-inkscape-font-specification:'sans-serif, Normal';fill:#000000;stroke:none;stroke-width:2.65718;font-weight:normal;font-style:normal;font-stretch:normal;font-variant:normal;font-variant-ligatures:normal;font-variant-caps:normal;font-variant-numeric:normal;font-variant-east-asian:normal"
     x="102.75176"
     y="592.44202"
     id="text968"><tspan
       sodipodi:role="line"
       id="tspan966"
       style="stroke-width:2.65718;-inkscape-font-specification:'sans-serif, Normal';font-family:sans-serif;font-weight:normal;font-style:normal;font-stretch:normal;font-variant:normal;font-size:14px;font-variant-ligatures:normal;font-variant-caps:normal;font-variant-numeric:normal;font-variant-east-asian:normal"
       x="102.75176"
       y="592.44202">-40</tspan></text><text
     xml:space="preserve"
     style="font-size:14px;font-family:sans-serif;-inkscape-font-specification:'sans-serif, Normal';fill:#000000;stroke:none;stroke-width:2.65718;font-weight:normal;font-style:normal;font-stretch:normal;font-variant:normal;font-variant-ligatures:normal;font-variant-caps:normal;font-variant-numeric:normal;font-variant-east-asian:normal"
     x="199.36563"
     y="592.52734"
     id="text972"><tspan
       sodipodi:role="line"
       id="tspan970"
       style="stroke-width:2.65718;-inkscape-font-specification:'sans-serif, Normal';font-family:sans-serif;font-weight:normal;font-style:normal;font-stretch:normal;font-variant:normal;font-size:14px;font-variant-ligatures:normal;font-variant-caps:normal;font-variant-numeric:normal;font-variant-east-asian:normal"
       x="199.36563"
       y="592.52734">-20</tspan></text><text
     xml:space="preserve"
     style="font-size:14px;font-family:sans-serif;-inkscape-font-specification:'sans-serif, Normal';fill:#000000;stroke:none;stroke-width:2.65718;font-weight:normal;font-style:normal;font-stretch:normal;font-variant:normal;font-variant-ligatures:normal;font-variant-caps:normal;font-variant-numeric:normal;font-variant-east-asian:normal"
     x="302.56854"
     y="592.55133"
     id="text976"><tspan
       sodipodi:role="line"
       id="tspan974"
       style="stroke-width:2.65718;-inkscape-font-specification:'sans-serif, Normal';font-family:sans-serif;font-weight:normal;font-style:normal;font-stretch:normal;font-variant:normal;font-size:14px;font-variant-ligatures:normal;font-variant-caps:normal;font-variant-numeric:normal;font-variant-east-asian:normal"
       x="302.56854"
       y="592.55133">0</tspan></text><text
     xml:space="preserve"
     style="font-size:14px;font-family:sans-serif;-inkscape-font-specification:'sans-serif, Normal';fill:#000000;stroke:none;stroke-width:2.65718;font-weight:normal;font-style:normal;font-stretch:normal;font-variant:normal;font-variant-ligatures:normal;font-variant-caps:normal;font-variant-numeric:normal;font-variant-east-asian:normal"
     x="395.62943"
     y="592.99109"
     id="text980"><tspan
       sodipodi:role="line"
       id="tspan978"
       style="stroke-width:2.65718;-inkscape-font-specification:'sans-serif, Normal';font-family:sans-serif;font-weight:normal;font-style:normal;font-stretch:normal;font-variant:normal;font-size:14px;font-variant-ligatures:normal;font-variant-caps:normal;font-variant-numeric:normal;font-variant-east-asian:normal"
       x="395.62943"
       y="592.99109">20</tspan></text><text
     xml:space="preserve"
     style="font-size:14px;font-family:sans-serif;-inkscape-font-specification:'sans-serif, Normal';fill:#000000;stroke:none;stroke-width:2.65718;font-weight:normal;font-style:normal;font-stretch:normal;font-variant:normal;font-variant-ligatures:normal;font-variant-caps:normal;font-variant-numeric:normal;font-variant-east-asian:normal"
     x="492.80527"
     y="592.65002"
     id="text984"><tspan
       sodipodi:role="line"
       id="tspan982"
       style="stroke-width:2.65718;-inkscape-font-specification:'sans-serif, Normal';font-family:sans-serif;font-weight:normal;font-style:normal;font-stretch:normal;font-variant:normal;font-size:14px;font-variant-ligatures:normal;font-variant-caps:normal;font-variant-numeric:normal;font-variant-east-asian:normal"
       x="492.80527"
       y="592.65002">40</tspan></text><text
     xml:space="preserve"
     style="font-size:14px;font-family:sans-serif;-inkscape-font-specification:'sans-serif, Normal';fill:#000000;stroke:none;stroke-width:2.65718;font-weight:normal;font-style:normal;font-stretch:normal;font-variant:normal;font-variant-ligatures:normal;font-variant-caps:normal;font-variant-numeric:normal;font-variant-east-asian:normal"
     x="-347.04828"
     y="7.7962427"
     id="text1015"
     transform="rotate(-90)"><tspan
       sodipodi:role="line"
       id="tspan1013"
       style="stroke-width:2.65718;-inkscape-font-specification:'sans-serif, Normal';font-family:sans-serif;font-weight:normal;font-style:normal;font-stretch:normal;font-variant:normal;font-size:14px;font-variant-ligatures:normal;font-variant-caps:normal;font-variant-numeric:normal;font-variant-east-asian:normal"
       x="-347.04828"
       y="7.7962427">velocity (m/a)</tspan></text><text
     xml:space="preserve"
     style="font-size:14px;font-family:sans-serif;-inkscape-font-specification:'sans-serif, Normal';fill:#000000;stroke:none;stroke-width:2.72732;font-weight:normal;font-style:normal;font-stretch:normal;font-variant:normal;font-variant-ligatures:normal;font-variant-caps:normal;font-variant-numeric:normal;font-variant-east-asian:normal"
     x="16.966772"
     y="79.551483"
     id="text1019"><tspan
       sodipodi:role="line"
       id="tspan1017"
       style="stroke-width:2.72732;-inkscape-font-specification:'sans-serif, Normal';font-family:sans-serif;font-weight:normal;font-style:normal;font-stretch:normal;font-variant:normal;font-size:14px;font-variant-ligatures:normal;font-variant-caps:normal;font-variant-numeric:normal;font-variant-east-asian:normal"
       x="16.966772"
       y="79.551483">99</tspan></text><text
     xml:space="preserve"
     style="font-size:14px;font-family:sans-serif;-inkscape-font-specification:'sans-serif, Normal';fill:#000000;stroke:none;stroke-width:2.72732;font-weight:normal;font-style:normal;font-stretch:normal;font-variant:normal;font-variant-ligatures:normal;font-variant-caps:normal;font-variant-numeric:normal;font-variant-east-asian:normal"
     x="16.940464"
     y="167.81718"
     id="text1023"><tspan
       sodipodi:role="line"
       id="tspan1021"
       style="stroke-width:2.72732;-inkscape-font-specification:'sans-serif, Normal';font-family:sans-serif;font-weight:normal;font-style:normal;font-stretch:normal;font-variant:normal;font-size:14px;font-variant-ligatures:normal;font-variant-caps:normal;font-variant-numeric:normal;font-variant-east-asian:normal"
       x="16.940464"
       y="167.81718">98</tspan></text><text
     xml:space="preserve"
     style="font-size:14px;font-family:sans-serif;-inkscape-font-specification:'sans-serif, Normal';fill:#000000;stroke:none;stroke-width:2.72732;font-weight:normal;font-style:normal;font-stretch:normal;font-variant:normal;font-variant-ligatures:normal;font-variant-caps:normal;font-variant-numeric:normal;font-variant-east-asian:normal"
     x="17.170662"
     y="257.14474"
     id="text1027"><tspan
       sodipodi:role="line"
       id="tspan1025"
       style="stroke-width:2.72732;-inkscape-font-specification:'sans-serif, Normal';font-family:sans-serif;font-weight:normal;font-style:normal;font-stretch:normal;font-variant:normal;font-size:14px;font-variant-ligatures:normal;font-variant-caps:normal;font-variant-numeric:normal;font-variant-east-asian:normal"
       x="17.170662"
       y="257.14474">97</tspan></text><text
     xml:space="preserve"
     style="font-size:14px;font-family:sans-serif;-inkscape-font-specification:'sans-serif, Normal';fill:#000000;stroke:none;stroke-width:2.72732;font-weight:normal;font-style:normal;font-stretch:normal;font-variant:normal;font-variant-ligatures:normal;font-variant-caps:normal;font-variant-numeric:normal;font-variant-east-asian:normal"
     x="16.868114"
     y="346.1785"
     id="text1031"><tspan
       sodipodi:role="line"
       id="tspan1029"
       style="stroke-width:2.72732;-inkscape-font-specification:'sans-serif, Normal';font-family:sans-serif;font-weight:normal;font-style:normal;font-stretch:normal;font-variant:normal;font-size:14px;font-variant-ligatures:normal;font-variant-caps:normal;font-variant-numeric:normal;font-variant-east-asian:normal"
       x="16.868114"
       y="346.1785">96</tspan></text><text
     xml:space="preserve"
     style="font-size:14px;font-family:sans-serif;-inkscape-font-specification:'sans-serif, Normal';fill:#000000;stroke:none;stroke-width:2.72732;font-weight:normal;font-style:normal;font-stretch:normal;font-variant:normal;font-variant-ligatures:normal;font-variant-caps:normal;font-variant-numeric:normal;font-variant-east-asian:normal"
     x="17.19697"
     y="435.39584"
     id="text1035"><tspan
       sodipodi:role="line"
       id="tspan1033"
       style="stroke-width:2.72732;-inkscape-font-specification:'sans-serif, Normal';font-family:sans-serif;font-weight:normal;font-style:normal;font-stretch:normal;font-variant:normal;font-size:14px;font-variant-ligatures:normal;font-variant-caps:normal;font-variant-numeric:normal;font-variant-east-asian:normal"
       x="17.19697"
       y="435.39584">95</tspan></text><text
     xml:space="preserve"
     style="font-size:14px;font-family:sans-serif;-inkscape-font-specification:'sans-serif, Normal';fill:#000000;stroke:none;stroke-width:2.72732;font-weight:normal;font-style:normal;font-stretch:normal;font-variant:normal;font-variant-ligatures:normal;font-variant-caps:normal;font-variant-numeric:normal;font-variant-east-asian:normal"
     x="16.776035"
     y="524.31311"
     id="text1039"><tspan
       sodipodi:role="line"
       id="tspan1037"
       style="stroke-width:2.72732;-inkscape-font-specification:'sans-serif, Normal';font-family:sans-serif;font-weight:normal;font-style:normal;font-stretch:normal;font-variant:normal;font-size:14px;font-variant-ligatures:normal;font-variant-caps:normal;font-variant-numeric:normal;font-variant-east-asian:normal"
       x="16.776035"
       y="524.31311">94</tspan></text><g
     id="g18253-7-7"
     style="stroke-linecap:butt;stroke-linejoin:round"
     transform="matrix(1.1236513,0,0,1.1236513,-56.145658,-13.257806)"><path
       d="m 264.58755,100.58435 h 210.77513 c 1.31015,0 1.96522,-0.655067 1.96522,-1.965208 v -34.38632 c 0,-1.310142 -0.65507,-1.965214 -1.96522,-1.965214 H 264.58755 c -1.31015,0 -1.96522,0.655072 -1.96522,1.965214 v 34.38632 c 0,1.310141 0.65507,1.965208 1.96522,1.965208 z"
       style="opacity:0.8;fill:#ffffff;stroke:#808080;stroke-width:1.417;stroke-linecap:butt;stroke-linejoin:miter;stroke-dasharray:none;stroke-opacity:1"
       id="path319-1-7"
       sodipodi:nodetypes="sssssssss" /><path
       d="m 269.68875,75.680262 h 9.82607 9.82606"
       style="fill:none;stroke:#20b2aa;stroke-width:2.83465;stroke-linecap:square;stroke-linejoin:round;stroke-dasharray:none"
       id="path322-7-6" /><use
       xlink:href="#DejaVuSans-63"
       id="use328-2-7"
       transform="matrix(0.09826067,0,0,-0.09826067,297.20174,79.119386)"
       style="stroke-linecap:butt;stroke-linejoin:round" /><use
       xlink:href="#DejaVuSans-6d"
       x="54.980469"
       id="use330-7-3"
       transform="matrix(0.09826067,0,0,-0.09826067,297.20174,79.119386)"
       style="stroke-linecap:butt;stroke-linejoin:round" /><use
       xlink:href="#DejaVuSans-61"
       x="152.39258"
       id="use332-2-6"
       transform="matrix(0.09826067,0,0,-0.09826067,297.20174,79.119386)"
       style="stroke-linecap:butt;stroke-linejoin:round" /><use
       xlink:href="#DejaVuSans-31"
       x="213.67188"
       id="use334-2-5"
       transform="matrix(0.09826067,0,0,-0.09826067,297.20174,79.119386)"
       style="stroke-linecap:butt;stroke-linejoin:round" /><path
       d="m 269.68875,90.103085 h 9.82607 9.82606"
       style="fill:none;stroke:#32cd32;stroke-width:2.83465;stroke-linecap:square;stroke-linejoin:round;stroke-dasharray:none"
       id="path339-6-6" /><use
       xlink:href="#DejaVuSans-6f"
       id="use345-1-3"
       transform="matrix(0.09826067,0,0,-0.09826067,297.20174,93.54221)"
       style="stroke-linecap:butt;stroke-linejoin:round" /><use
       xlink:href="#DejaVuSans-67"
       x="61.181641"
       id="use347-0-9"
       transform="matrix(0.09826067,0,0,-0.09826067,297.20174,93.54221)"
       style="stroke-linecap:butt;stroke-linejoin:round" /><use
       xlink:href="#DejaVuSans-61"
       x="124.6582"
       id="use349-6-4"
       transform="matrix(0.09826067,0,0,-0.09826067,297.20174,93.54221)"
       style="stroke-linecap:butt;stroke-linejoin:round" /><use
       xlink:href="#DejaVuSans-31"
       x="185.9375"
       id="use351-1-8"
       transform="matrix(0.09826067,0,0,-0.09826067,297.20174,93.54221)"
       style="stroke-linecap:butt;stroke-linejoin:round" /><path
       d="m 332.72077,75.680262 h 9.82607 9.82607"
       style="fill:none;stroke:#000000;stroke-width:5.66929;stroke-linecap:square;stroke-linejoin:round;stroke-dasharray:none"
       id="path356-5-1" /><use
       xlink:href="#DejaVuSans-74"
       id="use362-9-2"
       transform="matrix(0.09826067,0,0,-0.09826067,360.23377,76.893841)"
       style="stroke-linecap:butt;stroke-linejoin:round" /><use
       xlink:href="#DejaVuSans-68"
       x="39.208984"
       id="use364-4-9"
       transform="matrix(0.09826067,0,0,-0.09826067,360.23377,76.893841)"
       style="stroke-linecap:butt;stroke-linejoin:round" /><use
       xlink:href="#DejaVuSans-69"
       x="102.58789"
       id="use366-9-3"
       transform="matrix(0.09826067,0,0,-0.09826067,360.23377,76.893841)"
       style="stroke-linecap:butt;stroke-linejoin:round" /><use
       xlink:href="#DejaVuSans-73"
       x="130.37109"
       id="use368-0-9"
       transform="matrix(0.09826067,0,0,-0.09826067,360.23377,76.893841)"
       style="stroke-linecap:butt;stroke-linejoin:round" /><use
       xlink:href="#DejaVuSans-73"
       id="use375-9-0"
       transform="matrix(0.09826067,0,0,-0.09826067,360.23377,87.896887)"
       style="stroke-linecap:butt;stroke-linejoin:round" /><use
       xlink:href="#DejaVuSans-74"
       x="52.099609"
       id="use377-1-8"
       transform="matrix(0.09826067,0,0,-0.09826067,360.23377,87.896887)"
       style="stroke-linecap:butt;stroke-linejoin:round" /><use
       xlink:href="#DejaVuSans-75"
       x="91.308594"
       id="use379-7-8"
       transform="matrix(0.09826067,0,0,-0.09826067,360.23377,87.896887)"
       style="stroke-linecap:butt;stroke-linejoin:round" /><use
       xlink:href="#DejaVuSans-64"
       x="154.6875"
       id="use381-7-5"
       transform="matrix(0.09826067,0,0,-0.09826067,360.23377,87.896887)"
       style="stroke-linecap:butt;stroke-linejoin:round" /><use
       xlink:href="#DejaVuSans-79"
       x="218.16406"
       id="use383-1-0"
       transform="matrix(0.09826067,0,0,-0.09826067,360.23377,87.896887)"
       style="stroke-linecap:butt;stroke-linejoin:round" /><path
       style="fill:none;stroke:#d40000;stroke-width:4.25197;stroke-linecap:butt;stroke-linejoin:round;stroke-dasharray:none"
       d="m 394.40708,75.629722 h 23.75469"
       id="path5225-1-9"
       sodipodi:nodetypes="cc" /><text
       xml:space="preserve"
       transform="matrix(0.88443121,0,0,0.88443121,-241.09236,54.108682)"
       id="text5243-5-6"
       style="font-size:10.6667px;font-family:sans-serif;-inkscape-font-specification:'sans-serif, Normal';white-space:pre;shape-inside:url(#rect5245-8-9);display:inline;fill:#000000;stroke:none;stroke-width:2.84533;stroke-linecap:butt;stroke-linejoin:round;stroke-dasharray:none"><tspan
         x="753.24219"
         y="25.265655"
         id="tspan22342">analytical </tspan><tspan
         x="753.24219"
         y="38.599031"
         id="tspan22344">solution</tspan></text></g></svg>
