X,Y,surf vx,surf vy,tauxy integr. above,tauxy dir. above,secinvare integr. above,secinvar dir. above,tauxy integr. below,tauxy dir. below,secinvare integr. below,secinvar dir. below,P integr.,P dir.,
0.0,1000.0,30.6384654535,10.1000018152,74434.7213764,18493.4135598,80112.0241397,59403.7706748,-492879.467195,-217428.023781,659235.401491,245903.231261,8605735.72971,8605675.42263
80.0,1012.56504772,30.0124847108,9.94853897718,72318.9574604,102587.603096,80839.6017818,107817.844685,-150292.426411,-85036.1103286,638026.308597,101505.830304,8717645.44379,8717680.54843
160.0,1025.12215909,29.3633298362,9.89104043307,60015.222056,87291.1581338,79252.2171741,97856.2026902,80712.8378984,-28969.1158346,435487.725949,45035.1150093,8739283.58316,8739208.86348
240.0,1037.66340276,28.7265453993,9.70885672244,79519.5021105,83652.3794511,81937.2184031,87469.6441756,403740.947884,569232.150971,634874.935105,695828.3135,8509849.66725,8509753.54865
320.0,1050.18085743,28.0669351255,9.62301125721,72865.7155831,58528.6640189,75811.8986696,62309.712378,-79916.5344556,-526667.405085,838463.327104,1075831.80783,8279261.36632,8279276.70936
400.0,1062.66661678,27.4190266833,9.41166039139,72357.3219757,57316.6829255,76585.351763,59471.5548559,-268766.517715,-120458.374636,470088.234421,303715.821616,7919140.99279,7919181.99012
480.0,1075.11279456,26.7455664246,9.29933452117,71295.8331136,95450.2951908,78403.6309067,99369.2992404,-111464.255417,-112042.334298,519422.82274,340904.382061,8045540.44865,8045529.88025
560.0,1087.51152949,26.0820389393,9.06605217143,63335.4069717,95166.6543584,75546.410924,100829.19341,19971.0815181,-352887.583953,366251.817156,360822.279411,8217291.24964,8217223.63255
640.0,1099.85499026,25.394042287,8.93316266337,51526.9093441,78203.5608743,69858.3843757,89667.3240926,321768.512794,557081.427281,462084.585483,643477.258506,8145513.81368,8145424.37293
720.0,1112.13538047,24.7174449534,8.68458294843,105125.278331,79108.6701823,112541.754339,79880.6064271,237493.607622,444436.066787,675486.494899,1031606.203,7812947.91589,7812946.44441
800.0,1124.34494358,24.0217821443,8.53243378622,67665.7659826,71448.9431258,71464.1391946,76438.9683329,-198566.880545,-182293.222501,611513.935613,634123.154654,7659349.21884,7659345.38401
880.0,1136.47596776,23.3402239651,8.26922853941,71022.0768543,77840.9287349,74462.2767601,79393.6868966,-177139.50317,422587.831895,544544.372692,464046.19975,7392633.93302,7392595.41641
960.0,1148.52079079,22.6412113237,8.09741628612,67455.5681051,70441.8172831,71207.5169985,75240.3494373,182204.197913,764430.467863,633318.532358,992197.895819,7492335.67837,7492333.25486
1040.0,1160.4718049,21.955188828,7.82521789821,67341.7601691,67004.0121359,71361.4691344,71568.3544078,5977.02550787,-274024.751274,435597.819082,467436.594271,7357203.40683,7357173.81932
1120.0,1172.32146159,21.2553090857,7.64013991043,64285.774642,79719.2529332,68545.0290588,82561.3847928,85504.1729424,196352.771785,269819.052135,581331.393379,7381266.42227,7381253.89908
1200.0,1184.06227634,20.5717731449,7.36586621584,62828.057819,72225.2945055,67214.6409747,78199.2514916,82507.2973372,63187.629852,215985.685862,190921.916372,7072129.81912,7072107.02817
1280.0,1195.68683342,19.8787729944,7.16876043729,66906.5780953,74917.731055,69860.6610259,75915.384563,155575.348454,361195.053021,289571.341803,453301.012251,7014788.35347,7014761.03052
1360.0,1207.1877905,19.2052691899,6.8894493955,64386.2137433,69970.8308224,67660.82337,74196.0117822,70427.6665857,-153740.943719,326029.452907,533401.602904,6902972.49455,6902963.02024
1440.0,1218.55788333,18.528319753,6.67806357532,68010.9247492,65716.704934,70295.7764887,68188.6349743,42331.1776587,248305.955488,286794.152261,470607.339864,6917640.98634,6917599.23278
1520.0,1229.78993031,17.8709417763,6.39389904816,64014.6424602,67761.6910631,67160.144569,71096.288201,133384.210359,220401.131712,325322.419983,289394.538609,6711168.02585,6711164.9446
1600.0,1240.87683705,17.2117238804,6.17189027777,62645.3401847,62863.8128309,66527.521823,67734.1601285,76954.0458651,106725.608085,266052.793637,204797.243419,6553762.94274,6553741.90834
1680.0,1251.81160082,16.5701096244,5.88853235019,113122.569029,75585.927599,121089.11063,77670.2890033,122320.183592,110424.649351,378631.705447,207811.123001,6558105.887,6558092.20871
1760.0,1262.58731498,15.9311541682,5.66133501032,57898.3997971,67414.7275027,62057.9168441,73179.4290668,161755.519352,220729.577726,372179.535832,519662.027744,6541262.90462,6541232.56124
1840.0,1273.19717337,15.3072705076,5.38453100193,59149.6451256,70501.6562461,61369.0671997,71247.308763,154271.085883,431851.507586,388543.452308,506540.731697,6370724.54207,6370718.83211
1920.0,1283.63447456,14.6898284431,5.15760322964,59220.5008298,63621.7036926,62150.1577127,67718.8248724,161513.169211,66176.9506181,402286.04509,538335.140445,6194641.55436,6194630.31201
2000.0,1293.89262615,14.0893688005,4.89376954909,58621.7130786,70730.3298781,60982.1880365,71710.9590977,19949.2360977,140738.879321,480873.873841,411143.940336,6137905.03413,6137892.61796
2080.0,1303.96514885,13.4959862323,4.67558592959,57977.1526186,66470.4521764,61052.3780775,70555.0636056,275593.633424,274360.266901,596804.103074,823936.900192,6173306.84767,6173279.92465
2160.0,1313.84568065,12.9262168964,4.42451284266,58180.0987506,62949.6970686,59627.6988217,64267.8475984,24173.9550825,173791.694368,527601.488174,427928.52462,5950942.25486,5950941.54824
2240.0,1323.52798078,12.3701183619,4.21326641634,61372.9280793,59366.6069406,63083.7470151,60578.6352507,274141.712682,109368.981803,669139.234002,796346.722791,5835477.2706,5835468.92095
2320.0,1333.00593372,11.8375435492,3.97138098381,58868.3382336,60897.5862792,60966.7184,64206.0369027,22931.8878224,-68536.1601211,527510.555393,432129.470989,5720158.35441,5720153.46224
2400.0,1342.27355296,11.3217799491,3.76478073379,60374.0390771,58154.9530194,62525.7160036,60112.4471947,238888.598341,335825.495109,663590.805624,709023.517986,5810392.28189,5810374.80879
2480.0,1351.3249849,10.8273234655,3.53284227267,57164.9171351,60659.4293288,59566.1715965,64279.3646663,140186.2773,-193904.937394,582791.396928,581158.969497,5605499.87044,5605497.3761
2560.0,1360.15451244,10.3477804769,3.33440788111,60070.3622006,56624.8282889,61869.4839542,58267.7393075,196593.063632,371037.766546,620170.290579,586653.216983,5486042.60114,5486023.72743
2640.0,1368.75655868,9.8906635876,3.11712648752,55779.7846728,62546.4370799,58116.7650387,65559.2398129,173202.043294,17727.4561284,627737.17182,435660.878395,5500073.36643,5500058.95044
2720.0,1377.12569037,9.44817182478,2.93195314659,57132.3836398,58981.4256018,58167.5609844,60070.3038627,199995.717572,430062.066144,629099.477642,746777.386403,5439105.19474,5439091.66896
2800.0,1385.25662139,9.02933490247,2.73168153789,57639.3772436,54911.2880234,58800.7471005,55692.5209821,150068.733312,29676.3579529,616016.672989,695107.308689,5266035.71542,5266033.38889
2880.0,1393.14421607,8.62700817213,2.55947733584,55519.7153473,59929.3580187,57234.5249708,62200.1417632,90887.8568694,71290.3285762,691997.930139,722311.455607,5238264.94268,5238259.6728
2960.0,1400.78349244,8.24839127626,2.3757264682,58428.9905116,59590.6945673,59219.077422,60647.9557725,219525.735446,233399.847571,761124.754353,791647.617938,5248587.79077,5248569.1211
3040.0,1408.16962536,7.88855256601,2.21752541163,55728.2051469,53004.5139227,56810.2027413,53731.9859351,170398.583704,84816.5218478,693024.807467,649207.115769,5096277.5484,5096276.40537
3120.0,1415.2979496,7.55177738354,2.04770544543,54578.5598419,58603.4610164,56078.0458322,60666.9971066,136219.440331,101139.361148,752793.545631,694726.423764,4994978.64046,4994972.37429
3200.0,1422.16396275,7.23337555601,1.90314383778,56878.1800896,58033.2832368,57535.3149014,58890.0784388,187965.408562,212743.62085,781796.581237,786855.770837,5067564.91175,5067550.82419
3280.0,1428.7633281,6.93734935395,1.74633844112,54346.2905206,51740.7088544,55231.0551787,52373.2780167,177239.502185,164074.789814,772848.493242,810959.228301,4894268.95316,4894268.74993
3360.0,1435.09187733,6.66119764053,1.61362471609,53290.0805155,57422.8882977,54581.2726823,59110.0859541,146287.683328,86514.2682713,800378.241647,721322.982265,4844829.93345,4844824.42408
3440.0,1441.14561322,6.40552719666,1.46719395882,55644.0808385,56721.5857074,56218.1868941,57534.5768215,186958.74731,240856.280289,829491.312084,872472.736577,4889459.26537,4889442.67526
3520.0,1446.92071208,6.17026892901,1.3445524969,53381.4423316,50770.9674887,54303.5256353,51333.5499816,172065.397109,142379.21932,821040.429157,784739.92159,4739936.08263,4739936.91116
3600.0,1452.41352623,5.95004609417,1.2077504959,51229.7577827,56238.9035296,52569.4967657,58165.9702555,145075.013901,57023.7256171,846055.678121,804205.569713,4699287.5645,4699279.44252
3680.0,1457.62058631,5.74666075079,1.10094013805,51734.9763456,55594.3937538,52301.741961,55979.488553,201180.122798,403912.315134,860242.487846,897879.252576,4744517.65097,4744510.89981
3760.0,1462.53860342,5.55851400804,0.979647894625,54129.7884245,53048.9176827,54362.967853,53335.7363636,144212.019527,-10462.3427322,835564.375962,944968.157153,4522446.14129,4522441.6391
3840.0,1467.16447123,5.39004199549,0.889020985439,52962.3947482,54344.8545908,53116.5444995,54500.1317527,86755.265738,63339.6422368,868868.961829,749060.685157,4650851.30682,4650845.67862
3920.0,1471.49526795,5.23933074877,0.777680682912,51095.4822022,48940.1899262,51658.402669,49270.0956772,153422.198547,160151.239037,922307.571861,964650.978736,4521383.58729,4521384.47848
4000.0,1475.52825815,5.1072144399,0.695555360634,50848.9623291,54682.0283681,51702.6159914,56004.0031007,113170.371634,32806.718707,917470.992374,845534.708376,4473314.18012,4473310.7552
4080.0,1479.26089451,4.98709532488,0.592790904936,51752.1525006,54575.872233,52109.7621895,54830.6105551,172144.172576,258303.734165,922357.533519,960283.301258,4504141.13252,4504133.03567
4160.0,1482.69081942,4.88075956493,0.52339556697,53307.8749756,52744.9032962,53400.0342082,52857.0974962,114132.016276,80873.4674928,891420.197849,908754.340684,4334351.89343,4334347.16965
4240.0,1485.81586646,4.78642805267,0.435661053542,52570.1115611,52490.6046969,52630.9365697,52549.6550584,91509.6397243,41062.4502582,936262.797344,902069.497078,4438635.79204,4438631.77491
4320.0,1488.63406178,4.7052429153,0.381128928475,51965.0551446,51827.5211182,52015.5861141,51891.3475941,127797.813041,117413.956612,946750.399979,986619.168872,4363448.94235,4363447.24935
4400.0,1491.14362536,4.63657445034,0.309571533018,51645.6945022,51865.3643212,51685.7577828,51894.8678053,102084.227657,93252.0699399,938653.07893,876407.186863,4350338.32357,4350337.27143
4480.0,1493.3429721,4.58086873338,0.267252572005,51265.0210311,51345.419883,51300.1692795,51394.5353569,101042.503426,92701.6906947,947366.233211,986387.61354,4378203.43097,4378202.75691
4560.0,1495.23071285,4.53752662142,0.210136284582,51090.3123661,51529.2182444,51116.6695326,51544.3059045,92794.5168,86241.1712115,951802.404899,901282.760378,4281146.45306,4281145.66017
4640.0,1496.80565526,4.50568749422,0.174939011681,50829.155304,51067.7566026,50852.0143681,51103.0057906,87803.7284794,80951.2147349,953576.141645,977753.98311,4383602.60301,4383601.64932
4720.0,1498.06680457,4.48529736395,0.12697424516,50735.3314232,51318.3741977,50749.5221044,51324.4662046,79702.6234762,75005.2071693,956140.26185,910326.908361,4232408.36259,4232407.15224
4800.0,1499.01336421,4.47163402279,0.0948124509734,50576.662103,50893.7693351,50588.101544,50913.5795655,72979.1766798,66772.8088793,957062.943876,977686.31795,4382382.75751,4382381.541
4880.0,1499.64473632,4.46285466874,0.0531538204243,50562.8269424,51212.0343481,50566.8614958,51213.1077966,65706.6800747,63842.7019231,958319.711843,913905.248691,4205842.05474,4205840.99233
4960.0,1499.9605221,4.45782122905,0.0212690210471,50497.4376398,50872.361779,50501.3627982,50878.2233412,59245.4190498,54732.8044575,958918.913304,981085.364787,4377020.96931,4377020.58683
5040.0,1499.9605221,4.45811822479,-0.0176166069703,50534.2971057,51212.9115291,50535.7306306,51215.3705981,53577.7094036,52481.3564535,956319.368626,912315.785837,4201579.71914,4201580.14874
5120.0,1499.64473632,4.46240992129,-0.0505786518131,50525.1554619,50890.4092323,50530.2388375,50891.9837394,46206.5636564,43219.5911172,955907.846113,979837.63067,4368589.26201,4368590.14494
5200.0,1499.01336421,4.47159357241,-0.0897819951333,50622.2062087,51220.7834182,50629.8526914,51231.1650888,40852.0818939,39143.1166179,950808.94074,904387.928021,4220505.41218,4220506.53624
5280.0,1498.06680457,4.48462172293,-0.126127152036,50688.5037387,51006.5480572,50702.2202875,51013.7466081,34194.7028911,37091.6404538,948578.016095,980246.942647,4361037.80275,4361038.83752
5360.0,1496.80565526,4.50500845922,-0.168692145901,50874.5528216,51353.8682893,50893.8028994,51375.6145255,30081.0269472,21070.9056196,940059.896743,887069.893238,4262553.1559,4262554.10876
5440.0,1495.23071285,4.53602763834,-0.210617608552,51039.5718826,51252.7021579,51065.4203781,51271.4876723,18742.5445979,32534.4992915,936971.546082,976897.332335,4356337.45249,4356338.15194
5520.0,1493.3429721,4.5788207464,-0.259463035316,51316.9338987,51608.8122426,51349.1895583,51642.5103472,21415.0967808,153.826184195,925045.869983,872504.076686,4328178.09396,4328179.38406
5600.0,1491.14362536,4.63414792354,-0.311326232895,51592.3960842,51636.3568844,51631.9567006,51669.4908697,255.45814266,30891.904801,924885.036254,962468.764599,4357708.36404,4357708.54002
5680.0,1488.63406178,4.70193321845,-0.372063801546,52011.7548884,52040.373156,52060.805487,52088.8121067,23938.7013338,8612.67622367,894155.316976,899999.91252,4418493.90787,4418499.33627
5760.0,1485.81586646,4.78312580187,-0.437984190634,52517.5053808,52308.7453423,52578.9538296,52366.2862879,-57224.3473873,-202102.017994,894946.571285,957653.36454,4369216.9152,4369219.39724
5840.0,1482.69081942,4.87617717992,-0.513491483634,53330.9431178,52898.0417258,53420.2842023,52978.6758796,-32896.5683154,-26231.9217508,960765.759416,825738.838039,4536678.8097,4536691.00952
5920.0,1479.26089451,4.98290341288,-0.595317581307,51726.8437656,54964.4958075,52076.7524542,55050.6051272,63652.0480001,198537.926488,902830.99037,947447.055983,4424067.49052,4424072.66515
6000.0,1475.52825815,5.10085381494,-0.685043615046,50810.1060657,54577.6679974,51689.9108427,55672.5951244,-27223.5533771,-107020.922081,855208.548937,895776.070226,4541378.39362,4541381.22032
6080.0,1471.49526795,5.23373205189,-0.779803137091,51046.8863369,48199.3324111,51653.3000069,49514.3386044,3697.96749333,33967.8184729,836571.57458,837831.669446,4532419.39914,4532424.74389
6160.0,1467.16447123,5.38195584518,-0.878880796943,52912.8019098,54537.2909301,53074.0250736,54545.2489118,-70618.9074214,-180481.756804,832728.186851,859309.826291,4541510.03038,4541514.3225
6240.0,1462.53860342,5.55101900831,-0.980989396746,54159.1461639,53052.9854127,54398.8020164,53462.7946106,-46703.6690078,-40470.1489311,889617.737972,771569.074316,4670996.98836,4671014.34869
6320.0,1457.62058631,5.73622009809,-1.09056823296,51633.8407692,55904.0796042,52207.9552662,56031.2784496,44829.2060967,167049.463218,822583.099378,863660.79954,4622580.43237,4622585.13871
6400.0,1452.41352623,5.9410523769,-1.20749104548,51249.5998577,56272.5967367,52570.7625424,57741.5894256,-54635.1206889,-128745.056963,778159.517468,768980.4044,4699616.71077,4699621.37639
6480.0,1446.92071208,6.15775805371,-1.3338076325,53273.7353237,49598.7011395,54187.4007057,51586.6393815,-22345.6410751,-12915.3677881,799335.850077,785095.853349,4770432.09169,4770443.1459
6560.0,1441.14561322,6.39405047402,-1.46565188252,55722.7899308,57683.2672224,56243.335035,57815.8472396,5232.52069079,47782.9569572,738435.494156,750057.924242,4746977.55484,4746996.00282
6640.0,1435.09187733,6.64642358512,-1.60251023526,53131.9448232,57454.2157157,54517.8559846,59201.2738836,-67569.9256331,-109028.125803,727758.161916,725083.391731,4876462.01653,4876466.02436
6720.0,1428.7633281,6.92284451274,-1.74357775822,54170.7179696,50359.6554305,55171.9010154,52308.650675,-26577.0656251,-9202.95098197,742001.042778,775140.949128,4923700.46511,4923711.56131
6800.0,1422.16396275,7.21556186494,-1.89147604153,56821.7463556,59119.4017687,57460.7812979,59318.7498719,-2718.23260793,15026.1999055,680008.278941,683551.867735,4945353.42724,4945375.42958
6880.0,1415.2979496,7.53289499069,-2.0444767316,54503.5070367,58624.0123812,56051.3395924,60588.682398,-65035.6605203,-84920.5580947,664297.776836,650513.859286,5056817.70046,5056821.84831
6960.0,1408.16962536,7.86732827881,-2.20451359382,55571.7732335,51546.0946906,56704.9238688,53713.166832,-27877.9779743,-50159.4126291,680059.792484,709585.124762,5103988.29888,5104004.15818
7040.0,1400.78349244,8.22548814806,-2.37044415044,58435.3501578,60739.6402565,59179.5518683,60992.2325806,6528.92217001,18733.2294569,600525.795492,631309.581753,5126630.39791,5126652.57452
7120.0,1393.14421607,8.6014996189,-2.54400517157,55353.1388505,60355.6822874,57157.1411444,62504.1238004,-94950.8868685,-140664.435286,604717.505459,527935.531029,5231252.0664,5231256.90658
7200.0,1385.25662139,9.00137291781,-2.72448618208,57431.8734946,52960.4407623,58716.0467705,55537.1978426,-30938.0961702,-33031.6064766,633317.39114,552042.763865,5312172.56635,5312200.73083
7280.0,1377.12569037,9.41700991231,-2.91324817822,57212.9647775,59869.4824025,58665.474156,60071.8665857,6407.71855344,129335.604158,575270.490375,572595.570994,5376988.5323,5376995.90664
7360.0,1368.75655868,9.85612027176,-3.10961579618,55673.5472473,62719.0078542,58058.2558324,65117.3338606,-20072.1854898,-90444.6808929,543983.542637,697910.054026,5408432.84985,5408451.68904
7440.0,1360.15451244,10.3114870154,-3.31160861573,59964.1671304,55608.3834444,61815.0836994,59292.0484317,1816.66926392,46272.2086391,503444.388495,600780.455492,5526363.07571,5526386.49587
7520.0,1351.3249849,10.7852828057,-3.52139479794,57385.8277779,60441.0389196,59633.5165426,62638.7381761,-26462.7035888,-167966.696446,509452.905828,500650.756988,5612559.68943,5612569.24277
7600.0,1342.27355296,11.2756804144,-3.73640719678,60503.6868578,58147.1140319,62492.4741062,61568.0639778,51490.7092426,44291.3099364,432187.910159,434349.061719,5642614.30902,5642647.45495
7680.0,1333.00593372,11.7871441476,-3.95755987826,58804.5848105,61382.3729363,60933.2365345,63656.7399617,-115170.164059,-259900.642883,480817.043028,375772.459393,5795018.23906,5795023.31819
7760.0,1323.52798078,12.3149037435,-4.17881531078,61359.830661,57826.7043388,63055.4811891,60947.1151848,30628.5267707,127304.062873,458142.596164,369578.560073,5851318.20152,5851356.14994
7840.0,1313.84568065,12.8643665193,-4.40795184766,57998.5995301,64026.9066965,59453.0381035,64382.8982491,-29359.9291136,14581.3904449,483901.742109,295581.227166,5952036.6842,5952041.70015
7920.0,1303.96514885,13.4297069535,-4.63438116055,57893.6738873,67310.8662023,60965.8424453,70137.5387872,80833.9154528,178298.566509,420581.14028,392415.868123,5952687.16615,5952726.39124
8000.0,1293.89262615,14.0139156639,-4.87316759546,68846.8225818,70172.7640168,71829.5932469,71885.2958022,-19171.8350748,88354.1980365,349199.368172,234665.838163,6063439.33012,6063444.16458
8080.0,1283.63447456,14.6082337793,-5.10977841001,58687.0967596,65612.2031863,61864.0588879,68400.9799629,5626.75395475,135589.251148,394529.982495,319379.509236,6206047.93558,6206087.65437
8160.0,1273.19717337,15.2160924799,-5.3604629323,83338.022973,71303.5074183,87426.7152643,72998.5526453,127484.984152,280076.234676,327066.001016,485018.599126,6240031.48175,6240037.75412
8240.0,1262.58731498,15.8312982883,-5.60537689924,58820.9291978,68830.7328711,63344.139756,72238.4772681,66982.2616138,91758.4287063,241796.923502,305898.993589,6345622.52879,6345662.8822
8320.0,1251.81160082,16.4592190437,-5.86069130498,62303.9811818,71265.060318,66252.313059,75389.3491215,55834.5758031,9952.96996916,212834.751425,176246.422449,6411664.21979,6411672.57401
8400.0,1240.87683705,17.0954929534,-6.10571364899,65974.9203697,59642.432821,68460.0665924,64097.7927517,36768.8225764,8388.962214,208093.540697,261245.606816,6628768.30168,6628809.10578
8480.0,1229.78993031,17.7433805059,-6.35613156413,63837.8982404,67051.9050423,66940.5685017,70132.056783,99314.2845296,168280.585956,212721.934662,213138.892175,6709067.09973,6709085.53411
8560.0,1218.55788333,18.3995142715,-6.59401694423,68066.1430667,65162.5058171,70752.913537,69555.5946502,37145.4657056,76024.4571012,233623.468303,142759.082043,6738662.73931,6738694.62159
8640.0,1207.1877905,19.0713556244,-6.83618029584,64019.7165833,69131.6186192,67376.9475887,72401.3964815,109238.947721,324665.878749,287397.664931,590962.868785,6875724.05339,6875755.8787
8720.0,1195.68683342,19.746581201,-7.06604718349,66821.4457683,75236.0448746,69747.5286441,77660.5771538,54079.1438152,138662.676787,251906.010788,164115.016433,6969889.5348,6969900.13222
8800.0,1184.06227634,20.4354492149,-7.30007378081,63965.9483786,70375.9672,67633.2615702,73763.8628822,98352.2074961,415050.047669,288780.120903,503105.795889,7080814.48732,7080858.55172
8880.0,1172.32146159,21.1232252201,-7.52568300564,90720.4209941,77051.4150884,95626.388023,79147.3753924,169817.603256,241700.093396,261585.39138,332883.24947,7131346.39053,7131352.62912
8960.0,1160.4718049,21.8197485582,-7.75615614795,62859.0822365,74025.2826769,68117.4868545,78056.1327303,157133.289338,216663.567706,276614.695078,224009.20719,7264035.26163,7264080.39855
9040.0,1148.52079079,22.5111608562,-7.97498283115,66288.4114786,77138.1265301,70801.4705664,81643.3327255,189797.799761,307513.394275,353528.474885,353485.694055,7306828.38079,7306851.46823
9120.0,1136.47596776,23.2058157431,-8.19628225931,70093.793069,77877.1765838,73096.7893211,80734.4478227,79401.4968953,157911.224805,263910.529207,283706.568273,7517777.17553,7517798.43183
9200.0,1124.34494358,23.8956578008,-8.40680725207,66800.9608423,72315.8693712,70602.4486133,75944.392216,80927.2041948,256404.751328,313345.340541,475665.815535,7642338.5287,7642384.26949
9280.0,1112.13538047,24.5862950496,-8.61417145641,79612.918019,79408.828071,83600.5973516,81687.3400543,283144.630838,506052.674814,408582.7188,593737.786514,7695418.02869,7695424.05175
9360.0,1099.85499026,25.2712859958,-8.80942348288,65068.1587777,76767.2022638,70678.1286411,81057.0471725,173746.915276,343033.461333,362799.37771,373177.045268,7789818.31784,7789862.96139
9440.0,1087.51152949,25.956440382,-8.99879076273,68629.8359799,80006.5036733,73405.6350194,84688.7533815,143951.204534,-106152.898339,335331.258607,290299.872602,7838763.05631,7838789.18144
9520.0,1075.11279456,26.6337855167,-9.17617172711,72243.8247656,80730.4821693,75570.7209165,83539.5464389,293220.549744,277059.471356,399769.002819,290581.490407,8036200.79231,8036215.15988
9600.0,1062.66661678,27.3091720774,-9.34654631572,67724.6938013,77174.2464724,73040.5371041,81573.2367981,195974.910692,144090.424674,382547.280136,272695.607441,8177500.00498,8177551.63123
9680.0,1050.18085743,27.9745644616,-9.50541581359,70653.0423834,80706.7511595,75587.382663,85945.2585834,245632.375494,407724.412285,503823.559053,465212.630194,8225328.90947,8225339.52995
9760.0,1037.66340276,28.6339543272,-9.6556941111,74840.1808818,67141.0190423,78073.7066399,72940.1944983,126081.827148,215387.874519,407277.890522,477566.634987,8430713.21722,8430752.86444
9840.0,1025.12215909,29.2837396498,-9.79248067679,70953.7235339,75457.962062,74935.5871039,79374.6706404,197148.745006,99474.3618399,480372.08067,487465.421125,8527931.2752,8527971.7018
9920.0,1012.56504772,29.9275485657,-9.91784296359,81944.2128115,83186.3427706,86016.8607124,85809.1967476,339003.077074,429641.936237,555522.247705,566742.801329,8567526.1387,8567531.44662
10000.0,1000.0,30.5612198065,-10.0300875635,68686.2428365,80157.3795086,74464.685682,84722.8629556,281495.441475,450722.923471,571699.092192,497787.073092,8694406.57911,8694456.59198
10080.0,987.434952278,31.1854163922,-10.1310578656,72123.4387917,83644.2487247,77143.5681985,88698.7581763,201762.65953,-99090.6925149,484798.744735,399820.223232,8735954.25821,8735977.06045
10160.0,974.87784091,31.7974884921,-10.2205025023,75924.1121135,84328.3900686,79357.6005201,87397.2908695,354311.936949,336003.751437,553074.796011,417922.940173,8940548.29347,8940569.32793
10240.0,962.336597236,32.3984096367,-10.299287404,70893.7342192,80402.7503231,76350.498761,84976.8225973,264068.763535,270370.617769,562725.996055,535257.70642,9084611.69719,9084665.19918
10320.0,949.819142574,32.9849999356,-10.3651953378,73797.2560838,84084.5856194,78892.0596996,89591.8201872,315126.427223,361461.483338,678571.308181,486205.367952,9124050.47948,9124059.49415
10400.0,937.333383218,33.5598833233,-10.4203489424,77760.5936963,69691.4598868,81067.8218622,75565.0323476,213113.575819,382720.82826,621524.264091,662652.933485,9310352.18505,9310394.7398
10480.0,924.88720544,34.1181206672,-10.4605029491,73927.9409909,78221.3478357,77951.1719865,82200.4632078,187043.416189,-61878.2144382,518019.20186,393771.465609,9428399.57723,9428439.29936
10560.0,912.488470512,34.6644617925,-10.4899618441,75787.8192675,86100.6932242,79267.0364048,88880.6446308,421741.922487,561751.60162,642421.813208,603358.604599,9466335.84149,9466342.55111
10640.0,900.145009743,35.1960719138,-10.5044237877,71633.1432368,82859.5434303,77298.0727333,87478.2050602,321540.624381,393519.607829,666752.540333,641040.212209,9589374.64445,9589428.40062
10720.0,887.864619525,35.7158267509,-10.5072779034,74931.5773493,86524.8022329,79956.2849437,91810.0081818,342985.375817,379819.421256,763109.86463,553736.450282,9633492.39606,9633510.21731
10800.0,875.655056418,36.2174322096,-10.4971914996,79572.1320875,70859.8451819,82816.7344761,76912.4949772,235821.65078,358400.319571,690061.542037,697520.721666,9870163.0046,9870199.69589
10880.0,863.524032241,36.7061007265,-10.4755102088,74947.6906078,79898.8769532,78962.8237607,83838.6856164,216241.049919,12157.4018,583647.713049,415588.820424,9980218.90351,9980266.60146
10960.0,851.479209211,37.1771136594,-10.4420713254,76461.0167787,87822.9128545,79886.8824256,90504.08504,431232.315828,563890.52656,694177.175502,633506.624032,10016428.8178,10016433.9831
11040.0,839.528195096,37.6336885426,-10.3968982752,72800.3540983,84539.294652,78424.2854741,89054.0312911,339147.450336,414638.619075,718017.590583,675132.5114,10132275.1894,10132326.7891
11120.0,827.678538413,38.0710040271,-10.3408331865,76370.2011905,88108.2104761,81308.1631382,93343.36598,363193.388755,469723.473158,849995.507607,662541.963003,10169094.9615,10169113.3241
11200.0,815.937723658,38.4961608558,-10.2715753273,80807.0045418,72070.8305721,83939.7391396,77867.2472581,211913.52523,250779.490888,679906.009884,676030.800331,10390221.2958,10390258.1883
11280.0,804.313166581,38.9013515703,-10.1927522709,76782.6086564,81142.469353,80608.7875769,84923.3861487,285239.665127,218778.242664,637182.956552,447950.727154,10516640.1478,10516681.3635
11360.0,792.812209503,39.2934913886,-10.1006976057,86220.0760389,88976.4313692,89842.4187987,91781.0334541,425267.021234,545781.013656,730292.31712,662812.446722,10555410.3727,10555423.255
11440.0,781.442116675,39.665307383,-10.0008562572,75255.0753256,85407.2425371,80412.8920132,89736.600314,356472.576715,439857.132807,751737.346729,646582.733915,10667308.1423,10667361.2609
11520.0,770.210069689,40.0258368486,-9.88519738926,78667.3165217,88974.1171196,83433.5079244,94377.5791208,308252.534484,203301.671788,759944.463682,682064.821408,10705401.4255,10705407.3186
11600.0,759.123162949,40.3675453972,-9.7636284194,81297.2911378,73321.2114107,84207.3179681,78244.5448744,273570.944268,243203.239991,673054.117245,606767.621989,10904043.0215,10904092.5272
11680.0,748.188399182,40.6967603159,-9.62627308128,79713.2547343,81755.2280922,83104.3992325,85271.5852577,324811.18022,404534.73774,720935.151742,672920.712485,11045092.259,11045106.6379
11760.0,737.412685019,41.0078749961,-9.48509782616,82650.7816997,79710.0820056,85686.6080087,84482.6464001,286371.249665,412469.110769,685035.337269,733502.40318,11065996.1387,11066036.1341
11840.0,726.802826633,41.3074512529,-9.32688860734,79614.8679054,82939.8325135,82945.1789733,86429.0156206,322816.655235,328865.951505,726689.78989,541229.018755,11179144.9286,11179167.0861
11920.0,716.365525437,41.58988999,-9.16742204481,83399.5225731,79872.5414563,86268.6710272,84545.1666753,290621.818194,386944.882386,689519.136555,695214.007933,11226015.6567,11226051.0185
12000.0,706.107373854,41.8609955036,-8.99018946656,79686.4567126,83533.9956489,82994.1556405,86921.8846264,305494.609076,339810.36368,711651.03799,568125.624704,11391319.2849,11391345.6399
12080.0,696.034851153,42.115489638,-8.8146862882,83819.7026137,80161.4632408,86644.3452444,84896.3456977,277813.412954,440674.89447,675547.9934,735418.753645,11441530.4264,11441563.2349
12160.0,686.154319355,42.3582859314,-8.62142991222,80179.8797303,83725.2815843,83334.1759634,86981.1927579,294153.34355,245599.120075,669724.718188,473451.813894,11556348.0842,11556373.4145
12240.0,676.472019215,42.5863974427,-8.43159676537,84080.9094186,80680.3513582,86781.693677,85172.5097822,302738.419441,435079.783676,670325.002492,694354.671931,11575032.801,11575065.641
12320.0,666.994066283,42.8017791233,-8.22516901242,80985.9257521,84065.0231901,83965.4023432,87175.1441913,294954.005681,219956.85984,662412.77904,486910.589225,11755283.1485,11755302.614
12400.0,657.726447036,43.0029030772,-8.02390584056,84054.291932,80767.137155,86662.5929406,85090.2121139,292436.411763,460526.183322,691187.354912,682865.4646,11778606.3416,11778639.7798
12480.0,648.675015101,43.1913583179,-7.80631024046,82170.2219684,83891.7388179,84849.1370219,86758.1905505,247493.129212,-41806.1024597,619190.245445,484490.549566,11901103.9614,11901115.2581
12560.0,639.845487556,43.3671939809,-7.59390672666,83815.7717322,81134.1807531,86233.9158438,85073.7704739,391124.412125,260151.427816,770001.215161,511959.052893,11910653.8474,11910694.5974
12640.0,631.243441321,43.5314107561,-7.36627772857,83600.6737538,84237.3882836,85872.5991717,86872.4158425,123487.801357,132442.922647,711157.033155,1091559.49751,12122328.4384,12122341.2025
12720.0,622.874309632,43.6833730326,-7.14444442548,83346.787909,79244.235611,85325.5330295,82724.6444308,209272.148857,404324.56945,614691.775677,636645.199826,12079040.8045,12079078.0183
12800.0,614.743378612,43.8243144593,-6.90862502849,87144.6111322,90201.4773968,88277.9663553,90565.7318082,301466.152612,624424.100807,633980.713426,719442.270548,12189183.8773,12189208.7158
12880.0,606.855783932,43.9547612709,-6.67865620551,82694.3154927,89386.4143458,85292.4260995,92465.7842015,230808.176848,-67654.0959385,575512.042759,428265.728759,12236390.9135,12236407.172
12960.0,599.216507565,44.0743467981,-6.43634802902,84736.8656864,79873.6507976,86727.0396733,83476.0132396,302679.181845,209165.24734,641008.302349,504037.921078,12320611.9438,12320644.4054
13040.0,591.830374641,44.1841640264,-6.19957133404,85001.7672545,84797.548965,86864.1296699,87010.8814031,132030.719774,211879.929173,569739.101888,758063.797439,12420225.1875,12420241.6302
13120.0,584.702050402,44.2839409372,-5.9529822176,83653.3453999,80027.7901868,85324.6831284,82987.9025042,207529.942453,147013.915036,487435.180211,370784.944967,12441643.46,12441664.4269
13200.0,577.836037249,44.3748987592,-5.71093995324,87164.8650139,90317.6348362,88036.3993612,90572.4039746,312591.983548,370224.266211,610581.553613,480883.757504,12528100.7533,12528127.459
13280.0,571.236671903,44.4559250375,-5.46125564753,85534.1750726,89895.0286849,87418.3280138,92572.4422247,125286.551501,53534.5459076,528707.70928,668555.91376,12584311.8036,12584326.3645
13360.0,564.908122665,44.5296236485,-5.21527866414,84016.4238436,78147.9145642,85363.6942449,80643.6902629,213085.843886,325450.36724,491047.636463,428435.150396,12621462.7564,12621478.4289
13440.0,558.854386783,44.5944622277,-4.96335132508,87465.4702595,91620.9349117,88190.6349368,91797.5484508,237108.520393,427520.910739,525737.935318,524346.42435,12716002.8555,12716026.6439
13520.0,553.079287924,44.6525202059,-4.71404056445,86714.7995763,85386.0494201,88254.2670215,86843.155794,209337.901003,-26516.6588886,533232.661924,418771.597719,12718582.2553,12718602.248
13600.0,547.586473767,44.7026862923,-4.46063697763,83712.688585,78465.8430083,84765.677701,80392.9212392,131782.316521,265139.568919,497208.472971,785288.150427,12818515.505,12818521.6032
13680.0,542.37941369,44.7469386188,-4.20905656634,87056.5416884,90098.3569633,87429.848102,90152.410751,152053.71352,155408.889697,432707.410086,362404.348385,12829614.4489,12829635.8665
13760.0,537.461396583,44.7845303996,-3.95471331201,88310.6962582,87700.8427812,88947.131908,88605.8010828,229175.089347,363747.044874,474333.988425,428801.235675,12845453.2507,12845471.7596
13840.0,532.835528772,44.8166521598,-3.70185546718,87580.5025302,88499.2400386,88729.8148376,88922.0434891,150414.415663,-8241.99595682,443565.851575,434805.676182,13006513.0027,13006529.4749
13920.0,528.504732054,44.8434734863,-3.44698115907,84085.5652941,80263.8620005,84996.5206958,82018.4683724,145367.130975,247201.387625,392914.370534,481299.222309,12940635.2592,12940640.4556
14000.0,524.471741852,44.865210456,-3.19271056384,87166.1147782,89735.5384297,87418.6517233,89747.0149529,176936.150385,117024.805286,396913.902383,267419.003226,12992059.4776,12992064.6031
14080.0,520.739105491,44.8832099808,-2.93766668472,88093.1869644,88043.8696359,88535.5877619,88713.5135869,169138.880785,149367.523191,431913.284665,575125.412654,13028691.9756,13028710.588
14160.0,517.309180583,44.8984021665,-2.68375316599,87304.309913,88369.3650093,88080.4382763,88639.510055,109776.549244,40348.6682578,380184.981584,429918.237227,13063197.7978,13063211.8871
14240.0,514.184133543,44.9121674013,-2.42988393539,83531.9728298,81007.7011776,84153.4755522,81962.911864,137754.633141,192987.717389,350835.660903,360838.344113,13135571.0946,13135582.9173
14320.0,511.365938216,44.9244431725,-2.17588654829,86304.9876325,88994.1513937,86421.6435517,89008.3742711,125945.095463,89151.4457837,355293.197466,361465.426852,13078822.3541,13078829.3162
14400.0,508.856374636,44.9355109071,-1.92157434344,86456.016368,85582.9535296,86577.6121261,85861.1028546,124657.51134,155827.93337,340238.384166,350201.726646,13167798.9958,13167801.98
14480.0,506.657027896,44.9451740483,-1.66737169024,87084.5998816,87801.4177647,87140.2022941,87821.4333253,127082.155672,85202.9362066,339711.122748,329229.940323,13133599.8219,13133601.5029
14560.0,504.769287152,44.9537216612,-1.41276299559,87434.3952932,87388.2093437,87479.7941853,87462.010705,106805.537966,144013.460199,328964.902687,363139.809183,13181476.0441,13181477.2916
14640.0,503.19434474,44.9605740991,-1.15867039008,87747.134736,87886.1974593,87774.6403485,87905.1394087,130492.783813,100861.592987,348252.335711,277262.177152,13174009.1905,13174012.0811
14720.0,501.933195428,44.9665306551,-0.903815965309,88183.4810461,88285.6081822,88204.3323115,88314.2122436,71582.3943341,57322.9267654,339994.241286,514488.693397,13195386.9226,13195389.3181
14800.0,500.986635786,44.9704696474,-0.650064208015,88593.0467686,88477.3017474,88619.7636256,88488.7926447,84753.9542965,166352.71444,315438.025613,297598.555069,13200479.4839,13200482.5705
14880.0,500.35526368,44.9737373346,-0.394763446431,88824.7666958,90106.9028853,88940.9143879,90182.9323822,149547.776631,76165.1811215,337599.645351,349176.080578,13204565.5055,13204567.9902
14960.0,500.039477898,44.9748337924,-0.14131784292,85936.0791275,85564.0112679,86261.9014494,85660.7876716,92941.2269465,103817.280374,328447.782354,364911.617626,13217901.3583,13217902.2083
15040.0,500.039477898,44.9753564375,0.114537658198,82081.5554654,78319.2215923,82562.8683985,78491.4019048,100673.032136,74922.2919242,332839.879847,296726.188741,13206137.1149,13206135.4785
15120.0,500.35526368,44.9737391979,0.367517889691,87817.2014288,89770.5256635,88220.2584888,90024.7622589,41883.5890932,70844.9584847,309747.946197,441367.024608,13196827.1139,13196825.1996
15200.0,500.986635786,44.9715960608,0.623891594014,88994.6975386,89271.5889061,89064.4288984,89353.9959801,79107.760411,102618.423625,280480.079691,199724.135927,13210171.5902,13210168.6519
15280.0,501.933195428,44.9672067548,0.876229412166,88276.6114682,88048.1448927,88304.5765989,88074.6657549,101784.822305,75964.6265256,304231.436395,372901.333967,13181494.1388,13181492.2862
15360.0,503.19434474,44.9622190608,1.13313449845,87951.6986996,88252.1799962,87982.7552455,88274.3493451,79211.2965131,92481.1542319,299208.463542,265308.795151,13200731.4194,13200730.0256
15440.0,504.769287152,44.9551308097,1.38494466749,87473.2515647,87466.821246,87515.9090878,87516.2248684,96865.9139723,66084.2768752,315772.077989,323786.624309,13147070.9999,13147070.3973
15520.0,506.657027896,44.9473361306,1.64243881493,87211.5161467,87571.9161211,87270.5665095,87609.2107976,64331.7180573,80206.4414169,318075.268143,345139.726566,13185414.8963,13185414.2358
15600.0,508.856374636,44.9376832533,1.89364334183,86662.7926181,86862.0020378,86750.5961308,86961.0808515,65915.168438,55878.6085467,309780.534444,300499.468184,13095670.7776,13095668.5694
15680.0,511.365938216,44.9271773699,2.15150969906,86230.0544203,86707.3078707,86347.5377548,86793.8917032,56915.0408977,65650.5368319,313736.418876,324435.914196,13158482.4964,13158475.0561
15760.0,514.184133543,44.9151119587,2.40205534997,85204.8563242,84426.7783363,85443.572074,84683.6306458,54411.3991271,51080.8356175,316521.101788,313451.200762,13037949.7786,13037938.792
15840.0,517.309180583,44.9017684166,2.65979391314,84998.4563946,84658.1402811,85619.4488491,84914.5733639,44761.1337822,38517.1455143,315623.071566,307101.892923,13089073.1501,13089050.1933
15920.0,520.739105491,44.8869761753,2.90997706181,87641.1342394,88199.7277116,88285.1209977,88875.8714873,52163.4010388,73223.9680039,322517.915923,295914.071171,12995287.1689,12995278.6023
16000.0,524.471741852,44.869539506,3.16928954795,87447.0460308,89489.8685465,87743.9893998,89769.9656059,41701.8066238,19824.3809588,334893.934945,375641.733341,13017688.5991,13017685.3685
16080.0,528.504732054,44.848857653,3.41874555469,84648.3596335,82123.5289573,85385.1038218,82554.484807,38053.3957952,88903.6146555,340239.885581,319786.731092,12938867.2247,12938864.2329
16160.0,532.835528772,44.8226408737,3.67922636049,87138.0890572,87763.1143265,88210.7027104,88510.7095608,24659.6460471,-76327.9435725,326226.918534,348696.625273,12854322.2193,12854318.2437
16240.0,537.461396583,44.7921079498,3.92628998622,88334.8507528,88315.1855839,88991.1731343,89098.8270866,96326.5975712,291615.185874,397054.31363,495356.617184,12860073.9945,12860034.7555
16320.0,542.37941369,44.7552875898,4.18709209114,87143.5446217,88359.3282271,87536.3641794,88749.9699181,-11713.4039969,-69716.6005057,478534.890123,836830.196201,12868671.9528,12868667.29
16400.0,547.586473767,44.713132683,4.43178232171,84611.7888795,82972.7097557,85374.4246849,83426.2684049,-44928.4132611,92889.4992213,387653.118803,301782.582567,12734525.6878,12734524.7088
16480.0,553.079287924,44.6636067533,4.69242720298,85599.6267602,85471.2770238,86937.2005495,86417.0709534,49086.6377883,-93165.6785056,372800.469839,381544.901913,12794511.9284,12794496.448
16560.0,558.854386783,44.6083283929,4.93363337248,87239.9713768,88865.9796211,88140.3509682,89818.5656615,42359.1951831,220854.405049,426172.063356,509185.370079,12634402.1976,12634369.6715
16640.0,564.908122665,44.544961886,5.19298235226,85170.6406373,83910.2633613,86070.738168,84571.6629728,2493.55188645,49586.36983,486935.062704,732567.708465,12667109.0625,12667110.965
16720.0,571.236671903,44.4749122234,5.42996548622,84398.7094288,85666.7130084,86068.5607454,87757.0168237,-75207.8793285,-72817.6044039,424887.212543,361265.707886,12536399.6738,12536388.0191
16800.0,577.836037249,44.3956126061,5.68664979959,86825.2781491,88408.7457147,87960.7638088,89596.7075415,30746.1346017,84585.9718884,400991.046076,426036.502352,12517873.3261,12517834.1875
16880.0,584.702050402,44.3087530543,5.9181130465,84255.195284,83771.7844044,85777.8893859,84829.1587918,-22769.3866077,-111896.335288,470630.890463,652240.855643,12433029.1963,12433029.9789
16960.0,591.830374641,44.2119479554,6.17106151559,84637.6228177,81931.614719,86368.8386808,85181.5780633,-62094.897179,-6400.96796718,419412.856976,343231.485571,12429136.5566,12429109.7325
17040.0,599.216507565,44.1061618479,6.3963058093,84520.3950186,80273.0672813,86759.3415062,81885.7141204,21649.3074619,-25353.846136,422645.523614,468188.285816,12293414.7024,12293401.4481
17120.0,606.855783932,43.9899504687,6.64413459502,82600.1501723,90358.8404005,85376.075887,94188.3161768,-32131.786634,-274238.194653,489063.043141,653246.753941,12297434.7179,12297421.2622
17200.0,614.743378612,43.8637423517,6.86193059779,87352.6993918,88178.4804761,88469.3677296,89594.7532113,35125.5665018,465245.957201,542586.296681,712612.981882,12154769.2986,12154694.104
17280.0,622.874309632,43.7264783257,7.10224308203,83808.5137587,82812.1596137,85553.8729786,83956.2544269,-69353.3976461,-118241.781023,694805.112032,1268483.86365,12184250.8998,12184251.9527
17360.0,631.243441321,43.5790693067,7.31036767863,83381.8731472,81475.5660856,85441.2958498,85116.3451602,-204661.637049,-68125.2165861,568587.790749,455533.397426,11919523.7733,11919500.022
17440.0,639.845487556,43.4187373812,7.54248384451,83454.3907448,80820.2599558,86211.4065766,82949.6590107,67202.9060534,15838.0504772,497405.70117,446206.304115,12065179.4198,12065161.6289
17520.0,648.675015101,43.2469531091,7.73992737272,82192.5002695,85327.1398677,85120.5580829,89968.446569,-96983.2569929,-469802.048375,621202.229714,838379.194865,11821323.0382,11821314.9768
17600.0,657.726447036,43.0614951704,7.9620098723,84448.5231986,82776.1328526,86889.9041629,84926.2269366,-30358.5124296,252589.867346,517256.199322,581692.01679,11854037.8039,11853993.4514
17680.0,666.994066283,42.8634018294,8.14815789464,81298.616871,82463.7112897,84097.1011257,86887.2389857,-71997.9162017,-111483.030191,608511.551978,962587.754194,11647948.1533,11647943.7149
17760.0,676.472019215,42.6503973757,8.35975437171,83970.014237,81148.4395797,86862.9200047,83445.9074745,-109933.650424,29884.6262156,540846.76669,426305.943779,11750010.4228,11749962.0556
17840.0,686.154319355,42.4237903272,8.53418141251,80180.4718496,84207.0513106,83475.6809141,89275.0897195,-60137.1809414,-4723.6958602,573333.97368,655766.877294,11497742.3596,11497734.2774
17920.0,696.034851153,42.1812533822,8.73615785001,84169.039333,81851.2499057,86883.2666226,84225.8295646,-74085.9936736,60978.3655776,567957.728705,571241.917775,11507655.5859,11507600.3709
18000.0,706.107373854,41.9238181944,8.89891984713,80112.3848985,82680.1952311,83285.2455785,87530.7971073,-87368.4725928,-117989.842909,600148.74425,778637.292387,11321728.9606,11321722.3375
18080.0,716.365525437,41.6517941708,9.09033982858,83563.1982061,81360.9560999,86619.0284165,83897.5133601,-116536.86498,58812.5187882,569352.327957,504811.334145,11387980.4132,11387921.931
18160.0,726.802826633,41.3649894103,9.2392050116,79958.9327665,82157.5915044,83369.0352768,87580.2293824,-83862.8811143,6295.90975375,595112.223336,696854.679738,11116103.6633,11116102.2597
18240.0,737.412685019,41.0643852527,9.41765006247,83115.8539594,77523.9069363,86119.9532006,79912.4453283,-126076.124753,-83939.2989258,569916.48873,578170.17875,11121019.2079,11120979.9892
18320.0,748.188399182,40.750535435,9.54707289028,80303.7556142,88763.9785434,84040.5408594,93443.8567139,-108848.36668,-191803.873149,552984.774759,606365.357854,11003170.1274,11003162.0342
18400.0,759.123162949,40.4233127548,9.70748955834,84377.4943749,90953.1299452,86466.8649761,93270.0184367,-101375.590251,68424.5416582,535168.09962,539034.913876,11015459.0683,11015387.8382
18480.0,770.210069689,40.081824801,9.81421724056,79874.6149035,60313.4790794,82048.5141029,64721.5291545,-28757.2122615,236107.981446,611644.16605,780492.116277,10688206.3907,10688191.4264
18560.0,781.442116675,39.7247711764,9.95622427641,78998.2451659,57447.3682873,83289.3461878,59033.079471,-206773.593945,-394848.628142,666770.970147,681868.99037,10613416.9923,10613449.2336
18640.0,792.812209503,39.3529312386,10.0374957521,78403.6901047,105775.074887,88249.1738132,110382.478899,-284329.380393,-612390.812304,584934.943834,741607.596844,10539404.9737,10539386.1786
18720.0,804.313166581,38.9663313304,10.159229516,67862.3802725,88219.602828,81900.5705402,98131.3415926,-19590.5275302,97983.2035025,551015.179257,700165.222095,10566542.4099,10566496.5817
18800.0,815.937723658,38.5643735764,10.2134323172,83743.4850963,80975.5498638,86682.5748829,84695.5531893,277465.114536,373848.694063,834072.022259,1261025.53296,10506434.6977,10506357.6025
18880.0,827.678538413,38.1476311203,10.3132331182,78838.9703789,80825.8247246,82388.6239684,85229.7938003,-209287.187575,-993451.516288,1063676.27726,1901068.80928,10385640.0879,10385639.2516
18960.0,839.528195096,37.7160077667,10.3383969938,80978.3788699,80834.5007795,83911.8475148,83507.1993177,-293081.455891,204884.33209,655079.800955,411703.596434,10099574.9212,10099522.0363
19040.0,851.479209211,37.2670009498,10.4156595926,78101.0392926,77769.350864,81880.2788581,82210.9676855,-18110.5826292,510868.846521,670299.02541,795542.218786,10041608.8642,10041579.8488
19120.0,863.524032241,36.8017871836,10.4127240127,77113.3351335,72862.9939097,81469.6126844,78265.8410579,-147505.38844,-143047.223092,599887.58488,843562.27885,9849066.68934,9849086.55435
19200.0,875.655056418,36.3176715874,10.4710423024,79535.7525475,68089.6460312,84003.4665785,71407.534016,-155317.511192,-376624.964198,458489.980468,489111.012389,9911282.10735,9911270.07812
19280.0,887.864619525,35.8198455871,10.4402496988,75610.5486318,96959.1426096,81865.9655033,101373.614297,-95544.2036518,-486524.706986,379755.095353,558241.697727,9947383.48004,9947341.55277
19360.0,900.145009743,35.2999823573,10.4814600231,66095.7073647,88917.3468758,75151.716272,97806.391181,113506.113323,495713.575565,431098.072296,692105.79863,9831745.67505,9831637.38983
19440.0,912.488470512,34.7704603898,10.4243904221,77439.2645801,76378.5836592,79903.7218287,78839.3660251,146224.028547,666667.499712,781978.076129,1269437.98913,9407012.29197,9406968.61455
19520.0,924.88720544,34.2170488468,10.4501061166,76853.6279228,62383.2935194,79755.6096888,65266.9406294,-268174.723051,-701309.409536,942531.20235,1658091.55552,9316265.57054,9316314.1952
19600.0,937.333383218,33.6559704216,10.3703140909,77356.9551579,58734.2535294,82222.0572133,60538.82874,-433733.321541,-308378.486077,626200.974547,491904.146741,9129626.97836,9129595.07335
19680.0,949.819142574,33.0711863181,10.3809408765,72699.1229362,100982.414822,79785.0742254,105903.783718,-54005.88996,49718.2679952,467506.078901,105156.837299,9524040.53657,9524030.84672
19760.0,962.336597236,32.4863408813,10.2767265923,61002.5616849,89583.2141441,77021.1483134,98998.4714711,80472.7795337,96523.1826426,390874.646196,313372.188262,9211224.45522,9211208.44881
19840.0,974.87784091,31.8779265891,10.2645537899,80171.9329039,70041.034406,83398.3207074,74208.0325495,375860.211166,976317.413756,816168.196455,1130729.07798,9090631.29702,9090643.80812
19920.0,987.434952278,31.2698047632,10.1344989024,75736.2684026,51181.8622458,78151.5627869,53006.3866691,-179453.455268,-556862.053566,1033769.89188,1712083.89378,8586553.72963,8586584.79373
20000.0,1000.0,30.6384654535,10.1000018152,74434.7213764,43022.6205638,80112.0241397,47441.2634584,-492879.467195,-293745.638438,659235.401491,516625.119524,8605735.72971,8605675.42263
