<?xml version="1.0" encoding="utf-8" standalone="no"?>
<!DOCTYPE svg PUBLIC "-//W3C//DTD SVG 1.1//EN"
  "http://www.w3.org/Graphics/SVG/1.1/DTD/svg11.dtd">
<!-- Created with matplotlib (https://matplotlib.org/) -->
<svg height="345.6pt" version="1.1" viewBox="0 0 460.8 345.6" width="460.8pt" xmlns="http://www.w3.org/2000/svg" xmlns:xlink="http://www.w3.org/1999/xlink">
 <metadata>
  <rdf:RDF xmlns:cc="http://creativecommons.org/ns#" xmlns:dc="http://purl.org/dc/elements/1.1/" xmlns:rdf="http://www.w3.org/1999/02/22-rdf-syntax-ns#">
   <cc:Work>
    <dc:type rdf:resource="http://purl.org/dc/dcmitype/StillImage"/>
    <dc:date>2021-02-23T13:23:56.937582</dc:date>
    <dc:format>image/svg+xml</dc:format>
    <dc:creator>
     <cc:Agent>
      <dc:title>Matplotlib v3.3.0, https://matplotlib.org/</dc:title>
     </cc:Agent>
    </dc:creator>
   </cc:Work>
  </rdf:RDF>
 </metadata>
 <defs>
  <style type="text/css">*{stroke-linecap:butt;stroke-linejoin:round;}</style>
 </defs>
 <g id="figure_1">
  <g id="patch_1">
   <path d="M 0 345.6 
L 460.8 345.6 
L 460.8 0 
L 0 0 
z
" style="fill:#ffffff;"/>
  </g>
  <g id="axes_1">
   <g id="patch_2">
    <path d="M 57.6 307.584 
L 414.72 307.584 
L 414.72 41.472 
L 57.6 41.472 
z
" style="fill:#ffffff;"/>
   </g>
   <g id="matplotlib.axis_1">
    <g id="xtick_1">
     <g id="line2d_1">
      <defs>
       <path d="M 0 0 
L 0 3.5 
" id="m5c5fff1082" style="stroke:#000000;stroke-width:0.8;"/>
      </defs>
      <g>
       <use style="stroke:#000000;stroke-width:0.8;" x="73.832727" xlink:href="#m5c5fff1082" y="307.584"/>
      </g>
     </g>
     <g id="text_1">
      <!-- 0.0 -->
      <g transform="translate(65.881165 322.182437)scale(0.1 -0.1)">
       <defs>
        <path d="M 31.78125 66.40625 
Q 24.171875 66.40625 20.328125 58.90625 
Q 16.5 51.421875 16.5 36.375 
Q 16.5 21.390625 20.328125 13.890625 
Q 24.171875 6.390625 31.78125 6.390625 
Q 39.453125 6.390625 43.28125 13.890625 
Q 47.125 21.390625 47.125 36.375 
Q 47.125 51.421875 43.28125 58.90625 
Q 39.453125 66.40625 31.78125 66.40625 
z
M 31.78125 74.21875 
Q 44.046875 74.21875 50.515625 64.515625 
Q 56.984375 54.828125 56.984375 36.375 
Q 56.984375 17.96875 50.515625 8.265625 
Q 44.046875 -1.421875 31.78125 -1.421875 
Q 19.53125 -1.421875 13.0625 8.265625 
Q 6.59375 17.96875 6.59375 36.375 
Q 6.59375 54.828125 13.0625 64.515625 
Q 19.53125 74.21875 31.78125 74.21875 
z
" id="DejaVuSans-48"/>
        <path d="M 10.6875 12.40625 
L 21 12.40625 
L 21 0 
L 10.6875 0 
z
" id="DejaVuSans-46"/>
       </defs>
       <use xlink:href="#DejaVuSans-48"/>
       <use x="63.623047" xlink:href="#DejaVuSans-46"/>
       <use x="95.410156" xlink:href="#DejaVuSans-48"/>
      </g>
     </g>
    </g>
    <g id="xtick_2">
     <g id="line2d_2">
      <g>
       <use style="stroke:#000000;stroke-width:0.8;" x="138.763636" xlink:href="#m5c5fff1082" y="307.584"/>
      </g>
     </g>
     <g id="text_2">
      <!-- 0.2 -->
      <g transform="translate(130.812074 322.182437)scale(0.1 -0.1)">
       <defs>
        <path d="M 19.1875 8.296875 
L 53.609375 8.296875 
L 53.609375 0 
L 7.328125 0 
L 7.328125 8.296875 
Q 12.9375 14.109375 22.625 23.890625 
Q 32.328125 33.6875 34.8125 36.53125 
Q 39.546875 41.84375 41.421875 45.53125 
Q 43.3125 49.21875 43.3125 52.78125 
Q 43.3125 58.59375 39.234375 62.25 
Q 35.15625 65.921875 28.609375 65.921875 
Q 23.96875 65.921875 18.8125 64.3125 
Q 13.671875 62.703125 7.8125 59.421875 
L 7.8125 69.390625 
Q 13.765625 71.78125 18.9375 73 
Q 24.125 74.21875 28.421875 74.21875 
Q 39.75 74.21875 46.484375 68.546875 
Q 53.21875 62.890625 53.21875 53.421875 
Q 53.21875 48.921875 51.53125 44.890625 
Q 49.859375 40.875 45.40625 35.40625 
Q 44.1875 33.984375 37.640625 27.21875 
Q 31.109375 20.453125 19.1875 8.296875 
z
" id="DejaVuSans-50"/>
       </defs>
       <use xlink:href="#DejaVuSans-48"/>
       <use x="63.623047" xlink:href="#DejaVuSans-46"/>
       <use x="95.410156" xlink:href="#DejaVuSans-50"/>
      </g>
     </g>
    </g>
    <g id="xtick_3">
     <g id="line2d_3">
      <g>
       <use style="stroke:#000000;stroke-width:0.8;" x="203.694545" xlink:href="#m5c5fff1082" y="307.584"/>
      </g>
     </g>
     <g id="text_3">
      <!-- 0.4 -->
      <g transform="translate(195.742983 322.182437)scale(0.1 -0.1)">
       <defs>
        <path d="M 37.796875 64.3125 
L 12.890625 25.390625 
L 37.796875 25.390625 
z
M 35.203125 72.90625 
L 47.609375 72.90625 
L 47.609375 25.390625 
L 58.015625 25.390625 
L 58.015625 17.1875 
L 47.609375 17.1875 
L 47.609375 0 
L 37.796875 0 
L 37.796875 17.1875 
L 4.890625 17.1875 
L 4.890625 26.703125 
z
" id="DejaVuSans-52"/>
       </defs>
       <use xlink:href="#DejaVuSans-48"/>
       <use x="63.623047" xlink:href="#DejaVuSans-46"/>
       <use x="95.410156" xlink:href="#DejaVuSans-52"/>
      </g>
     </g>
    </g>
    <g id="xtick_4">
     <g id="line2d_4">
      <g>
       <use style="stroke:#000000;stroke-width:0.8;" x="268.625455" xlink:href="#m5c5fff1082" y="307.584"/>
      </g>
     </g>
     <g id="text_4">
      <!-- 0.6 -->
      <g transform="translate(260.673892 322.182437)scale(0.1 -0.1)">
       <defs>
        <path d="M 33.015625 40.375 
Q 26.375 40.375 22.484375 35.828125 
Q 18.609375 31.296875 18.609375 23.390625 
Q 18.609375 15.53125 22.484375 10.953125 
Q 26.375 6.390625 33.015625 6.390625 
Q 39.65625 6.390625 43.53125 10.953125 
Q 47.40625 15.53125 47.40625 23.390625 
Q 47.40625 31.296875 43.53125 35.828125 
Q 39.65625 40.375 33.015625 40.375 
z
M 52.59375 71.296875 
L 52.59375 62.3125 
Q 48.875 64.0625 45.09375 64.984375 
Q 41.3125 65.921875 37.59375 65.921875 
Q 27.828125 65.921875 22.671875 59.328125 
Q 17.53125 52.734375 16.796875 39.40625 
Q 19.671875 43.65625 24.015625 45.921875 
Q 28.375 48.1875 33.59375 48.1875 
Q 44.578125 48.1875 50.953125 41.515625 
Q 57.328125 34.859375 57.328125 23.390625 
Q 57.328125 12.15625 50.6875 5.359375 
Q 44.046875 -1.421875 33.015625 -1.421875 
Q 20.359375 -1.421875 13.671875 8.265625 
Q 6.984375 17.96875 6.984375 36.375 
Q 6.984375 53.65625 15.1875 63.9375 
Q 23.390625 74.21875 37.203125 74.21875 
Q 40.921875 74.21875 44.703125 73.484375 
Q 48.484375 72.75 52.59375 71.296875 
z
" id="DejaVuSans-54"/>
       </defs>
       <use xlink:href="#DejaVuSans-48"/>
       <use x="63.623047" xlink:href="#DejaVuSans-46"/>
       <use x="95.410156" xlink:href="#DejaVuSans-54"/>
      </g>
     </g>
    </g>
    <g id="xtick_5">
     <g id="line2d_5">
      <g>
       <use style="stroke:#000000;stroke-width:0.8;" x="333.556364" xlink:href="#m5c5fff1082" y="307.584"/>
      </g>
     </g>
     <g id="text_5">
      <!-- 0.8 -->
      <g transform="translate(325.604801 322.182437)scale(0.1 -0.1)">
       <defs>
        <path d="M 31.78125 34.625 
Q 24.75 34.625 20.71875 30.859375 
Q 16.703125 27.09375 16.703125 20.515625 
Q 16.703125 13.921875 20.71875 10.15625 
Q 24.75 6.390625 31.78125 6.390625 
Q 38.8125 6.390625 42.859375 10.171875 
Q 46.921875 13.96875 46.921875 20.515625 
Q 46.921875 27.09375 42.890625 30.859375 
Q 38.875 34.625 31.78125 34.625 
z
M 21.921875 38.8125 
Q 15.578125 40.375 12.03125 44.71875 
Q 8.5 49.078125 8.5 55.328125 
Q 8.5 64.0625 14.71875 69.140625 
Q 20.953125 74.21875 31.78125 74.21875 
Q 42.671875 74.21875 48.875 69.140625 
Q 55.078125 64.0625 55.078125 55.328125 
Q 55.078125 49.078125 51.53125 44.71875 
Q 48 40.375 41.703125 38.8125 
Q 48.828125 37.15625 52.796875 32.3125 
Q 56.78125 27.484375 56.78125 20.515625 
Q 56.78125 9.90625 50.3125 4.234375 
Q 43.84375 -1.421875 31.78125 -1.421875 
Q 19.734375 -1.421875 13.25 4.234375 
Q 6.78125 9.90625 6.78125 20.515625 
Q 6.78125 27.484375 10.78125 32.3125 
Q 14.796875 37.15625 21.921875 38.8125 
z
M 18.3125 54.390625 
Q 18.3125 48.734375 21.84375 45.5625 
Q 25.390625 42.390625 31.78125 42.390625 
Q 38.140625 42.390625 41.71875 45.5625 
Q 45.3125 48.734375 45.3125 54.390625 
Q 45.3125 60.0625 41.71875 63.234375 
Q 38.140625 66.40625 31.78125 66.40625 
Q 25.390625 66.40625 21.84375 63.234375 
Q 18.3125 60.0625 18.3125 54.390625 
z
" id="DejaVuSans-56"/>
       </defs>
       <use xlink:href="#DejaVuSans-48"/>
       <use x="63.623047" xlink:href="#DejaVuSans-46"/>
       <use x="95.410156" xlink:href="#DejaVuSans-56"/>
      </g>
     </g>
    </g>
    <g id="xtick_6">
     <g id="line2d_6">
      <g>
       <use style="stroke:#000000;stroke-width:0.8;" x="398.487273" xlink:href="#m5c5fff1082" y="307.584"/>
      </g>
     </g>
     <g id="text_6">
      <!-- 1.0 -->
      <g transform="translate(390.53571 322.182437)scale(0.1 -0.1)">
       <defs>
        <path d="M 12.40625 8.296875 
L 28.515625 8.296875 
L 28.515625 63.921875 
L 10.984375 60.40625 
L 10.984375 69.390625 
L 28.421875 72.90625 
L 38.28125 72.90625 
L 38.28125 8.296875 
L 54.390625 8.296875 
L 54.390625 0 
L 12.40625 0 
z
" id="DejaVuSans-49"/>
       </defs>
       <use xlink:href="#DejaVuSans-49"/>
       <use x="63.623047" xlink:href="#DejaVuSans-46"/>
       <use x="95.410156" xlink:href="#DejaVuSans-48"/>
      </g>
     </g>
    </g>
    <g id="text_7">
     <!-- x norm. -->
     <g transform="translate(216.956094 335.860562)scale(0.1 -0.1)">
      <defs>
       <path d="M 54.890625 54.6875 
L 35.109375 28.078125 
L 55.90625 0 
L 45.3125 0 
L 29.390625 21.484375 
L 13.484375 0 
L 2.875 0 
L 24.125 28.609375 
L 4.6875 54.6875 
L 15.28125 54.6875 
L 29.78125 35.203125 
L 44.28125 54.6875 
z
" id="DejaVuSans-120"/>
       <path id="DejaVuSans-32"/>
       <path d="M 54.890625 33.015625 
L 54.890625 0 
L 45.90625 0 
L 45.90625 32.71875 
Q 45.90625 40.484375 42.875 44.328125 
Q 39.84375 48.1875 33.796875 48.1875 
Q 26.515625 48.1875 22.3125 43.546875 
Q 18.109375 38.921875 18.109375 30.90625 
L 18.109375 0 
L 9.078125 0 
L 9.078125 54.6875 
L 18.109375 54.6875 
L 18.109375 46.1875 
Q 21.34375 51.125 25.703125 53.5625 
Q 30.078125 56 35.796875 56 
Q 45.21875 56 50.046875 50.171875 
Q 54.890625 44.34375 54.890625 33.015625 
z
" id="DejaVuSans-110"/>
       <path d="M 30.609375 48.390625 
Q 23.390625 48.390625 19.1875 42.75 
Q 14.984375 37.109375 14.984375 27.296875 
Q 14.984375 17.484375 19.15625 11.84375 
Q 23.34375 6.203125 30.609375 6.203125 
Q 37.796875 6.203125 41.984375 11.859375 
Q 46.1875 17.53125 46.1875 27.296875 
Q 46.1875 37.015625 41.984375 42.703125 
Q 37.796875 48.390625 30.609375 48.390625 
z
M 30.609375 56 
Q 42.328125 56 49.015625 48.375 
Q 55.71875 40.765625 55.71875 27.296875 
Q 55.71875 13.875 49.015625 6.21875 
Q 42.328125 -1.421875 30.609375 -1.421875 
Q 18.84375 -1.421875 12.171875 6.21875 
Q 5.515625 13.875 5.515625 27.296875 
Q 5.515625 40.765625 12.171875 48.375 
Q 18.84375 56 30.609375 56 
z
" id="DejaVuSans-111"/>
       <path d="M 41.109375 46.296875 
Q 39.59375 47.171875 37.8125 47.578125 
Q 36.03125 48 33.890625 48 
Q 26.265625 48 22.1875 43.046875 
Q 18.109375 38.09375 18.109375 28.8125 
L 18.109375 0 
L 9.078125 0 
L 9.078125 54.6875 
L 18.109375 54.6875 
L 18.109375 46.1875 
Q 20.953125 51.171875 25.484375 53.578125 
Q 30.03125 56 36.53125 56 
Q 37.453125 56 38.578125 55.875 
Q 39.703125 55.765625 41.0625 55.515625 
z
" id="DejaVuSans-114"/>
       <path d="M 52 44.1875 
Q 55.375 50.25 60.0625 53.125 
Q 64.75 56 71.09375 56 
Q 79.640625 56 84.28125 50.015625 
Q 88.921875 44.046875 88.921875 33.015625 
L 88.921875 0 
L 79.890625 0 
L 79.890625 32.71875 
Q 79.890625 40.578125 77.09375 44.375 
Q 74.3125 48.1875 68.609375 48.1875 
Q 61.625 48.1875 57.5625 43.546875 
Q 53.515625 38.921875 53.515625 30.90625 
L 53.515625 0 
L 44.484375 0 
L 44.484375 32.71875 
Q 44.484375 40.625 41.703125 44.40625 
Q 38.921875 48.1875 33.109375 48.1875 
Q 26.21875 48.1875 22.15625 43.53125 
Q 18.109375 38.875 18.109375 30.90625 
L 18.109375 0 
L 9.078125 0 
L 9.078125 54.6875 
L 18.109375 54.6875 
L 18.109375 46.1875 
Q 21.1875 51.21875 25.484375 53.609375 
Q 29.78125 56 35.6875 56 
Q 41.65625 56 45.828125 52.96875 
Q 50 49.953125 52 44.1875 
z
" id="DejaVuSans-109"/>
      </defs>
      <use xlink:href="#DejaVuSans-120"/>
      <use x="59.179688" xlink:href="#DejaVuSans-32"/>
      <use x="90.966797" xlink:href="#DejaVuSans-110"/>
      <use x="154.345703" xlink:href="#DejaVuSans-111"/>
      <use x="215.527344" xlink:href="#DejaVuSans-114"/>
      <use x="254.890625" xlink:href="#DejaVuSans-109"/>
      <use x="352.302734" xlink:href="#DejaVuSans-46"/>
     </g>
    </g>
   </g>
   <g id="matplotlib.axis_2">
    <g id="ytick_1">
     <g id="line2d_7">
      <defs>
       <path d="M 0 0 
L -3.5 0 
" id="m8f724e1e5e" style="stroke:#000000;stroke-width:0.8;"/>
      </defs>
      <g>
       <use style="stroke:#000000;stroke-width:0.8;" x="57.6" xlink:href="#m8f724e1e5e" y="294.803276"/>
      </g>
     </g>
     <g id="text_8">
      <!-- 0.0 -->
      <g transform="translate(34.696875 298.602495)scale(0.1 -0.1)">
       <use xlink:href="#DejaVuSans-48"/>
       <use x="63.623047" xlink:href="#DejaVuSans-46"/>
       <use x="95.410156" xlink:href="#DejaVuSans-48"/>
      </g>
     </g>
    </g>
    <g id="ytick_2">
     <g id="line2d_8">
      <g>
       <use style="stroke:#000000;stroke-width:0.8;" x="57.6" xlink:href="#m8f724e1e5e" y="263.759682"/>
      </g>
     </g>
     <g id="text_9">
      <!-- 2.5 -->
      <g transform="translate(34.696875 267.558901)scale(0.1 -0.1)">
       <defs>
        <path d="M 10.796875 72.90625 
L 49.515625 72.90625 
L 49.515625 64.59375 
L 19.828125 64.59375 
L 19.828125 46.734375 
Q 21.96875 47.46875 24.109375 47.828125 
Q 26.265625 48.1875 28.421875 48.1875 
Q 40.625 48.1875 47.75 41.5 
Q 54.890625 34.8125 54.890625 23.390625 
Q 54.890625 11.625 47.5625 5.09375 
Q 40.234375 -1.421875 26.90625 -1.421875 
Q 22.3125 -1.421875 17.546875 -0.640625 
Q 12.796875 0.140625 7.71875 1.703125 
L 7.71875 11.625 
Q 12.109375 9.234375 16.796875 8.0625 
Q 21.484375 6.890625 26.703125 6.890625 
Q 35.15625 6.890625 40.078125 11.328125 
Q 45.015625 15.765625 45.015625 23.390625 
Q 45.015625 31 40.078125 35.4375 
Q 35.15625 39.890625 26.703125 39.890625 
Q 22.75 39.890625 18.8125 39.015625 
Q 14.890625 38.140625 10.796875 36.28125 
z
" id="DejaVuSans-53"/>
       </defs>
       <use xlink:href="#DejaVuSans-50"/>
       <use x="63.623047" xlink:href="#DejaVuSans-46"/>
       <use x="95.410156" xlink:href="#DejaVuSans-53"/>
      </g>
     </g>
    </g>
    <g id="ytick_3">
     <g id="line2d_9">
      <g>
       <use style="stroke:#000000;stroke-width:0.8;" x="57.6" xlink:href="#m8f724e1e5e" y="232.716088"/>
      </g>
     </g>
     <g id="text_10">
      <!-- 5.0 -->
      <g transform="translate(34.696875 236.515306)scale(0.1 -0.1)">
       <use xlink:href="#DejaVuSans-53"/>
       <use x="63.623047" xlink:href="#DejaVuSans-46"/>
       <use x="95.410156" xlink:href="#DejaVuSans-48"/>
      </g>
     </g>
    </g>
    <g id="ytick_4">
     <g id="line2d_10">
      <g>
       <use style="stroke:#000000;stroke-width:0.8;" x="57.6" xlink:href="#m8f724e1e5e" y="201.672493"/>
      </g>
     </g>
     <g id="text_11">
      <!-- 7.5 -->
      <g transform="translate(34.696875 205.471712)scale(0.1 -0.1)">
       <defs>
        <path d="M 8.203125 72.90625 
L 55.078125 72.90625 
L 55.078125 68.703125 
L 28.609375 0 
L 18.3125 0 
L 43.21875 64.59375 
L 8.203125 64.59375 
z
" id="DejaVuSans-55"/>
       </defs>
       <use xlink:href="#DejaVuSans-55"/>
       <use x="63.623047" xlink:href="#DejaVuSans-46"/>
       <use x="95.410156" xlink:href="#DejaVuSans-53"/>
      </g>
     </g>
    </g>
    <g id="ytick_5">
     <g id="line2d_11">
      <g>
       <use style="stroke:#000000;stroke-width:0.8;" x="57.6" xlink:href="#m8f724e1e5e" y="170.628899"/>
      </g>
     </g>
     <g id="text_12">
      <!-- 10.0 -->
      <g transform="translate(28.334375 174.428118)scale(0.1 -0.1)">
       <use xlink:href="#DejaVuSans-49"/>
       <use x="63.623047" xlink:href="#DejaVuSans-48"/>
       <use x="127.246094" xlink:href="#DejaVuSans-46"/>
       <use x="159.033203" xlink:href="#DejaVuSans-48"/>
      </g>
     </g>
    </g>
    <g id="ytick_6">
     <g id="line2d_12">
      <g>
       <use style="stroke:#000000;stroke-width:0.8;" x="57.6" xlink:href="#m8f724e1e5e" y="139.585305"/>
      </g>
     </g>
     <g id="text_13">
      <!-- 12.5 -->
      <g transform="translate(28.334375 143.384523)scale(0.1 -0.1)">
       <use xlink:href="#DejaVuSans-49"/>
       <use x="63.623047" xlink:href="#DejaVuSans-50"/>
       <use x="127.246094" xlink:href="#DejaVuSans-46"/>
       <use x="159.033203" xlink:href="#DejaVuSans-53"/>
      </g>
     </g>
    </g>
    <g id="ytick_7">
     <g id="line2d_13">
      <g>
       <use style="stroke:#000000;stroke-width:0.8;" x="57.6" xlink:href="#m8f724e1e5e" y="108.54171"/>
      </g>
     </g>
     <g id="text_14">
      <!-- 15.0 -->
      <g transform="translate(28.334375 112.340929)scale(0.1 -0.1)">
       <use xlink:href="#DejaVuSans-49"/>
       <use x="63.623047" xlink:href="#DejaVuSans-53"/>
       <use x="127.246094" xlink:href="#DejaVuSans-46"/>
       <use x="159.033203" xlink:href="#DejaVuSans-48"/>
      </g>
     </g>
    </g>
    <g id="ytick_8">
     <g id="line2d_14">
      <g>
       <use style="stroke:#000000;stroke-width:0.8;" x="57.6" xlink:href="#m8f724e1e5e" y="77.498116"/>
      </g>
     </g>
     <g id="text_15">
      <!-- 17.5 -->
      <g transform="translate(28.334375 81.297335)scale(0.1 -0.1)">
       <use xlink:href="#DejaVuSans-49"/>
       <use x="63.623047" xlink:href="#DejaVuSans-55"/>
       <use x="127.246094" xlink:href="#DejaVuSans-46"/>
       <use x="159.033203" xlink:href="#DejaVuSans-53"/>
      </g>
     </g>
    </g>
    <g id="ytick_9">
     <g id="line2d_15">
      <g>
       <use style="stroke:#000000;stroke-width:0.8;" x="57.6" xlink:href="#m8f724e1e5e" y="46.454522"/>
      </g>
     </g>
     <g id="text_16">
      <!-- 20.0 -->
      <g transform="translate(28.334375 50.253741)scale(0.1 -0.1)">
       <use xlink:href="#DejaVuSans-50"/>
       <use x="63.623047" xlink:href="#DejaVuSans-48"/>
       <use x="127.246094" xlink:href="#DejaVuSans-46"/>
       <use x="159.033203" xlink:href="#DejaVuSans-48"/>
      </g>
     </g>
    </g>
    <g id="text_17">
     <!-- kPa -->
     <g transform="translate(22.254688 183.277219)rotate(-90)scale(0.1 -0.1)">
      <defs>
       <path d="M 9.078125 75.984375 
L 18.109375 75.984375 
L 18.109375 31.109375 
L 44.921875 54.6875 
L 56.390625 54.6875 
L 27.390625 29.109375 
L 57.625 0 
L 45.90625 0 
L 18.109375 26.703125 
L 18.109375 0 
L 9.078125 0 
z
" id="DejaVuSans-107"/>
       <path d="M 19.671875 64.796875 
L 19.671875 37.40625 
L 32.078125 37.40625 
Q 38.96875 37.40625 42.71875 40.96875 
Q 46.484375 44.53125 46.484375 51.125 
Q 46.484375 57.671875 42.71875 61.234375 
Q 38.96875 64.796875 32.078125 64.796875 
z
M 9.8125 72.90625 
L 32.078125 72.90625 
Q 44.34375 72.90625 50.609375 67.359375 
Q 56.890625 61.8125 56.890625 51.125 
Q 56.890625 40.328125 50.609375 34.8125 
Q 44.34375 29.296875 32.078125 29.296875 
L 19.671875 29.296875 
L 19.671875 0 
L 9.8125 0 
z
" id="DejaVuSans-80"/>
       <path d="M 34.28125 27.484375 
Q 23.390625 27.484375 19.1875 25 
Q 14.984375 22.515625 14.984375 16.5 
Q 14.984375 11.71875 18.140625 8.90625 
Q 21.296875 6.109375 26.703125 6.109375 
Q 34.1875 6.109375 38.703125 11.40625 
Q 43.21875 16.703125 43.21875 25.484375 
L 43.21875 27.484375 
z
M 52.203125 31.203125 
L 52.203125 0 
L 43.21875 0 
L 43.21875 8.296875 
Q 40.140625 3.328125 35.546875 0.953125 
Q 30.953125 -1.421875 24.3125 -1.421875 
Q 15.921875 -1.421875 10.953125 3.296875 
Q 6 8.015625 6 15.921875 
Q 6 25.140625 12.171875 29.828125 
Q 18.359375 34.515625 30.609375 34.515625 
L 43.21875 34.515625 
L 43.21875 35.40625 
Q 43.21875 41.609375 39.140625 45 
Q 35.0625 48.390625 27.6875 48.390625 
Q 23 48.390625 18.546875 47.265625 
Q 14.109375 46.140625 10.015625 43.890625 
L 10.015625 52.203125 
Q 14.9375 54.109375 19.578125 55.046875 
Q 24.21875 56 28.609375 56 
Q 40.484375 56 46.34375 49.84375 
Q 52.203125 43.703125 52.203125 31.203125 
z
" id="DejaVuSans-97"/>
      </defs>
      <use xlink:href="#DejaVuSans-107"/>
      <use x="57.910156" xlink:href="#DejaVuSans-80"/>
      <use x="113.712891" xlink:href="#DejaVuSans-97"/>
     </g>
    </g>
   </g>
   <g id="line2d_16">
    <path clip-path="url(#p27c6e3618c)" d="M 73.832727 65.104098 
L 79.243636 67.952037 
L 83.301818 69.84921 
L 87.36 71.496669 
L 91.418182 72.869156 
L 95.476364 73.949933 
L 99.534546 74.727761 
L 103.592727 75.195538 
L 107.65091 75.350421 
L 111.709092 75.195228 
L 115.767274 74.740812 
L 119.825456 74.009176 
L 123.883637 73.036779 
L 129.294544 71.460522 
L 141.46909 67.671639 
L 145.527272 66.679933 
L 148.232728 66.186551 
L 150.938182 65.86551 
L 153.643635 65.730321 
L 157.701817 65.802939 
L 160.407274 66.049524 
L 163.112727 66.482148 
L 167.170909 67.42478 
L 171.229091 68.620617 
L 179.345455 71.350988 
L 184.756365 73.107496 
L 188.814547 74.248758 
L 192.872728 75.168294 
L 196.93091 75.821998 
L 200.989092 76.182228 
L 205.047274 76.234518 
L 209.105456 75.974087 
L 213.163637 75.402885 
L 217.221819 74.527679 
L 221.280001 73.359372 
L 225.338183 71.913721 
L 229.396365 70.213811 
L 233.454547 68.294336 
L 238.865453 65.488939 
L 246.981817 61.228355 
L 249.687274 59.986201 
L 252.392727 58.955305 
L 255.098181 58.238223 
L 256.450909 58.035943 
L 257.803637 57.961712 
L 259.156363 58.035645 
L 260.509091 58.279685 
L 261.861819 58.717648 
L 263.214544 59.375189 
L 264.567273 60.279737 
L 265.920001 61.460412 
L 267.272726 62.947772 
L 268.625455 64.773595 
L 269.978183 66.970439 
L 271.330908 69.571196 
L 272.683636 72.60839 
L 274.036365 76.113547 
L 275.38909 80.116134 
L 276.741818 84.64265 
L 278.094547 89.715397 
L 279.447272 95.351213 
L 280.8 101.560105 
L 283.505453 115.695136 
L 286.21091 132.014505 
L 288.916364 150.228229 
L 292.974545 179.985695 
L 298.385456 220.402981 
L 301.090909 239.090727 
L 303.796363 255.764132 
L 305.149091 263.159793 
L 306.501819 269.85312 
L 307.854544 275.798845 
L 309.207273 280.967659 
L 310.560001 285.32708 
L 311.912726 288.868427 
L 313.265455 291.61272 
L 314.618183 293.611315 
L 315.970908 294.8915 
L 317.323636 295.488 
L 318.676365 294.559295 
L 320.02909 293.204477 
L 321.381818 291.038153 
L 322.734547 288.081078 
L 324.087272 284.300309 
L 325.44 279.699944 
L 326.792728 274.299043 
L 328.145453 268.131312 
L 329.498182 261.227704 
L 330.85091 253.63362 
L 333.556364 236.6014 
L 336.261817 217.608006 
L 341.672727 176.748623 
L 345.730909 146.806504 
L 348.436363 128.533077 
L 351.141819 112.197801 
L 353.847273 98.083732 
L 355.200001 91.89693 
L 356.552726 86.289799 
L 357.905455 81.251535 
L 359.258183 76.764494 
L 360.610908 72.805678 
L 361.963636 69.347918 
L 363.316365 66.361127 
L 364.66909 63.813255 
L 366.021818 61.671247 
L 367.374547 59.901787 
L 368.727272 58.471907 
L 370.08 57.349507 
L 371.432728 56.503706 
L 372.785453 55.905136 
L 374.138182 55.526118 
L 375.49091 55.340813 
L 376.843635 55.325241 
L 378.196364 55.457326 
L 380.901817 56.085313 
L 383.607274 57.084097 
L 386.312727 58.338978 
L 390.370909 60.505722 
L 398.487273 65.104098 
L 398.487273 65.104098 
" style="fill:none;stroke:#000000;stroke-linecap:square;"/>
   </g>
   <g id="line2d_17">
    <path clip-path="url(#p27c6e3618c)" d="M 77.791889 63.679991 
L 85.710214 58.804905 
L 93.628863 56.050718 
L 101.547187 58.21011 
L 109.465512 68.57122 
L 117.383836 93.902793 
L 125.302485 139.235133 
L 133.220809 197.781241 
L 141.139134 252.137084 
L 149.057458 286.693026 
L 156.976107 294.210616 
L 164.894431 272.898544 
L 172.812756 226.386547 
L 180.73108 167.580418 
L 188.649729 114.540575 
L 196.568054 79.036637 
L 204.486378 61.541709 
L 212.404702 56.321418 
L 220.323351 57.503558 
L 228.241676 61.141867 
L 236.16 65.34517 
L 244.078324 69.442924 
L 251.996649 72.665249 
L 259.915298 74.386306 
L 267.833622 75.014629 
L 275.751946 74.957508 
L 283.670271 73.6127 
L 291.58892 70.905698 
L 299.507244 68.213598 
L 307.425569 66.47019 
L 315.343893 65.408499 
L 323.262542 65.392356 
L 331.180866 67.286015 
L 339.099191 70.23019 
L 347.017515 72.457878 
L 354.936164 73.921894 
L 362.854488 75.240626 
L 370.772813 75.409503 
L 378.691137 73.515844 
L 386.609786 70.697085 
L 394.528111 67.752911 
" style="fill:none;stroke:#000000;stroke-linecap:square;"/>
   </g>
   <g id="line2d_18">
    <path clip-path="url(#p27c6e3618c)" d="M 77.791889 63.679991 
L 85.710214 58.804905 
L 93.628863 56.050718 
L 101.547187 58.21011 
L 109.465512 68.57122 
L 117.383836 93.902793 
L 125.302485 139.235133 
L 133.220809 197.781241 
L 141.139134 252.13696 
L 149.057458 286.692963 
L 156.976107 294.210583 
L 164.894431 272.898544 
L 172.812756 226.386423 
L 180.73108 167.580418 
L 188.649729 114.540575 
L 196.568054 79.036637 
L 204.486378 61.541709 
L 212.404702 56.321418 
L 220.323351 57.503558 
L 228.241676 61.141867 
L 236.16 65.34517 
L 244.078324 69.442924 
L 251.996649 72.665249 
L 259.915298 74.386306 
L 267.833622 75.014629 
L 275.751946 74.957508 
L 283.670271 73.6127 
L 291.58892 70.904457 
L 299.507244 68.213598 
L 307.425569 66.47019 
L 315.343893 65.408499 
L 323.262542 65.392356 
L 331.180866 67.286015 
L 339.099191 70.23019 
L 347.017515 72.457878 
L 354.936164 73.921894 
L 362.854488 75.240626 
L 370.772813 75.409503 
L 378.691137 73.515844 
L 386.609786 70.697085 
L 394.528111 67.752911 
" style="fill:none;stroke:#000000;stroke-linecap:square;"/>
   </g>
   <g id="line2d_19">
    <path clip-path="url(#p27c6e3618c)" d="M 73.832727 64.654785 
L 82.157194 68.820674 
L 90.481694 72.102851 
L 98.806161 74.079856 
L 107.130596 74.838425 
L 115.455063 74.250509 
L 123.77953 72.538182 
L 132.103998 70.052124 
L 140.428465 67.461238 
L 148.752932 65.623283 
L 157.077399 65.29478 
L 165.401866 66.482384 
L 173.726334 68.924037 
L 182.050801 71.730936 
L 190.375268 74.098296 
L 198.699735 75.508805 
L 207.024202 75.626163 
L 215.34867 74.416965 
L 223.673137 72.043285 
L 231.997604 68.456831 
L 240.322396 64.247878 
L 248.646863 59.924151 
L 256.97133 57.51939 
L 265.295798 60.38937 
L 273.620265 74.584054 
L 281.944732 106.697261 
L 290.269199 159.464505 
L 298.593666 221.606114 
L 306.918134 271.413531 
L 315.242601 293.925304 
L 323.567068 285.491562 
L 331.891535 247.047274 
L 340.216002 187.417645 
L 348.54047 127.37391 
L 356.864937 84.430076 
L 365.189404 62.481498 
L 373.513871 55.186216 
L 381.838338 55.852312 
L 390.162806 59.901092 
L 398.487273 64.54694 
" style="fill:none;stroke:#000000;stroke-linecap:square;"/>
   </g>
   <g id="line2d_20">
    <path clip-path="url(#p27c6e3618c)" d="M 73.832727 65.155183 
L 77.079273 66.831537 
L 80.325818 68.557561 
L 83.572364 69.991775 
L 86.818909 71.438406 
L 90.065455 72.580811 
L 93.312 73.717006 
L 96.558545 74.542766 
L 99.805091 75.368526 
L 103.051636 75.890058 
L 106.298182 76.41159 
L 109.544727 76.635104 
L 112.791273 76.877244 
L 116.037818 76.846201 
L 119.284364 76.846201 
L 122.530909 76.610269 
L 125.777455 76.41159 
L 129.024 76.045276 
L 132.270545 75.716214 
L 135.517091 75.312647 
L 138.763636 74.946333 
L 142.010182 74.592436 
L 145.256727 74.282 
L 148.503273 74.070903 
L 151.749818 73.915685 
L 154.996364 73.897059 
L 158.242909 73.946729 
L 161.489455 74.13299 
L 164.736 74.375131 
L 167.982545 74.722819 
L 171.229091 75.101551 
L 174.475636 75.511326 
L 177.722182 75.945936 
L 180.968727 76.330877 
L 184.215273 76.728235 
L 187.461818 76.989001 
L 190.708364 77.255976 
L 193.954909 77.324272 
L 197.201455 77.392568 
L 200.448 77.218724 
L 203.694545 77.038671 
L 206.941091 76.591643 
L 210.187636 76.119781 
L 213.434182 75.368526 
L 216.680727 74.586227 
L 219.927273 73.530745 
L 223.173818 72.450428 
L 226.420364 71.08451 
L 229.666909 69.718591 
L 232.913455 68.085698 
L 236.16 66.490058 
L 239.406545 64.664694 
L 242.653091 62.975923 
L 245.899636 61.150559 
L 249.146182 59.654258 
L 252.392727 58.207627 
L 255.639273 57.412911 
L 258.885818 57.015553 
L 262.132364 57.816477 
L 265.378909 59.567336 
L 268.625455 63.311194 
L 271.872 68.80591 
L 275.118545 77.181471 
L 278.365091 88.245408 
L 281.611636 102.686889 
L 284.858182 120.468659 
L 288.104727 140.913971 
L 291.351273 164.463641 
L 294.597818 188.081608 
L 297.844364 213.239337 
L 301.090909 235.038149 
L 304.337455 255.595217 
L 307.584 271.303275 
L 310.830545 282.690066 
L 314.077091 289.836301 
L 317.323636 291.289141 
L 320.570182 289.445152 
L 323.816727 281.820845 
L 327.063273 270.154662 
L 330.309818 253.819523 
L 333.556364 233.113446 
L 336.802909 210.99178 
L 340.049455 185.622955 
L 343.296 161.775266 
L 346.542545 138.169717 
L 349.789091 117.649901 
L 353.035636 99.86813 
L 356.282182 85.445276 
L 359.528727 74.462053 
L 362.775273 66.18583 
L 366.021818 60.80908 
L 369.268364 57.195605 
L 372.514909 55.57513 
L 375.761455 54.904588 
L 379.008 55.432329 
L 382.254545 56.345011 
L 385.501091 57.915817 
L 388.747636 59.517666 
L 391.994182 61.448578 
L 395.240727 63.23048 
L 398.487273 65.155183 
" style="fill:none;stroke:#000000;stroke-linecap:square;"/>
   </g>
   <g id="line2d_21">
    <path clip-path="url(#p27c6e3618c)" d="M 73.832727 64.603849 
L 79.514182 67.582792 
L 83.572364 69.462792 
L 87.630545 71.09196 
L 91.688727 72.444219 
L 94.935273 73.315923 
L 98.181818 73.993915 
L 101.428364 74.473228 
L 104.674909 74.753862 
L 107.921455 74.833334 
L 111.168 74.714127 
L 114.414545 74.402449 
L 118.472727 73.756742 
L 122.530909 72.85772 
L 127.400727 71.514153 
L 135.517091 68.952435 
L 141.198545 67.243796 
L 145.256727 66.244192 
L 148.503273 65.659331 
L 151.749818 65.325302 
L 154.996364 65.24583 
L 158.242909 65.357587 
L 161.489455 65.713968 
L 164.736 66.328631 
L 168.794182 67.376663 
L 173.664 68.901524 
L 186.650182 73.134628 
L 190.708364 74.180177 
L 194.766545 74.982343 
L 198.013091 75.424404 
L 201.259636 75.675236 
L 204.506182 75.728631 
L 207.752727 75.580864 
L 210.999273 75.233175 
L 214.245818 74.68805 
L 217.492364 73.950454 
L 221.550545 72.764589 
L 225.608727 71.301815 
L 229.666909 69.586967 
L 234.536727 67.24628 
L 241.029818 63.822792 
L 246.711273 60.856266 
L 249.957818 59.368657 
L 252.392727 58.45225 
L 254.827636 57.790401 
L 256.450909 57.534601 
L 258.074182 57.463822 
L 259.697455 57.61159 
L 261.320727 58.018882 
L 262.944 58.727917 
L 264.567273 59.784641 
L 266.190545 61.238723 
L 267.813818 63.1448 
L 269.437091 65.556266 
L 271.060364 68.530243 
L 272.683636 72.125091 
L 274.306909 76.392964 
L 275.930182 81.384774 
L 277.553455 87.145223 
L 279.176727 93.706598 
L 280.8 101.091248 
L 282.423273 109.304141 
L 284.858182 123.134683 
L 287.293091 138.640338 
L 289.728 155.544196 
L 293.786182 185.67933 
L 298.656 221.923596 
L 301.090909 238.683412 
L 303.525818 253.810955 
L 305.149091 262.775848 
L 306.772364 270.730211 
L 308.395636 277.60289 
L 310.018909 283.345247 
L 311.642182 287.932162 
L 312.453818 289.791412 
L 313.265455 291.361709 
L 314.077091 292.643524 
L 314.888727 293.636921 
L 315.700364 294.339742 
L 316.512 294.742718 
L 317.323636 294.774713 
L 318.135273 294.509937 
L 318.946909 294.028155 
L 319.758545 293.251345 
L 320.570182 292.176094 
L 321.381818 290.794046 
L 322.193455 289.102033 
L 323.005091 287.104403 
L 324.628364 282.225157 
L 326.251636 276.197236 
L 327.874909 269.053484 
L 329.498182 260.844689 
L 331.121455 251.64287 
L 333.556364 236.194336 
L 335.991273 219.156742 
L 340.049455 188.695898 
L 344.919273 152.15051 
L 347.354182 135.177114 
L 349.789091 119.640416 
L 352.224 105.811116 
L 353.847273 97.615607 
L 355.470545 90.258275 
L 357.093818 83.732912 
L 358.717091 78.017165 
L 360.340364 73.076267 
L 361.963636 68.865513 
L 363.586909 65.331511 
L 365.210182 62.422105 
L 366.833455 60.076451 
L 368.456727 58.239912 
L 370.08 56.855368 
L 371.703273 55.869423 
L 373.326545 55.231167 
L 374.949818 54.894654 
L 376.573091 54.816424 
L 378.196364 54.956741 
L 379.819636 55.282078 
L 382.254545 56.044509 
L 384.689455 57.059014 
L 387.936 58.673281 
L 392.805818 61.382765 
L 398.487273 64.603849 
L 398.487273 64.603849 
" style="fill:none;stroke:#000000;stroke-linecap:square;"/>
   </g>
   <g id="line2d_22">
    <path clip-path="url(#p27c6e3618c)" d="M 74.644364 61.523939 
L 79.514182 63.536806 
L 84.384 65.331026 
L 89.253818 66.906166 
L 94.123636 68.287631 
L 100.616727 69.887431 
L 108.733091 71.598418 
L 116.849455 73.068568 
L 124.965818 74.323673 
L 133.082182 75.346708 
L 139.575273 75.974198 
L 146.068364 76.411677 
L 152.561455 76.645175 
L 159.054545 76.667986 
L 165.547636 76.481923 
L 172.040727 76.097106 
L 180.157091 75.362925 
L 188.273455 74.385425 
L 196.389818 73.198976 
L 204.506182 71.810234 
L 212.622545 70.173492 
L 219.115636 68.612297 
L 223.985455 67.243697 
L 228.855273 65.672394 
L 233.725091 63.888368 
L 240.218182 61.241977 
L 246.711273 58.566329 
L 249.957818 57.408676 
L 253.204364 56.540536 
L 254.827636 56.270109 
L 256.450909 56.144618 
L 258.074182 56.195381 
L 259.697455 56.457488 
L 261.320727 56.969943 
L 262.944 57.775624 
L 264.567273 58.921269 
L 266.190545 60.457108 
L 267.813818 62.436497 
L 269.437091 64.915067 
L 271.060364 67.949777 
L 272.683636 71.597449 
L 274.306909 75.913055 
L 275.930182 80.947407 
L 277.553455 86.744625 
L 279.176727 93.339104 
L 280.8 100.752301 
L 282.423273 108.989309 
L 284.046545 118.035587 
L 285.669818 127.854055 
L 288.916364 149.534441 
L 292.162909 173.228621 
L 298.656 221.761588 
L 301.902545 243.797989 
L 303.525818 253.693968 
L 305.149091 262.675951 
L 306.772364 270.650646 
L 308.395636 277.549601 
L 310.018909 283.325857 
L 311.642182 287.948251 
L 313.265455 291.39616 
L 314.888727 293.65627 
L 316.512 294.720778 
L 318.135273 294.586368 
L 319.758545 293.253642 
L 321.381818 290.726954 
L 323.005091 287.014891 
L 324.628364 282.131746 
L 326.251636 276.099759 
L 327.874909 268.951988 
L 329.498182 260.737034 
L 331.121455 251.525326 
L 332.744727 241.41301 
L 335.991273 218.995848 
L 340.861091 182.292577 
L 344.107636 157.834716 
L 347.354182 134.922433 
L 350.600727 114.542065 
L 352.224 105.50073 
L 353.847273 97.280945 
L 355.470545 89.895736 
L 357.093818 83.338534 
L 358.717091 77.586528 
L 360.340364 72.604031 
L 361.963636 68.345744 
L 363.586909 64.759799 
L 365.210182 61.790306 
L 366.833455 59.379609 
L 368.456727 57.470031 
L 370.08 56.005332 
L 371.703273 54.931633 
L 373.326545 54.198259 
L 374.949818 53.758111 
L 376.573091 53.568 
L 378.196364 53.588675 
L 379.819636 53.784858 
L 381.442909 54.125071 
L 384.689455 55.129592 
L 387.936 56.418944 
L 394.429091 59.342866 
L 397.675636 60.811104 
L 397.675636 60.811104 
" style="fill:none;stroke:#000000;stroke-linecap:square;"/>
   </g>
   <g id="line2d_23">
    <path clip-path="url(#p27c6e3618c)" d="M 73.832727 71.555751 
L 75.464157 72.245279 
L 78.727017 73.999044 
L 81.989877 75.381663 
L 85.252736 76.688164 
L 90.147026 78.384386 
L 95.041316 79.692302 
L 101.567035 80.787632 
L 106.461324 81.358586 
L 109.724183 81.318092 
L 114.618474 81.184133 
L 116.249905 81.064268 
L 117.881333 81.129074 
L 119.512765 80.734709 
L 124.407052 80.00511 
L 129.301343 79.22532 
L 130.932774 78.719632 
L 143.984211 75.923386 
L 150.50993 75.07792 
L 158.66708 75.02907 
L 161.929939 75.30619 
L 166.82423 76.072681 
L 168.455661 76.532797 
L 170.087089 76.728992 
L 178.244239 78.542435 
L 179.875671 79.09146 
L 181.507099 79.235241 
L 186.401389 80.134115 
L 191.29568 80.995177 
L 192.927108 80.994569 
L 196.189967 81.239478 
L 202.715686 81.349186 
L 210.872836 80.429401 
L 215.767127 79.452521 
L 220.661417 78.107477 
L 225.555705 76.39505 
L 230.449995 74.377179 
L 240.238573 69.004204 
L 246.764295 64.78081 
L 253.290014 60.550164 
L 256.552873 58.657287 
L 258.184305 57.832384 
L 259.815733 57.135232 
L 261.447164 56.585363 
L 263.078592 56.229094 
L 264.710023 56.114084 
L 266.341451 56.275188 
L 267.972883 56.783843 
L 269.604314 57.698897 
L 271.235742 59.079716 
L 272.867173 61.011993 
L 274.498601 63.567614 
L 276.130033 66.824347 
L 277.761461 70.871973 
L 279.392892 75.783616 
L 281.02432 81.622903 
L 282.655751 88.473641 
L 284.287183 96.362228 
L 285.918611 105.303429 
L 287.550042 115.30719 
L 289.18147 126.315435 
L 292.444329 150.976342 
L 295.707192 178.089888 
L 300.601479 219.473757 
L 303.864339 244.533263 
L 305.49577 255.59975 
L 307.127198 265.491732 
L 308.758629 274.019897 
L 310.390061 281.117982 
L 312.021489 286.825437 
L 313.65292 290.97461 
L 315.284348 293.628017 
L 316.915779 294.953878 
L 318.547207 294.379439 
L 320.178639 292.507106 
L 321.81007 289.021431 
L 323.441498 284.172343 
L 325.072929 277.783328 
L 326.704357 269.907377 
L 328.335789 260.703412 
L 329.967217 250.222909 
L 331.598648 238.592434 
L 334.861507 212.777347 
L 343.018657 144.521882 
L 344.650085 132.172554 
L 346.281517 120.685567 
L 347.912948 110.179918 
L 349.544376 100.700272 
L 351.175807 92.281535 
L 352.807235 84.926153 
L 354.438667 78.583947 
L 356.070095 73.210611 
L 357.701526 68.746393 
L 359.332954 65.102608 
L 360.964385 62.203657 
L 362.595817 59.975249 
L 364.227245 58.324413 
L 365.858676 57.184206 
L 367.490104 56.487489 
L 369.121535 56.152677 
L 370.752963 56.133306 
L 372.384395 56.415654 
L 374.015826 56.885418 
L 375.647254 57.499423 
L 378.910113 59.157772 
L 382.172973 61.105521 
L 395.224413 69.496804 
L 398.487273 71.385409 
L 398.487273 71.385409 
" style="fill:none;stroke:#000000;stroke-linecap:square;"/>
   </g>
   <g id="line2d_24">
    <path clip-path="url(#p27c6e3618c)" d="M 73.832727 72.719686 
L 79.892945 74.661179 
L 83.355927 75.45998 
L 88.5504 76.1884 
L 92.879127 76.326405 
L 95.476364 76.148109 
L 98.939345 75.66727 
L 101.536582 75.146228 
L 104.133818 74.393005 
L 106.731055 73.40691 
L 118.851491 68.05491 
L 124.911709 66.129332 
L 127.508945 65.455849 
L 130.106182 64.857196 
L 132.703418 64.419721 
L 134.434909 64.135311 
L 136.1664 63.87123 
L 138.763636 63.532056 
L 143.092364 63.103759 
L 150.884073 62.711614 
L 156.944291 62.657057 
L 164.736 62.895765 
L 169.930473 63.269407 
L 175.124945 63.900602 
L 179.453673 64.668678 
L 183.7824 65.681762 
L 187.245382 66.70959 
L 190.708364 67.959916 
L 195.037091 69.838012 
L 204.560291 74.092733 
L 207.157527 74.963239 
L 209.754764 75.624179 
L 212.352 76.097984 
L 214.949236 76.393103 
L 217.546473 76.507142 
L 221.009455 76.382582 
L 223.606691 76.107417 
L 227.069673 75.509514 
L 230.532655 74.646489 
L 233.995636 73.569901 
L 238.324364 71.939321 
L 243.518836 69.684535 
L 252.176291 65.82149 
L 254.773527 64.878911 
L 257.370764 64.185978 
L 259.102255 63.925319 
L 260.833745 63.871399 
L 262.565236 64.085261 
L 264.296727 64.613863 
L 266.028218 65.533003 
L 267.759709 66.908683 
L 269.4912 68.823168 
L 271.222691 71.359451 
L 272.954182 74.607439 
L 274.685673 78.650628 
L 276.417164 83.575807 
L 278.148655 89.454124 
L 279.880145 96.344234 
L 281.611636 104.284656 
L 283.343127 113.280018 
L 285.074618 123.304412 
L 287.671855 140.105445 
L 290.269091 158.639458 
L 294.597818 191.630781 
L 298.926545 224.066352 
L 301.523782 241.764705 
L 303.255273 252.440372 
L 304.986764 262.056696 
L 306.718255 270.513613 
L 308.449745 277.746771 
L 310.181236 283.722668 
L 311.912727 288.422697 
L 312.778473 290.290405 
L 313.644218 291.835011 
L 314.509964 293.055537 
L 315.375709 293.951209 
L 316.241455 294.521463 
L 317.1072 294.765924 
L 317.972945 294.684432 
L 318.838691 294.27704 
L 319.704436 293.544013 
L 320.570182 292.485801 
L 321.435927 291.103131 
L 322.301673 289.396764 
L 323.167418 287.367869 
L 324.898909 282.3474 
L 326.6304 276.055153 
L 328.361891 268.512552 
L 330.093382 259.758402 
L 331.824873 249.86583 
L 333.556364 238.943911 
L 336.1536 220.953738 
L 339.616582 194.967247 
L 344.811055 155.467377 
L 347.408291 137.192009 
L 350.005527 120.724828 
L 351.737018 110.956405 
L 353.468509 102.224464 
L 355.2 94.550656 
L 356.931491 87.916248 
L 358.662982 82.281935 
L 360.394473 77.585106 
L 362.125964 73.744444 
L 363.857455 70.682672 
L 365.588945 68.306902 
L 367.320436 66.533795 
L 369.051927 65.27651 
L 370.783418 64.457911 
L 372.514909 64.012809 
L 374.2464 63.870828 
L 375.977891 63.977692 
L 377.709382 64.2798 
L 380.306618 65.020387 
L 382.903855 65.98614 
L 388.098327 68.265369 
L 395.024291 71.355936 
L 398.487273 72.719686 
L 398.487273 72.719686 
" style="fill:none;stroke:#ff0000;stroke-linecap:square;stroke-width:3;"/>
   </g>
   <g id="patch_3">
    <path d="M 57.6 307.584 
L 57.6 41.472 
" style="fill:none;stroke:#000000;stroke-linecap:square;stroke-linejoin:miter;stroke-width:0.8;"/>
   </g>
   <g id="patch_4">
    <path d="M 414.72 307.584 
L 414.72 41.472 
" style="fill:none;stroke:#000000;stroke-linecap:square;stroke-linejoin:miter;stroke-width:0.8;"/>
   </g>
   <g id="patch_5">
    <path d="M 57.6 307.584 
L 414.72 307.584 
" style="fill:none;stroke:#000000;stroke-linecap:square;stroke-linejoin:miter;stroke-width:0.8;"/>
   </g>
   <g id="patch_6">
    <path d="M 57.6 41.472 
L 414.72 41.472 
" style="fill:none;stroke:#000000;stroke-linecap:square;stroke-linejoin:miter;stroke-width:0.8;"/>
   </g>
   <g id="text_18">
    <!-- 80 km -->
    <g transform="translate(217.299375 35.472)scale(0.12 -0.12)">
     <use xlink:href="#DejaVuSans-56"/>
     <use x="63.623047" xlink:href="#DejaVuSans-48"/>
     <use x="127.246094" xlink:href="#DejaVuSans-32"/>
     <use x="159.033203" xlink:href="#DejaVuSans-107"/>
     <use x="216.943359" xlink:href="#DejaVuSans-109"/>
    </g>
   </g>
   <g id="legend_1">
    <g id="patch_7">
     <path d="M 64.6 302.584 
L 118.220312 302.584 
Q 120.220312 302.584 120.220312 300.584 
L 120.220312 286.905875 
Q 120.220312 284.905875 118.220312 284.905875 
L 64.6 284.905875 
Q 62.6 284.905875 62.6 286.905875 
L 62.6 300.584 
Q 62.6 302.584 64.6 302.584 
z
" style="fill:#ffffff;opacity:0.8;stroke:#cccccc;stroke-linejoin:miter;"/>
    </g>
    <g id="line2d_25">
     <path d="M 66.6 293.004312 
L 86.6 293.004312 
" style="fill:none;stroke:#ff0000;stroke-linecap:square;stroke-width:3;"/>
    </g>
    <g id="line2d_26"/>
    <g id="text_19">
     <!-- tsa1 -->
     <g transform="translate(94.6 296.504312)scale(0.1 -0.1)">
      <defs>
       <path d="M 18.3125 70.21875 
L 18.3125 54.6875 
L 36.8125 54.6875 
L 36.8125 47.703125 
L 18.3125 47.703125 
L 18.3125 18.015625 
Q 18.3125 11.328125 20.140625 9.421875 
Q 21.96875 7.515625 27.59375 7.515625 
L 36.8125 7.515625 
L 36.8125 0 
L 27.59375 0 
Q 17.1875 0 13.234375 3.875 
Q 9.28125 7.765625 9.28125 18.015625 
L 9.28125 47.703125 
L 2.6875 47.703125 
L 2.6875 54.6875 
L 9.28125 54.6875 
L 9.28125 70.21875 
z
" id="DejaVuSans-116"/>
       <path d="M 44.28125 53.078125 
L 44.28125 44.578125 
Q 40.484375 46.53125 36.375 47.5 
Q 32.28125 48.484375 27.875 48.484375 
Q 21.1875 48.484375 17.84375 46.4375 
Q 14.5 44.390625 14.5 40.28125 
Q 14.5 37.15625 16.890625 35.375 
Q 19.28125 33.59375 26.515625 31.984375 
L 29.59375 31.296875 
Q 39.15625 29.25 43.1875 25.515625 
Q 47.21875 21.78125 47.21875 15.09375 
Q 47.21875 7.46875 41.1875 3.015625 
Q 35.15625 -1.421875 24.609375 -1.421875 
Q 20.21875 -1.421875 15.453125 -0.5625 
Q 10.6875 0.296875 5.421875 2 
L 5.421875 11.28125 
Q 10.40625 8.6875 15.234375 7.390625 
Q 20.0625 6.109375 24.8125 6.109375 
Q 31.15625 6.109375 34.5625 8.28125 
Q 37.984375 10.453125 37.984375 14.40625 
Q 37.984375 18.0625 35.515625 20.015625 
Q 33.0625 21.96875 24.703125 23.78125 
L 21.578125 24.515625 
Q 13.234375 26.265625 9.515625 29.90625 
Q 5.8125 33.546875 5.8125 39.890625 
Q 5.8125 47.609375 11.28125 51.796875 
Q 16.75 56 26.8125 56 
Q 31.78125 56 36.171875 55.265625 
Q 40.578125 54.546875 44.28125 53.078125 
z
" id="DejaVuSans-115"/>
      </defs>
      <use xlink:href="#DejaVuSans-116"/>
      <use x="39.208984" xlink:href="#DejaVuSans-115"/>
      <use x="91.308594" xlink:href="#DejaVuSans-97"/>
      <use x="152.587891" xlink:href="#DejaVuSans-49"/>
     </g>
    </g>
   </g>
  </g>
 </g>
 <defs>
  <clipPath id="p27c6e3618c">
   <rect height="266.112" width="357.12" x="57.6" y="41.472"/>
  </clipPath>
 </defs>
</svg>
