X,Y,surf vx,surf vy,tauxy integr.,tauxy dir.,secinvare integr.,secinvar dir.,P integr.,P dir.,
0.0,1000.0,30.4242532941,10.0398799295,71821.7932676,76731.1620935,75296.6697095,79307.7168868,8529489.39073,8529480.16996
80.0,1012.56504772,29.8000338068,9.89321141361,69404.2916066,64249.6148329,75081.3157395,71798.0913032,8339951.65839,8339960.79208
160.0,1025.12215909,29.1496461273,9.8333278394,72660.6159715,72941.9427803,77338.4434284,79013.325144,8411076.25522,8411067.76946
240.0,1037.66340276,28.514905379,9.65754173547,72201.8398555,67131.4520318,76435.492314,72374.5049834,8125824.02802,8125820.86632
320.0,1050.18085743,27.8562681764,9.56754392856,71632.1789394,68667.1337027,75579.7960388,74365.4090363,8116961.3173,8116961.56168
400.0,1062.66661678,27.2110128825,9.36264531673,70493.1673499,70720.0471135,74437.8222114,75588.7625378,7885047.00684,7885045.59649
480.0,1075.11279456,26.5399770248,9.24513255837,68772.6553763,66436.1703436,72978.5244719,71347.3986516,7811747.28638,7811745.4666
560.0,1087.51152949,25.8802589061,9.01691023022,66710.145514,60767.974377,73244.946257,68978.3920385,7730540.55462,7730536.47999
640.0,1099.85499026,25.1962501205,8.87729085373,71174.1409277,68457.0650414,75968.5735008,75882.5546859,7917064.68805,7917057.74252
720.0,1112.13538047,24.5244744931,8.63127718581,69954.2047569,64581.4312598,74503.7104393,69187.8038849,7479964.10521,7479965.21638
800.0,1124.34494358,23.8325705083,8.47180550976,70486.8707432,68760.3636377,74193.3972225,73546.5335083,7393820.7047,7393818.25729
880.0,1136.47596776,23.1540365129,8.2109289342,68564.7789466,67154.6951515,72121.4495968,70474.8312691,7158122.31632,7158120.62456
960.0,1148.52079079,22.4565857943,8.03476420584,67340.7023247,64993.9499106,71733.0802135,70585.2034023,7267770.00844,7267768.71622
1040.0,1160.4718049,21.7718131987,7.76614968596,68708.0152022,71303.7409641,72177.2533865,73382.775602,7204557.67395,7204553.75547
1120.0,1172.32146159,21.0735348769,7.57961651234,66895.9644594,62690.3749787,70924.5003931,67597.7719273,7019342.54248,7019342.55919
1200.0,1184.06227634,20.3920495925,7.30785105609,67892.0623959,66621.9187165,70988.4289373,70321.1216418,6783606.79743,6783603.97791
1280.0,1195.68683342,19.7022188687,7.10993554356,65721.2635848,62094.7660713,69232.169156,66408.9331262,6730577.90511,6730576.98614
1360.0,1207.1877905,19.0319618633,6.83086085566,66040.4507018,65471.8466092,69154.4983117,69250.4155961,6710444.59874,6710442.76236
1440.0,1218.55788333,18.3584552519,6.61914408446,64532.4894556,62069.7881975,67691.4147869,65662.8884224,6643759.34668,6643757.61374
1520.0,1229.78993031,17.7037146108,6.33435988757,63613.0567538,61462.6034938,67257.0336638,65612.625227,6428724.20588,6428723.20727
1600.0,1240.87683705,17.0473735778,6.11372460729,64422.420802,66635.9308644,67468.8457826,68855.0422277,6299508.62356,6299505.8726
1680.0,1251.81160082,16.4082588961,5.82945235798,62839.3380972,59478.5100977,66434.825982,63352.754155,6247915.68624,6247915.40666
1760.0,1262.58731498,15.7720636853,5.60470284016,64097.9061175,62766.9406725,66836.4228733,66457.0206254,6335857.32733,6335854.30975
1840.0,1273.19717337,15.1509024605,5.32664522466,62251.6609437,58686.0068915,65280.2981567,61974.6729415,6051801.10042,6051801.29872
1920.0,1283.63447456,14.5358515438,5.10331952561,62894.4964982,61447.0126033,65333.6572844,64792.0943566,5922873.29389,5922870.73837
2000.0,1293.89262615,13.9378327349,4.83883627845,61220.5115129,58750.2426049,63788.7152551,61281.7782056,5848488.13636,5848488.13053
2080.0,1303.96514885,13.3464875527,4.62534592553,61514.9770705,60476.7089986,63751.9913817,63110.6234768,5952464.92332,5952462.44868
2160.0,1313.84568065,12.779461063,4.37491364736,60789.621991,59898.8106425,62722.6516512,61970.4527291,5680753.74394,5680754.31447
2240.0,1323.52798078,12.2255502706,4.16872515002,59125.340095,59728.2591014,61228.2717282,61958.4096257,5520679.94966,5520678.40939
2320.0,1333.00593372,11.6963761972,3.92861547751,58852.8119905,59113.3069468,60720.3479091,61329.2839389,5529995.77055,5529995.56766
2400.0,1342.27355296,11.1830834541,3.72688848562,57326.2565101,53950.5474808,59542.2985291,56823.6102375,5548106.8603,5548105.41266
2480.0,1351.3249849,10.69242567,3.49805733718,57779.8094398,56886.507953,59741.0687553,59451.4691816,5336613.98207,5336613.43137
2560.0,1360.15451244,10.2160542879,3.30425659344,56733.7129819,54315.4802944,58759.6833424,56505.8350188,5237232.60324,5237231.42967
2640.0,1368.75655868,9.76355607827,3.09112692075,57002.0976985,56349.5957538,58741.5057254,58317.9981806,5305730.51558,5305728.94031
2720.0,1377.12569037,9.32726655179,2.9083398013,56395.0501905,55975.9446839,57945.0034201,57626.5796274,5152365.65549,5152365.68366
2800.0,1385.25662139,8.91704057115,2.70837570828,55232.3293189,55750.1523902,56818.0455098,57378.2607694,4928867.86596,4928866.80111
2880.0,1393.14421607,8.5246716493,2.53135387993,55097.9608903,54918.1165876,56514.4605002,56773.8727809,5020884.60481,5020884.52279
2960.0,1400.78349244,8.15321623323,2.34348896528,54114.0527955,51367.1021525,55694.6403656,53169.8147507,4997180.84469,4997179.97918
3040.0,1408.16962536,7.79722785585,2.18070138716,54855.3859943,53580.5677851,56114.0529137,55243.4256732,4823938.11187,4823936.46772
3120.0,1415.2979496,7.46005713513,2.01165744476,54248.5279895,53550.9370955,55291.2288274,54593.4047185,4777318.59537,4777319.28463
3200.0,1422.16396275,7.14254611035,1.86702777463,53430.7866576,53498.2559722,54372.125044,54523.6487652,4796151.37941,4796150.58548
3280.0,1428.7633281,6.84620489292,1.71307345819,52586.5054454,53015.7628787,53465.4300936,54178.2172944,4586110.23278,4586109.58867
3360.0,1435.09187733,6.57201395052,1.58156821242,52186.1014272,52295.4096638,53012.7254114,53142.455984,4636487.55984,4636487.33505
3440.0,1441.14561322,6.31767853072,1.43803906269,51806.6201819,51465.4424799,52657.9081958,52467.2791011,4597723.7896,4597723.24218
3520.0,1446.92071208,6.08559113024,1.31647093843,51530.6175809,51996.9652592,52339.5829899,52961.9033861,4422265.90403,4422265.65518
3600.0,1452.41352623,5.8675718668,1.1819497792,51739.6800126,51266.9880884,52389.5889528,52141.9400045,4505508.73299,4505507.64617
3680.0,1457.62058631,5.66700976385,1.07656426449,51570.4308593,50475.9080474,52120.2186814,51064.8721355,4434588.08141,4434588.52247
3760.0,1462.53860342,5.48092182091,0.957940163748,51065.144409,51297.5001027,51485.2059975,51731.3103045,4276801.6222,4276801.03258
3840.0,1467.16447123,5.31558082246,0.868927624929,50364.9463467,50002.6515842,50761.0277151,50346.9015107,4477950.76003,4477950.1858
3920.0,1471.49526795,5.16776310966,0.759364297991,49963.705179,50733.2040973,50357.7355634,51237.7781197,4220543.99776,4220543.88214
4000.0,1475.52825815,5.03903528815,0.677935432108,50239.0494993,50261.5090694,50567.4347175,50712.705975,4298005.29479,4298004.86302
4080.0,1479.26089451,4.92129620779,0.576011121516,50323.1514318,49737.6789475,50595.0307228,50034.9892676,4204626.42391,4204626.51624
4160.0,1482.69081942,4.81737492149,0.507508805927,50250.6525228,50724.7815805,50424.6162296,50924.4900813,4101902.43386,4101902.01591
4240.0,1485.81586646,4.72451420901,0.420401433922,49827.9805368,50113.0814845,49935.9521743,50210.7777806,4207170.75442,4207170.37275
4320.0,1488.63406178,4.64486069064,0.367389459121,49408.4280389,48908.5379317,49484.3470779,49002.7700907,4013981.29601,4013980.98807
4400.0,1491.14362536,4.57721508606,0.296444968397,49029.0226061,48839.7126443,49085.5035496,48890.7441613,4135955.59286,4135955.42942
4480.0,1493.3429721,4.52242212231,0.256157061724,48750.8094138,48580.3212316,48796.1962906,48641.2351292,4045070.33135,4045070.17742
4560.0,1495.23071285,4.47985020566,0.199772824411,48490.192365,48570.7507695,48524.3994381,48594.3111879,4063425.28965,4063425.21001
4640.0,1496.80565526,4.44854748889,0.166891684309,48311.7251639,48355.2954642,48339.6909081,48397.0530997,4061271.10733,4061271.02711
4720.0,1498.06680457,4.4287459884,0.119650276042,48149.1188108,48421.9302135,48166.6586703,48430.5165473,4012390.70249,4012390.65576
4800.0,1499.01336421,4.41501038196,0.0901619481654,48060.645672,48230.4304307,48074.3356748,48253.3241015,4066839.7385,4066839.6953
4880.0,1499.64473632,4.40646331369,0.0491716113896,47983.6366243,48355.2366998,47988.6244812,48356.5338478,3984341.16926,3984341.14363
4960.0,1499.9605221,4.40140419226,0.0198849567154,47960.9657708,48186.0902133,47966.1499301,48193.2173943,4065262.94528,4065262.91705
5040.0,1499.9605221,4.40191403327,-0.0183068306087,47952.1521781,48355.7697754,47954.2138126,48358.9307567,3980274.51721,3980274.48815
5120.0,1499.64473632,4.40613513128,-0.0488624848234,47986.4937715,48197.0865771,47993.0748056,48199.0418056,4059595.91853,4059595.90373
5200.0,1499.01336421,4.4154853525,-0.0872006852763,48050.7143936,48366.7654592,48060.3191481,48379.97659,4001197.24774,4001197.24784
5280.0,1498.06680457,4.42843505342,-0.12129389858,48167.7563848,48306.2996219,48184.8868539,48314.6066882,4053109.96769,4053109.99369
5360.0,1496.80565526,4.44906743309,-0.163081562885,48308.2580886,48495.132192,48332.8388195,48524.2948036,4048437.22888,4048437.27109
5440.0,1495.23071285,4.47990362119,-0.203162336451,48505.3658934,48456.7187463,48538.6571283,48480.5938695,4048806.17577,4048806.26011
5520.0,1493.3429721,4.52288754902,-0.251367835048,48745.3543141,48720.8451278,48788.5690471,48766.8493763,4123387.24568,4123387.39776
5600.0,1491.14362536,4.57784033375,-0.301847181046,49046.2223735,48757.8403701,49102.4450982,48806.7473015,4050562.15948,4050562.29245
5680.0,1488.63406178,4.64554181544,-0.362101459773,49408.7760893,49047.7064202,49483.8444914,49123.0474859,4228818.75391,4228819.26285
5760.0,1485.81586646,4.72613332931,-0.427242795277,49836.2321763,50376.8228521,49944.2371666,50450.1285209,4079371.5905,4079371.96405
5840.0,1482.69081942,4.81852182968,-0.502474080688,50260.7343346,50666.0898511,50436.3814803,50818.8986576,4252984.17781,4252984.5467
5920.0,1479.26089451,4.9241386835,-0.584002973337,50335.0460082,50323.8459022,50606.1496938,50563.3802358,4189542.1611,4189542.38584
6000.0,1475.52825815,5.04044755167,-0.673579659942,50248.152231,49299.5880935,50583.0427429,49838.6812222,4205193.13209,4205193.37791
6080.0,1471.49526795,5.17152141704,-0.768059130331,49980.6338104,50965.3864227,50374.4286154,51317.9015214,4295968.15787,4295968.73307
6160.0,1467.16447123,5.3174099195,-0.866292457631,50377.9604702,50233.5583994,50781.4340822,50695.3279808,4200657.14752,4200657.75613
6240.0,1462.53860342,5.48512809449,-0.967175762683,51069.857025,51124.1790074,51492.0890773,51430.8060715,4396590.9659,4396591.60532
6320.0,1457.62058631,5.66810726052,-1.07553962623,51590.0421047,51273.4105429,52149.5056817,51826.344989,4384825.52405,4384825.93959
6400.0,1452.41352623,5.87163520386,-1.19109297671,51756.0403979,50387.5525396,52423.4974395,51328.369957,4381919.90935,4381920.44721
6480.0,1446.92071208,6.0850562608,-1.31701432959,51589.3089678,52356.3314869,52425.2470765,53102.6204071,4547977.60993,4547978.6753
6560.0,1441.14561322,6.31924284008,-1.44716970951,51868.6084366,52504.3070668,52770.5581141,53466.1104714,4498789.34957,4498790.06319
6640.0,1435.09187733,6.56767024483,-1.58368024157,52244.3119587,51066.1545775,53142.9534404,52205.0501844,4577383.30879,4577383.90883
6720.0,1428.7633281,6.84198599503,-1.72190237352,52485.9927003,53430.1766513,53526.3844519,54398.6705607,4688513.56731,4688514.58953
6800.0,1422.16396275,7.13062259997,-1.86968142248,52830.693305,53391.4532267,53942.3103705,54616.9902599,4670727.21613,4670728.37884
6880.0,1415.2979496,7.44592633367,-2.01873430779,53451.565898,52375.1684618,54530.7312224,53672.5221998,4757692.35407,4757693.07838
6960.0,1408.16962536,7.77631183437,-2.17914591407,53827.140923,54705.6665261,55053.7662075,55884.6310513,4860483.65024,4860485.0548
7040.0,1400.78349244,8.13235849808,-2.34028674415,54372.5173079,54886.7780106,55664.4944263,56253.3942991,4864406.79592,4864407.90042
7120.0,1393.14421607,8.50437796659,-2.51493495381,55116.7209166,53877.5344423,56389.059256,55424.9166237,4944046.59785,4944047.50266
7200.0,1385.25662139,8.9021980274,-2.68982350737,55607.6718196,56456.7771392,57067.7556087,57834.2767027,5067645.73435,5067648.08126
7280.0,1377.12569037,9.31403358329,-2.88078130657,56423.2143615,56746.4006717,57964.7434423,58369.4857593,5103098.64005,5103099.63386
7360.0,1368.75655868,9.75073021933,-3.07103659813,57089.0898432,55320.1174777,58774.9104716,57321.8064743,5121104.30673,5121106.17238
7440.0,1360.15451244,10.2021991446,-3.27641276656,56757.2334611,55477.8489418,58777.0003085,57159.6051082,5268364.03754,5268365.41904
7520.0,1351.3249849,10.6728971354,-3.47993303576,57800.6113733,56755.6901952,59743.2634113,59385.5927518,5326728.42977,5326729.81661
7600.0,1342.27355296,11.1593140302,-3.69894167961,57332.6557769,54178.1282341,59541.7086077,56723.1048049,5378949.40203,5378951.75304
7680.0,1333.00593372,11.6670843832,-3.91349299253,58848.9539221,59069.0520126,60706.2039403,61197.8968732,5488544.46305,5488545.81668
7760.0,1323.52798078,12.1912998784,-4.13863012715,59153.5653124,59499.4180089,61237.2693544,61486.0010445,5607707.18295,5607710.25443
7840.0,1313.84568065,12.737406333,-4.36053191202,60820.7009944,61658.7956525,62760.5111508,63276.9637055,5676091.51975,5676092.95784
7920.0,1303.96514885,13.3000797685,-4.59067205847,61645.7750045,58969.2818128,63885.3382836,61957.2279482,5672450.46767,5672453.76427
8000.0,1293.89262615,13.8813561447,-4.82237410911,61207.1251624,59432.2893062,63886.8882201,61778.4061609,5850992.9591,5850994.55376
8080.0,1283.63447456,14.4732252922,-5.06329754534,63038.1952056,61325.228701,65572.0784,64677.7167415,5919326.06206,5919329.32842
8160.0,1273.19717337,15.0775915238,-5.30808236137,61866.0577763,58053.9379628,65250.3106775,62135.9029041,6022395.0305,6022396.80128
8240.0,1262.58731498,15.6895520501,-5.55793710677,63504.4162281,62973.5075896,66412.4092628,66312.4153754,6042693.84198,6042697.30676
8320.0,1251.81160082,16.3132280914,-5.80796671916,61854.8530616,56627.4637571,65663.1680668,62525.7857455,6197605.26962,6197607.32486
8400.0,1240.87683705,16.9458951004,-6.0575709711,63256.0524754,64117.2753068,66196.246079,65680.4743556,6347008.60853,6347011.70171
8480.0,1229.78993031,17.5896875013,-6.30276695329,64372.2672563,62436.2406657,67456.6429824,67076.2307688,6385182.77594,6385185.50056
8560.0,1218.55788333,18.2426273252,-6.54423721861,64278.4840607,60700.6291408,67505.1899502,64235.5616935,6500344.43352,6500346.93772
8640.0,1207.1877905,18.9112821858,-6.78070868888,66289.6795767,66180.8060312,69178.3832026,69410.9490661,6588721.38111,6588724.82867
8720.0,1195.68683342,19.5842432078,-7.01349964601,65667.1571385,62427.1754903,69152.2006847,66566.5364801,6726218.75788,6726220.9652
8800.0,1184.06227634,20.2709176609,-7.24202458239,67976.8018988,67183.071508,70984.6599268,70498.6101855,6788036.95556,6788040.88074
8880.0,1172.32146159,20.9565757352,-7.47091268925,66869.3445175,63050.1769538,70834.9027729,67824.5613488,6917745.11148,6917747.57798
8960.0,1160.4718049,21.6512089559,-7.69648295127,68788.0622825,73687.0566994,72195.2646687,75240.5589444,6974450.97502,6974454.82299
9040.0,1148.52079079,22.3402589806,-7.91952037667,66909.0515042,61068.8489084,71373.3549386,68056.1633508,7113159.35921,7113162.75431
9120.0,1136.47596776,23.0328592765,-8.13654075171,68423.7346871,69109.4661026,71877.8660013,71050.1816299,7254240.16225,7254242.8761
9200.0,1124.34494358,23.7199101243,-8.35165553836,70016.8207864,67694.916715,73627.3445583,73000.1511451,7304948.37622,7304952.53254
9280.0,1112.13538047,24.4084013821,-8.55481477331,69367.2490545,65255.919928,73521.2186665,70033.6834351,7466643.48557,7466646.31181
9360.0,1099.85499026,25.0907770565,-8.75470813003,71294.0628021,70871.0294914,75004.6847922,75002.4290077,7516670.789,7516674.71863
9440.0,1087.51152949,25.7739693488,-8.93965725496,69354.8918513,63565.4417858,74163.1111679,70790.1231165,7669877.23158,7669880.89177
9520.0,1075.11279456,26.4491967376,-9.12166737701,70711.029823,71765.4011849,74663.5446413,73909.5040809,7787422.51964,7787425.40229
9600.0,1062.66661678,27.1225887374,-9.28784425029,71754.7756722,69349.8609499,75904.7589856,75652.1445659,7826934.865,7826939.41028
9680.0,1050.18085743,27.7860756651,-9.45130415373,70426.5872575,63841.7636475,75080.0441697,70799.3751558,8006271.43345,8006274.75805
9760.0,1037.66340276,28.4435033739,-9.59765843957,72027.1573116,72626.5643805,75730.980478,74792.2795209,8151678.09261,8151681.60081
9840.0,1025.12215909,29.0919221377,-9.73850975467,73405.6342829,71488.7400123,77252.9754508,76965.3893618,8199562.02363,8199566.29652
9920.0,1012.56504772,29.7339947118,-9.86028038459,72875.471702,68899.1757867,77181.3825295,73745.248047,8342699.87697,8342702.91174
10000.0,1000.0,30.3668888074,-9.9760197534,74704.2148846,74415.4545211,78597.8504515,78751.7038288,8424195.27849,8424199.66946
10080.0,987.434952278,30.9896329343,-10.0741241339,72739.182772,66767.308905,77669.6608855,74119.058846,8559258.04007,8559261.87386
10160.0,974.87784091,31.6013715133,-10.1664452023,74075.3998009,75126.6296413,78116.7687296,77316.3643104,8671581.0084,8671584.24132
10240.0,962.336597236,32.2008775897,-10.2434930973,74988.9869266,72695.2398718,79228.6383561,79132.2219044,8736969.60316,8736974.36407
10320.0,949.819142574,32.787105601,-10.3117819268,73600.3572208,66846.2108754,78278.2621683,73832.2697799,8907301.27953,8907304.71413
10400.0,937.333383218,33.3604756622,-10.3663469102,75164.9663742,75751.7364164,78867.0227205,77925.6117356,9034810.01738,9034813.93392
10480.0,924.88720544,33.9184206665,-10.4080915326,76361.1731581,74436.1476591,80201.1033138,79933.4170841,9104662.39872,9104666.7384
10560.0,912.488470512,34.4635598328,-10.4378529668,75783.7632501,71626.199683,80006.2890496,76296.4048334,9235638.84198,9235641.94701
10640.0,900.145009743,34.9949120788,-10.4529373381,77447.5291577,77465.4553392,81249.3987203,81767.6423014,9314127.42083,9314132.10511
10720.0,887.864619525,35.5138505622,-10.4568732977,75462.7603336,69527.1826182,80142.1906827,76621.7133322,9448157.18517,9448160.88018
10800.0,875.655056418,36.0152806874,-10.4468773539,76971.9659542,77763.5817512,80552.889789,79821.9635111,9567493.5997,9567497.24161
10880.0,863.524032241,36.5035717192,-10.4270066651,78184.8705947,75813.9751651,81920.5465181,81344.456206,9640401.05447,9640405.61119
10960.0,851.479209211,36.9740341309,-10.3936168482,77415.3531342,72900.7543411,81531.9341937,77478.8104194,9789771.97447,9789775.02066
11040.0,839.528195096,37.4303915293,-10.3506962744,79050.788516,79269.1346313,82732.0490693,83429.2387031,9865644.04053,9865648.52831
11120.0,827.678538413,37.8668777171,-10.2948755504,76931.6005348,70918.7239325,81462.4716768,77866.6323977,9985430.66165,9985434.18411
11200.0,815.937723658,38.2918851435,-10.227828664,78398.0809439,79218.4553086,81824.3905206,81153.2179484,10079302.6291,10079306.5285
11280.0,804.313166581,38.6958815138,-10.1497264822,79369.2223301,77153.1361743,82952.0912491,82517.2129722,10181020.3966,10181024.5941
11360.0,792.812209503,39.0879593531,-10.0594639663,78641.0977836,74213.3394045,82502.4630631,78392.884763,10325289.0345,10325292.0561
11440.0,781.442116675,39.4584022166,-9.96089502242,79999.7685506,80385.927385,83475.9932436,84393.4968842,10398982.4675,10398987.0609
11520.0,770.210069689,39.8188987458,-9.84631188319,78093.1532327,72124.5326708,82223.3639469,78381.8736916,10487933.5881,10487936.4254
11600.0,759.123162949,40.1591175778,-9.72658974663,79270.785242,82603.6044852,82421.0855394,85442.8598834,10596563.6986,10596568.0553
11680.0,748.188399182,40.4883763635,-9.58950065892,79842.4837085,77935.427937,83094.3881363,82964.7455345,10728831.0634,10728834.0726
11760.0,737.412685019,40.7981817856,-9.450685617,79624.7673321,82071.5379586,82744.7218272,84573.6018158,10837291.2309,10837295.1797
11840.0,726.802826633,41.0977270573,-9.29204186656,81029.1617532,81681.0069742,83857.5996389,84903.8517392,10895315.3723,10895318.5751
11920.0,716.365525437,41.3791170933,-9.13525040752,80191.2068015,81351.8584528,83266.7042197,84456.3087464,10958847.3557,10958851.1503
12000.0,706.107373854,41.6501608976,-8.95712379189,81647.8224076,81756.355872,84310.2821597,84789.6738287,11098454.8411,11098458.1152
12080.0,696.034851153,41.903920709,-8.78454485247,80652.5076752,82156.7029961,83614.0787245,85106.6483937,11192930.0189,11192933.5636
12160.0,686.154319355,42.1464872675,-8.59026391033,82058.517172,82456.2123504,84582.8931576,85296.9206237,11267717.1065,11267720.1924
12240.0,676.472019215,42.3739760548,-8.40344680925,81010.0826423,82361.362004,83830.9151331,85236.2397977,11313843.794,11313847.3485
12320.0,666.994066283,42.5887756213,-8.19625549569,82275.7203126,82719.1945241,84665.299092,85439.5513679,11466612.647,11466615.3851
12400.0,657.726447036,42.7893622083,-7.99779660493,81256.2370183,82591.2549202,83888.5669487,85283.4253942,11526800.2292,11526803.6558
12480.0,648.675015101,42.9769072622,-7.77984181828,82325.1115539,82968.3297108,84532.7031622,85496.8022863,11610825.5707,11610827.8711
12560.0,639.845487556,43.1522389369,-7.5696608678,81474.8129651,82778.9363486,83821.5889644,85243.2300485,11653845.3399,11653849.0555
12640.0,631.243441321,43.3152909724,-7.3421141178,82466.455361,83162.7361447,84352.5299235,85432.8566271,11838420.2602,11838422.5888
12720.0,622.874309632,43.4668455523,-7.12164938383,82371.3964611,83093.8097521,84281.1153045,85073.9719902,11824805.3814,11824808.6323
12800.0,614.743378612,43.6066571815,-6.88627922892,83197.1921679,84103.7897338,84877.8702921,85711.5742529,11904989.341,11904992.2103
12880.0,606.855783932,43.7367981499,-6.65673786299,83444.7398286,81726.5841495,85196.1271093,84086.6752801,11981155.9233,11981158.02
12960.0,599.216507565,43.8554170327,-6.41522782991,82909.6104113,85170.5650582,84651.4251983,86912.8512822,12059169.9095,12059173.0168
13040.0,591.830374641,43.9650559447,-6.1780757668,83118.4562225,82937.4899683,84710.5226856,85422.4379572,12129292.0807,12129294.2776
13120.0,584.702050402,44.0640710943,-5.93254933147,83105.3168124,84155.4533181,84544.7782093,85432.3165926,12188583.8447,12188586.1072
13200.0,577.836037249,44.154850487,-5.68955894909,83571.6296403,84486.1257106,84853.4208005,85856.9223315,12257862.0741,12257864.7309
13280.0,571.236671903,44.2353746167,-5.4410155014,83752.551646,82316.6486833,84937.8805715,84019.5910488,12314076.729,12314078.6431
13360.0,564.908122665,44.3089058156,-5.19371499369,83827.0688967,85447.3361148,84971.2132358,86610.1926461,12359818.3968,12359820.2932
13440.0,558.854386783,44.3735375752,-4.94277109129,83788.9889357,84718.0030394,84846.1539418,85783.1142401,12444788.0119,12444790.3572
13520.0,553.079287924,44.4315002669,-4.69203205099,84021.3111559,83018.4448021,84910.5497713,84210.4371977,12456827.9487,12456829.9901
13600.0,547.586473767,44.4818254545,-4.43928692309,84115.006822,85276.5414727,84939.5167432,86244.4252737,12552885.6497,12552886.9107
13680.0,542.37941369,44.5260638633,-4.18645040264,84438.5459994,84983.6533436,85160.8342139,85629.6151454,12564161.7062,12564163.7231
13760.0,537.461396583,44.5641298643,-3.93235187598,84669.6597694,85111.8511552,85317.7255673,85836.982798,12579018.2048,12579020.085
13840.0,532.835528772,44.59634644,-3.67862990514,84755.3991047,84071.608073,85407.0598944,85147.2501341,12738888.2665,12738889.8592
13920.0,528.504732054,44.6239311089,-3.42362567348,84511.5352048,85891.7158012,85093.3365107,86543.7452709,12670723.4647,12670724.5046
14000.0,524.471741852,44.6458783917,-3.1690684113,84680.8173481,85291.3412022,85167.8643993,85724.7627117,12727807.8791,12727808.8658
14080.0,520.739105491,44.6648566357,-2.91350299187,84625.1244962,85456.2141405,85047.0499008,85937.1593497,12767920.2742,12767921.8913
14160.0,517.309180583,44.6799488378,-2.65977899453,84591.9453271,84562.438455,84979.4173124,84790.3612056,12800605.5111,12800606.8638
14240.0,514.184133543,44.6945870397,-2.40521072019,84334.9140119,82910.6004332,84642.7006971,83215.8859929,12885074.8031,12885075.9061
14320.0,511.365938216,44.706898841,-2.15233352816,84226.8824763,84823.9460711,84428.7914275,84994.0300288,12825278.7288,12825279.5779
14400.0,508.856374636,44.7188500033,-1.89741510723,84505.251246,84666.2494737,84618.5731442,84820.565106,12908787.9717,12908788.5702
14480.0,506.657027896,44.7288734533,-1.64524794998,84997.8013512,85452.5701105,85070.9667135,85511.0793342,12875313.4726,12875313.9825
14560.0,504.769287152,44.7382466909,-1.39033645769,85246.5435619,85302.2639819,85295.7055602,85371.242333,12916609.8492,12916610.1569
14640.0,503.19434474,44.7457797946,-1.13924520235,85535.8231999,85749.6722639,85565.4734206,85771.7453075,12915344.9863,12915345.6138
14720.0,501.933195428,44.7523426481,-0.884715214761,85713.8724518,85695.2686215,85733.2274425,85726.1257388,12926833.7861,12926834.01
14800.0,500.986635786,44.757126777,-0.634752859874,85842.8770759,85906.2518749,85851.5657392,85910.8469983,12941451.8904,12941452.2658
14880.0,500.35526368,44.7605865381,-0.380570319802,85910.6755125,85881.3521606,85915.8215466,85890.2514431,12935872.9616,12935873.1699
14960.0,500.039477898,44.7624525948,-0.131323936731,85987.0561914,85870.1032641,85988.243648,85870.2572241,12952217.957,12952218.0421
15040.0,500.039477898,44.7625933728,0.122716132034,85986.0599442,85860.4251555,85989.4240392,85862.2086848,12940874.1748,12940874.2018
15120.0,500.35526368,44.7614466622,0.37174294063,85925.6738131,85959.3697517,85929.5723718,85965.2083132,12945702.2524,12945701.9951
15200.0,500.986635786,44.7583791417,0.625988197072,85857.714229,85865.8746264,85869.845835,85870.9352865,12941872.2861,12941872.1706
15280.0,501.933195428,44.7541894912,0.875283999307,85727.5246002,85771.9766617,85745.6236642,85795.0824407,12921781.0681,12921780.7557
15360.0,503.19434474,44.7480126876,1.13004240245,85546.3973791,85685.9890923,85579.9377308,85704.8020427,12936086.7653,12936086.5088
15440.0,504.769287152,44.7410114378,1.38003002649,85267.8983421,85448.8187111,85316.5401742,85508.5017895,12878086.2635,12878085.9575
15520.0,506.657027896,44.7321086397,1.63537821477,85016.1186547,85264.709371,85093.2384474,85309.0489273,12922583.3388,12922582.977
15600.0,508.856374636,44.7225137257,1.88587120449,84535.1688256,85106.1866834,84647.3845824,85240.6472023,12810795.1349,12810794.6371
15680.0,511.365938216,44.7111850547,2.14149647857,84247.3118733,84174.8998441,84454.2352534,84288.4668817,12897687.8726,12897687.1168
15760.0,514.184133543,44.6990344992,2.39215171364,84357.724846,83147.7509406,84663.341024,83434.1201932,12736183.6403,12736182.4805
15840.0,517.309180583,44.6853972699,2.64753504486,84594.0921002,85357.9146601,84980.2208921,85503.4258946,12818961.2584,12818959.6673
15920.0,520.739105491,44.6699188166,2.89852452793,84626.5979639,85410.4882876,85051.3883984,85901.8237661,12727148.5864,12727147.5685
16000.0,524.471741852,44.6525335556,3.15549014656,84681.6408512,84525.0944417,85171.0006539,84901.1059601,12760370.2707,12760369.4863
16080.0,528.504732054,44.631090869,3.40620569005,84536.5025836,86072.4596499,85121.4906801,86701.0742513,12677332.1027,12677331.3041
16160.0,532.835528772,44.6048654386,3.66384313029,84765.778408,85079.1015862,85416.2722519,86074.1971202,12596249.2922,12596248.4941
16240.0,537.461396583,44.5738216137,3.91261246771,84684.2905805,84853.7158549,85338.0349368,85620.030978,12606830.4672,12606827.6314
16320.0,542.37941369,44.5371964877,4.1700907858,84479.337898,84449.4747711,85194.1265384,85018.1512267,12610398.4577,12610397.3937
16400.0,547.586473767,44.4945913225,4.41662790925,84125.8381988,85103.8687513,84949.1872167,86066.237049,12456438.5936,12456437.7419
16480.0,553.079287924,44.4454813364,4.67366989213,84043.4660993,84598.2344251,84926.7305349,85672.4828743,12538005.9582,12538004.6478
16560.0,558.854386783,44.3896238621,4.91661161491,83772.7552862,83774.6856964,84830.2385723,84691.5497634,12362294.9966,12362292.2075
16640.0,564.908122665,44.3267667546,5.17258818709,83875.9783199,85122.6718304,85009.0975749,86393.0546146,12413162.175,12413161.4433
16720.0,571.236671903,44.2559211909,5.41085295256,83726.1725775,83986.1968779,84902.2846375,85450.7031182,12267565.2355,12267563.8452
16800.0,577.836037249,44.1771136333,5.66492660974,83576.7413963,83133.8428402,84863.3786503,84436.1536144,12279406.4445,12279403.2313
16880.0,584.702050402,44.0892621208,5.89696974513,83091.4743118,84490.9838063,84541.4531935,85833.8844078,12154091.4241,12154090.3445
16960.0,591.830374641,43.9929117745,6.14848693173,83147.9281923,83799.9687993,84744.1579484,85916.6791036,12175512.3253,12175510.1381
17040.0,599.216507565,43.886045134,6.3732320137,82913.7078241,84393.4645193,84676.2603663,86434.2514305,12026659.3922,12026657.587
17120.0,606.855783932,43.7702733295,6.62110843677,83537.360009,83446.8762314,85280.5288319,85521.9733998,12042066.1594,12042064.1325
17200.0,614.743378612,43.6430434201,6.83705747432,83259.3924278,82490.9303587,84950.3048565,84262.5939977,11897028.0391,11897022.9777
17280.0,622.874309632,43.5061277334,7.07901172485,82487.0893716,83706.2464361,84361.2174524,85526.6488525,11915443.3701,11915442.0791
17360.0,631.243441321,43.357854784,7.28392659305,82496.9609574,83398.9264082,84392.1720836,85623.2072845,11677594.9155,11677592.8547
17440.0,639.845487556,43.1977747034,7.51912892339,81575.5731129,83237.6388074,83891.2887361,85510.5301353,11790604.467,11790602.0357
17520.0,648.675015101,43.0253437643,7.71208054808,82388.032179,82806.9975566,84607.1059851,85470.1807678,11583280.1407,11583278.6028
17600.0,657.726447036,42.8399152283,7.9385691269,81445.7297301,82663.1069359,84026.8022535,85229.5547283,11586819.9669,11586816.388
17680.0,666.994066283,42.6414360638,8.11928127654,82345.2021553,82947.6479351,84722.2686,85774.7653994,11409899.583,11409897.9529
17760.0,676.472019215,42.4282661859,8.33624752384,81206.3224441,82721.3465025,83965.7927598,85429.7368909,11470506.3243,11470502.2957
17840.0,686.154319355,42.2015991264,8.50468391311,82153.4167957,82190.2147682,84666.4046944,85265.5642016,11259921.2996,11259919.5293
17920.0,696.034851153,41.9587733094,8.71246972492,80894.2253445,81812.7928516,83817.4052264,84788.1136057,11243334.7025,11243330.4674
18000.0,706.107373854,41.7017558141,8.86906098725,81861.683501,82795.3576253,84480.8929232,85794.3438363,11079917.354,11079915.3961
18080.0,716.365525437,41.4294179846,9.06608858377,80541.6632271,82542.4956507,83530.6094134,85311.8670465,11092270.0605,11092265.4905
18160.0,726.802826633,41.1435101845,9.2089468055,81329.654761,80542.7020419,84122.2523086,84280.2986311,10903701.6844,10903700.1737
18240.0,737.412685019,40.8426525288,9.3921802491,80243.6764877,80441.9653186,83292.7244624,84116.1521667,10890153.227,10890149.6215
18320.0,748.188399182,40.5300352166,9.51618368073,80844.0789641,82646.324333,83585.8502112,85272.6613287,10705216.4098,10705214.3189
18400.0,759.123162949,40.2024395447,9.68027309988,79500.7704449,80512.934505,82360.9004779,82715.1483893,10674612.1043,10674606.9344
18480.0,770.210069689,39.8623183038,9.78264674774,78704.237655,79444.9760441,81876.7643193,83872.7316317,10526984.6071,10526983.3675
18560.0,781.442116675,39.5049005866,9.92703595344,77854.2177882,82085.6488982,80971.1313706,85321.6514192,10454749.8622,10454749.1198
18640.0,792.812209503,39.1346451606,10.0051953236,75869.4258085,68018.3237346,80827.8344396,75888.4074898,10230405.6036,10230403.3522
18720.0,804.313166581,38.7480182304,10.1277887682,79031.9336649,77658.6874611,83223.7599927,83669.0258065,10338270.3366,10338265.9687
18800.0,815.937723658,38.3480291402,10.1796311585,78306.4965038,74099.4432724,82464.6443786,78658.5109546,10279959.2008,10279953.7898
18880.0,827.678538413,37.9318296546,10.2783491074,78924.992334,79346.260597,82501.1738305,83218.7986221,10104583.0441,10104581.3688
18960.0,839.528195096,37.5023995775,10.3014417915,77708.4328615,79579.9533707,81298.1044541,83084.7468311,9778618.03732,9778613.35453
19040.0,851.479209211,37.0542955818,10.3757899138,76867.4509109,73215.6522836,80959.8004607,78890.6400987,9803769.87009,9803768.43783
19120.0,863.524032241,36.5912944762,10.3709781552,77178.7857616,75834.5358206,81294.9012215,81643.214667,9752869.13053,9752867.40778
19200.0,875.655056418,36.1081375599,10.4249845667,76816.4230945,76362.0648042,80707.834595,79771.8027358,9776148.35147,9776145.36772
19280.0,887.864619525,35.6120682492,10.3925115962,75217.228021,71789.8963216,80231.9608837,77175.4995241,9476562.59973,9476559.30246
19360.0,900.145009743,35.0928265536,10.4286625565,78027.5805897,78000.8975215,82005.9879941,82505.2567796,9441970.79752,9441963.74867
19440.0,912.488470512,34.5642633834,10.3705784145,77036.5717258,71690.6797759,80899.9725857,76930.3401495,9161158.91992,9161157.64754
19520.0,924.88720544,34.0105851412,10.3913142666,76504.5841879,74568.5610793,80221.8674013,79912.3777533,9278637.85937,9278636.40722
19600.0,937.333383218,33.4493645535,10.3117065165,75407.2438907,75520.6709171,78836.2104784,78492.7816709,9088746.90093,9088742.93139
19680.0,949.819142574,32.8634487821,10.3181907468,72972.9821163,69451.273211,78028.1668198,75253.3623057,9035509.05489,9035506.73068
19760.0,962.336597236,32.2772717871,10.2155989909,76068.9314933,76931.1319425,80008.0475447,81356.3495834,8800528.84057,8800533.58969
19840.0,974.87784091,31.6670988632,10.2015103354,74845.4946034,68221.7821594,78746.1217467,74348.2445674,8759132.74965,8759127.02261
19920.0,987.434952278,31.0581037331,10.0741235651,74454.1572452,73505.2938827,77899.3131487,78579.4936977,8572822.84001,8572831.86233
20000.0,1000.0,30.4242532941,10.0398799295,71821.7932676,75123.7949805,75296.6697095,79104.9624893,8529489.39073,8529480.16996
