X,Y,surf vx,surf vy,tauxy integr. above,tauxy dir. above,secinvare integr. above,secinvar dir. above,tauxy integr. below,tauxy dir. below,secinvare integr. below,secinvar dir. below,P integr.,P dir.,
0.0,1000.0,32.0495677324,7.57047410451,74541.7319103,75114.3661495,75915.4519017,76381.1157798,-14509.7184321,-15016.7112326,131375.127878,127005.670722,8215788.99772,8258579.73879
312.5,1024.53383716,29.8225246998,7.03818412945,74541.7319103,73915.197344,74445.479747,75139.3369577,-14509.7184321,-13846.3550638,121241.979602,122248.524401,8215788.99772,8018320.65953
625.0,1049.00857016,27.5878673676,6.69296290237,73119.280703,72303.2222892,72891.3581353,73675.6268878,-14596.1359697,-13771.69803,109479.66739,111283.033228,8010909.01654,7809743.05607
937.5,1073.36523723,25.4765505088,6.15561391243,69873.9597486,69219.8279976,71334.4053998,70486.150282,-15097.8545073,-13924.3473891,96083.234955,97394.2802776,7603038.14602,7576379.12154
1250.0,1097.54516101,23.3923783417,5.76003488936,68421.8732013,67686.5846931,69711.4051756,69058.582808,-14113.3597302,-12936.026895,81437.4374923,83705.0130493,7405564.09528,7373212.88299
1562.5,1121.49008995,21.4414809949,5.24832891252,67062.587317,66363.707372,68076.8740401,67574.9164374,-13546.2882151,-11848.8662922,65291.6823232,66799.9669306,7211852.58983,7154465.04244
1875.0,1145.14233863,19.5267327164,4.81798387187,65564.888285,64781.6918217,66385.4200142,66069.1604241,-11897.000463,-10481.0579331,48382.1121129,50295.0382414,7018151.10351,6952603.39346
2187.5,1168.4449267,17.7674232413,4.37709954279,64162.6704043,63421.4385235,64695.5683504,64547.9130936,-10611.0727069,-8710.68607615,31176.6425692,31477.5936135,6829404.12945,6747677.76862
2500.0,1191.34171618,16.0663813303,3.93436808092,62596.3423015,61787.3340545,62970.5417316,62972.2929416,-7836.76979434,-6170.02986285,18648.5774786,13426.5487178,6641112.4482,6547124.72787
2812.5,1213.77754672,14.5182237884,3.56324818912,61195.2623898,60417.990547,61253.1643653,61464.2302084,-6337.24783874,-4420.97123566,22464.282627,11574.1362199,6459057.2393,6359890.10834
3125.0,1235.69836841,13.0538201993,3.13693317613,59597.1213739,58796.9830175,59525.7794936,59833.7201173,-2395.65436445,-608.445097544,40249.601109,31148.3716474,6278270.01166,6161634.05025
3437.5,1257.0513721,11.722263512,2.83049169613,58200.4751111,57386.104019,57807.2017084,58354.3559189,-891.247714972,965.070873422,61258.9011201,52739.4597302,6103918.59398,5992507.749
3750.0,1277.78511651,10.494791576,2.44114662524,56631.5606749,55857.9296049,56100.4314322,56718.8767879,4014.04271891,5726.57454068,83252.1182195,75266.3002946,5932984.74464,5801087.72744
4062.5,1297.84965225,9.37425992373,2.19609892669,53658.7554106,52886.023282,54415.6391798,53831.8982533,5204.96094024,6920.60621133,105956.709393,97233.2321259,5603928.38665,5636221.7093
4375.0,1317.19664208,8.37209478481,1.86135286156,52188.8636006,51495.9487662,52759.0050455,52265.4560811,11161.405825,12675.5098554,128712.741097,120946.015628,5449201.18554,5441483.05842
4687.5,1335.77947742,7.45325737801,1.66427250724,50838.4566786,50086.2544099,51146.6550165,50897.6526894,31470.1492818,33448.9921777,151690.646416,148386.745673,5299057.56195,5276392.14373
5000.0,1353.55339059,6.65560320417,1.39703429758,49484.0515625,48807.7829006,49575.9239148,49435.8897921,37607.3247741,39534.876113,174294.862976,172679.534171,5156830.45307,5100850.58788
5312.5,1370.47556268,5.92507558328,1.23131370641,48174.8261159,47483.2891533,48073.8776647,48135.4694809,35647.5163352,37253.5851298,196496.564851,193570.378218,5019148.65368,4943897.08308
5625.0,1386.50522668,5.30425843567,1.03286058691,46950.1935844,46300.7827536,46630.6529201,46808.7640402,42777.2765923,44204.3878449,218116.881295,216960.275091,4890264.41914,4788466.24266
5937.5,1401.60376574,4.74228004786,0.889452731059,45738.8827147,45134.948239,45275.879712,45624.3685584,39567.116856,40745.2337164,238845.322302,236604.031887,4766756.33302,4645358.73022
6250.0,1415.73480615,4.26981146258,0.749018752265,44662.5040101,44066.6681074,44001.7089179,44460.3249531,47152.5150546,48034.5251732,258801.170032,258207.234466,4652151.91474,4505785.71103
6562.5,1428.864305,3.85184268932,0.626241943103,42354.2563673,41838.4105553,42831.7331342,42223.1868326,43261.7053925,43996.9623378,277459.250324,276093.083485,4406236.60895,4390600.46628
6875.0,1440.96063217,3.50255926931,0.527689753304,41489.0407462,41062.0826916,41764.1214826,41362.3088044,50572.1159124,50923.0871671,295094.530686,295127.957591,4309954.5313,4280230.24792
7187.5,1451.99464656,3.203406322,0.426029601233,40642.7833646,40218.4171383,40813.6693127,40468.0863839,46695.4194104,47023.9480665,311164.321117,310820.21841,4221224.18105,4200127.30441
7500.0,1461.93976626,2.95633427145,0.35480229251,39961.9016764,39642.3296447,39982.6332651,39831.7767735,53129.2027666,53001.7076895,325905.394635,326624.832677,4140851.60478,4109427.64948
7812.5,1470.77203259,2.75354363279,0.273747438598,39328.235126,39006.8492737,39276.1795363,39149.0458682,49797.7065768,49781.1258575,338926.399528,339669.71582,4068860.1152,4042225.04129
8125.0,1478.47016787,2.59096228421,0.220468333468,38847.2902268,38641.4943363,38695.61282,38743.8553211,55065.9717888,54555.0876795,350310.269606,351814.545275,4005302.7535,3977051.55936
8437.5,1485.0156266,2.46531248126,0.160011629979,38426.5111419,38205.4843149,38227.2746407,38272.1358479,52548.3077325,52248.3134701,359867.271793,361679.600003,3950629.18926,3918092.5384
8750.0,1490.3926402,2.3729198991,0.122168968934,38119.8736606,38004.284926,37865.8392156,38051.7087497,56630.8785177,55869.8082324,367552.574153,369929.602085,3904578.22124,3882816.28296
9062.5,1494.58825498,2.31106724877,0.0801648674175,37871.9689711,37737.5058881,37590.4849236,37760.8389246,54879.5044442,54344.5078543,373418.783891,376163.032843,3867797.12937,3830747.82073
9375.0,1497.59236334,2.26834116442,0.0536338470514,37700.649036,37647.8626536,37413.4945709,37660.8124033,57963.7454412,57092.4345744,377317.335399,380587.317319,3839989.71916,3826469.91362
9687.5,1499.3977281,2.24337240344,0.0234369327424,37600.5431076,37548.6925093,37308.2975023,37551.1324006,57088.8609935,56377.5006136,379294.047682,382905.703717,3821512.49521,3784816.48569
10000.0,1500.0,2.23413468968,0.000949546995298,37547.0807504,37540.2188918,37278.4296525,37540.6423505,59534.7329757,58660.9780634,379211.453316,383346.79446,3811900.67385,3806863.85489
10312.5,1499.3977281,2.24220488824,-0.0262051801697,37548.7569605,37554.623789,37305.92199,37556.422929,59360.1358241,58625.6602931,377230.706767,381551.275644,3811630.07153,3782431.23377
10625.0,1497.59236334,2.26601374823,-0.0505449456646,37585.7082045,37619.1939416,37404.2593706,37624.7902082,61389.8146141,60637.9902972,373303.395458,378153.243385,3820356.32924,3824309.18731
10937.5,1494.58825498,2.30830655794,-0.0816852860856,37688.7578568,37759.1477467,37581.5076186,37777.2581767,61875.6637274,61255.6943208,367576.792615,372400.414881,3838443.29371,3825000.5297
11250.0,1490.3926402,2.368014987,-0.115774330272,37846.9613639,37941.4597189,37850.1705046,37975.220254,63931.8021475,63419.1720948,360005.302428,365369.424257,3865487.99112,3879040.66481
11562.5,1485.0156266,2.45991523045,-0.159148066513,38092.2049144,38244.9522534,38215.7753277,38299.6722336,65240.3338771,64881.4696687,350661.021022,355802.497511,3901476.68358,3912296.38415
11875.0,1478.47016787,2.58472383844,-0.208630178797,38407.4179598,38579.2807756,38681.5035938,38660.5351105,67526.8179918,67386.9868292,339693.302231,345242.782425,3946210.73339,3971177.28593
12187.5,1470.77203259,2.74803418482,-0.269005242433,38814.5044851,39060.3614158,39269.0045737,39176.4783855,69517.8560862,69560.9749398,327243.520345,332346.099837,3999841.06734,4043607.23876
12500.0,1461.93976626,2.95130322038,-0.337149323714,39323.4562759,39599.9140021,39980.2404068,39759.4586144,72299.0979709,72647.0274241,313462.851652,318774.579107,4062129.45187,4102394.59448
12812.5,1451.99464656,3.20200506326,-0.416453268006,39938.7060124,40295.6524852,40819.9825519,40504.6166668,75112.3480456,75620.1383139,298501.445508,303111.015138,4132966.46661,4217106.86707
13125.0,1440.96063217,3.50175172466,-0.507711054895,40660.68201,41046.0654571,41780.5693808,41310.6131621,78549.8479389,79444.0159653,282585.87595,287059.094854,4212161.78837,4274116.50146
13437.5,1428.864305,3.85860106631,-0.61204262967,41482.0922658,41946.8124453,42855.8941999,42274.062467,82175.4110323,83183.4715933,265957.263434,269401.20075,4299524.72294,4429280.4663
13750.0,1415.73480615,4.27490212584,-0.733940216386,43669.7408141,44177.681266,44037.1662414,44534.4725579,86307.6511699,87761.2619823,248920.951064,251695.068256,4533450.05536,4500656.09764
14062.5,1401.60376574,4.75909065117,-0.871013933228,44698.5327734,45215.2865119,45313.8647487,45636.6334965,90694.4990394,92211.2005198,231853.235364,233118.463749,4639806.19109,4663326.10989
14375.0,1386.50522668,5.31458766138,-1.03161780796,45814.4931912,46407.1541642,46677.3700522,46894.3330713,95487.3819755,97469.6006225,215180.648203,215016.980613,4753899.41501,4779386.34469
14687.5,1370.47556268,5.94945015888,-1.20924991685,46992.0510073,47580.5161925,48115.7701199,48140.8564102,100533.582801,102531.895723,199470.225285,197060.532325,4875430.34361,4932324.9289
15000.0,1353.55339059,6.66834506694,-1.41578327245,48235.2702288,48895.391562,49621.3226908,49524.3499699,105884.924999,108327.71625,185329.468504,180502.277792,5004125.33572,5084721.15847
15312.5,1335.77947742,7.47792911916,-1.64049326559,49526.3836754,50174.616467,51182.5206184,50881.5615844,111442.524946,113858.542778,173525.817996,165477.282593,5139665.5916,5235762.45798
15625.0,1317.19664208,8.38420037839,-1.89803931991,50863.7670763,51575.9756355,52792.2452206,52352.1960503,150888.945966,155093.962613,164786.154461,182340.334263,5281733.41631,5413413.43068
15937.5,1297.84965225,9.39111514183,-2.17409610555,52236.0813761,52932.5209599,54439.7983964,53787.7438659,157537.381205,162014.208337,159851.695736,177279.183814,5429984.69202,5570150.31568
16250.0,1277.78511651,10.5057870999,-2.48469493076,55212.0655035,55909.1421759,56119.0935706,56756.7790234,164185.067355,168501.389962,159010.927215,175269.4928,5748945.96356,5761880.02617
16562.5,1257.0513721,11.7281586767,-2.81330888701,56683.9122627,57423.1242653,57820.7347933,58334.6121315,170726.837725,175197.951283,162274.685588,176982.117089,5913219.6488,5935830.57022
16875.0,1235.69836841,13.0658520481,-3.17520359185,58170.281502,58892.4538488,59536.977816,59870.5782523,177147.912191,181401.99657,169213.823715,181536.092042,6082711.24521,6131279.49657
17187.5,1213.77754672,14.5138398988,-3.55364487223,59665.8418147,60420.0332502,61259.3631922,61456.2201224,183336.267877,187617.4371,179108.313654,188995.809614,6257020.76864,6324678.71399
17500.0,1191.34171618,16.0792773525,-3.96055257702,61163.8038182,61899.5010265,62980.7224641,62996.6907911,189276.154756,193288.477654,191127.700725,198224.360549,6435728.9613,6526170.45364
17812.5,1168.4449267,17.7518685144,-4.38125000187,62657.1984155,63413.8790779,64693.7699854,64561.9652949,194859.702835,198777.402231,204471.503878,209043.644428,6618401.78944,6731911.26354
18125.0,1145.14233863,19.5371315366,-4.82181431659,64141.4922224,64878.8120456,66391.7135886,66079.1963619,200069.511645,203669.994403,218455.07265,220441.175407,6804608.4367,6941175.59134
18437.5,1121.49008995,21.4200089278,-5.27168791276,65609.301341,66356.8432677,68068.2464554,67599.341387,204809.656912,208211.479517,232513.369002,232254.028471,6993890.31923,7154366.07728
18750.0,1097.54516101,23.4032189451,-5.72936959742,67057.455401,67784.5921159,69717.2893879,69068.4068348,209064.528157,212106.610076,246199.437615,243731.464746,7185804.09402,7371053.62822
19062.5,1073.36523723,25.4682701705,-6.18973068147,68479.3019415,69207.1352847,71333.5638242,70522.3777969,212754.175352,215517.531211,259159.699977,254774.363499,7379876.00542,7588219.45305
19375.0,1049.00857016,27.6141938364,-6.64333295474,71736.7903787,72420.8898236,72912.2593483,73693.6560865,215870.306866,218241.88226,271118.027134,264871.416097,7783155.44806,7807201.18041
19687.5,1024.53383716,29.8209303235,-7.09056075026,73137.0417243,73798.6116416,74448.9069169,75093.1336423,218350.91142,220390.423382,281863.39907,273974.501422,7985531.89811,8021996.64167
20000.0,1000.0,32.0834696113,-7.51540020333,74499.6460194,75152.4659881,75939.1252958,76459.1380008,220200.91219,221832.388912,291235.400342,281755.276098,8188691.50572,8241014.33719
20312.5,975.466162836,34.3821074396,-7.92264344042,75822.5378851,76450.5133081,77379.9617422,77765.6615532,221377.047299,222650.269524,299121.063505,288208.365102,8392130.52254,8456460.00983
20625.0,950.991429835,36.7080853701,-8.29252564849,77102.7329648,77718.1699215,78768.3019324,79029.9869032,221902.387335,222771.543117,305448.290878,293140.756858,8595381.86897,8674029.31824
20937.5,926.634762772,39.0434162988,-8.63258744334,78339.078527,78928.0287848,80102.5892744,80233.9852997,257633.005264,257835.219595,310228.787482,322265.304704,8797937.9455,8888598.46291
21250.0,902.454838992,41.3763974161,-8.92263702952,79529.2405926,80102.3905902,81380.5394293,81389.6870724,255905.883153,255662.810816,313569.920599,323201.059045,8999334.62094,9102567.60746
21562.5,878.509910048,43.6912849782,-9.17168016842,80672.7713199,81218.7071942,82601.9093762,82486.0356916,253485.211772,252787.570193,315321.476727,322577.584148,9199061.43865,9314486.49094
21875.0,854.857661373,45.974527451,-9.36158859814,81767.6142345,82294.3124963,83764.6903,83529.6396934,250419.886084,249331.473719,315552.994791,320602.679425,9396661.22597,9522866.60113
22187.5,831.555073304,48.2126383066,-9.50229443998,82813.4347188,83312.889729,84869.5725607,84515.2911133,246748.722823,245273.052838,314311.154037,317165.691146,9591623.80318,9730210.52625
22500.0,808.658283817,50.3914206464,-9.57872948829,83808.7473298,84285.3374787,85914.3420177,85445.5615191,242529.481364,240735.967059,311723.55778,312542.444153,9783507.84662,9931137.82519
22812.5,786.222453285,52.4997954234,-9.60129368025,84752.585802,85202.0465274,86900.2488547,86317.3674369,237821.043199,235718.623645,307862.964308,306653.353493,9971809.45395,10131916.3739
23125.0,764.301631587,54.5242641786,-9.55830805054,85644.9107544,86068.6156672,87825.0722003,87134.8048807,232680.148994,230344.749854,302897.349517,299809.278318,10156116.7689,10323609.7255
23437.5,742.948627903,56.4565587317,-9.45937062195,86484.1027666,86880.7104996,88690.4258984,87890.3050966,227186.24277,224623.695157,296916.931176,291972.694446,10335934.8017,10515871.7338
23750.0,722.21488349,58.2855361043,-9.29703236422,87271.5608152,87641.0356061,89495.1574482,88597.2521678,221384.151112,218678.787759,290105.816429,283445.420145,10510897.4153,10696601.0359
24062.5,702.150347754,60.0056224251,-9.07875466349,88006.2186482,88348.875621,90240.8938228,89237.2398032,241072.750829,237334.173668,282634.063563,290767.83414,10680508.7842,10878484.711
24375.0,682.803357918,61.6099472742,-8.80188988523,88689.8207694,89005.9427017,90929.0187368,89839.0478265,233544.631847,229725.406422,274638.752354,280308.332613,10844467.2606,11046574.9785
24687.5,664.220522576,63.0943740413,-8.47291712446,91644.0411351,91931.1636238,91559.6547278,92676.4589266,225944.034445,222056.177518,266196.574198,269685.919832,11278237.4903,11218429.2301
25000.0,646.446609407,64.457790404,-8.09184928912,92245.7466769,92518.3877425,92138.3089811,93195.8366594,218288.075588,214413.475586,257435.745762,258787.070881,11433395.0978,11375500.1078
25312.5,629.524437323,65.6960245537,-7.66874971698,92798.175491,93040.6709977,92662.0712935,93653.5997732,210690.943961,206818.400624,248504.856676,248034.506602,11581413.1614,11531707.0408
25625.0,613.494773319,66.8136358088,-7.2013987214,93305.0658594,93533.7069873,93140.7401819,94082.4542913,203158.987136,199372.68397,239466.439461,237227.966839,11722192.8535,11673867.1992
25937.5,598.39623426,67.806413087,-6.70777416479,93765.01073,93965.1582098,93566.6022965,94446.8416738,195781.184039,192048.662025,230485.543908,226822.633415,11855086.7625,11812873.8346
26250.0,584.265193849,68.6830178639,-6.17997269408,94182.4921707,94369.9587219,93953.9114537,94794.0074066,188567.540114,184968.709713,221550.601077,216541.02736,11980117.509,11938768.9745
26562.5,571.135695,69.4403142023,-5.6434030014,94555.9536219,94715.6472411,94290.6340695,95074.3903983,197071.124992,192765.31775,212836.397157,219692.722726,12096580.0526,12059186.4536
26875.0,559.039367826,70.0899334917,-5.08520955587,94889.6123394,95039.5044634,94595.4251106,95348.2877014,189087.889433,184941.572523,204296.336833,209302.068282,12204651.2269,12167644.6314
27187.5,548.005353438,70.6297085753,-4.53462301557,95184.1824082,95306.562167,94854.0684296,95556.0052244,181308.395054,177315.128844,196030.721568,199592.840246,12303553.1804,12268262.9614
27500.0,538.060233744,71.0744649934,-3.97483860041,95443.384386,95561.9866654,95089.2507671,95769.4791926,173894.612957,170078.222772,187968.263491,190206.786987,12393635.6011,12358341.3535
27812.5,529.227967408,71.4219671489,-3.43731854725,95672.7232406,95764.9903244,95286.2069518,95922.3836927,166665.836221,162986.361913,180201.644034,181476.681098,12474026.7876,12438130.0787
28125.0,521.529832134,71.6895212015,-2.89925848346,95873.3544742,95969.3139025,95469.8857166,96093.2827539,159823.602341,156326.210943,172693.540274,173142.696044,12545254.8597,12509060.4392
28437.5,514.984373403,71.8765349891,-2.3917953983,96055.4049232,96127.1497818,95622.4818943,96211.9372849,153129.770903,149731.946615,165471.244972,165391.35894,12606321.3901,12567149.5344
28750.0,509.607359798,72.0007495223,-1.88538469287,96213.0251565,96292.0096716,95768.0110743,96352.660418,146805.944459,143584.701089,158549.16247,158070.960762,12657958.4249,12618285.8656
29062.5,505.411745018,72.069321651,-1.40626947131,96354.6425801,96407.3866572,95878.3150772,96440.2303924,140568.471082,137385.836897,151881.636937,151237.477722,12698991.2027,12653936.4374
29375.0,502.407636664,72.1161829944,-0.928006618166,96466.2544171,96523.6453785,95977.6121334,96542.4967497,134638.449332,131617.560473,145529.291362,144811.979166,12730469.7995,12684903.0071
29687.5,500.602271897,72.1433373852,-0.464057065009,96548.4616228,96569.0397089,96025.1568451,96573.2816622,128688.841399,125626.546374,139383.040613,138760.733771,12750962.6644,12697499.3928
30000.0,500.0,72.1537447086,0.00935128439681,96592.5249362,96620.7242,96060.1099068,96621.7889547,122972.329808,120059.94967,133570.687851,133054.299136,12762061.0143,12708512.26
30312.5,500.602271897,72.1441222502,0.467910070254,96594.0489725,96569.8745715,96028.3595058,96572.985105,117109.109953,114066.353972,127947.260793,127650.255739,12761826.232,12697449.1449
30625.0,502.407636664,72.1180329044,0.942256936483,96559.8419741,96559.5195553,95994.084449,96567.7746465,111451.67891,108564.310654,122733.923151,122558.148208,12752655.1892,12689352.5677
30937.5,505.411745018,72.0708490768,1.40122485285,96476.157082,96403.3177171,95882.3302374,96433.8062516,105485.27185,102372.97366,117734.826432,117766.812877,12731731.4576,12653879.2343
31250.0,509.607359798,72.0016517539,1.89571180803,96371.3448266,96350.4116103,95790.2088586,96389.0650151,99764.3856984,96838.4846417,113311.366383,113301.363676,12702629.9604,12628117.6784
31562.5,514.984373403,71.8785633006,2.36794571815,96215.546479,96102.5220628,95615.8293289,96186.097169,93543.1648338,90294.424806,109180.656063,109250.668974,12661243.5543,12567343.9803
31875.0,521.529832134,71.6889189788,2.91265839916,96068.1398486,96038.7810216,95486.470734,96128.1734101,87677.1206072,84662.7499416,105900.435867,105592.506581,12612634.5178,12525698.6206
32187.5,529.227967408,71.4207349577,3.39834294094,95854.8785125,95710.3853394,95264.5432653,95869.0728363,81094.5948318,77663.7753478,103030.379432,102636.813612,12551111.6366,12438654.6344
32500.0,538.060233744,71.0708224525,4.00182666665,95681.5091202,95643.1908724,95098.5162435,95803.9392532,74978.7458226,71832.0264637,101319.572661,100105.437191,12483382.7001,12382970.6224
32812.5,548.005353438,70.6251507219,4.4844931711,95402.1853842,95226.3488928,94825.2958362,95478.963657,67947.0353783,64313.8705275,100149.42087,98759.0159887,12402284.2897,12269126.36
33125.0,559.039367826,70.0862255928,5.13511819625,95197.4062117,95137.0045947,94603.3542616,95391.4332689,61440.8644818,58124.9411716,100339.033045,97698.4574777,12315865.6551,12200981.1602
33437.5,571.135695,69.4378873531,5.57830254951,94835.6997425,94628.7424419,94267.8850647,94987.2646856,53943.4021917,50128.1950056,101191.827998,98504.321763,12216124.1319,12060798.0943
33750.0,584.265193849,68.6825691713,6.25385573694,94580.0025492,94475.9773958,93964.0517832,94847.3222683,55175.8478675,52050.4669706,103355.8323,102964.204615,12111500.0525,11980955.9508
34062.5,598.39623426,67.8112216233,6.62117109894,94129.076248,93898.0776311,93556.8812827,94364.6751694,48344.6436317,44783.2387236,106316.252792,105685.557237,11994419.012,11816425.806
34375.0,613.494773319,66.8154560161,7.2951351717,93792.5662181,93617.4307032,93147.7367967,94128.2683984,41855.6390176,38523.7319341,110190.863922,108140.825611,11872170.2178,11724333.3637
34687.5,629.524437323,65.7072593675,7.56035613931,93259.6241959,93018.0707366,92661.9809941,93587.597316,34701.7752731,31075.2292491,114871.75393,112578.365675,11739306.3909,11539330.3032
35000.0,646.446609407,64.4566558826,8.20368251728,92810.1198879,92538.9112047,92133.2429552,93206.5695447,27792.3410445,24286.1896184,119897.88496,116509.687245,11600249.2251,11433027.0725
35312.5,664.220522576,63.1073099737,8.35030995069,92207.6912396,91963.9146161,91561.1379564,92632.3968249,20269.5420327,16700.187354,125552.299509,121966.108303,11453168.5593,11232887.8204
35625.0,682.803357918,61.6011414964,8.93224633525,89361.9437679,89041.7255392,90910.0508497,89881.7806207,13347.1799098,9723.40190852,131063.00289,127136.746468,11023099.2441,11110040.1064
35937.5,702.150347754,60.0178116051,8.95118167582,88688.3923042,88414.2243311,90239.7916862,89218.9354397,5261.19289985,1906.25690374,136754.978611,132590.699593,10867053.636,10898679.6596
36250.0,722.21488349,58.2688451282,9.44022174496,88016.4667512,87630.8966099,89468.8303761,88621.4467342,15998.2431375,12771.3170092,142149.569856,143132.307865,10702872.3856,10759664.1117
36562.5,742.948627903,56.4694934948,9.33287460372,87281.0643418,86966.3805408,88689.0703477,87887.5378372,8289.36156491,5642.37568734,147243.079218,147414.697015,10535230.6763,10537760.7989
36875.0,764.301631587,54.5034790742,9.69876270094,86486.4522894,86044.6075668,87802.289016,87154.8701409,4089.6438978,1108.65730301,151834.351904,152011.388008,10359788.9939,10384425.0538
37187.5,786.222453285,52.5134242064,9.47859291521,85654.401821,85283.4675298,86903.0771106,86320.02511,-4013.90051549,-6361.53571213,155448.309974,155035.271452,10181643.8165,10153572.1848
37500.0,808.658283817,50.3706774972,9.70295587211,84764.2932913,84272.9042934,85898.578946,85481.3709271,-7397.93491859,-9927.64809801,158226.331928,158138.350836,9996912.60648,9987878.95354
37812.5,831.555073304,48.2220441914,9.38221896241,83820.6775304,83387.9675495,84877.8238997,84513.1365389,-15014.9994762,-17064.4179053,159793.846781,159434.193636,9809977.02206,9749821.55796
38125.0,854.857661373,45.9526058518,9.4745970242,82824.1731108,82272.8022915,83749.1806254,83572.9593802,-18077.9217966,-20087.0992012,160182.93186,160593.48172,9617439.16771,9573154.57796
38437.5,878.509910048,43.69538328,9.0543674857,81794.8061806,81310.7950361,82609.3855886,82489.9456344,-24502.7232985,-26072.0718519,159114.986202,159392.258624,9423954.18638,9330805.81451
38750.0,902.454838992,41.3491469777,9.03296992985,80663.315897,80037.5408068,81361.1147655,81411.324649,-27232.5830966,-28770.963448,156761.603294,158276.745547,9225143.37458,9143871.10093
39062.5,926.634762772,39.0555397523,8.52691463498,79574.5063134,79047.2189718,80111.3826978,80267.4454708,-32395.8025329,-33236.7090111,152619.232636,154053.222998,9027119.04763,8900400.16645
39375.0,950.991429835,36.682626024,8.377647432,78332.6064688,77649.7062205,78752.8306618,79042.9194056,-8964.15906441,-9555.55947623,147107.985262,148356.793174,8824271.25954,8704511.45449
39687.5,975.466162836,34.3969864381,7.83588227322,77154.241846,76571.9759098,77387.0270628,77809.9746514,-12049.6215761,-11685.8161946,140150.684551,140704.60977,8622873.82333,8461029.61986
40000.0,1000.0,32.0495677324,7.57047410451,75812.6920441,75047.2145039,75915.4519017,76445.0335288,-12866.8858418,-12767.3400561,131375.127878,132626.605826,8418077.18699,8258579.73879
