X,Y,surf vx,surf vy,tauxy integr. above,tauxy dir. above,secinvare integr. above,secinvar dir. above,tauxy integr. below,tauxy dir. below,secinvare integr. below,secinvar dir. below,P integr.,P dir.,
0.0,1000.0,13.2333579491,5.98035888299,27468.4347981,28579.2656079,58490.2966258,58430.7749773,327571.602226,271861.833395,373627.725928,357577.154306,8947501.01268,9144802.69957
19.53125,1012.27061426,13.2624035163,5.9888423978,27589.6735103,29144.1820853,58930.9050508,58455.5646237,364342.041873,418638.38897,415341.877757,446416.224436,8645292.74995,8457588.14753
39.0625,1024.53383716,13.2930062842,5.99894870961,27866.8126324,26526.7305858,59388.8336915,59559.2479025,398181.640939,455279.376669,455025.350374,487157.847767,8724867.01505,8915251.96063
58.59375,1036.7822818,13.3235026098,6.00015962914,28093.8503862,29702.7788526,59809.8471409,59324.8204188,430739.902638,479410.878083,491948.618813,516402.555964,8429637.63746,8249107.81647
78.125,1049.00857016,13.353240385,6.00279566607,28406.4075117,26970.8367621,60265.0524942,60432.8014284,459470.377196,517602.939233,526222.274805,558688.013107,8502242.83345,8685029.28798
97.65625,1061.2053376,13.3838112873,5.99711221903,28691.2192526,30310.4437295,60679.2143314,60198.0359468,486506.519093,531148.293715,557892.480034,579778.885516,8214693.71169,8041660.08865
117.1875,1073.36523723,13.4136381325,5.99250228271,29063.3451072,27537.6629765,61120.9819472,61298.6185389,510947.772181,564351.554237,587406.192055,615543.13375,8280272.65302,8455141.96476
136.71875,1085.48094438,13.4439647291,5.97958310535,29394.6294743,31017.3752808,61526.1737966,61044.4522005,532775.368397,574993.831067,613797.16041,634019.561501,8001069.71288,7835877.86064
156.25,1097.54516101,13.4737129487,5.96757611363,29831.5912235,28227.843526,61951.756869,62149.1805145,552508.990945,601476.633995,638532.701408,663207.041877,8059435.79284,8225923.5567
175.78125,1109.55062008,13.5036432988,5.9475117426,30210.7485146,31836.2708191,62346.4411684,61868.838702,569931.680141,608678.291133,660427.984771,678479.057513,7789320.75729,7632393.39792
195.3125,1121.49008995,13.5333239417,5.92810966677,30712.7922385,29016.9793521,62756.0640676,62982.6567472,585066.519606,630140.08928,680609.877045,702522.74554,7840235.19647,7997855.30808
214.84375,1133.35637874,13.562882301,5.90065359902,31138.5291354,32805.9534621,63135.9677645,62658.7546675,598271.559331,633030.34277,698294.850526,713908.549149,7580037.87356,7431894.39921
234.375,1145.14233863,13.59214779,5.87386956261,31707.5762037,29883.9919386,63530.5871266,63806.0537413,609253.043472,650468.847383,714380.964818,733740.195601,7623092.41358,7771163.68078
253.90625,1156.8408702,13.6213654627,5.83909959893,32180.1390408,33925.2131306,63892.775555,63408.581224,618517.331832,649151.877952,728215.97714,741536.911408,7373875.28222,7235338.96438
273.4375,1168.4449267,13.6502479742,5.80486537447,32812.8584458,30848.1091106,64271.8824794,64610.061505,625677.326985,662970.118572,740600.305179,757502.969267,7408394.04793,7545942.01768
292.96875,1179.94751827,13.678943918,5.76263256969,33339.241402,35169.5319633,64613.6753627,64127.6816235,631315.643834,657809.602052,750943.175064,762098.510925,7171452.21185,7043571.83495
312.5,1191.34171618,13.7073051976,5.72103727011,34025.5541082,31931.4366567,64976.9731801,65377.8248269,635024.859147,668260.776595,760034.804884,774520.372579,7196580.64398,7322527.45428
332.03125,1202.620657,13.7354702809,5.67133964635,34616.9608986,36519.9307853,65295.4128403,64825.2919871,637377.138701,659790.293676,767275.394385,776488.731224,6973300.23038,6857125.50973
351.5625,1213.77754672,13.7632599193,5.62231375947,35344.2586106,33153.1739579,65642.4894321,66097.3112283,637957.271483,667093.601741,773429.270641,785576.434268,6988176.34524,7101557.18754
371.09375,1224.80566483,13.7907143008,5.56511675588,36011.5779162,37951.0260446,65935.6013229,65504.4408125,637391.936679,655731.972014,777972.205311,785379.059062,6779853.20143,6676266.51821
390.625,1235.69836841,13.8178768355,5.50877634076,36768.4886082,34540.6136115,66265.304753,66761.6498925,635173.206909,660252.76248,781537.786084,791520.625784,6783787.53504,6883903.56935
410.15625,1246.44909611,13.8445852316,5.44403324021,37518.8722825,39436.7999462,66532.3691998,66167.0782641,632024.726793,646300.183619,783760.126148,789485.45655,6591443.80356,6501006.09408
429.6875,1257.0513721,13.8710246133,5.38040214807,38297.5103876,36107.2166177,66843.0051159,67364.4787101,627349.390179,648453.629502,785082.458211,793093.92239,6584101.7439,6670685.90101
449.21875,1267.49880994,13.8968454465,5.30813792524,39132.0611245,40967.2145603,67084.5551825,66812.6553203,621925.607262,632184.095031,785332.031222,789500.9654,6408315.95805,6331119.84176
468.75,1277.78511651,13.9225355437,5.23732506732,39928.8378537,37850.1796727,67374.104431,67906.3109105,615134.563399,632325.779061,784749.638389,790996.725193,6389855.75438,6463170.2932
488.28125,1287.90409571,13.9473839341,5.15751036155,40842.0162932,42541.0654663,67591.7001532,67434.9194396,607719.487108,614081.672369,783343.219265,786103.023377,6230667.67924,6166290.44316
507.8125,1297.84965225,13.972182807,5.07960415619,41657.1334338,39755.8145689,67858.0474451,68393.088957,599137.279838,612463.258469,781178.625004,785855.092148,6201790.49288,6262627.17649
527.34375,1307.61579529,13.995984635,4.99235267248,42637.6178373,44161.3130628,68053.7885312,68025.538554,590001.019272,592626.060208,778407.796514,779921.626005,6058695.92464,6006237.00695
546.875,1317.19664208,14.0198389498,4.90742257434,43473.8253165,41801.9286579,68295.0338203,68832.2866045,579926.704043,589437.244748,774962.445666,778260.072449,6020606.27809,6070210.21009
566.40625,1326.58642148,14.0424543309,4.81281941366,44506.4042721,45833.3088116,68470.8722202,68577.0530822,569324.684209,568406.142193,771093.198912,771533.87512,5892637.14532,5850828.62463
585.9375,1335.77947742,14.0652738103,4.72104925868,45367.1106023,43959.2278409,68685.6809001,69230.4336072,558030.041616,563777.182354,766644.747874,768740.084417,5846923.26892,5886848.82962
605.46875,1344.77027237,14.0866439278,4.61921787558,46435.2490555,47562.9960127,68842.943424,69082.7479925,546203.270821,541953.123567,761919.278838,761469.881527,5732792.45551,5700156.31272
625.0,1353.55339059,14.1082899432,4.52076656736,47322.6153449,46194.9950057,69030.7924771,69592.5182858,533929.819726,535979.690441,756718.375277,757775.407215,5681262.96342,5713206.84998
644.53125,1362.12354148,14.1283037228,4.41191685511,48410.5966717,49354.745315,69170.1021994,69537.7545672,521104.947135,513744.297668,751356.558141,750199.049946,5579531.09528,5554538.92006
664.0625,1370.47556268,14.1486407807,4.30701046223,49324.0558121,48475.9017933,69331.3612765,69921.2858424,508063.374309,506499.408443,745625.044242,745798.032233,5524048.55349,5549693.67746
683.59375,1378.60442325,14.1672101255,4.19138207361,50418.1900396,51208.4095532,69452.868666,69939.5301826,494451.762016,484202.00051,739825.367299,738133.23577,5433277.24411,5414485.8809
703.125,1386.50522668,14.1860479714,4.08025779894,51353.7199047,50199.8974093,69588.8432113,69178.6422778,480822.377063,475752.622239,733756.137908,733193.595498,5375583.28942,5396297.13947
722.65625,1394.17321381,14.2031109285,3.95822738325,52441.9743549,52597.078234,69693.172166,69221.3610383,466618.468142,453692.523582,727695.645007,725625.860793,5294484.92853,5281459.19878
742.1875,1401.60376574,14.2203368926,3.84112372885,53392.6656473,52429.9429382,69805.3772427,69435.9745485,452553.920606,444115.425148,721454.505644,720301.994561,5235731.60429,5250743.72709
761.71875,1408.79240658,14.2358515611,3.71308667305,54465.084195,54461.6792169,69893.2340881,69496.7938249,437932.384161,422529.640085,715288.241373,712978.117764,5163546.13549,5155621.83924
781.25,1415.73480615,14.251325162,3.59027331845,55421.9997483,54619.8572982,69983.6952128,69662.6622961,423561.448676,411921.767179,709016.562491,707415.667546,5105124.03139,5115544.6156
800.78125,1422.42678262,14.2653088725,3.45673093436,56468.9288814,56356.8365629,70056.024412,69731.0450552,408674.707338,390978.2515,702877.341968,700444.308453,5040883.66333,5036896.45915
820.3125,1428.864305,14.2789322376,3.32840853068,57420.5167471,56753.6540067,70127.3505502,69858.6782941,394106.166296,379462.355745,696694.95247,694781.716512,4983984.00955,4990764.60117
839.84375,1435.04349555,14.2913261264,3.18993613603,58432.4413308,58252.7213934,70185.7724332,69928.8338771,379082.441324,359258.867434,690693.56689,688235.333983,4926912.07575,4925865.57581
859.375,1440.96063217,14.3030559438,3.0564511551,59365.6553337,58816.6655491,70240.5924885,70025.1249075,364408.621829,346982.988093,684701.253245,682604.744592,4872517.25697,4876447.57775
878.90625,1446.6121506,14.3139333965,2.91368220086,60332.6794186,60116.1859979,70287.1895581,70094.8080628,349351.175972,327553.476928,678927.637739,676522.747088,4822012.16425,4823084.751
898.4375,1451.99464656,14.3238659789,2.77533223651,61233.4189801,60791.6788337,70328.1161661,70164.4205247,334650.202428,314682.935511,673208.715266,671049.645117,4770915.24229,4772632.12133
917.96875,1457.10487785,14.333260457,2.62886059929,62145.0396138,61914.5836988,70365.1119992,70232.9972839,319638.268199,296011.639657,667734.023974,665442.740037,4726524.34721,4729061.1763
937.5,1461.93976626,14.3414819204,2.48602798024,62998.4959433,62656.4584004,70394.6956983,70280.3178525,304974.715471,282714.19517,662355.183842,660244.166804,4679356.09768,4679366.71593
957.03125,1466.49639942,14.3494386856,2.33640931439,63843.6552028,63617.5990656,70424.1281795,70346.2438364,290065.948955,264755.525506,657234.547199,655101.114635,4640745.23468,4644235.90348
976.5625,1470.77203259,14.3561268704,2.18950479269,64634.8006159,64384.2718004,70444.7890204,70377.4566667,275490.262567,251182.973022,652246.574715,650280.44467,4598003.63408,4596717.78026
996.09375,1474.7640903,14.3628092928,2.03724164461,65402.21771,65197.0401626,70468.2694937,70436.4593924,260724.457383,233882.247738,647522.243044,645579.733033,4564927.74021,4568975.15955
1015.625,1478.47016787,14.3682966643,1.88692693691,66116.4550288,65946.9393573,70482.2482915,70460.0036526,246272.131036,220155.435679,642961.356759,641217.538856,4527005.94963,4524770.57375
1035.15625,1481.8880329,14.3740227241,1.73247464578,66795.0015242,66625.3680593,70500.8809937,70505.6165983,231675.215324,203463.0176,638665.227681,636941.82365,4499283.7206,4503572.1148
1054.6875,1485.0156266,14.3787960758,1.57952392148,67418.8368197,67318.6106048,70510.2052446,70530.3811573,217367.048668,189667.396266,634555.440734,633086.954465,4466493.01289,4463618.50309
1074.21875,1487.85106502,14.3836137673,1.42330519446,67997.8502266,67874.5098259,70524.6564596,70556.5475411,202953.873899,173541.087458,630710.399587,629234.299808,4443988.80443,4448263.20128
1093.75,1490.3926402,14.3875360765,1.26810482161,68519.5027019,68477.9669022,70531.0788423,70588.8434436,188798.239285,159734.055199,627066.535718,625900.572668,4416573.17777,4413341.63537
1113.28125,1492.63882119,14.3913095634,1.1104791181,68989.0673653,68916.9057343,70541.7889214,70593.1055405,174573.776513,144132.319686,623686.98108,622487.596027,4399187.55876,4403251.05494
1132.8125,1494.58825498,14.3943942884,0.953529813607,69398.7793157,69407.5559092,70546.6316355,70633.9953039,160570.229671,130356.162907,620517.11695,619658.868589,4377329.76996,4373986.98976
1152.34375,1496.2397673,14.3970729848,0.794767612411,69750.154541,69728.4832579,70554.0590445,70619.3692727,146529.80601,115229.907513,617609.413702,616713.8347,4364995.92411,4368717.25137
1171.875,1497.59236334,14.3992983416,0.636615423472,70040.2359108,70092.068559,70557.9884228,70664.1708869,132672.370234,101521.463473,614916.287804,614357.429228,4348819.90172,4345563.63208
1191.40625,1498.64522834,14.4008924349,0.47699976225,70266.614476,70291.3001377,70562.7442888,70637.9769937,118802.446509,86811.6504019,612480.066849,611906.26748,4341500.91375,4344817.58491
1210.9375,1499.3977281,14.4022360169,0.318148167084,70431.3712042,70518.3158728,70565.7116264,70679.0067588,105081.727892,73203.8787457,610261.816831,609990.352312,4331076.68577,4328054.87127
1230.46875,1499.84940935,14.4027459149,0.157982018564,70528.6040701,70594.0486334,70568.5043016,70648.9557745,91362.434935,58847.4435538,608291.932273,608042.886285,4328758.93053,4331665.41124
1250.0,1500.0,14.403185928,-0.00106208915587,70564.3110899,70677.0147677,70569.9998676,70679.9169814,77766.5898299,45364.6634786,606542.319298,606549.211178,4324112.41039,4321436.13807
1269.53125,1499.84940935,14.4026417728,-0.161483937932,70531.1396089,70630.8876742,70571.4065961,70650.3128218,64175.6273276,31304.572292,605030.383954,605093.093317,4326794.16863,4329317.20601
1289.0625,1499.3977281,14.4021092359,-0.320229488663,70436.2731061,70564.7846237,70570.882069,70669.0854567,50690.7938563,17957.2477739,603738.77802,604018.688425,4327919.15709,4325681.69603
1308.59375,1498.64522834,14.4005693422,-0.480558292103,70274.0211101,70400.304083,70571.092035,70639.789129,37207.2908163,4150.01247419,602673.547912,603023.563991,4335598.71777,4337773.30922
1328.125,1497.59236334,14.3990006705,-0.638572838952,70049.7055438,70185.0092143,70568.2518825,70648.0593227,23818.4620889,-9065.67259527,601825.02428,602372.264664,4342465.93657,4340753.67972
1347.65625,1496.2397673,14.3964993834,-0.798403675943,69761.7908104,69905.0260807,70566.9550746,70616.1162077,10425.6289595,-22648.5010264,601191.701579,601800.263089,4355134.37513,4356992.1211
1367.1875,1494.58825498,14.3938470179,-0.955282624812,69412.1387277,69547.1670681,70561.7346869,70617.0373282,-2881.46432621,-35745.2763378,600767.175932,601570.494519,4367694.86084,4366584.9092
1386.71875,1492.63882119,14.3904397091,-1.11415928595,69003.8131037,69152.9276646,70558.1967375,70579.0484286,-16195.17744,-49120.6408206,600546.338977,601386.154071,4385334.59524,4386904.17567
1406.25,1490.3926402,14.3866514726,-1.26956603253,68535.8277344,68665.3045142,70550.479518,70574.9656355,-29431.4499529,-62111.9645725,600522.568958,601562.265277,4403519.64492,4403070.67495
1425.78125,1487.85106502,14.3823807685,-1.42694183629,68014.1964859,68157.9176377,70543.7072176,70528.6357011,-42671.8592142,-75290.3434355,600689.501467,601736.657328,4426105.96792,4427417.64176
1445.3125,1485.0156266,14.3775087356,-1.58057595521,67437.2132652,67556.7387716,70533.0187033,70520.0393677,-55842.0256532,-88182.9198745,601038.744821,602287.430636,4449827.12991,4450072.07531
1464.84375,1481.8880329,14.3723926694,-1.7359409457,66811.3197489,66939.781404,70521.8840496,70464.4955911,-69008.3545437,-101171.189692,601563.033062,602795.165866,4477329.0914,4478416.70464
1484.375,1478.47016787,14.3665878985,-1.88746837453,66136.2929416,66241.583552,70507.2301582,70450.1675234,-82108.4918149,-113960.423599,602252.177916,603677.740975,4506479.80685,4507423.62155
1503.90625,1474.7640903,14.3607164373,-2.04031540148,65417.0299551,65522.8920685,70490.4743012,70385.4216827,-95191.8908148,-126761.038468,603097.200717,604490.03611,4538859.29898,4539758.59194
1523.4375,1470.77203259,14.3538084051,-2.18931795798,64655.9334399,64742.7457531,70470.3502005,70363.117014,-108207.683171,-139429.807538,604086.630524,605654.961551,4573318.32308,4574940.58019
1542.96875,1466.49639942,14.3467349544,-2.33900520665,63855.6401458,63934.4342449,70446.5135449,70289.3573518,-121189.306987,-152037.228375,605208.858829,606733.52116,4610528.15659,4611273.12116
1562.5,1461.93976626,14.33843031,-2.48484472848,63021.0218144,63085.6569318,70419.0306865,70256.4259202,-134094.672316,-164556.518169,606451.336657,608127.480316,4650163.99564,4652425.35233
1582.03125,1457.10487785,14.3299815079,-2.63080602488,62152.8349459,62202.7424217,70386.4109645,70173.5867633,-146943.537372,-176952.847459,607799.374838,609421.685478,4692145.72396,4692764.70116
1601.5625,1451.99464656,14.3201010279,-2.77314589941,61257.4681718,61297.4597649,70349.4679247,70127.372216,-159699.216709,-189282.252027,609238.911442,610986.907355,4736820.85074,4739671.73901
1621.09375,1446.6121506,14.3101387982,-2.91479169059,60334.6607216,60356.0178891,70306.1606282,70034.9413803,-172370.068628,-201433.747906,610752.144526,612433.700473,4783502.6227,4784014.95517
1640.625,1440.96063217,14.2987218275,-3.05325404137,59391.2773429,59405.9533481,70257.6021068,69973.134303,-184921.996433,-213520.66161,612322.627216,614105.122469,4833076.28375,4836464.77562
1660.15625,1435.04349555,14.2871620447,-3.1901031896,58426.8119756,58421.5862616,70201.5982758,69870.0407745,-197353.448965,-225375.90379,613929.459428,615629.598613,4884371.11981,4884785.16504
1679.6875,1428.864305,14.2741748764,-3.32427090992,57447.8874157,57438.6880838,70139.3252342,69790.9846595,-209631.056497,-237153.540496,615552.956326,617331.402559,4938700.20699,4942575.80373
1699.21875,1422.42678262,14.2609327479,-3.45587036767,56454.1771328,56425.6303392,70068.6183876,69675.6313243,-221744.096759,-248642.926214,617168.902316,618846.883722,4994505.59772,4994819.24329
1718.75,1415.73480615,14.2464161479,-3.58530092034,55451.6982433,55422.1838214,69990.6556417,69578.3613566,-233658.719444,-260028.002187,618753.774088,620489.524662,5053444.06894,5057757.27607
1738.28125,1408.79240658,14.231459386,-3.71128632452,54440.4886419,54393.0495892,69903.3402843,69448.8953373,-245355.416755,-271063.504321,620279.547908,621896.710262,5113643.06931,5113846.99246
1757.8125,1401.60376574,14.2154711869,-3.83547506234,53425.7482902,53381.2982924,69807.8810887,69332.8871485,-256798.882821,-281954.276422,621718.467054,623374.770797,5177040.72504,5181741.43643
1777.34375,1394.17321381,14.1988687719,-3.95558539921,52408.0616597,52347.2877912,69702.2267451,69187.5862608,-267961.248944,-292428.817572,623038.077608,624559.916165,5241503.66869,5241586.19319
1796.875,1386.50522668,14.1814366479,-4.07411164378,51391.5235743,51338.8228906,69587.6598489,69052.395483,-278804.735894,-302703.827441,624206.081541,625750.681361,5309204.90313,5314242.5111
1816.40625,1378.60442325,14.1632334004,-4.1881054873,50377.2831475,50824.5259168,69462.4718662,69952.560806,-289293.741983,-312490.274103,625185.031946,626583.293874,5377725.67847,5377774.64315
1835.9375,1370.47556268,14.1444114723,-4.30052446503,49368.0680635,49780.9030452,69327.6992072,69770.461967,-299386.921789,-322007.716738,625937.743149,627345.660762,5449352.58571,5453727.30318
1855.46875,1362.12354148,14.1246838412,-4.40822558385,48366.5832812,48744.9597339,69181.5580354,69596.6468029,-309041.652841,-330957.62661,626421.365822,627676.21133,5521994.81126,5522166.3498
1875.0,1353.55339059,14.1044890242,-4.51413282955,47373.7541252,47715.7312513,69025.0577552,69393.8428384,-318212.10251,-339555.024727,626593.453539,627849.605724,5597463.21539,5601172.07647
1894.53125,1344.77027237,14.0833624667,-4.61534483652,46393.2017976,46709.2691813,68856.9282439,69198.4332321,-326849.189784,-347497.492256,626405.444915,627507.506553,5674075.84635,5674396.68232
1914.0625,1335.77947742,14.0618667964,-4.71442670965,45424.7476326,45704.1528922,68677.8375177,68975.1441594,-334902.092891,-354991.481237,625809.424482,626910.797395,5753220.63691,5756350.33157
1933.59375,1326.58642148,14.0394566178,-4.8089848631,44472.2779046,44732.6414797,68486.9959168,68757.5137956,-342315.59765,-361732.591358,624750.808911,625702.954047,5833614.51395,5834104.74784
1953.125,1317.19664208,14.0167320883,-4.90097918311,43535.3041641,43761.7284724,68284.7554051,68513.8754731,-349033.813468,-367918.706915,623176.310498,624133.522243,5916262.15194,5918894.3012
1972.65625,1307.61579529,13.9931777378,-4.98873258089,42617.1377875,42828.4181863,68070.741761,68274.048057,-354995.597994,-373241.885307,621025.034942,621843.737731,6000238.91825,6000915.78102
1992.1875,1297.84965225,13.9692815375,-5.07349224526,41717.8069734,41901.3691023,67845.0907895,68009.9855315,-360140.190613,-377894.404971,618238.682346,619076.881019,6086206.3872,6088413.27145
2011.71875,1287.90409571,13.9446826629,-5.15425997871,40839.3133742,41008.3672872,67607.7251603,67748.5069656,-364400.781024,-381561.614752,614749.932195,615466.207217,6173560.62558,6174441.51776
2031.25,1277.78511651,13.9197251595,-5.23169888995,39982.7993332,40133.1814673,67358.6863639,67463.9146807,-367712.104905,-384433.695286,610495.983395,611255.012866,6262655.29989,6264500.86451
2050.78125,1267.49880994,13.8941555951,-5.30533369147,39148.5913959,39282.7958722,67098.0837701,67181.5645254,-370002.130343,-386187.233785,605403.334876,606063.113372,6353175.09747,6354278.08784
2070.3125,1257.0513721,13.8682338837,-5.37537852625,38339.0890244,38464.700679,66825.9429276,66876.6027443,-371201.580302,-387011.743391,599405.286407,600139.021633,6445195.07244,6446738.04917
2089.84375,1246.44909611,13.8417985295,-5.44174529001,37553.0917134,37660.5004372,66542.513453,66574.1685781,-371233.916308,-386576.518182,592422.93238,593086.621218,6538661.45966,6540003.3447
2109.375,1235.69836841,13.8149982446,-5.50436341645,36793.8838465,36901.4379578,66247.7996567,66249.4325766,-370026.443126,-385068.048327,584386.384177,585161.144341,6633395.8836,6634690.69713
2128.90625,1224.80566483,13.787792324,-5.5633426846,36059.3415515,36148.5223753,65942.2296778,65927.6495791,-367499.156632,-382154.183441,575212.775792,575953.450145,6729582.33088,6731175.86348
2148.4375,1213.77754672,13.760217809,-5.61851834291,35352.9095674,35447.491754,65625.7038341,65584.1461927,-363576.613556,-378012.389827,564829.97887,565721.732293,6826811.57863,6827905.7126
2167.96875,1202.620657,13.7323388519,-5.67003877632,34672.3506171,34751.883045,65298.9233713,65243.843655,-358176.784798,-372318.079085,553153.410004,554052.786543,6925484.23053,6927335.53531
2187.5,1191.34171618,13.7040862046,-5.7177754377,34020.5220322,34106.1239982,64961.5727923,64882.8631553,-351222.193015,-365232.316172,540110.217386,541199.777471,7024980.35043,7025910.93264
2207.03125,1179.94751827,13.6756380477,-5.76179460658,33395.7338931,33473.4955356,64614.7104602,64525.1154562,-342630.697092,-356447.370528,525617.371991,526758.488904,7125898.95443,7128005.48337
2226.5625,1168.4449267,13.6467993837,-5.80211975287,32799.8262213,32880.1527007,64257.7358429,64148.1037617,-332323.575472,-346102.483434,509604.041794,510968.660933,7227427.06826,7228221.51276
2246.09375,1156.8408702,13.6178662645,-5.83861296123,32231.8742802,32314.2681854,63892.0632195,63774.1778996,-320220.905127,-333913.142032,491993.606729,493448.524145,7330345.99982,7332696.01591
2265.625,1145.14233863,13.5885335288,-5.87155714745,31692.7718424,31771.9813966,63516.8481989,63382.6922078,-306243.791983,-319996.043519,472722.54605,474420.92288,7433666.33394,7434348.32394
2285.15625,1133.35637874,13.5591932534,-5.9005183954,31182.0667973,31273.447263,63133.7269249,62993.8763215,-290317.009625,-304091.353871,451728.543735,453537.402673,7538335.33951,7540910.20916
2304.6875,1121.49008995,13.529459661,-5.92612051917,30700.2098612,30783.2734336,62741.7902215,62589.5791914,-272363.211408,-286298.106827,428966.183447,431010.772132,7643204.727,7643801.4907
2324.21875,1109.55062008,13.4997969746,-5.94756708407,30246.6188593,30349.1927566,62342.6392632,62187.0826738,-252314.121188,-266377.995925,404402.535619,406535.258776,7749369.80139,7752150.05311
2343.75,1097.54516101,13.469768656,-5.96588547186,29821.9438413,29914.4632228,61935.5769903,61771.6713815,-230096.655608,-244421.473873,378034.185336,380336.917644,7855541.65445,7856087.11561
2363.28125,1085.48094438,13.4398727565,-5.97986559967,29424.9283196,29539.203552,61521.8654967,61356.6684697,-205651.26382,-220206.393705,349892.581627,352171.286468,7962946.62509,7965921.34615
2382.8125,1073.36523723,13.409658005,-5.99097008069,29056.8221499,29164.3688761,61101.2951676,60931.7241521,-178912.954361,-193824.877442,320076.508814,322332.409808,8070169.15077,8070700.1483
2402.34375,1061.2053376,13.3796165269,-5.99755143819,28715.5606822,28841.1880832,60674.5514747,60505.5063041,-149832.240965,-165066.675295,288780.050656,290702.711276,8178557.94179,8181734.54459
2421.875,1049.00857016,13.3493150149,-6.0015130828,28402.8811791,28530.0983007,60242.0698341,60072.3217817,-118356.919434,-134033.826725,256384.627456,257793.8231,8286571.46793,8287118.68234
2441.40625,1036.7822818,13.3192074137,-6.00077170382,28116.3322658,28253.0490412,59803.8905724,59636.4714021,-84448.8629005,-100527.474858,223577.211007,223877.307087,8395690.2346,8399099.5365
2460.9375,1024.53383716,13.2889126834,-5.99765611041,27857.509803,28007.3287039,59361.0558128,59195.96306,-48073.6272294,-64663.92795,191665.245199,190243.371194,8504225.38645,8504804.25594
2480.46875,1012.27061426,13.2588264246,-5.98968044458,27624.4048865,27772.7280867,58913.100314,58752.4182914,-9206.30965411,-26259.9227281,163062.604574,158750.972439,8613823.39848,8617515.76133
2500.0,1000.0,13.2286338243,-5.97956112554,27417.5974028,27202.1379157,58461.4427495,58638.1551808,32165.2453421,84157.4540611,142196.230941,209744.074196,8722601.73546,8723208.79155
2519.53125,987.729385739,13.1986664055,-5.96445407001,27236.1204528,27003.2921457,58005.4609589,58167.886196,76069.69756,126699.566417,136080.505427,209596.754003,8832377.32885,8836366.24151
2539.0625,975.466162836,13.1686800588,-5.94741382899,27079.0391405,26852.3522852,57546.5457053,57688.4858967,122470.989695,171842.871599,149896.856469,222094.10978,8941119.13157,8942130.68326
2558.59375,963.2177182,13.1389276377,-5.92529546483,26947.6070489,26709.0009482,57084.3732067,57216.3346852,171356.70489,219052.908623,181914.045733,246737.330073,9050809.75129,9055081.14845
2578.125,950.991429835,13.1092485382,-5.90142038048,26838.5906644,26605.9497958,56619.7756172,56731.8534666,222685.383754,268832.573283,226387.35,282295.265584,9159281.36005,9160647.5947
2597.65625,938.7946624,13.0798114623,-5.87242897915,26754.9278003,26510.6363534,56153.0624872,56257.7219204,276418.548538,320603.11946,279058.027426,326253.930712,9268637.8644,9273193.53535
2617.1875,926.634762772,13.0505463621,-5.84182570945,26692.0518037,26458.1990869,55684.4074509,55771.0808825,332485.039099,374859.184275,337620.54139,377438.476145,9376562.32963,9378247.30352
2636.71875,914.51905562,13.0215307544,-5.80613222589,26653.6304395,26403.9436226,55214.7460952,55295.0757372,390815.379539,430976.679881,400873.607556,434006.159649,9485332.87089,9490159.02381
2656.25,902.454838992,12.9927848097,-5.768929048,26634.8944483,26403.2353973,54743.6834745,54808.6870008,451306.841607,489435.871289,468121.558189,495681.759693,9592439.85163,9594420.92341
2675.78125,890.449379922,12.9643034424,-5.72672202019,26639.055013,26385.0535483,54272.6312559,54331.5501459,513854.686117,549567.630727,538945.503057,561226.827181,9700371.02525,9705448.72807
2695.3125,878.509910048,12.9361691249,-5.68306537041,26662.293432,26434.5780943,53800.8028455,53847.1227414,578322.75996,611831.0599,613047.911645,630833.712107,9806395.73618,9808659.02495
2714.84375,866.643621263,12.9083101614,-5.63452682805,26706.352653,26450.0276073,53329.9075228,53370.3275791,644567.874439,675513.682542,690211.649168,703527.17958,9913233.797,9918547.14607
2734.375,854.857661373,12.8808653958,-5.58455497188,26769.1747031,26545.7130029,52858.9248488,52888.9864589,712418.718595,741046.242472,770249.25335,779690.068646,10017916.1341,10020451.2157
2753.90625,843.159129801,12.8537124159,-5.52986195387,26850.4880589,26594.4452884,52389.7392066,52414.5235249,781691.793746,807676.138306,852994.526805,858448.689483,10123407.8172,10128947.2694
2773.4375,831.555073304,12.827033109,-5.47372542877,26950.2659308,26730.5203647,51921.1775257,51937.1282463,852179.325971,875798.486407,938286.157665,940254.905325,10226492.3838,10229288.8397
2792.96875,820.052481733,12.8006769936,-5.41306711121,27066.2365816,26813.1745601,51455.2581215,51467.1286021,923657.090184,944625.371314,1025960.8964,1024270.90458,10330385.2885,10336146.3904
2812.5,808.658283817,12.7748317646,-5.35093367917,27200.1352183,26983.4299873,50990.6626793,50994.613006,995880.393264,1014509.44574,1115853.97495,1110963.47192,10431622.2578,10434668.9368
2832.03125,797.379342998,12.7493689321,-5.28448325053,27348.1851964,27100.3662726,50529.5569625,50531.0027139,1068585.36797,1084633.7592,1207787.89114,1199504.72243,10533665.1804,10539644.9775
2851.5625,786.222453285,12.7244492672,-5.21654046252,27513.2120781,27299.3160004,50070.4521561,50064.5827106,1141491.23104,1155302.79435,1301582.73854,1290349.85879,10632811.2978,10636097.3843
2871.09375,775.194335173,12.6999471052,-5.14448301396,27690.7408327,27449.6195499,49615.6833575,49608.908221,1214297.11925,1225678.03555,1397041.00554,1382672.07043,10732755.1083,10738949.0365
2890.625,764.301631587,12.6760022663,-5.07089911273,27883.7927115,27673.2379841,49163.576076,49150.0982593,1286688.63201,1296012.00384,1493963.24758,1476900.78782,10829573.9542,10833090.0581
2910.15625,753.550903885,12.6525662203,-4.99339995282,28088.1436452,27854.2199662,48716.6345221,48703.5577825,1358332.21966,1365452.94688,1592131.49073,1572209.21518,10927173.5242,10933574.736
2929.6875,742.948627903,12.6296896131,-4.91441003112,28306.0358897,28100.159474,48273.0077236,48254.0295693,1428884.19784,1434200.25339,1691326.00285,1668993.75904,11021434.4182,11025172.092
2949.21875,732.501190056,12.6073760007,-4.83167945866,28534.4792994,28307.3586812,47835.3524869,47817.6556544,1497984.43887,1501397.87785,1791310.98433,1766429.60203,11116451.8171,11123053.4791
2968.75,722.21488349,12.5856694711,-4.74750818584,28773.9566435,28574.7405276,47401.6504646,47379.0245915,1565266.21565,1567193.95138,1891847.87394,1864878.58105,11207927.2345,11211876.2158
2988.28125,712.095904291,12.5645760949,-4.65978328893,29023.6845884,28802.2780243,46974.7195689,46953.9162398,1630350.85622,1630737.70848,1992687.87137,1963519.68372,11300136.0478,11306935.9265
3007.8125,702.150347754,12.5441300279,-4.57069162469,29281.4228122,29091.2400782,46552.3299976,46527.5504435,1692856.61825,1692130.85909,2093576.5564,2062684.62624,11388597.9157,11392741.4468
3027.34375,692.38420471,12.5243095958,-4.47823059092,29549.5444777,29332.3363644,46137.5532835,46115.0534128,1752396.29391,1750538.55409,2194258.68796,2161555.78972,11477788.2122,11484794.1994
3046.875,682.803357918,12.505172769,-4.38445519265,29822.15583,29643.5047842,45727.7920346,45701.9716887,1808582.6728,1806023.12873,2294468.03489,2260445.40549,11563003.7936,11567313.1453
3066.40625,673.413578523,12.486680946,-4.28749737124,30105.6831846,29891.0214701,45326.5997534,45303.7462261,1861031.90085,1857778.20658,2393950.87194,2358535.85921,11648987.0436,11656222.2041
3085.9375,664.220522576,12.4689356326,-4.18930755383,30389.7345954,30224.9910782,44930.7030589,44904.6257466,1909361.9757,1905834.68321,2492433.93516,2456135.7693,11730715.2723,11735144.8697
3105.46875,655.229727631,12.4517830285,-4.08815914633,30685.5548807,30471.9492553,44544.5248904,44522.5898343,1953205.88764,1949430.0887,2589674.01064,2552422.05392,11813328.4124,11820834.4219
3125.0,646.446609407,12.4353960871,-3.98578185231,30977.600861,30828.7785221,44163.6512797,44137.8724077,1992198.15879,1988571.27956,2685395.97067,2647718.40086,11891317.5328,11895801.9372
3144.53125,637.876458524,12.4196250442,-3.88065932873,31282.4408615,31068.8689647,43793.9033543,43774.0427108,2026003.21623,2022558.41673,2779376.72646,2741190.93605,11970425.3708,11978263.5903
3164.0625,629.524437323,12.4046604189,-3.77434680188,31579.0657148,31447.5647445,43429.1455639,43404.1075253,2054283.54156,2051380.3604,2871344.48659,2833196.57269,12044412.6415,12048866.2637
3183.59375,621.395576747,12.3902643155,-3.66553253808,31889.4593368,31675.676809,43077.2063826,43060.3895151,2076749.91122,2074421.13612,2961106.00755,2922887.91982,12119907.8845,12128157.6419
3203.125,613.494773319,12.3767267928,-3.55551655441,32187.3189285,32073.6612766,42729.6111638,42705.7373273,2093107.80282,2124742.63416,3048395.37133,3061667.40673,12189621.946,12193941.927
3222.65625,605.826786187,12.3637545234,-3.44325293486,32499.5912239,32286.4207865,42396.7899816,42383.733039,2103147.14678,2133855.58141,3133050.55838,3145895.21083,12261422.3072,12270176.2083
3242.1875,598.39623426,12.351738076,-3.32978772211,32795.445207,32699.0338355,42067.3824823,42045.126501,2106600.68065,2136509.18886,3214836.56211,3227512.85869,12326588.6016,12330660.9473
3261.71875,591.207593424,12.3402384022,-3.21441402567,33105.7220003,32895.2598207,41754.8843953,41746.0076477,2103309.58639,2132620.51997,3293642.46446,3306191.32148,12394630.6944,12403986.943
3281.25,584.265193849,12.3296328442,-3.09780141816,33396.4518056,33315.4369263,41444.6941082,41424.5431365,2093087.41515,2121928.40353,3369240.52098,3381983.00379,12454980.0586,12458688.885
3300.78125,577.573217375,12.3194473462,-2.97953449727,33700.6978878,33496.3487831,41153.5856367,41149.0044563,2075851.95623,2104364.10978,3441563.35121,3454451.16101,12519210.1058,12529261.9735
3320.3125,571.135695,12.3101444778,-2.85990819128,33983.3097633,33914.6549555,40863.6710419,40846.1073645,2051491.81337,2079796.79658,3510415.1634,3523808.55036,12574490.3171,12577729.8342
3339.84375,564.956504446,12.3012648312,-2.73887359078,34277.3945171,34083.6687623,40594.8502677,40594.4112147,2020001.63541,2048170.96504,3575766.17096,3589547.58003,12634852.096,12645674.9719
3359.375,559.039367826,12.2932715679,-2.61640643081,34549.0080286,34488.8037106,40326.3186742,40311.7424229,1981357.86915,2009506.83828,3637465.10976,3651997.32986,12684841.7342,12687530.2623
3378.90625,553.387849402,12.2856836818,-2.4928541244,34828.7958799,34650.8615043,40080.4939139,40083.8576268,1935626.98765,1963747.0255,3695507.81957,3710636.39289,12741262.6272,12752899.5115
3398.4375,548.005353438,12.2789386651,-2.36797299139,35086.6185353,35030.6191154,39834.5134053,39823.1445433,1882884.17062,1911093.55099,3749800.70056,3765851.69546,12785786.1695,12787881.0466
3417.96875,542.895122148,12.2725362022,-2.24230476502,35348.0807147,35191.1336466,39612.1930164,39618.9418222,1823259.73165,1851457.84972,3800350.41755,3817161.92564,12838162.6242,12850609.4388
3437.5,538.060233744,12.2667509212,-2.11523374898,35589.3706751,35533.6584293,39389.9938585,39381.7835678,1756933.2395,1785255.30866,3847129.82472,3864968.87861,12877105.2851,12878617.0624
3457.03125,533.503600583,12.2610190185,-1.98773005407,35828.713508,35697.2902722,39191.4892537,39201.2314957,1684091.77569,1712343.05969,3890145.09553,3908848.47916,12925289.33,12938481.8646
3476.5625,529.227967408,12.2557543876,-1.85888654822,36050.7362213,35992.363372,38994.3513978,38988.9255445,1605015.97081,1633348.57528,3929432.97831,3949221.40713,12958609.909,12959613.9085
3496.09375,525.235909703,12.2506203488,-1.72987580294,36264.5365198,36161.9140144,38819.7949218,38832.2450865,1519947.37354,1548103.67959,3964998.72695,3985679.50153,13002398.4917,13016202.9696
3515.625,521.529832134,12.246012579,-1.59946129982,36464.5294941,36401.9993716,38649.0184489,38645.6604941,1429253.13172,1457360.42963,3996923.37169,4018717.16314,13030138.5169,13030781.896
3535.15625,518.111967102,12.2415703495,-1.46915347549,36649.8604714,36577.651594,38498.3970589,38513.4323401,1333233.30463,1361059.38074,4025225.61646,4047865.30656,13069267.2278,13083476.1068
3554.6875,514.984373403,12.2376421401,-1.33739265,36825.0262454,36758.5355856,38355.2529346,38352.9055549,1232317.26417,1259864.89497,4049994.91804,4073743.68477,13091555.0799,13092058.2196
3574.21875,512.148934981,12.2338979958,-1.20597459226,36979.5533235,36937.5203174,38228.4567144,38246.1622743,1126871.25623,1154076.29713,4071287.96164,4095797.3941,13125697.228,13140030.8657
3593.75,509.607359798,12.230679666,-1.07304825548,37127.1031206,37058.5971752,38114.1226038,38111.4072329,1017359.20122,1043966.32801,4089161.50257,4114707.05746,13142746.7035,13143398.9162
3613.28125,507.361178806,12.2276937863,-0.940715087562,37249.1226832,37235.0936861,38010.9963899,38031.6691714,904217.431149,930474.32198,4103730.54224,4129985.72374,13171517.8041,13185631.3409
3632.8125,505.411745018,12.2252216309,-0.806864088972,37366.3913385,37299.5823043,37926.4952704,37921.7717546,787923.718678,813225.970003,4114991.41571,4142077.73119,13183621.5506,13184772.3326
3652.34375,503.760232701,12.2229960119,-0.673841950304,37454.7947059,37464.5756881,37846.8777126,37870.9948308,668974.558946,693931.573707,4123115.79081,4150978.95572,13206588.2972,13220081.98
3671.875,502.407636664,12.2212608257,-0.539279335186,37539.4170144,37479.8160306,37793.0340215,37784.4537354,547858.594753,571562.889344,4128041.72152,4156349.64057,13214107.5249,13216155.5669
3691.40625,501.354771661,12.2198317313,-0.405764117091,37593.5960548,37620.8932111,37736.7758923,37764.9766852,425100.944869,448403.602804,4129964.67326,4159278.36317,13230799.4182,13243229.828
3710.9375,500.602271897,12.218872548,-0.270737880901,37643.705247,37598.6287677,37714.2026573,37699.7465954,301220.841257,323127.656231,4128798.54159,4158006.50595,13234152.0303,13237534.5872
3730.46875,500.150590652,12.2182421185,-0.136970427413,37663.4323487,37699.8607351,37681.152232,37714.22204,176719.8188,198058.831378,4124707.11217,4155267.74017,13244073.3533,13254963.1214
3750.0,500.0,12.218047588,-0.00172420890791,37677.8323139,37656.2277517,37690.2785918,37667.7695551,52183.4297199,72166.8549723,4117629.78332,4147480.56071,13243722.8263,13248907.5067
3769.53125,500.150590652,12.2182215182,0.132082939995,37663.167643,37698.5880268,37680.2405352,37719.1804796,-71969.6219493,-52791.1756122,4107644.38814,4139181.84614,13246362.7217,13255207.0403
3789.0625,500.602271897,12.2188037262,0.267304821943,37641.4163777,37653.2627337,37721.3590966,37688.3566217,-195054.708314,-177088.686704,4094755.49165,4125095.58132,13242809.8282,13250290.1666
3808.59375,501.354771661,12.2197913885,0.400919506889,37592.6899342,37615.9767881,37734.047857,37780.2381482,-316779.663159,-299794.439583,4078926.0081,4111118.92398,13237648.6032,13243917.5902
3828.125,502.407636664,12.2211360217,0.535856551853,37535.0817326,37590.4802439,37807.370716,37761.0628997,-436353.633993,-420490.014876,4060237.86604,4091006.63106,13231427.5138,13241722.6956
3847.65625,503.760232701,12.2229208469,0.669063984161,37452.9325911,37452.9280984,37842.3588154,37897.680328,-553620.560469,-538698.817838,4038544.07468,4071078.34846,13217938.0728,13221075.2191
3867.1875,505.411745018,12.2250156255,0.803475857623,37360.4094961,37468.6035173,37948.0721918,37885.1771431,-667712.532551,-654004.75062,4013989.84508,4045166.81007,13209617.497,13223275.6962
3886.71875,507.361178806,12.2276018817,0.936067679111,37245.8597673,37212.3187438,38004.7613504,38071.8015004,-778585.216447,-765496.709616,3986347.45198,4018992.98311,13187261.5435,13186678.6498
3906.25,509.607359798,12.230433416,1.06969323036,37119.8786299,37288.4803735,38143.0415019,38059.6026284,-885347.414064,-873765.121058,3955799.80142,3987346.91942,13177451.1078,13195056.4039
3925.78125,512.148934981,12.2337797541,1.20146820058,36974.3901457,36898.4077765,38220.6731104,38302.9370187,-988029.918314,-976528.82465,3922075.18586,3954739.96717,13145670.0556,13140738.5321
3945.3125,514.984373403,12.2373328634,1.33407995606,36816.8388127,37051.9504896,38391.6807096,38283.0367202,-1085768.64003,-1076162.67888,3885370.40754,3917207.19393,13135031.7176,13157214.4389
3964.84375,518.111967102,12.2414160857,1.46484583949,36642.2563966,36515.5721908,38489.3450968,38591.1794724,-1178649.56216,-1168532.97147,3845405.02563,3878140.17799,13093232.8859,13083272.0467
3984.375,521.529832134,12.2456708444,1.59622058039,36455.4823391,36762.9525901,38693.2249201,38554.2417281,-1265858.01403,-1257978.5091,3802370.02549,3834393.98086,13082496.4297,13109946.0204
4003.90625,525.235909703,12.2504662985,1.72577555624,36253.8699413,36067.2528452,38809.8727337,38936.2388146,-1347547.13456,-1338666.20223,3756011.08777,3788971.21707,13030035.7271,13014298.8367
4023.4375,529.227967408,12.2553655054,1.85569771608,36040.7730448,36428.1397978,39046.7284419,38872.1062953,-1422942.17117,-1416505.03333,3706493.34184,3738627.91639,13020016.9586,13053496.8127
4042.96875,533.503600583,12.2608119941,1.98387184558,35814.2119825,35555.4412771,39181.2069653,39337.3227316,-1492297.85665,-1484540.87635,3653625.26691,3687011.56375,12956179.6924,12933838.4812
4062.5,538.060233744,12.2663181253,2.11215914145,35578.3482444,36056.9464749,39451.0445872,39235.8418615,-1554857.35737,-1549622.08063,3597525.522,3629764.55258,12947799.1731,12988161.9804
4082.03125,542.895122148,12.2723477441,2.23871461745,35328.76561,34980.8832276,39602.1508435,39792.8764967,-1611007.05745,-1604289.79441,3538098.25486,3572113.14195,12871781.8846,12841911.9945
4101.5625,548.005353438,12.2785211952,2.36500847978,35074.3792324,35660.6240094,39904.7792916,39645.0789214,-1660001.45274,-1655824.01057,3475402.97348,3507829.0,12866080.4705,12914280.6753
4121.09375,553.387849402,12.2854598338,2.48946128902,34803.5125482,34344.4740725,40071.3612775,40300.5764854,-1702358.21199,-1696640.60288,3409456.39908,3444283.39594,12776978.3197,12738549.839
4140.625,559.039367826,12.2928656805,2.6136033965,34535.4181793,35250.2609285,40406.2053525,40099.6975802,-1737370.65804,-1734220.36346,3340264.88177,3373037.16896,12775124.2586,12832222.7298
4160.15625,564.956504446,12.3010940727,2.73570888172,34244.9418885,33649.1725108,40587.327454,40857.2704444,-1765646.14335,-1760968.26358,3267949.92008,3303755.44364,12671929.952,12623809.0467
4179.6875,571.135695,12.3098355078,2.85723886879,33968.3169587,34834.7864789,40953.1782377,40599.8709821,-1786579.01458,-1784530.37401,3192492.0803,3225814.66777,12675210.8192,12742364.6135
4199.21875,577.573217375,12.319375931,2.97655356168,33660.0314135,32901.6782748,41148.3019417,41458.641114,-1800790.84067,-1797308.04724,3114087.754,3151032.31602,12556832.4391,12497802.1534
4218.75,584.265193849,12.3293915514,3.0952372535,33380.2285362,34419.22291,41543.0704266,41146.1096765,-1807859.16794,-1807075.20177,3032731.56169,3066816.73506,12566624.359,12645053.4178
4238.28125,591.207593424,12.3402138228,3.21166685158,33056.2070472,32113.9551977,41752.225009,42099.0977846,-1808329.11445,-1806329.84413,2948655.70558,2986901.59165,12431929.4256,12360737.2993
4257.8125,598.39623426,12.3516704285,3.32741401864,32778.6455909,34003.2859585,42172.7518859,41739.0309235,-1802043.0116,-1802759.97664,2861905.61108,2896945.24465,12449637.2214,12540561.6799
4277.34375,605.826786187,12.3638911284,3.4407163823,32441.2559793,31304.1297324,42396.6802394,42771.9078408,-1789383.7004,-1789284.21109,2772716.85402,2812424.6432,12297527.9663,12212965.2029
4296.875,613.494773319,12.3768433375,3.55327082261,32171.4055325,33580.9403687,42838.695557,42379.2146778,-1770521.6155,-1773036.60391,2681205.14994,2717355.43907,12324493.366,12429038.9916
4316.40625,621.395576747,12.3905022765,3.66321280099,31823.1813985,30496.2476969,43078.9312229,43469.5011233,-1745630.25668,-1718870.06213,2587576.55082,2581752.48658,12154013.4681,12055025.1018
4335.9375,629.524437323,12.4049819181,3.77231404772,31566.5391123,33140.9516668,43537.255025,43067.1572126,-1715211.61864,-1687920.63397,2492026.86229,2481186.61214,12191394.5422,12310470.5833
4355.46875,637.876458524,12.4200576449,3.87854943202,31210.0139519,29719.1018035,43796.0949638,44184.3546032,-1679181.70426,-1651426.77307,2394768.64673,2389755.37029,12001860.156,11887677.2957
4375.0,646.446609407,12.435966116,3.98395015182,30971.8548419,32668.0478996,44265.0886029,43802.8946452,-1638382.40343,-1609536.12902,2296040.50701,2285571.34792,12050493.5129,12184656.3223
4394.53125,655.229727631,12.4524440739,4.08618430843,30609.6045157,29004.0591182,44545.443411,44910.4613766,-1592502.25306,-1564357.89532,2196052.71558,2192137.32667,11841632.3962,11711908.5199
4414.0625,664.220522576,12.4696844345,4.18767913154,30394.3703674,32145.7817702,45019.6613455,44586.0121735,-1542679.20343,-1512787.81438,2095067.27108,2085305.26071,11901898.5097,12051222.3481
4433.59375,673.413578523,12.4875823465,4.28571574768,30029.3802422,28380.6367181,45324.6606422,45644.3575258,-1488374.62845,-1460499.87322,1993304.11742,1990734.25819,11673972.8248,11528898.8978
4453.125,682.803357918,12.5062179282,4.38301513979,29839.8112095,31560.3168038,45799.5855989,45415.1490017,-1430989.39593,-1400647.96212,1891036.75312,1882311.95728,11745691.606,11909674.8979
4472.65625,692.38420471,12.5253855774,4.47656722355,29476.2412903,27872.7177195,46131.985765,46386.6669701,-1369770.80592,-1342840.9394,1788480.00932,1787454.93105,11499575.4573,11339944.6618
4492.1875,702.150347754,12.5454531364,4.56949616608,29312.5289967,30905.0904043,46604.5971528,46287.5952214,-1306339.23496,-1276197.97702,1685930.29117,1678553.48057,11581960.2958,11759493.7899
4511.71875,712.095904291,12.5658416447,4.65821238592,28956.471908,27492.2827671,46965.94695,47141.2589538,-1239754.27502,-1214425.5479,1583563.52823,1584229.77471,11319146.3987,11146346.7012
4531.25,722.21488349,12.5872638708,4.74660377212,28816.1426825,30186.4845534,47435.0331509,47199.0793711,-1171796.77309,-1142525.48356,1481722.54357,1475966.74343,11410837.5478,11600254.0865
4550.78125,732.501190056,12.6088809524,4.83016183609,28475.8754427,27237.8336082,47824.9901043,47915.2420787,-1101385.67256,-1078279.77806,1380508.12376,1382972.61722,11133357.8078,10949277.4381
4570.3125,742.948627903,12.6315280165,4.91379239705,28354.387719,29423.6742875,48290.8519541,48141.8389349,-1030383.76986,-1002619.5519,1280329.14245,1276389.63098,11232541.955,11431750.0109
4589.84375,753.550903885,12.6543143314,4.99193652152,28039.8722216,27092.8780135,48706.9048416,48715.7748361,-957636.926073,-937333.365809,1181185.56148,1185541.22271,10942808.5027,10749671.0054
4609.375,764.301631587,12.6780929001,5.07059600829,27932.2777182,28652.3343934,49170.9073643,49107.3091718,-884998.627924,-859323.118739,1083562.13874,1081536.19098,11047407.4253,11254087.2738
4628.90625,775.194335173,12.7020131543,5.14307207581,27653.6823581,27028.688009,49608.7592245,49548.6374823,-811317.600385,-794315.539249,987340.936698,993649.72412,10747998.1003,10548145.7842
4648.4375,786.222453285,12.7267805722,5.21649937879,27556.1406634,27914.7248834,50072.3087028,50085.0517846,-738352.711647,-715290.343072,893095.530278,893003.057523,10855895.6472,11067729.6978
4667.96875,797.379342998,12.751723737,5.28316213721,27322.3755786,27013.4378639,50526.8915056,50416.1225768,-665016.931637,-651711.939054,800561.312576,808818.065075,10549325.0135,10344998.1081
4687.5,808.658283817,12.7774551216,5.35116531471,27233.8076086,27255.9375478,50991.0631755,51067.6651659,-592919.001085,-572944.227793,710439.822463,712248.461851,10658582.6405,10873461.0842
4707.03125,820.052481733,12.8033822502,5.4117737497,27050.6105234,27018.2613824,51457.3900445,51316.0860389,-521063.233765,-511703.16773,622263.610341,632347.316645,10347108.2876,10140261.552
4726.5625,831.555073304,12.8298713122,5.47413640731,26973.9236909,26708.9522612,51922.4387352,52049.702354,-450890.739934,-434435.823209,536939.397902,540560.111422,10456127.2977,10672296.7155
4746.09375,843.159129801,12.8567205951,5.5286310586,26842.2746734,27029.7973377,52396.2800115,52242.513741,-381501.429681,-376243.322057,453719.895583,465412.841965,10141628.1259,9933828.16366
4765.625,854.857661373,12.8839653416,5.58510391529,26785.8460873,26296.2256618,52862.1957566,53031.5412986,-314157.308188,-301497.744712,373830.663186,378954.080003,10249218.2903,10465323.0314
4785.15625,866.643621263,12.9116017645,5.63332079669,26700.5287658,27045.024543,53340.5010178,53186.5209051,-248070.648941,-247053.002956,296208.331777,309137.501735,9933178.54466,9725602.30709
4804.6875,878.509910048,12.9394791114,5.68367774438,26677.6633963,26016.4970959,53805.9060484,54011.790904,-184300.790134,-175599.513918,222641.458914,228547.308729,10038525.8895,10253557.1854
4824.21875,890.449379922,12.9678032042,5.72556834591,26629.4072347,27087.928461,54286.5732876,54141.0389479,-122205.762445,-125444.964529,152130.443957,164600.261593,9722126.9301,9515694.60693
4843.75,902.454838992,12.9962744221,5.76960204058,26655.8460434,25861.2462054,54752.1818224,54996.9041695,-62584.8791438,-57964.016778,89839.1247384,92690.6349361,9824642.20329,10037757.2641
4863.28125,914.51905562,13.0252301182,5.80499572796,26635.8548578,27177.2272521,55230.5371009,55092.9250165,-5028.55250235,-12426.9686924,53485.2762861,39639.3396497,9508922.99123,9304434.1273
4882.8125,926.634762772,13.0540803476,5.84252391407,26720.1967891,25802.1407424,55696.4209176,55984.7713562,49966.596722,50438.8898582,70594.8862833,55283.2691483,9608131.65615,9818617.83695
4902.34375,938.7946624,13.0837443896,5.87132449397,26732.689754,27374.914027,56172.3877063,56048.2056566,102722.314992,91356.9138179,120927.887854,99760.4942878,9294056.68136,9092237.35735
4921.875,950.991429835,13.1126435528,5.90208454841,26874.6254004,25812.0407245,56636.2969495,56971.3173179,152675.30658,148978.832421,176358.945079,162887.687073,9389481.56736,9596582.62855
4941.40625,963.2177182,13.1430659908,5.92445623343,26922.4300297,27667.5066629,57104.0004561,56994.595865,200206.717251,185012.606066,228795.231662,208295.966743,9078111.83006,8879828.53456
4960.9375,975.466162836,13.1722197344,5.94785013646,27137.9613556,25945.6461242,57567.2435526,57962.8517491,245486.465316,238264.541969,280423.500528,267590.792881,9169155.01721,9371973.51134
4980.46875,987.729385739,13.2022061608,5.96418706158,27200.5370931,28091.3339666,58027.6232658,57923.4329451,287155.959079,267719.290535,327355.561491,306106.148377,8861592.40648,8667875.56324
5000.0,1000.0,13.2333579491,5.98035888299,27468.4347981,26072.4402795,58490.2966258,58950.9719573,327571.602226,317107.837036,373627.725928,361568.662941,8947501.01268,9144802.69957
