X,Y,surf vx,surf vy,tau integr.,tau dir.,P integr.,P dir.,
0.0,1000.0,26.1883079995,3.67275438589,60475.5844997,81696.5765598,10724035.7692,10724035.7692
320.0,1012.56504772,24.9139158003,3.55954087654,75597.7742238,84098.2106517,9153695.10045,9153695.10045
640.0,1025.12215909,23.7219129739,3.49399702554,74360.4064696,75131.3282425,7398175.89968,7398175.89968
960.0,1037.66340276,22.6498367032,3.32110276332,57479.2924837,46522.8875118,7569766.25066,7569766.25066
1280.0,1050.18085743,21.5735589838,3.05985878282,54186.0213079,61936.9177519,8971221.32135,8971221.32135
1600.0,1062.66661678,20.4338509606,2.91053139415,64745.3229961,73075.01451,8041178.74544,8041178.74544
1920.0,1075.11279456,19.3566007545,2.82406696138,69681.3294897,70432.8067967,6144743.07621,6144743.07621
2240.0,1087.51152949,18.4227204568,2.68846114834,54771.0688618,45095.9906683,6785303.93464,6785303.93464
2560.0,1099.85499026,17.484897789,2.45957710396,50767.946744,59713.2016844,8560808.87402,8560808.87402
2880.0,1112.13538047,16.5123301794,2.33473451071,63033.234773,70037.858721,8247694.59449,8247694.59449
3200.0,1124.34494358,15.61628766,2.21571083871,84834.2986941,67520.6522148,7098624.72499,7098624.72499
3520.0,1136.47596776,14.7944671077,2.09951208647,52466.8813493,57789.9360897,6356725.53412,6356725.53412
3840.0,1148.52079079,13.988897743,1.94071255626,53074.9139695,73945.5122816,7429091.42136,7429091.42136
4160.0,1160.4718049,13.2294550383,1.83820482485,52797.3325858,42955.5280333,6912611.85294,6912611.85294
4480.0,1172.32146159,12.5064922996,1.65725507158,53689.1148206,57253.8033797,7073433.75866,7073433.75866
4800.0,1184.06227634,11.7878869918,1.56790527771,75514.2380816,64369.1147949,5987381.47355,5987381.47355
5120.0,1195.68683342,11.1144774296,1.45186751296,61850.6929952,60997.8805909,5452366.88492,5452366.88492
5440.0,1207.1877905,10.4532426186,1.41704757105,61584.6749755,62129.8938947,5532309.07567,5532309.07567
5760.0,1218.55788333,9.85728443014,1.37711546894,60588.9243324,66032.4556965,5793825.78927,5793825.78927
6080.0,1229.78993031,9.33892708741,1.30797132333,48201.473342,38511.9050765,5881084.30812,5881084.30812
6400.0,1240.87683705,8.83430706946,1.16245997456,212768.815644,49080.0948328,6976287.01486,6976287.01486
6720.0,1251.81160082,8.31568474714,1.0648682575,56922.4464141,56767.354731,7156540.14602,7156540.14602
7040.0,1262.58731498,7.82511136917,0.966821788639,51458.3176413,59911.2847039,6842888.01157,6842888.01157
7360.0,1273.19717337,7.36300608474,0.906143272162,52602.9886762,61125.2629636,6604969.33758,6604969.33758
7680.0,1283.63447456,6.94336755347,0.835298066579,52919.5449986,61057.7061505,6195276.62655,6195276.62655
8000.0,1293.89262615,6.5503608455,0.775662147625,72131.9290207,60818.8185125,6096511.64504,6096511.64504
8320.0,1303.96514885,6.18721959647,0.702967636525,52220.9481885,61178.4292856,5881202.00839,5881202.00839
8640.0,1313.84568065,5.83271284748,0.64920267199,74173.0287222,65519.509023,6100858.59891,6100858.59891
8960.0,1323.52798078,5.48975208967,0.619913978847,54362.607916,73472.2449493,6163747.20125,6163747.20125
9280.0,1333.00593372,5.18769040474,0.609259571967,51931.6299604,67603.8919095,5973822.95619,5973822.95619
9600.0,1342.27355296,4.91749352925,0.556094053612,49076.4773815,59828.1757763,5683412.22027,5683412.22027
9920.0,1351.3249849,4.65533403537,0.506650967672,48891.1876448,53780.0956515,5421800.46095,5421800.46095
10240.0,1360.15451244,4.39758342928,0.444932270731,48444.2469041,49230.5662962,5173596.07043,5173596.07043
10560.0,1368.75655868,4.1580315364,0.407357733163,48131.1190508,43983.5054443,4953664.76157,4953664.76157
10880.0,1377.12569037,3.92515689466,0.363267461532,48056.6866414,30607.3195743,4835811.58118,4835811.58118
11200.0,1385.25662139,3.70076549019,0.372947359082,52529.8579019,40013.5431218,5039246.89593,5039246.89593
11520.0,1393.14421607,3.52502880111,0.360035905087,46762.4118314,56813.1322743,4905803.92605,4905803.92605
11840.0,1400.78349244,3.36343246517,0.304723096926,43811.554839,40935.632579,4986964.66434,4986964.66434
12160.0,1408.16962536,3.17734626542,0.269895534797,47163.515587,44202.683629,5298060.94049,5298060.94049
12480.0,1415.2979496,3.02387293303,0.257980593054,45796.981084,48124.3109008,4866886.80731,4866886.80731
12800.0,1422.16396275,2.87821598229,0.21744792913,43963.8381614,42559.9367057,5153195.55723,5153195.55723
13120.0,1428.7633281,2.74524002271,0.213891519846,44713.24357,48329.5567894,4903007.41106,4903007.41106
13440.0,1435.09187733,2.62553630049,0.171330347487,42598.7368281,32484.5958164,4213375.42151,4213375.42151
13760.0,1441.14561322,2.49528181345,0.185159196069,43040.8554948,40567.1426042,4770315.95703,4770315.95703
14080.0,1446.92071208,2.40601731558,0.178013074346,43394.3622743,45604.9425183,4768658.25785,4768658.25785
14400.0,1452.41352623,2.31439656142,0.149071241059,41724.5968916,40124.3836893,4677706.32172,4677706.32172
14720.0,1457.62058631,2.23214399825,0.129463858537,42455.8482248,42656.4858873,4508805.23239,4508805.23239
15040.0,1462.53860342,2.15129201843,0.0904483215679,41791.1093061,43882.8106894,4480706.19178,4480706.19178
15360.0,1467.16447123,2.06168807836,0.102793481536,38512.9201439,33565.404029,4583297.28227,4583297.28227
15680.0,1471.49526795,2.00583078445,0.111996676121,40898.6049537,43309.1313871,4689988.13963,4689988.13963
16000.0,1475.52825815,1.95140878435,0.0958757041171,39540.8904025,37555.150453,4401296.95909,4401296.95909
16320.0,1479.26089451,1.90259524793,0.0865499048119,40620.1877769,41163.7245055,4520088.5677,4520088.5677
16640.0,1482.69081942,1.85243811935,0.0529980421539,40296.2614535,42408.607966,4337971.55857,4337971.55857
16960.0,1485.81586646,1.79772670735,0.0651600317489,37223.0242117,32526.5606795,3823100.44394,3823100.44394
17280.0,1488.63406178,1.76811266971,0.0728866388753,39890.056578,41336.2783461,4173281.70098,4173281.70098
17600.0,1491.14362536,1.73773569363,0.0486786481547,39571.425697,39793.8342697,4450281.86203,4450281.86203
17920.0,1493.3429721,1.70547781265,0.0353826215936,38848.1795798,39327.0408866,4606280.27414,4606280.27414
18240.0,1495.23071285,1.67935861751,0.0246027134635,38548.6110509,37964.6072203,4787252.23396,4787252.23396
18560.0,1496.80565526,1.65842021753,0.0213317116296,38308.6254224,37670.900371,4515705.35519,4515705.35519
18880.0,1498.06680457,1.64260938551,0.0153040289207,38125.0893159,37764.7353535,4422852.08498,4422852.08498
19200.0,1499.01336421,1.63039821409,0.0126732381034,37971.9282573,37489.5965987,4312449.22042,4312449.22042
19520.0,1499.64473632,1.62245926503,0.00760102183469,37875.8158937,37632.8464771,4274288.94989,4274288.94989
19840.0,1499.9605221,1.61717687779,0.0042941221204,37817.2592831,37399.3681811,4251412.73725,4251412.73725
20160.0,1499.9605221,1.61559533083,-2.43865461549e-05,37807.1783528,37587.6229109,4250584.80677,4250584.80677
20480.0,1499.64473632,1.61654966266,-0.00349786154119,37835.1908101,37392.3098976,4253293.50378,4253293.50378
20800.0,1499.01336421,1.62157503382,-0.00693127904241,37917.4606201,37627.1281219,4255989.40313,4255989.40313
21120.0,1498.06680457,1.62946867149,-0.0114334021189,38044.677839,37481.7290726,4238119.44082,4238119.44082
21440.0,1496.80565526,1.64112150123,-0.0153495562962,38208.0435291,37753.3553884,4192817.09866,4192817.09866
21760.0,1495.23071285,1.65609153022,-0.0202546151554,38415.4863973,37635.1291893,4130902.75083,4130902.75083
22080.0,1493.3429721,1.6767934424,-0.0243395153579,38682.0540725,39123.2267564,4144710.99061,4144710.99061
22400.0,1491.14362536,1.70209791847,-0.0346182992628,39050.5877587,39449.8495143,4271864.07729,4271864.07729
22720.0,1488.63406178,1.73231029755,-0.0472375957005,39620.0020392,39835.6731441,4460909.0756,4460909.0756
23040.0,1485.81586646,1.7627495405,-0.065209535504,39629.0481951,39803.6532344,4681390.41704,4681390.41704
23360.0,1482.69081942,1.79744642432,-0.0645263311041,39000.6578007,38808.5270036,4594435.25076,4594435.25076
23680.0,1479.26089451,1.84518507486,-0.0668358121886,40165.1765361,41332.7543411,4420477.10062,4420477.10062
24000.0,1475.52825815,1.89252848392,-0.0832560501397,40427.5808893,40479.3014969,4262444.09,4262444.09
24320.0,1471.49526795,1.94270504753,-0.0867860948015,39968.0910132,38907.3351744,4502274.87386,4502274.87386
24640.0,1467.16447123,2.00906557495,-0.0896382700505,41117.9697594,42146.2366847,4791112.81841,4791112.81841
24960.0,1462.53860342,2.07358090406,-0.115731456712,40124.3181495,42942.9724567,4613604.42862,4613604.42862
25280.0,1457.62058631,2.14599663705,-0.122852498292,42069.7399841,40644.3256067,4421069.83446,4421069.83446
25600.0,1452.41352623,2.23306487459,-0.141462484641,40472.6950874,40415.689755,4781688.34688,4781688.34688
25920.0,1446.92071208,2.32222959952,-0.158948645368,43247.3055964,42367.0975197,4943273.26356,4943273.26356
26240.0,1441.14561322,2.42472729686,-0.175530483088,40978.0613283,41341.5946212,4803534.84119,4803534.84119
26560.0,1435.09187733,2.52438213605,-0.198081103052,43871.2752167,48855.3470723,4442376.3895,4442376.3895
26880.0,1428.7633281,2.6486222904,-0.193662609249,43736.4334052,40538.4293475,4900488.16557,4900488.16557
27200.0,1422.16396275,2.78343859687,-0.21961878747,42649.8104338,43283.0304649,5214738.57511,5214738.57511
27520.0,1415.2979496,2.92184268909,-0.239396921018,46148.2401087,44778.3467243,5062843.82276,5062843.82276
27840.0,1408.16962536,3.07896563654,-0.266946032925,41978.6067943,43716.4286291,5232793.20636,5232793.20636
28160.0,1400.78349244,3.23723286625,-0.301295015492,44765.7397779,51968.9600229,4986758.00725,4986758.00725
28480.0,1393.14421607,3.42516750929,-0.314799962997,44103.760889,52105.3105192,4892736.84739,4892736.84739
28800.0,1385.25662139,3.62777470266,-0.361901273483,42504.7917159,46563.7081216,5072810.18215,5072810.18215
29120.0,1377.12569037,3.82320323222,-0.409873808799,46221.4356311,54593.7378122,4986858.27023,4986858.27023
29440.0,1368.75655868,4.03708136336,-0.439082025716,47627.0436399,53262.9040596,5021838.44699,5021838.44699
29760.0,1360.15451244,4.27336043363,-0.457322514108,48350.8150201,52009.4627323,5187673.91129,5187673.91129
30080.0,1351.3249849,4.53627144593,-0.475183795747,48697.8160032,51406.8192506,5425157.11413,5425157.11413
30400.0,1342.27355296,4.83271784985,-0.50663435133,46163.6161972,54059.2018682,5659587.69435,5659587.69435
30720.0,1333.00593372,5.14136545828,-0.576476024348,42063.6237326,37945.9072769,6134395.12346,6134395.12346
31040.0,1323.52798078,5.44686908847,-0.659021653767,46579.4763341,44588.7254013,6302156.43194,6302156.43194
31360.0,1313.84568065,5.78088129197,-0.71413702442,49307.859548,50812.9451752,6018537.31672,6018537.31672
31680.0,1303.96514885,6.14592705462,-0.772286554217,53291.018156,54611.6272089,6065728.74627,6065728.74627
32000.0,1293.89262615,6.53628013723,-0.824652074066,52058.6693551,57506.1529512,5915914.95708,5915914.95708
32320.0,1283.63447456,6.95345339145,-0.891671371973,52697.1291275,59578.0689571,6197090.8545,6197090.8545
32640.0,1273.19717337,7.3921388944,-0.958375431871,86343.0787787,61773.766857,6286829.66164,6286829.66164
32960.0,1262.58731498,7.85361741459,-1.03787580454,53447.0713034,64067.0750742,6754481.81443,6754481.81443
33280.0,1251.81160082,8.33244538685,-1.10931563306,56068.2153615,70969.3582122,6890905.084,6890905.084
33600.0,1240.87683705,8.84826503724,-1.17723896289,56730.5676178,74246.3335203,7072706.14901,7072706.14901
33920.0,1229.78993031,9.39286980676,-1.24779403089,57816.2521228,74374.9005963,7074416.0578,7074416.0578
34240.0,1218.55788333,9.97008583169,-1.32956667041,58309.855633,72312.1591853,6953297.14663,6953297.14663
34560.0,1207.1877905,10.5712772131,-1.42239543667,59811.1683633,70881.0561201,6903721.57363,6903721.57363
34880.0,1195.68683342,11.2064388364,-1.5173355806,61233.9504329,68528.2031475,6453821.44589,6453821.44589
35200.0,1184.06227634,11.8766713059,-1.62117113949,74535.5957787,65502.4006605,6985475.31502,6985475.31502
35520.0,1172.32146159,12.5797628679,-1.73109303831,118354.992174,68922.6903032,7654387.23734,7654387.23734
35840.0,1160.4718049,13.3146011686,-1.85223221188,127637.231052,72447.459451,8770051.22716,8770051.22716
36160.0,1148.52079079,14.0807021105,-1.9687626348,60920.7233707,81889.7491356,9326805.80524,9326805.80524
36480.0,1136.47596776,14.9073641439,-2.08129682686,58940.0807126,82989.1417792,9409032.02824,9409032.02824
36800.0,1124.34494358,15.766933615,-2.22277993361,66674.9824742,44758.5815321,8898734.21572,8898734.21572
37120.0,1112.13538047,16.6656254536,-2.36758833865,56672.6564043,52502.7789678,8274075.49621,8274075.49621
37440.0,1099.85499026,17.581445679,-2.54415736436,56197.0927607,65811.5710367,8832707.88805,8832707.88805
37760.0,1087.51152949,18.5258884478,-2.69343188129,67350.0724859,84739.8728172,8886675.72068,8886675.72068
38080.0,1075.11279456,19.5336505715,-2.82814671789,65201.1064327,49152.9217237,8638668.73098,8638668.73098
38400.0,1062.66661678,20.5641308883,-2.98197820385,64971.9671253,67248.9797949,8585943.5966,8585943.5966
38720.0,1050.18085743,21.62301092,-3.1178106255,71691.1690036,85419.4165963,8671468.49859,8671468.49859
39040.0,1037.66340276,22.753180955,-3.23959148587,70029.6812766,85528.4356004,8770740.55513,8770740.55513
39360.0,1025.12215909,23.9147689324,-3.39599363757,73407.0697564,68735.0309582,8468612.89426,8468612.89426
39680.0,1012.56504772,25.1151296512,-3.54374292051,73843.4224,76013.1225221,9222373.66551,9222373.66551
40000.0,1000.0,26.3372362794,-3.73359821555,66128.1555876,84200.2437965,10579587.7715,10579587.7715
40320.0,987.434952278,27.5874200157,-3.89341023525,73350.1208133,100000.809465,11104752.9258,11104752.9258
40640.0,974.87784091,28.8963156756,-4.06106156611,68286.683352,38797.5929421,11073077.4844,11073077.4844
40960.0,962.336597236,30.2161132527,-4.24031086806,68198.1209154,64463.6256766,9647650.01378,9647650.01378
41280.0,949.819142574,31.5512353963,-4.41920733036,76199.2949389,85175.2616406,9510940.65348,9510940.65348
41600.0,937.333383218,32.939401121,-4.55625251358,77233.8796109,92551.8149297,9389238.84095,9389238.84095
41920.0,924.88720544,34.3684884152,-4.71082464735,85262.376176,76415.297768,8919412.60437,8919412.60437
42240.0,912.488470512,35.8305545774,-4.84891461217,75296.0726365,83975.7634353,10066293.0245,10066293.0245
42560.0,900.145009743,37.3109984169,-5.02796941845,72462.0389826,91850.4419474,11598149.7988,11598149.7988
42880.0,887.864619525,38.8040973062,-5.1807785195,79149.5839659,108111.562796,12345838.7984,12345838.7984
43200.0,875.655056418,40.3447801385,-5.33635428289,75432.0319933,106354.300009,12623285.1496,12623285.1496
43520.0,863.524032241,41.8889138529,-5.49540676867,89599.6938641,63174.3567345,11090912.9398,11090912.9398
43840.0,851.479209211,43.4370280906,-5.66384142451,101034.790394,78782.4320422,11074314.7845,11074314.7845
44160.0,839.528195096,44.9769532886,-5.81358410227,86423.843185,106005.87507,10871171.2518,10871171.2518
44480.0,827.678538413,46.5709649831,-5.89864989898,83236.5548831,103727.516128,10638236.4111,10638236.4111
44800.0,815.937723658,48.1812613962,-6.01128170997,87244.6421602,105764.978598,10066381.842,10066381.842
45120.0,804.313166581,49.8009081263,-6.10109302399,115101.449702,86412.7635522,9914737.19664,9914737.19664
45440.0,792.812209503,51.4083685199,-6.23124482616,189959.52537,94832.3040743,10834694.6464,10834694.6464
45760.0,781.442116675,53.0032433404,-6.32330109517,83250.8744362,101766.0137,11902706.3537,11902706.3537
46080.0,770.210069689,54.5826953136,-6.4212880873,90796.0634709,119301.688522,12228653.6491,12228653.6491
46400.0,759.123162949,56.1911092953,-6.43967569408,87177.0821646,115593.596711,12306820.7393,12306820.7393
46720.0,748.188399182,57.7919375178,-6.50062908814,90916.4379345,116795.439436,11897409.1955,11897409.1955
47040.0,737.412685019,59.3819652347,-6.51474312259,91317.8737007,111497.750756,11545732.3029,11545732.3029
47360.0,726.802826633,60.9485432454,-6.57071117903,93771.7315756,108684.98403,10987120.1698,10987120.1698
47680.0,716.365525437,62.4886911094,-6.57340602503,94978.111468,104357.97155,10747095.4621,10747095.4621
48000.0,706.107373854,64.0109217992,-6.59428118919,96391.1849039,101972.422696,10390548.1314,10390548.1314
48320.0,696.034851153,65.5011299498,-6.57050639923,97359.5271273,99960.3011951,10391062.4646,10391062.4646
48640.0,686.154319355,66.9698810641,-6.55059960825,98197.6311225,99073.0050658,10214300.1379,10214300.1379
48960.0,676.472019215,68.3971834875,-6.49614224242,98749.1981343,98703.874815,10359915.5357,10359915.5357
49280.0,666.994066283,69.7983224055,-6.42599376958,99443.8131476,98900.9231658,10319521.4512,10319521.4512
49600.0,657.726447036,71.1579189178,-6.32479986731,99783.4937121,98646.9925124,10555397.9778,10555397.9778
49920.0,648.675015101,72.5022031124,-6.18728663977,99901.6476002,98836.9889841,10703395.8301,10703395.8301
50240.0,639.845487556,73.8235924115,-6.03366611001,99691.7532023,99021.4985974,11018510.5143,11018510.5143
50560.0,631.243441321,75.1452085196,-5.86330090284,99264.7856124,99908.1052125,11409906.8793,11409906.8793
50880.0,622.874309632,76.4247916343,-5.7485354222,95175.5613192,106894.153935,11746468.6905,11746468.6905
51200.0,614.743378612,77.645328243,-5.65486462951,89489.7184982,71915.7604772,12393728.9928,12393728.9928
51520.0,606.855783932,78.7377177258,-5.63045802488,98296.2713231,119797.022312,11781965.7884,11781965.7884
51840.0,599.216507565,79.7834596889,-5.49257013634,100787.333244,115343.823667,11627096.871,11627096.871
52160.0,591.830374641,80.7940143279,-5.35299955075,101334.507567,110460.452392,12104212.262,12104212.262
52480.0,584.702050402,81.8091618495,-5.09978851093,104100.765085,112464.484466,13042584.6012,13042584.6012
52800.0,577.836037249,82.7700212462,-4.94759283598,95493.9045557,104551.465802,12896658.4832,12896658.4832
53120.0,571.236671903,83.6607365706,-4.7408575089,102558.532572,120511.671648,12264335.2296,12264335.2296
53440.0,564.908122665,84.4792489669,-4.59501897751,106133.063041,118612.000276,12381040.7178,12381040.7178
53760.0,558.854386783,85.2678509035,-4.34721824583,97965.7488935,103022.395859,12668180.8688,12668180.8688
54080.0,553.079287924,85.9681666998,-4.19277047812,105239.241508,120251.272756,12684440.6236,12684440.6236
54400.0,547.586473767,86.6442760982,-3.90096871676,106491.405363,97315.8565691,13126910.2425,13126910.2425
54720.0,542.37941369,87.2652393316,-3.71474956322,102452.450055,102420.66089,12921284.7497,12921284.7497
55040.0,537.461396583,87.8383798812,-3.42910348525,108223.978339,106354.909445,12461040.0967,12461040.0967
55360.0,532.835528772,88.3445099366,-3.24892832314,103379.651775,101194.080261,13069379.7816,13069379.7816
55680.0,528.504732054,88.7968937478,-2.97357280008,108125.871738,107532.361827,13091006.7197,13091006.7197
56000.0,524.471741852,89.187746678,-2.77567654431,105991.66587,101718.980164,13094654.2435,13094654.2435
56320.0,520.739105491,89.5338777307,-2.48121443765,107197.118352,107422.840967,13045590.0811,13045590.0811
56640.0,517.309180583,89.8356727987,-2.24306740016,106763.29466,108773.535403,13162356.8243,13162356.8243
56960.0,514.184133543,90.1107904529,-1.92986341431,104984.077239,106374.903077,12535515.701,12535515.701
57280.0,511.365938216,90.3498016861,-1.69177888349,107176.486006,108306.241154,13048397.2855,13048397.2855
57600.0,508.856374636,90.5528085778,-1.42459294807,108483.422569,108992.749984,13293562.8067,13293562.8067
57920.0,506.657027896,90.6928124206,-1.23482304329,107667.593287,108600.931065,13342118.6968,13342118.6968
58240.0,504.769287152,90.8066653297,-0.985115163008,104815.973209,104223.678984,13912917.8826,13912917.8826
58560.0,503.19434474,90.8942023397,-0.784676199867,107070.575116,108947.15313,13157785.0371,13157785.0371
58880.0,501.933195428,90.9700515078,-0.559677942409,107276.116254,107200.013604,13424162.9716,13424162.9716
59200.0,500.986635786,91.0242730707,-0.407624999561,107412.053574,108000.230991,13140404.8832,13140404.8832
59520.0,500.35526368,91.0657837434,-0.242268921582,107695.984983,108025.202404,13206486.1779,13206486.1779
59840.0,500.039477898,91.0898888021,-0.134305551366,107654.350715,107963.255304,13165929.4585,13165929.4585
60160.0,500.039477898,91.0985458758,0.00322822844517,107796.2586,108111.275113,13175973.5467,13175973.5467
60480.0,500.35526368,91.0871212828,0.0962541377487,107661.175409,108111.480931,13141850.7169,13141850.7169
60800.0,500.986635786,91.059759506,0.242819315525,107689.997389,107727.890843,13231902.1101,13231902.1101
61120.0,501.933195428,91.0120421336,0.35925104803,107528.964858,108900.975275,12983751.5136,12983751.5136
61440.0,503.19434474,90.9444259824,0.56333621843,107154.078173,105620.934505,13263742.5734,13263742.5734
61760.0,504.769287152,90.8591484615,0.75320409541,108660.808927,113049.069657,12625189.9675,12625189.9675
62080.0,506.657027896,90.7361365506,1.04975070548,101259.578822,91684.049166,13221577.6114,13221577.6114
62400.0,508.856374636,90.6236111988,1.26768753199,108846.000654,113262.897819,12780721.5199,12780721.5199
62720.0,511.365938216,90.4578029097,1.53378686763,108727.478413,107783.451991,13016959.5883,13016959.5883
63040.0,514.184133543,90.2472934961,1.77267773248,108318.519499,111322.711509,13763331.5205,13763331.5205
63360.0,517.309180583,89.971755447,2.09800024823,101840.100877,92908.5738225,12836283.7509,12836283.7509
63680.0,520.739105491,89.6957675885,2.38140636675,107823.657977,112221.36935,12946494.7737,12946494.7737
64000.0,524.471741852,89.369579624,2.66975582125,105403.577711,107607.795158,13225291.8818,13225291.8818
64320.0,528.504732054,89.0127201713,2.92302186775,107781.427695,112049.328312,12658499.9141,12658499.9141
64640.0,532.835528772,88.5791145544,3.15804542557,105779.641834,106484.294814,12681276.1806,12681276.1806
64960.0,537.461396583,88.0961775671,3.41580184795,107540.898288,114178.15185,12906193.3022,12906193.3022
65280.0,542.37941369,87.5426853145,3.63914338017,104829.840321,97869.531609,12956143.2345,12956143.2345
65600.0,547.586473767,86.9324634613,3.91489799167,108340.405626,116461.085297,12572163.3738,12572163.3738
65920.0,553.079287924,86.2613533803,4.14701472781,103324.405064,81261.5554999,12114791.9816,12114791.9816
66240.0,558.854386783,85.5170544423,4.4576568134,108074.074701,85396.8005181,12663839.5052,12663839.5052
66560.0,564.908122665,84.787271479,4.68602019755,111352.330062,129563.541446,12756094.0705,12756094.0705
66880.0,571.236671903,83.9806781485,4.88139739162,99311.1442891,100937.265809,12321439.6125,12321439.6125
67200.0,577.836037249,83.0957166176,5.07906177722,104618.131566,83102.639661,12148512.2574,12148512.2574
67520.0,584.702050402,82.1564402402,5.26813737703,108249.008138,134969.696938,11968803.8174,11968803.8174
67840.0,591.830374641,81.2035157109,5.41955500924,99982.874336,124922.506582,12391954.0676,12391954.0676
68160.0,599.216507565,80.171043036,5.50878393488,96451.4657907,108203.83868,11815926.1323,11815926.1323
68480.0,606.855783932,79.0418604484,5.66077754753,99748.7127188,86398.8755845,11351223.5591,11351223.5591
68800.0,614.743378612,77.8331279866,5.82204394363,105302.396062,132105.243076,12111996.082,12111996.082
69120.0,622.874309632,76.6317902799,6.04120856811,102543.166408,137031.041894,12835612.327,12835612.327
69440.0,631.243441321,75.428094352,6.13086510932,98122.7620495,125605.530151,12399972.4974,12399972.4974
69760.0,639.845487556,74.1849674573,6.24205808624,94578.6655516,113866.884464,11573031.9648,11573031.9648
70080.0,648.675015101,72.8694136168,6.25504919875,96790.2638966,104649.664277,10864285.3276,10864285.3276
70400.0,657.726447036,71.4971096057,6.35706246158,98129.0426439,99909.3040639,10452045.9112,10452045.9112
70720.0,666.994066283,70.0836387418,6.36837536784,98797.9191538,97920.1294085,9927630.09305,9927630.09305
71040.0,676.472019215,68.6409516291,6.47779276695,98871.722669,96937.3663228,9766610.54599,9766610.54599
71360.0,686.154319355,67.1802267097,6.46615546734,98634.13502,96388.3257279,9370956.65938,9370956.65938
71680.0,696.034851153,65.6865810084,6.54745974221,98115.2386395,95541.4195484,9351105.87584,9351105.87584
72000.0,706.107373854,64.1713911649,6.50528089521,97659.8570684,94908.774755,9107975.00712,9107975.00712
72320.0,716.365525437,62.615217444,6.57227276728,96965.7198516,93736.1274382,9204635.78944,9204635.78944
72640.0,726.802826633,61.0351479433,6.5344215414,96494.9822605,93310.711939,9145064.97323,9145064.97323
72960.0,737.412685019,59.4150078283,6.63524361883,95415.6070653,92000.5987678,9344821.64187,9344821.64187
73280.0,748.188399182,57.8090399186,6.64301067019,95149.1308344,95537.573175,9459501.25851,9459501.25851
73600.0,759.123162949,56.2407950468,6.70652824312,94486.4022238,102206.418158,9592153.10916,9592153.10916
73920.0,770.210069689,54.7429880888,6.54025189404,75985.4915321,59873.3058463,9633463.72395,9633463.72395
74240.0,781.442116675,53.1681133787,6.38154958948,72548.9131793,75493.2048269,11075016.1086,11075016.1086
74560.0,792.812209503,51.5260030291,6.18600009684,81233.0475444,89141.9931789,10891857.1837,10891857.1837
74880.0,804.313166581,49.8237259723,6.1122335148,88510.1717901,94937.2879921,9860537.71878,9860537.71878
75200.0,815.937723658,48.1365925222,6.05489789665,90518.7305103,91525.6543018,9181643.47286,9181643.47286
75520.0,827.678538413,46.5182221483,6.02727515524,89061.5749576,97532.5031408,9096227.98698,9096227.98698
75840.0,839.528195096,44.986653113,5.86256400259,71591.2157769,57815.7622888,9101396.96138,9101396.96138
76160.0,851.479209211,43.4113904563,5.68223245546,77036.2874271,71712.5849625,10151837.9642,10151837.9642
76480.0,863.524032241,41.7947023663,5.54475843125,89252.0450317,86825.0642408,9117451.15004,9117451.15004
76800.0,875.655056418,40.2192710569,5.43602105757,84051.3352939,93671.6575507,7840768.82978,7840768.82978
77120.0,887.864619525,38.726747484,5.25830621284,66758.0234808,54509.9039009,8405950.82497,8405950.82497
77440.0,900.145009743,37.2271404233,5.0421552025,61866.1301102,70310.9830121,10414098.902,10414098.902
77760.0,912.488470512,35.7072285813,4.91119902267,73910.9833446,83967.6433647,9988752.67944,9988752.67944
78080.0,924.88720544,34.2408524152,4.75159694201,82596.5091272,81299.6415761,8378407.31623,8378407.31623
78400.0,937.333383218,32.839478602,4.55472939119,63576.9840063,52628.5305097,8488378.66919,8488378.66919
78720.0,949.819142574,31.4470513623,4.36119249527,132508.070267,67879.3083241,10048008.1775,10048008.1775
79040.0,962.336597236,30.0402927853,4.21357791944,127665.0025,80636.2257038,9138108.9427,9138108.9427
79360.0,974.87784091,28.712052185,4.0621269083,80516.2942949,77622.1620494,7207155.09915,7207155.09915
79680.0,987.434952278,27.4611557904,3.86194750728,57445.8088936,39101.1090297,8002716.52485,8002716.52485
80000.0,1000.0,26.1883079995,3.67275438589,60475.5844997,81595.0209513,10724035.7692,10724035.7692
