0.000000000000000000e+00 1.693007224469999983e+01 6.451550164980000002e-01 1.647881793110000004e+01 1.647886110099999968e+01 -1.102274011499993520e+02
2.666666666664999942e-03 1.690015286259999883e+01 6.450134477719999815e-01 1.643880075659999918e+01 1.671369911040000034e+01 -9.444179027000069482e+01
5.333333333350000378e-03 1.687012262680000063e+01 6.445320138490000517e-01 1.639571456110000014e+01 1.694554246050000046e+01 -1.055348892000000944e+02
8.000000000000000167e-03 1.684004922329999943e+01 6.435307293099999937e-01 1.635736413469999917e+01 1.717843915429999768e+01 -1.014604815699998284e+02
1.066666666665000082e-02 1.680991876830000109e+01 6.422245977530000038e-01 1.631422207789999845e+01 1.740734722710000071e+01 -9.857197082000040211e+01
1.333333333335000141e-02 1.677975826690000005e+01 6.403988117790000434e-01 1.627632627079999850e+01 1.763776043710000252e+01 -1.086747715199999504e+02
1.600000000000000033e-02 1.674961039980000166e+01 6.382264865200000248e-01 1.623531205860000171e+01 1.786472802810000005e+01 -9.273976854000054004e+01
1.866666666664999752e-02 1.671941104729999950e+01 6.356893721499999872e-01 1.619546264890000131e+01 1.809069482449999811e+01 -1.104693859700001752e+02
2.133333333334999984e-02 1.668927809530000061e+01 6.327050704119999702e-01 1.615680823639999986e+01 1.831549694290000119e+01 -9.258543968000076063e+01
2.400000000000000050e-02 1.665914008789999912e+01 6.293624769710000066e-01 1.611592959320000062e+01 1.853750559540000253e+01 -1.079670229899995064e+02
2.666666666665000116e-02 1.662904910989999863e+01 6.256851672590000302e-01 1.607951369050000068e+01 1.876028714759999971e+01 -9.783337945999950591e+01
2.933333333334999654e-02 1.659910411630000127e+01 6.216053442159999998e-01 1.603868950789999914e+01 1.897859428419999972e+01 -1.012070056200008850e+02
3.200000000000000067e-02 1.656918117569999893e+01 6.172033222039999822e-01 1.600266916149999830e+01 1.919792845609999787e+01 -1.038591154800001561e+02
3.466666666665000479e-02 1.653935543269999897e+01 6.124577986300000498e-01 1.596349536850000028e+01 1.941336732070000082e+01 -9.519798241000063399e+01
3.733333333334999671e-02 1.650966846429999890e+01 6.073816188530000160e-01 1.592688950309999996e+01 1.962862832680000125e+01 -1.082555102399997367e+02
4.000000000000000083e-02 1.648006599480000034e+01 6.020136793849999446e-01 1.589039694150000059e+01 1.984185594340000236e+01 -9.351624117000028491e+01
4.266666666665000496e-02 1.645067322050000058e+01 5.962993042480000394e-01 1.585322288659999934e+01 2.005279128190000293e+01 -1.074487120299991290e+02
4.533333333334999687e-02 1.642140409510000154e+01 5.903489046900000092e-01 1.581888691129999991e+01 2.026342570579999958e+01 -9.566775661000050945e+01
4.800000000000000100e-02 1.639228423819999847e+01 5.840381570639999742e-01 1.578197094010000079e+01 2.047027885349999821e+01 -1.030103398000001960e+02
5.066666666650000012e-02 1.636342393549999841e+01 5.775463886889999898e-01 1.574870297000000008e+01 2.067743572629999704e+01 -1.006603156899996065e+02
5.333333333350000205e-02 1.633472707829999848e+01 5.708006836179999599e-01 1.571293371690000029e+01 2.088071227690000242e+01 -9.813009809000044470e+01
5.600000000000000117e-02 1.630627201109999902e+01 5.637651148990000527e-01 1.568027446670000025e+01 2.108399672740000241e+01 -1.048973648000005596e+02
5.866666666650000028e-02 1.627804853780000016e+01 5.565450059190000243e-01 1.564624853669999993e+01 2.128389382770000182e+01 -9.436522606999986351e+01
6.133333333350000222e-02 1.625007603330000094e+01 5.490423035179999856e-01 1.561319230730000029e+01 2.148232667510000127e+01 -1.059846539999991677e+02
6.400000000000000133e-02 1.622239135870000126e+01 5.413988775900000494e-01 1.558182082229999921e+01 2.167951030700000103e+01 -9.503196539000049370e+01
6.666666666649999351e-02 1.619495853880000169e+01 5.335618783009999921e-01 1.554846521019999983e+01 2.187321656760000010e+01 -1.038093429600000377e+02
6.933333333350000238e-02 1.616789510119999917e+01 5.254873641930000172e-01 1.551931608409999974e+01 2.206737874880000305e+01 -9.843451369999907286e+01
7.199999999999999456e-02 1.614110379419999930e+01 5.173456884099999487e-01 1.548686817249999947e+01 2.225677978130000056e+01 -9.958729302999935840e+01
7.466666666650000062e-02 1.611460951480000148e+01 5.089987358330000378e-01 1.545760559110000010e+01 2.244615047879999992e+01 -1.018377578699998622e+02
7.733333333349999561e-02 1.608850126069999931e+01 5.005339521839999861e-01 1.542822356779999993e+01 2.263286936589999954e+01 -9.730484297999926468e+01
8.000000000000000167e-02 1.606275494289999983e+01 4.918690369570000165e-01 1.539845254809999986e+01 2.281704253230000035e+01 -1.029943818599991516e+02
8.266666666649999384e-02 1.603742830390000051e+01 4.831841718100000072e-01 1.537098615819999914e+01 2.300011592300000274e+01 -9.702783641000091563e+01
8.533333333350000272e-02 1.601252044530000163e+01 4.743047286550000075e-01 1.534233388070000004e+01 2.318000147589999926e+01 -1.023819850600007868e+02
8.799999999999999489e-02 1.598800406019999976e+01 4.654159608899999800e-01 1.531543464559999990e+01 2.335841704239999927e+01 -9.792759610999934239e+01
9.066666666650000095e-02 1.596391171460000002e+01 4.564607832859999825e-01 1.528812284910000052e+01 2.353392267419999939e+01 -1.009572974100001090e+02
9.333333333349999594e-02 1.594019586739999994e+01 4.474795915340000207e-01 1.526215937849999982e+01 2.370780699180000184e+01 -9.938254189000092254e+01
9.600000000000000200e-02 1.591691993320000087e+01 4.384567977389999816e-01 1.523587400799999969e+01 2.387876037540000240e+01 -9.928239918999932456e+01
9.866666666649999418e-02 1.589407234419999959e+01 4.294227105089999941e-01 1.521103112379999978e+01 2.404818520169999729e+01 -1.009225092900004199e+02
1.013333333335000030e-01 1.587162815569999985e+01 4.203496902569999749e-01 1.518602460409999999e+01 2.421460872119999763e+01 -9.798973967999964430e+01
1.039999999999999952e-01 1.584968734129999923e+01 4.112940033720000055e-01 1.516154877269999979e+01 2.437876290720000227e+01 -1.010879950300008119e+02
1.066666666665000152e-01 1.582823917240000000e+01 4.021637896940000179e-01 1.513835621479999993e+01 2.454103827429999996e+01 -9.845891245000063918e+01
1.093333333334999963e-01 1.580727451239999937e+01 3.931170568099999763e-01 1.511432940249999923e+01 2.469993631910000076e+01 -1.004919396499991393e+02
1.120000000000000023e-01 1.578683126910000034e+01 3.840091805779999867e-01 1.509231605189999925e+01 2.485744508470000014e+01 -9.950584703999943770e+01
1.146666666665000084e-01 1.576698132369999961e+01 3.748392418729999953e-01 1.506954374230000049e+01 2.501148231330000016e+01 -9.901428787999972769e+01
1.173333333334999895e-01 1.574766802259999920e+01 3.656819747500000273e-01 1.504781501509999941e+01 2.516346273949999812e+01 -9.987220742000080520e+01
1.199999999999999956e-01 1.572889985920000022e+01 3.565729673420000023e-01 1.502684317679999992e+01 2.531308916609999926e+01 -9.883386621000059336e+01
1.226666666665000155e-01 1.571062574840000003e+01 3.475326877409999904e-01 1.500572632689999963e+01 2.545973081660000048e+01 -1.001916308800000763e+02
1.253333333334999966e-01 1.569284706040000010e+01 3.385584296999999965e-01 1.498585017699999966e+01 2.560430171759999851e+01 -9.878358063000068512e+01
1.280000000000000027e-01 1.567558420299999966e+01 3.296331004010000232e-01 1.496587441850000033e+01 2.574586804369999982e+01 -9.946374668999948199e+01
1.306666666665000087e-01 1.565880682979999960e+01 3.206834910019999985e-01 1.494673943829999985e+01 2.588492946390000071e+01 -9.883503064000048255e+01
1.333333333335000037e-01 1.564246440720000031e+01 3.119156486870000022e-01 1.492763422860000055e+01 2.602100761610000035e+01 -9.945963685999997494e+01
1.360000000000000098e-01 1.562645912950000060e+01 3.034247350370000151e-01 1.490953440750000070e+01 2.615495473829999895e+01 -9.901025366999954258e+01
1.386666666665000158e-01 1.561080330619999934e+01 2.950608796049999927e-01 1.489205137969999981e+01 2.628628250380000253e+01 -9.890682915000058983e+01
1.413333333334999831e-01 1.559547045899999951e+01 2.868779134500000216e-01 1.487421052390000042e+01 2.641415998839999801e+01 -9.813944095000066170e+01
1.439999999999999891e-01 1.558049984520000031e+01 2.787572209890000208e-01 1.485797887450000054e+01 2.654026288549999890e+01 -9.912031904999911092e+01
1.466666666665000229e-01 1.556585795820000051e+01 2.707616586780000056e-01 1.484156090679999984e+01 2.666315098080000112e+01 -9.805735993999988409e+01
1.493333333334999902e-01 1.555157096079999945e+01 2.628565936760000055e-01 1.482554619629999948e+01 2.678314644029999769e+01 -9.833081967999972051e+01
1.519999999999999962e-01 1.553764367009999958e+01 2.550365652489999801e-01 1.481095703579999956e+01 2.690116389550000164e+01 -9.820844935999997460e+01
1.546666666665000023e-01 1.552405089169999997e+01 2.473238213239999927e-01 1.479538577820000000e+01 2.701515208620000053e+01 -9.710876104000024611e+01
1.573333333334999973e-01 1.551084952419999929e+01 2.396665244950000051e-01 1.478189295349999988e+01 2.712777878260000008e+01 -9.914846031999960019e+01
1.600000000000000033e-01 1.549796750660000022e+01 2.321056103270000004e-01 1.476787482149999953e+01 2.723664135099999939e+01 -9.583822540000080892e+01
1.626666666665000094e-01 1.548547957010000076e+01 2.246098463990000016e-01 1.475436097420000081e+01 2.734265771820000168e+01 -9.852814939000084848e+01
1.653333333335000044e-01 1.547335608500000070e+01 2.171695577249999898e-01 1.474228051539999917e+01 2.744668222019999959e+01 -9.631642183000035118e+01
1.680000000000000104e-01 1.546158271680000063e+01 2.098287479489999996e-01 1.472924695170000042e+01 2.754667220720000032e+01 -9.787593280999921319e+01
1.706666666665000165e-01 1.545019426200000012e+01 2.025309221140000060e-01 1.471832342359999934e+01 2.764515849850000251e+01 -9.717468397000060065e+01
1.733333333334999837e-01 1.543916944200000074e+01 1.952887644699999870e-01 1.470648058219999932e+01 2.773934661449999695e+01 -9.532308960999921510e+01
1.759999999999999898e-01 1.542853141930000049e+01 1.881214723430000013e-01 1.469574043699999955e+01 2.783130433970000084e+01 -9.801619644000008691e+01
1.786666666664999958e-01 1.541824768420000069e+01 1.810014036869999898e-01 1.468565558020000061e+01 2.792041566340000003e+01 -9.529741653000004931e+01
1.813333333334999908e-01 1.540834978260000021e+01 1.739100780789999967e-01 1.467532453179999941e+01 2.800584509160000124e+01 -9.750084445999935667e+01
1.839999999999999969e-01 1.539884081900000012e+01 1.668795275989999882e-01 1.466605569000000031e+01 2.808861397780000146e+01 -9.478274074999987420e+01
1.866666666665000029e-01 1.538969372110000045e+01 1.598901525489999920e-01 1.465652328940000082e+01 2.816783650069999823e+01 -9.655590812999940908e+01
1.893333333334999979e-01 1.538093682659999928e+01 1.529336933590000058e-01 1.464827021560000020e+01 2.824481503199999821e+01 -9.605312602999993032e+01
1.920000000000000040e-01 1.537254971239999968e+01 1.460269370839999969e-01 1.463960608130000018e+01 2.831770852369999858e+01 -9.516627068999967776e+01
1.946666666665000101e-01 1.536453528400000046e+01 1.391479103250000127e-01 1.463181895950000033e+01 2.838798137439999891e+01 -9.621148911999911491e+01
1.973333333334999773e-01 1.535691549520000088e+01 1.322918811550000129e-01 1.462449565720000066e+01 2.845525366340000062e+01 -9.477278198999911751e+01
2.000000000000000111e-01 1.534966987439999997e+01 1.254634424359999945e-01 1.461735789809999986e+01 2.851924397440000192e+01 -9.681045580000058237e+01
2.026666666665000172e-01 1.534280333659999940e+01 1.186881585030000047e-01 1.461098025020000080e+01 2.858004918140000328e+01 -9.428410427000001448e+01
2.053333333335000122e-01 1.533629993899999988e+01 1.118932466180000002e-01 1.460402789239999954e+01 2.863677336909999838e+01 -9.511990541999973914e+01
2.079999999999999905e-01 1.533020204269999986e+01 1.051616734350000054e-01 1.459876610290000087e+01 2.869172461209999980e+01 -9.553828260000049966e+01
2.106666666664999965e-01 1.532446883749999955e+01 9.841955064460000679e-02 1.459313154099999998e+01 2.874271494810000149e+01 -9.522931636999919647e+01
2.133333333335000193e-01 1.531911373670000032e+01 9.170004598129999351e-02 1.458792873830000048e+01 2.879027374800000061e+01 -9.527906254000031083e+01
2.159999999999999976e-01 1.531414579810000021e+01 8.503110807090000223e-02 1.458324138070000053e+01 2.883453647780000040e+01 -9.371428494000062415e+01
2.186666666664999759e-01 1.530953630920000030e+01 7.832285106979999800e-02 1.457848390190000032e+01 2.887545593419999790e+01 -9.549564886000007391e+01
2.213333333335000264e-01 1.530532409249999937e+01 7.166312848969999538e-02 1.457517739530000078e+01 2.891401375909999771e+01 -9.500734602000005680e+01
2.240000000000000047e-01 1.530148813059999924e+01 6.499219918790000161e-02 1.457091910069999940e+01 2.894779637849999787e+01 -9.428718988999911232e+01
2.266666666664999830e-01 1.529801615609999921e+01 5.836440998060000301e-02 1.456763302090000067e+01 2.897878136319999953e+01 -9.446344598999992570e+01
2.293333333335000057e-01 1.529492905959999938e+01 5.170211899160000180e-02 1.456492106309999990e+01 2.900688144989999984e+01 -9.443743562000058489e+01
2.320000000000000118e-01 1.529221366930000059e+01 4.509702683550000091e-02 1.456229608519999985e+01 2.903150996260000127e+01 -9.523237580000049718e+01
2.346666666664999901e-01 1.528988700440000059e+01 3.846007705480000011e-02 1.456033672290000069e+01 2.905267458329999997e+01 -9.377267136999964237e+01
2.373333333335000128e-01 1.528791758939999923e+01 3.184532678339999784e-02 1.455791937090000054e+01 2.906977479840000100e+01 -9.368207789999991064e+01
2.399999999999999911e-01 1.528634849960000075e+01 2.521663529129999914e-02 1.455682172020000031e+01 2.908455265699999970e+01 -9.447067871000058403e+01
2.426666666664999972e-01 1.528511953769999998e+01 1.863176640140000104e-02 1.455566356249999949e+01 2.909569087909999752e+01 -9.464328855999931989e+01
2.453333333335000199e-01 1.528429916019999979e+01 1.199737614210000074e-02 1.455485870549999916e+01 2.910320815689999918e+01 -9.411904478999971957e+01
2.479999999999999982e-01 1.528385217239999960e+01 5.425229826869999716e-03 1.455427777330000083e+01 2.910715103580000118e+01 -9.294600427000038678e+01
2.506666666665000043e-01 1.528377613680000024e+01 -1.211861611069999997e-03 1.455414321289999968e+01 2.910805207290000141e+01 -9.421739626000076839e+01
2.533333333334999993e-01 1.528408272389999922e+01 -7.770764126500000028e-03 1.455476771100000022e+01 2.910594907289999966e+01 -9.429718913999944618e+01
2.560000000000000053e-01 1.528473540709999945e+01 -1.443065045660000059e-02 1.455512291219999987e+01 2.909984235059999946e+01 -9.392015578000061282e+01
2.586666666665000114e-01 1.528579361439999929e+01 -2.098066707770000067e-02 1.455633461889999936e+01 2.909072270300000085e+01 -9.339060379000008538e+01
2.613333333335000064e-01 1.528723501400000018e+01 -2.764005618929999894e-02 1.455752923320000036e+01 2.907801352889999791e+01 -9.316646622000075695e+01
2.640000000000000124e-01 1.528903163140000032e+01 -3.420585564209999846e-02 1.455934718429999997e+01 2.906218862660000113e+01 -9.403592465000041045e+01
2.666666666664999630e-01 1.529120292280000015e+01 -4.085072570980000095e-02 1.456144851730000056e+01 2.904279599770000075e+01 -9.349221202999912350e+01
2.693333333335000135e-01 1.529376609510000051e+01 -4.745512456809999891e-02 1.456351044910000070e+01 2.901970679079999726e+01 -9.303460033000074247e+01
2.720000000000000195e-01 1.529670671300000073e+01 -5.411039190309999830e-02 1.456666742410000026e+01 2.899395014100000267e+01 -9.313633132999949282e+01
2.746666666664999701e-01 1.530002513980000067e+01 -6.072105970379999829e-02 1.456956470569999951e+01 2.896440326859999814e+01 -9.348772319000028119e+01
2.773333333335000206e-01 1.530369808580000068e+01 -6.740942324790000217e-02 1.457316580730000055e+01 2.893167740370000018e+01 -9.327901356999949201e+01
2.800000000000000266e-01 1.530778386220000087e+01 -7.401898840380000122e-02 1.457694018980000017e+01 2.889534955350000089e+01 -9.274630072000063308e+01
2.826666666664999772e-01 1.531222249720000050e+01 -8.072277629139999744e-02 1.458073001069999997e+01 2.885540573160000122e+01 -9.199954638000018292e+01
2.853333333335000277e-01 1.531705670160000032e+01 -8.738396216169999620e-02 1.458577542219999934e+01 2.881312071830000221e+01 -9.406366550000011273e+01
2.879999999999999782e-01 1.532225401930000075e+01 -9.411296482169999311e-02 1.459043717099999959e+01 2.876696877099999838e+01 -9.240612337999976944e+01
2.906666666664999843e-01 1.532783970830000086e+01 -1.007898418799999946e-01 1.459604491820000050e+01 2.871780329269999754e+01 -9.331202346000075920e+01
2.933333333335000348e-01 1.533378542930000066e+01 -1.075421875559999935e-01 1.460150634160000038e+01 2.866495616380000300e+01 -9.109217503999919074e+01
2.959999999999999853e-01 1.534013336990000020e+01 -1.142779005749999938e-01 1.460763858770000034e+01 2.860929417410000042e+01 -9.337668314000032410e+01
2.986666666664999914e-01 1.534686511700000011e+01 -1.210755302080000068e-01 1.461472745000000018e+01 2.855104364940000039e+01 -9.330452222000062079e+01
3.013333333334999864e-01 1.535395929170000073e+01 -1.278712819449999982e-01 1.462100863270000062e+01 2.848811281069999879e+01 -9.107024891000054367e+01
3.039999999999999925e-01 1.536142988099999940e+01 -1.346737421900000009e-01 1.462852334129999932e+01 2.842270203160000008e+01 -9.270252779999934489e+01
3.066666666664999985e-01 1.536928840190000045e+01 -1.415597450659999978e-01 1.463603933809999980e+01 2.835405127359999966e+01 -9.101985569999925474e+01
3.093333333334999935e-01 1.537755151290000022e+01 -1.484399205439999869e-01 1.464448167880000007e+01 2.828276946529999947e+01 -9.453745727000013233e+01
3.119999999999999996e-01 1.538616082959999964e+01 -1.553415789760000110e-01 1.465282380080000024e+01 2.820756750860000039e+01 -8.940924648999981628e+01
3.146666666665000056e-01 1.539515644119999926e+01 -1.623323553569999966e-01 1.466127687690000059e+01 2.812886906849999846e+01 -9.212393899000063868e+01
3.173333333335000006e-01 1.540454862039999995e+01 -1.693162965409999998e-01 1.467116417699999964e+01 2.804843330119999933e+01 -9.158575793999992243e+01
3.200000000000000067e-01 1.541429949199999960e+01 -1.763906255580000026e-01 1.468074641800000002e+01 2.796425737390000066e+01 -9.227484690999985162e+01
3.226666666665000127e-01 1.542442932019999979e+01 -1.834799393840000070e-01 1.469118065259999995e+01 2.787711283590000022e+01 -9.147707469999976126e+01
3.253333333335000077e-01 1.543495860650000040e+01 -1.906044700610000087e-01 1.470117434289999991e+01 2.778604655519999866e+01 -8.881104770999959896e+01
3.280000000000000138e-01 1.544584271939999987e+01 -1.978334320840000049e-01 1.471275031190000071e+01 2.769340238439999879e+01 -9.322571934000029614e+01
3.306666666664999643e-01 1.545710475639999970e+01 -2.050799502810000119e-01 1.472449925539999960e+01 2.759754663870000257e+01 -8.980713408000022469e+01
3.333333333335000148e-01 1.546873848789999961e+01 -2.124031909649999883e-01 1.473595719409999916e+01 2.749768789879999886e+01 -9.151997230999916155e+01
3.360000000000000209e-01 1.548074540640000052e+01 -2.198212340060000103e-01 1.474870528179999951e+01 2.739580607919999977e+01 -8.904279750999994292e+01
3.386666666664999714e-01 1.549312267060000003e+01 -2.272773353130000118e-01 1.476155854339999962e+01 2.729098557010000192e+01 -9.060613028999976848e+01
3.413333333335000219e-01 1.550584501610000032e+01 -2.348130203409999894e-01 1.477573251229999940e+01 2.718409806229999859e+01 -9.175945751000008954e+01
3.439999999999999725e-01 1.551895169520000017e+01 -2.424446413949999934e-01 1.478899579850000023e+01 2.707270986030000159e+01 -8.760171134999953324e+01
3.466666666664999785e-01 1.553241845229999996e+01 -2.501322106230000064e-01 1.480363661900000061e+01 2.695946156020000117e+01 -9.172686504000053276e+01
3.493333333335000290e-01 1.554622276789999979e+01 -2.579273389260000049e-01 1.481896805549999918e+01 2.684390764890000014e+01 -8.747154370000026802e+01
3.519999999999999796e-01 1.556039627660000058e+01 -2.658021191639999836e-01 1.483432785980000013e+01 2.672498265660000172e+01 -9.173217157999984295e+01
3.546666666664999856e-01 1.557491076850000056e+01 -2.737778855329999761e-01 1.485047495479999924e+01 2.660332677179999905e+01 -8.763867710000090483e+01
3.573333333335000361e-01 1.558975914280000019e+01 -2.818547401700000066e-01 1.486620400430000011e+01 2.647820172109999959e+01 -8.846712870999984091e+01
3.599999999999999867e-01 1.560497066259999954e+01 -2.900299900759999994e-01 1.488448161980000073e+01 2.635260216449999859e+01 -9.100931712999940260e+01
3.626666666664999927e-01 1.562049551520000001e+01 -2.983350286049999966e-01 1.490142030760000047e+01 2.622253202759999979e+01 -8.605838654999993764e+01
3.653333333334999877e-01 1.563637077919999996e+01 -3.067666454010000154e-01 1.491982122970000013e+01 2.609025948040000031e+01 -9.213015120000019920e+01
3.679999999999999938e-01 1.565257116859999975e+01 -3.153660902629999985e-01 1.493782406779999938e+01 2.595469265939999914e+01 -8.410702535000071123e+01
3.706666666664999998e-01 1.566913057190000025e+01 -3.242572358890000173e-01 1.495725606619999937e+01 2.581750238549999921e+01 -9.280935862999967867e+01
3.733333333334999948e-01 1.568618517550000035e+01 -3.332786311900000076e-01 1.497743368289999921e+01 2.567798149919999773e+01 -8.597312288999930274e+01
3.760000000000000009e-01 1.570369522620000069e+01 -3.422411058800000072e-01 1.499657141750000022e+01 2.553415980970000021e+01 -8.913173608000018078e+01
3.786666666665000069e-01 1.572172693769999974e+01 -3.512784010810000024e-01 1.501812817639999942e+01 2.538951125150000010e+01 -8.856934308999963434e+01
3.813333333335000019e-01 1.574024442290000003e+01 -3.604080106399999983e-01 1.503837885109999917e+01 2.524086911430000058e+01 -8.661152191999927652e+01
3.840000000000000080e-01 1.575925531570000082e+01 -3.696385291639999737e-01 1.506081622590000002e+01 2.509109972459999938e+01 -9.193994879999942782e+01
3.866666666665000140e-01 1.577883045269999940e+01 -3.787745370100000231e-01 1.508240969440000079e+01 2.493753849479999829e+01 -8.375570632000081162e+01
3.893333333335000090e-01 1.579897956960000016e+01 -3.879373090800000146e-01 1.510503085789999922e+01 2.478190686429999801e+01 -9.231192668999918283e+01
3.920000000000000151e-01 1.581971023989999914e+01 -3.970616708840000175e-01 1.512852761559999948e+01 2.462431765170000020e+01 -8.454793149000033736e+01
3.946666666664999656e-01 1.584090367349999973e+01 -4.061579252779999871e-01 1.515185194210000041e+01 2.446354483890000253e+01 -9.084260632999986740e+01
3.973333333335000161e-01 1.586259606019999957e+01 -4.152809677980000003e-01 1.517623881499999960e+01 2.430081755930000043e+01 -8.660638764999993100e+01
4.000000000000000222e-01 1.588480099300000070e+01 -4.243510449980000265e-01 1.520037133629999992e+01 2.413492418959999952e+01 -8.791884640000014883e+01
4.026666666664999727e-01 1.590745085330000030e+01 -4.333810743100000029e-01 1.522599296459999962e+01 2.396772537500000055e+01 -8.944588062999956435e+01
4.053333333335000233e-01 1.593057162190000042e+01 -4.424655211090000040e-01 1.525142649490000046e+01 2.379750669070000058e+01 -8.598504318000003366e+01
4.079999999999999738e-01 1.595405411109999960e+01 -4.514067293690000038e-01 1.527774444129999942e+01 2.362523958299999904e+01 -9.034452142000012032e+01
4.106666666664999799e-01 1.597799118070000013e+01 -4.604511557250000053e-01 1.530441250300000000e+01 2.345058704759999912e+01 -8.576794724999926700e+01
4.133333333335000304e-01 1.600233189920000143e+01 -4.693451767610000158e-01 1.533146697930000002e+01 2.327364229570000020e+01 -8.969671450999938145e+01
4.159999999999999809e-01 1.602704211680000057e+01 -4.782645339159999898e-01 1.535994263779999969e+01 2.309510063100000110e+01 -8.728463410999998473e+01
4.186666666664999870e-01 1.605223369539999823e+01 -4.870286378990000276e-01 1.538714439389999988e+01 2.291301140500000244e+01 -8.695933771000056822e+01
4.213333333335000375e-01 1.607780880820000036e+01 -4.957422097940000216e-01 1.541710518500000049e+01 2.273036347150000225e+01 -8.931568166000023723e+01
4.239999999999999880e-01 1.610377454289999832e+01 -5.042642887989999823e-01 1.544569069419999963e+01 2.254433143140000340e+01 -8.565341620000079104e+01
4.266666666664999941e-01 1.613012430139999864e+01 -5.127458349310000107e-01 1.547570729090000086e+01 2.235669377909999866e+01 -8.947671825999952944e+01
4.293333333334999891e-01 1.615680182299999856e+01 -5.209752813710000208e-01 1.550665571550000088e+01 2.216731147860000206e+01 -8.673538999000005845e+01
4.319999999999999951e-01 1.618379498039999831e+01 -5.290973724640000153e-01 1.553631667900000046e+01 2.197471654039999933e+01 -8.684896310999990021e+01
4.346666666665000012e-01 1.621109966399999891e+01 -5.370910013249999837e-01 1.556979828629999929e+01 2.178238777989999875e+01 -9.016758753000013371e+01
4.373333333334999962e-01 1.623868822100000031e+01 -5.449313929329999695e-01 1.560008664230000086e+01 2.158558198829999952e+01 -8.289696594999917068e+01
4.400000000000000022e-01 1.626656715029999845e+01 -5.525226234350000265e-01 1.563390221120000056e+01 2.138858038749999935e+01 -9.249320641000009857e+01
4.426666666665000083e-01 1.629471156500000006e+01 -5.598665603200000396e-01 1.566628950750000016e+01 2.118866424479999822e+01 -8.223551834000087979e+01
4.453333333335000033e-01 1.632311193430000174e+01 -5.671145913609999534e-01 1.569987369829999935e+01 2.098707685120000122e+01 -9.164664199000037570e+01
4.480000000000000093e-01 1.635172050939999977e+01 -5.740418644870000087e-01 1.573487301639999991e+01 2.078439938529999864e+01 -8.481115918000043052e+01
4.506666666664999599e-01 1.638056013439999958e+01 -5.807647280309999882e-01 1.576797301300000065e+01 2.057812886050000145e+01 -8.634718160999938164e+01
4.533333333335000104e-01 1.640953309749999889e+01 -5.871454299870000337e-01 1.580499881559999942e+01 2.037243106949999927e+01 -9.062344053000025212e+01
4.560000000000000164e-01 1.643876735299999936e+01 -5.934031375739999836e-01 1.583898446449999931e+01 2.016268031579999942e+01 -8.129128684999980692e+01
4.586666666664999670e-01 1.646811960799999852e+01 -5.992530828050000036e-01 1.587633670650000006e+01 1.995288503879999809e+01 -9.409935989000089762e+01
4.613333333335000175e-01 1.649763870869999849e+01 -6.049206336400000383e-01 1.591234645559999983e+01 1.974029152139999965e+01 -7.938690902999974242e+01
4.640000000000000235e-01 1.652732329230000019e+01 -6.100856611460000467e-01 1.594900556480000020e+01 1.952600406080000184e+01 -9.364125451000035127e+01
4.666666666664999741e-01 1.655702818960000045e+01 -6.150821260879999475e-01 1.598750271930000011e+01 1.931103757960000067e+01 -8.198790921000018272e+01
4.693333333335000246e-01 1.658692869680000115e+01 -6.197077466160000325e-01 1.602397963110000134e+01 1.909278819550000250e+01 -8.835888880000076995e+01
4.719999999999999751e-01 1.661688595740000096e+01 -6.239934176710000280e-01 1.606370004400000084e+01 1.887477321659999774e+01 -8.709184328999928937e+01
4.746666666664999812e-01 1.664694403209999862e+01 -6.279322608959999608e-01 1.610132608880000049e+01 1.865349667549999779e+01 -8.395482039999961899e+01
4.773333333335000317e-01 1.667700933360000093e+01 -6.314850237429999735e-01 1.614070466509999946e+01 1.843154980859999981e+01 -9.116891218000091612e+01
4.799999999999999822e-01 1.670712998850000020e+01 -6.346813653720000392e-01 1.617991067310000020e+01 1.820767407559999995e+01 -8.090872123000025340e+01
4.826666666664999883e-01 1.673730403909999964e+01 -6.374130652399999653e-01 1.621960944130000115e+01 1.798249419520000103e+01 -9.187819322000071054e+01
4.853333333335000388e-01 1.676748339019999889e+01 -6.398420868740000156e-01 1.625976282490000102e+01 1.775590764980000102e+01 -8.105338715000078764e+01
4.879999999999999893e-01 1.679763032829999858e+01 -6.418539775449999540e-01 1.629981598210000016e+01 1.752753903680000036e+01 -9.064360185999981923e+01
4.906666666664999954e-01 1.682776355329999873e+01 -6.434453054259999805e-01 1.634047886160000118e+01 1.729806371309999946e+01 -8.317010974000021406e+01
4.933333333334999904e-01 1.685790817319999846e+01 -6.446501461139999556e-01 1.638085061319999980e+01 1.706681936670000255e+01 -8.826756991999968704e+01
4.959999999999999964e-01 1.688789672700000111e+01 -6.453711565269999451e-01 1.642254602390000073e+01 1.683499307659999999e+01 -8.608754261000082408e+01
4.986666666665000025e-01 1.691791502390000090e+01 -6.457461096030000514e-01 1.646288333620000088e+01 1.660091112530000146e+01 -8.431015397999993866e+01
5.013333333350000753e-01 1.694783344369999867e+01 -6.456568882650000063e-01 1.650499537359999991e+01 1.636639165389999917e+01 -8.923209507999941081e+01
5.040000000000000036e-01 1.697757945909999933e+01 -6.450955424740000277e-01 1.654522045619999915e+01 1.612959501339999946e+01 -8.100033526000008521e+01
5.066666666649999318e-01 1.700730597209999928e+01 -6.442725929470000112e-01 1.658732485559999859e+01 1.589246809089999957e+01 -9.205760250999965422e+01
5.093333333350000824e-01 1.703684295700000106e+01 -6.427788010689999831e-01 1.662832132400000162e+01 1.565374809710000115e+01 -7.994232942000031983e+01
5.120000000000000107e-01 1.706622716189999878e+01 -6.409609074700000075e-01 1.666966025880000046e+01 1.541393476240000027e+01 -9.077788377000018727e+01
5.146666666649999389e-01 1.709547772239999830e+01 -6.387040060280000375e-01 1.671153324550000008e+01 1.517342238150000000e+01 -8.204539859000034596e+01
5.173333333350000895e-01 1.712454776630000097e+01 -6.360414797250000252e-01 1.675155034910000040e+01 1.493100293610000051e+01 -8.664100850999913916e+01
5.200000000000000178e-01 1.715341501860000051e+01 -6.328205584449999588e-01 1.679455369449999935e+01 1.468912659719999958e+01 -8.838254820000007328e+01
5.226666666649999460e-01 1.718207930719999865e+01 -6.292937373970000081e-01 1.683360792390000071e+01 1.444467846859999938e+01 -8.049561378999985095e+01
5.253333333350000967e-01 1.721051824350000103e+01 -6.253121885960000181e-01 1.687648043789999974e+01 1.420100834209999974e+01 -9.319275720000081265e+01
5.280000000000000249e-01 1.723870660969999946e+01 -6.208313887559999689e-01 1.691582456709999960e+01 1.395533038840000017e+01 -7.715728880999982664e+01
5.306666666649999531e-01 1.726670710830000033e+01 -6.159340643909999580e-01 1.695669120000000163e+01 1.370957135809999983e+01 -9.412334923000075548e+01
5.333333333349999927e-01 1.729437768600000069e+01 -6.105658985140000050e-01 1.699821386980000071e+01 1.346362262849999958e+01 -7.981455883000046470e+01
5.360000000000000320e-01 1.732183895620000058e+01 -6.049064923210000222e-01 1.703544924150000028e+01 1.321549907390000023e+01 -8.734849266000091461e+01
5.386666666649999602e-01 1.734903078620000016e+01 -5.987186047979999870e-01 1.707873223560000042e+01 1.296936814489999890e+01 -8.937736618999950622e+01
5.413333333349999998e-01 1.737582988520000171e+01 -5.921776060119999796e-01 1.711475830859999903e+01 1.272028490870000006e+01 -7.878322736000083637e+01
5.440000000000000391e-01 1.740245319590000150e+01 -5.852662552209999536e-01 1.715568851140000106e+01 1.247274986190000057e+01 -9.574613518000020917e+01
5.466666666649999673e-01 1.742872819000000106e+01 -5.779058025329999460e-01 1.719411979050000028e+01 1.222427106070000136e+01 -7.515869439999946167e+01
5.493333333350000069e-01 1.745461668460000126e+01 -5.702061645429999936e-01 1.723042181929999828e+01 1.197506182509999917e+01 -9.440482263999990664e+01
5.520000000000000462e-01 1.748022861280000129e+01 -5.622307311259999718e-01 1.727115072750000024e+01 1.172747575070000003e+01 -8.211883141000009800e+01
5.546666666649999744e-01 1.750547938820000127e+01 -5.537728280649999446e-01 1.730485811679999841e+01 1.147768620000000084e+01 -8.497817559999973014e+01
5.573333333350000141e-01 1.753041813189999942e+01 -5.450951976760000095e-01 1.734400078430000036e+01 1.122995750950000016e+01 -9.129391644000075701e+01
5.600000000000000533e-01 1.755497384750000123e+01 -5.360770443419999864e-01 1.737836607630000074e+01 1.098111228029999964e+01 -7.727024111999944012e+01
5.626666666649999815e-01 1.757914127629999967e+01 -5.267558463989999717e-01 1.741396573220000121e+01 1.073313234139999928e+01 -9.564869724999927314e+01
5.653333333350000212e-01 1.760293032419999903e+01 -5.171363817049999811e-01 1.744929885179999829e+01 1.048566052800000037e+01 -7.704322488000057945e+01
5.679999999999999494e-01 1.762634852320000078e+01 -5.072792616060000093e-01 1.748173566750000063e+01 1.023802092980000111e+01 -9.192285101000032910e+01
5.706666666649999886e-01 1.764941037859999895e+01 -4.970953420520000110e-01 1.751722622329999979e+01 9.992146525809999957e+00 -8.503919428000040170e+01
5.733333333350000283e-01 1.767203553979999953e+01 -4.867905962769999983e-01 1.754763826459999976e+01 9.745685689360000126e+00 -8.294481619999930899e+01
5.759999999999999565e-01 1.769431530330000157e+01 -4.762415097039999767e-01 1.758176471579999856e+01 9.501303121929998596e+00 -9.369697877000085384e+01
5.786666666649999957e-01 1.771616716959999849e+01 -4.654777753809999918e-01 1.761139365269999857e+01 9.256923194529999677e+00 -7.592258229999988828e+01
5.813333333350000354e-01 1.773761718600000137e+01 -4.545780963809999964e-01 1.764340290959999891e+01 9.014323821999999709e+00 -9.809738787999935994e+01
5.839999999999999636e-01 1.775867297960000002e+01 -4.435345456450000001e-01 1.767302144670000175e+01 8.772559742440000363e+00 -7.674599970999918241e+01
5.866666666650000028e-01 1.777932922820000172e+01 -4.323969056079999818e-01 1.770098266500000150e+01 8.531699713200000090e+00 -9.191278457999975160e+01
5.893333333350000425e-01 1.779955979960000079e+01 -4.211710272170000047e-01 1.773212791719999970e+01 8.293281578050001102e+00 -8.690477070000022763e+01
5.919999999999999707e-01 1.781943064320000047e+01 -4.099051659130000247e-01 1.775594986009999943e+01 8.054836250910000217e+00 -7.738344569000042839e+01
5.946666666650000099e-01 1.783891717779999908e+01 -3.986194188439999841e-01 1.778720903640000017e+01 7.819750361870000610e+00 -1.009628644099999235e+02
5.973333333350000496e-01 1.785801429150000175e+01 -3.874514088500000120e-01 1.780965119900000104e+01 7.584730237759999660e+00 -6.654837547999993319e+01
5.999999999999999778e-01 1.787685291020000022e+01 -3.764091342549999997e-01 1.783624013140000031e+01 7.352487768779999655e+00 -1.059621516800001331e+02
6.026666666649999060e-01 1.789531463939999867e+01 -3.655441543519999947e-01 1.786264254450000166e+01 7.122457396099999727e+00 -7.084455712999962884e+01
6.053333333350000567e-01 1.791351491369999849e+01 -3.549478476160000118e-01 1.788228460950000098e+01 6.893237480989999888e+00 -9.045017782999947542e+01
6.079999999999999849e-01 1.793140430949999953e+01 -3.445656862059999770e-01 1.791158365880000147e+01 6.668207918170000248e+00 -9.269991423000023190e+01
6.106666666649999131e-01 1.794899143030000133e+01 -3.346747582619999939e-01 1.792851966819999987e+01 6.443360917750000638e+00 -6.749063619000092729e+01
6.133333333350000638e-01 1.796627313540000159e+01 -3.251025125379999881e-01 1.795443098359999823e+01 6.222559515470000413e+00 -1.122961408799998395e+02
6.159999999999999920e-01 1.798317424049999858e+01 -3.161409280929999843e-01 1.797418015410000081e+01 6.003328515769999818e+00 -5.383814804000034826e+01
6.186666666649999202e-01 1.799979305990000000e+01 -3.076583441440000066e-01 1.799231635969999843e+01 5.786552307080000013e+00 -1.117956430500000664e+02
6.213333333350000709e-01 1.801601237919999932e+01 -2.996538546999999997e-01 1.801673957699999917e+01 5.573645399770000175e+00 -6.813394339999929628e+01
6.239999999999999991e-01 1.803184639530000055e+01 -2.921380865720000219e-01 1.803064206020000171e+01 5.362034717460000266e+00 -9.002146006999909389e+01
6.266666666649999273e-01 1.804734416120000162e+01 -2.849102204530000182e-01 1.805369817780000119e+01 5.154781998299999835e+00 -9.253216675999946972e+01
6.293333333350000780e-01 1.806255690429999916e+01 -2.779420191110000271e-01 1.806869693330000004e+01 4.949439509879999477e+00 -6.805056615000032139e+01
6.320000000000000062e-01 1.807746161629999904e+01 -2.711759607040000186e-01 1.808587045919999881e+01 4.747628603099999900e+00 -1.079850030600000110e+02
6.346666666649999344e-01 1.809200442699999911e+01 -2.646514141729999769e-01 1.810365126250000145e+01 4.549097823979999511e+00 -6.173329838999919872e+01
6.373333333350000851e-01 1.810623211249999898e+01 -2.583003893740000168e-01 1.811642603840000021e+01 4.353373885390000808e+00 -1.060403768899999619e+02
6.400000000000000133e-01 1.812009407649999915e+01 -2.520975872860000133e-01 1.813406977280000021e+01 4.161653610020000116e+00 -7.330296969999932344e+01
6.426666666649999415e-01 1.813362149090000131e+01 -2.460650398320000098e-01 1.814614671429999859e+01 3.972861795870000101e+00 -9.474974789999984637e+01
6.453333333350000922e-01 1.814678434569999865e+01 -2.400950102149999876e-01 1.816138463109999890e+01 3.788058836269999841e+00 -8.643833410000056006e+01
6.480000000000000204e-01 1.815957074279999972e+01 -2.342874359129999973e-01 1.817450525810000173e+01 3.606727999900000370e+00 -8.523020281999930603e+01
6.506666666649999486e-01 1.817202216780000157e+01 -2.285037165319999952e-01 1.818773979659999895e+01 3.429241580790000299e+00 -9.428844725999981335e+01
6.533333333349999883e-01 1.818406617329999975e+01 -2.228089971899999966e-01 1.820129290019999857e+01 3.255599442529999887e+00 -8.182075967000052685e+01
6.560000000000000275e-01 1.819581089660000117e+01 -2.171665393760000007e-01 1.821328485469999947e+01 3.085767276209999910e+00 -9.506973139999993805e+01
6.586666666649999557e-01 1.820715893970000110e+01 -2.115008730269999915e-01 1.822648729919999866e+01 2.920016794399999949e+00 -8.411259455000050878e+01
6.613333333349999954e-01 1.821814332399999969e+01 -2.059379869229999993e-01 1.823825147020000159e+01 2.758212709049999933e+00 -9.326558220000006827e+01
6.640000000000000346e-01 1.822878597940000134e+01 -2.003075590860000088e-01 1.825058616880000173e+01 2.600553017509999787e+00 -8.663168744000047639e+01
6.666666666649999629e-01 1.823904841039999880e+01 -1.946907794799999925e-01 1.826193452629999925e+01 2.446990790639999691e+00 -9.107156351999938693e+01
6.693333333350000025e-01 1.824900286329999943e+01 -1.890809375589999897e-01 1.827350165200000021e+01 2.297674552540000192e+00 -8.901393841999956180e+01
6.720000000000000417e-01 1.825858096600000025e+01 -1.833975370579999931e-01 1.828448010689999848e+01 2.152603193070000032e+00 -9.009033733000048016e+01
6.746666666649999700e-01 1.826783188810000169e+01 -1.777330583349999993e-01 1.829523112709999921e+01 2.011854051069999816e+00 -8.954152799000031848e+01
6.773333333350000096e-01 1.827672921450000132e+01 -1.720030088489999942e-01 1.830560733929999984e+01 1.875476461510000137e+00 -8.999405629999935741e+01
6.800000000000000488e-01 1.828529720659999924e+01 -1.662497465989999923e-01 1.831570716050000058e+01 1.743531128000000097e+00 -9.009708686999977090e+01
6.826666666649999771e-01 1.829352481229999938e+01 -1.604579530299999890e-01 1.832553044579999835e+01 1.616068557560000007e+00 -9.018874538999982349e+01
6.853333333350000167e-01 1.830140635929999959e+01 -1.545900848829999952e-01 1.833497527169999941e+01 1.493132376910000003e+00 -9.027357828000000950e+01
6.879999999999999449e-01 1.830898597339999867e+01 -1.487019107920000138e-01 1.834407716060000126e+01 1.374772369100000002e+00 -9.027902933000028440e+01
6.906666666649999842e-01 1.831622956349999853e+01 -1.427346332999999967e-01 1.835284266280000054e+01 1.261037720350000058e+00 -9.050425252999923487e+01
6.933333333350000238e-01 1.832313612280000115e+01 -1.367688390659999864e-01 1.836132863319999942e+01 1.151976645640000019e+00 -9.083019828999974266e+01
6.959999999999999520e-01 1.832972748350000103e+01 -1.306892159770000061e-01 1.836954959299999857e+01 1.047632447499999842e+00 -9.108545099999942352e+01
6.986666666649999913e-01 1.833599321410000016e+01 -1.246083199080000037e-01 1.837746178780000150e+01 9.480436374499999763e-01 -9.121392699999921660e+01
7.013333333350000309e-01 1.834192891249999846e+01 -1.184440883909999992e-01 1.838500966249999991e+01 8.532467220969999211e-01 -9.131979660999961368e+01
7.039999999999999591e-01 1.834756906870000037e+01 -1.122663431900000064e-01 1.839212839960000068e+01 7.632777033219999563e-01 -9.135541289000026666e+01
7.066666666649999984e-01 1.835287669830000112e+01 -1.060045555189999961e-01 1.839882605809999916e+01 6.781734005530000164e-01 -9.117589976000040508e+01
7.093333333350000380e-01 1.835785922179999829e+01 -9.972308725160000664e-02 1.840505995550000051e+01 5.979685215130000620e-01 -9.131441974000074424e+01
7.119999999999999662e-01 1.836253748469999891e+01 -9.339565581479999934e-02 1.841085651899999931e+01 5.226973281780000757e-01 -9.143974801000021557e+01
7.146666666650000055e-01 1.836688051810000033e+01 -8.702555161630000369e-02 1.841626895619999971e+01 4.523922986779999600e-01 -9.139296904999949334e+01
7.173333333350000451e-01 1.837093679010000002e+01 -8.063303640940000516e-02 1.842132105869999847e+01 3.870827854580000116e-01 -9.182978737000003377e+01
7.199999999999999734e-01 1.837464519170000088e+01 -7.418929933310000613e-02 1.842602896760000064e+01 3.267954781829999766e-01 -9.201310362000018017e+01
7.226666666649999016e-01 1.837804722310000116e+01 -6.772572250359999713e-02 1.843040906259999900e+01 2.715546527289999790e-01 -9.224969276000000207e+01
7.253333333350000522e-01 1.838114635690000043e+01 -6.120426443750000278e-02 1.843441873240000106e+01 2.213820778170000059e-01 -9.247931939999945428e+01
7.279999999999999805e-01 1.838390840949999827e+01 -5.470260099210000337e-02 1.843804781760000111e+01 1.762979636460000055e-01 -9.262243263000063109e+01
7.306666666649999087e-01 1.838636131930000062e+01 -4.812599530469999914e-02 1.844127592030000073e+01 1.363206909749999918e-01 -9.285737320999987787e+01
7.333333333350000593e-01 1.838849624419999884e+01 -4.158228670459999943e-02 1.844409602920000069e+01 1.014666969870000046e-01 -9.287037571999989893e+01
7.359999999999999876e-01 1.839031139480000121e+01 -3.497468210350000023e-02 1.844647205140000068e+01 7.175039039380000372e-02 -9.314324139999970953e+01
7.386666666649999158e-01 1.839180731880000153e+01 -2.837604681420000108e-02 1.844843628619999976e+01 4.718424669830000029e-02 -9.308796691000088686e+01
7.413333333350000665e-01 1.839299197929999963e+01 -2.174570690159999958e-02 1.844998904390000050e+01 2.777850519689999825e-02 -9.328434730000049058e+01
7.439999999999999947e-01 1.839386394929999824e+01 -1.512908758170000006e-02 1.845108577239999903e+01 1.354120888450000004e-02 -9.355235270999931174e+01
7.466666666649999229e-01 1.839441111000000006e+01 -8.476747723410000060e-03 1.845180108299999944e+01 4.478312835879999683e-03 -9.370036917999945558e+01
7.493333333350000736e-01 1.839463108050000173e+01 -1.843602565140000076e-03 1.845207725450000069e+01 5.935469703109999768e-04 -9.375086845000087976e+01
7.520000000000000018e-01 1.839454178000000084e+01 4.797173263679999772e-03 1.845197026299999976e+01 1.888508587860000159e-03 -9.387933159000054673e+01
7.546666666649999300e-01 1.839414973070000059e+01 1.140405572749999923e-02 1.845141017179999920e+01 8.362635143580000527e-03 -9.416233771000057118e+01
7.573333333350000807e-01 1.839341487009999909e+01 1.809741070760000070e-02 1.845046293529999915e+01 2.001323015949999992e-02 -9.414204518000036614e+01
7.600000000000000089e-01 1.839237229560000131e+01 2.466423541880000125e-02 1.844911356820000137e+01 3.683544542820000461e-02 -9.459465300000086074e+01
7.626666666649999371e-01 1.839103237200000152e+01 3.131925148309999685e-02 1.844732112779999866e+01 5.882225113839999880e-02 -9.465559233999996991e+01
7.653333333350000878e-01 1.838933335760000176e+01 3.788737558460000127e-02 1.844515771269999860e+01 8.596465609549999720e-02 -9.474592820999957610e+01
7.680000000000000160e-01 1.838735904010000155e+01 4.447197683000000262e-02 1.844262278089999896e+01 1.182515875600000099e-01 -9.504829014999978654e+01
7.706666666649999442e-01 1.838503008080000001e+01 5.106004572700000022e-02 1.843968514879999887e+01 1.556697208489999928e-01 -9.525293171999976494e+01
7.733333333350000949e-01 1.838240951090000053e+01 5.756695296049999661e-02 1.843635068220000051e+01 1.982036363690000136e-01 -9.532294094000012308e+01
7.760000000000000231e-01 1.837946500310000175e+01 6.412004624639999761e-02 1.843261764429999872e+01 2.458357240199999794e-01 -9.543325311000086231e+01
7.786666666649999513e-01 1.837619879680000068e+01 7.058005106009999918e-02 1.842843661319999882e+01 2.985459091939999809e-01 -9.563142627000063101e+01
7.813333333349999910e-01 1.837261425510000024e+01 7.705234654260000038e-02 1.842385941519999903e+01 3.563126091020000219e-01 -9.573056388000026118e+01
7.840000000000000302e-01 1.836870355270000132e+01 8.346319317490000222e-02 1.841884228130000167e+01 4.191115530740000539e-01 -9.574944226999953401e+01
7.866666666649999584e-01 1.836450022040000007e+01 8.987006515400000617e-02 1.841344991169999901e+01 4.869176454049999880e-01 -9.595352845999971692e+01
7.893333333349999981e-01 1.835993598940000027e+01 9.620595512710000685e-02 1.840766735380000085e+01 5.597033459199999283e-01 -9.619727610000036577e+01
7.920000000000000373e-01 1.835509796819999906e+01 1.025376749670000032e-01 1.840154977490000121e+01 6.374401053059999267e-01 -9.624628997999988655e+01
7.946666666649999655e-01 1.834991509760000028e+01 1.088176207099999931e-01 1.839506636639999826e+01 7.200965233760000528e-01 -9.663321859999932428e+01
7.973333333350000052e-01 1.834443486729999861e+01 1.150294745240000027e-01 1.838827311189999847e+01 8.076407957269999827e-01 -9.669707369999960633e+01
8.000000000000000444e-01 1.833862066529999879e+01 1.212172316350000056e-01 1.838114577600000032e+01 9.000370185210000429e-01 -9.697902677999995547e+01
8.026666666649999726e-01 1.833246412980000173e+01 1.273699183110000022e-01 1.837360620380000142e+01 9.972451931650000434e-01 -9.685192888000048583e+01
8.053333333350000123e-01 1.832602730640000033e+01 1.334583519199999957e-01 1.836569311150000061e+01 1.099226071809999983e+00 -9.702710429999977748e+01
8.080000000000000515e-01 1.831922884209999935e+01 1.395272606799999870e-01 1.835737369960000009e+01 1.205937848320000061e+00 -9.713891300000064177e+01
8.106666666649999797e-01 1.831214020830000067e+01 1.454873337070000106e-01 1.834871119379999982e+01 1.317339923070000030e+00 -9.702653745000064589e+01
8.133333333350000194e-01 1.830472750970000106e+01 1.514662434359999865e-01 1.833970785389999847e+01 1.433388839600000075e+00 -9.746973139999992952e+01
8.159999999999999476e-01 1.829695896830000024e+01 1.573652302180000018e-01 1.833038687730000049e+01 1.554040100759999987e+00 -9.726376091999932783e+01
8.186666666649999868e-01 1.828887043230000131e+01 1.632071814380000041e-01 1.832075905230000146e+01 1.679245818110000066e+00 -9.774428130999952202e+01
8.213333333349999155e-01 1.828045534769999847e+01 1.690321673140000036e-01 1.831073178509999977e+01 1.808951584489999931e+00 -9.748753150000050027e+01
8.239999999999999547e-01 1.827169749220000128e+01 1.748192048720000058e-01 1.830044202890000093e+01 1.943111364559999998e+00 -9.781787711999938040e+01
8.266666666649999939e-01 1.826261027600000020e+01 1.805010116050000113e-01 1.828969192119999931e+01 2.081663626260000122e+00 -9.734262653999961401e+01
8.293333333349999226e-01 1.825317757030000010e+01 1.862514397460000026e-01 1.827886473090000052e+01 2.224579226489999950e+00 -9.903215443000010509e+01
8.319999999999999618e-01 1.824339794529999992e+01 1.919109354870000006e-01 1.826750113090000127e+01 2.371775186479999853e+00 -9.637443239999934974e+01
8.346666666650000010e-01 1.823328934279999913e+01 1.975567538159999914e-01 1.825627343060000030e+01 2.523236522640000423e+00 -1.006496123399995213e+02
8.373333333349999297e-01 1.822279901899999999e+01 2.032196394269999984e-01 1.824416001939999887e+01 2.678836998610000020e+00 -9.557822667999937494e+01
8.399999999999999689e-01 1.821195978189999920e+01 2.088388149450000064e-01 1.823240453329999866e+01 2.838596941460000078e+00 -1.013197492800001100e+02
8.426666666650000082e-01 1.820078555439999946e+01 2.144890794659999878e-01 1.821990373250000061e+01 3.002396965710000032e+00 -9.749522131000087199e+01
8.453333333349999368e-01 1.818922834460000004e+01 2.201934217700000085e-01 1.820715697560000024e+01 3.170166238350000221e+00 -9.740467276999913793e+01
8.479999999999999760e-01 1.817731194079999923e+01 2.258783965249999970e-01 1.819469268949999829e+01 3.341939524779999893e+00 -1.043549469399992375e+02
8.506666666650000153e-01 1.816505993539999864e+01 2.316729212339999899e-01 1.818034324299999938e+01 3.517406190930000065e+00 -8.899124323000013703e+01
8.533333333349999439e-01 1.815241369829999840e+01 2.374876826170000121e-01 1.816859977160000028e+01 3.696970355860000002e+00 -1.157002344099990978e+02
8.559999999999999831e-01 1.813942615170000039e+01 2.434309024409999911e-01 1.815277239930000164e+01 3.879879912320000290e+00 -7.990726840999909086e+01
8.586666666650000224e-01 1.812607383940000005e+01 2.494701319529999961e-01 1.814065793620000022e+01 4.066844245190000429e+00 -1.224038184799998987e+02
8.613333333349999510e-01 1.811236532379999886e+01 2.556125989570000034e-01 1.812508849139999967e+01 4.257060724709999633e+00 -8.129320632999949225e+01
8.639999999999999902e-01 1.809832790939999825e+01 2.619285205060000177e-01 1.810936648719999909e+01 4.450680465260000496e+00 -1.141569107600003434e+02
8.666666666650000295e-01 1.808392208680000124e+01 2.684231247439999857e-01 1.809559845440000103e+01 4.648036510789999909e+00 -1.000424620699994307e+02
8.693333333349999581e-01 1.806919885710000173e+01 2.750800829300000250e-01 1.807555717039999976e+01 4.847814296980000215e+00 -9.210584173999913560e+01
8.719999999999999973e-01 1.805415594890000008e+01 2.819951080409999755e-01 1.806211418510000044e+01 5.051821348649999877e+00 -1.235721941299997297e+02
8.746666666650000366e-01 1.803878720550000025e+01 2.890913036980000128e-01 1.804101093599999928e+01 5.257728859200000215e+00 -6.987246906000002866e+01
8.773333333349999652e-01 1.802311510339999856e+01 2.965138529849999927e-01 1.802280570510000146e+01 5.467243775680000084e+00 -1.374014566200002889e+02
8.800000000000000044e-01 1.800709405110000105e+01 3.042361196899999731e-01 1.800442331880000069e+01 5.679539282359999497e+00 -6.568405127000063715e+01
8.826666666650000437e-01 1.799072269050000017e+01 3.125825226739999962e-01 1.798117882509999887e+01 5.894095515450000100e+00 -1.325440272000003574e+02
8.853333333349999723e-01 1.797392740949999990e+01 3.213682067249999941e-01 1.796425064940000027e+01 6.112402677019999508e+00 -7.931480059999972809e+01
8.880000000000000115e-01 1.795678527700000160e+01 3.306802472059999776e-01 1.793940306829999898e+01 6.331993038480000280e+00 -1.137681641600001541e+02
8.906666666650000508e-01 1.793932659609999902e+01 3.404383216179999727e-01 1.791919658699999829e+01 6.555168614200000299e+00 -9.962931790000014587e+01
8.933333333349999794e-01 1.792152797549999832e+01 3.504929356520000150e-01 1.789624445870000002e+01 6.780043352450000782e+00 -9.606351793999969857e+01
8.960000000000000187e-01 1.790340065470000042e+01 3.608849771040000265e-01 1.787173245319999992e+01 7.007363058549999302e+00 -1.152946131200008040e+02
8.986666666650000579e-01 1.788497172929999834e+01 3.714213924520000099e-01 1.784867254630000133e+01 7.236786586750000083e+00 -8.278950789999962012e+01
9.013333333349999865e-01 1.786625859720000165e+01 3.822099592709999882e-01 1.782232405879999959e+01 7.468089948510000298e+00 -1.229999948800001306e+02
9.040000000000000258e-01 1.784720646719999948e+01 3.931255880230000166e-01 1.779704802910000083e+01 7.701364713170000265e+00 -7.797898901999927546e+01
9.066666666650000650e-01 1.782782346080000124e+01 4.041748200099999910e-01 1.777018842680000077e+01 7.936480254250000144e+00 -1.256621764299999882e+02
9.093333333349999936e-01 1.780807111120000030e+01 4.152698735490000237e-01 1.774329339149999996e+01 8.173368214579999957e+00 -8.002053198999911388e+01
9.120000000000000329e-01 1.778794200589999974e+01 4.262767510670000259e-01 1.771469581010000027e+01 8.411508163050001485e+00 -1.195976880300007821e+02
9.146666666650000721e-01 1.776737270010000103e+01 4.372891136789999744e-01 1.768657592390000133e+01 8.651572427850000579e+00 -8.884899686999992241e+01
9.173333333350000007e-01 1.774641217279999950e+01 4.482225812939999998e-01 1.765619119730000008e+01 8.892362219259998923e+00 -1.089619074900001294e+02
9.200000000000000400e-01 1.772509314710000083e+01 4.590462392599999886e-01 1.762729781359999848e+01 9.135198556529999792e+00 -1.018191432399991925e+02
9.226666666650000792e-01 1.770332207010000047e+01 4.696859421519999911e-01 1.759423565250000010e+01 9.377982691619999756e+00 -9.456047076999955436e+01
9.253333333349998968e-01 1.768115459239999865e+01 4.802028197859999903e-01 1.756497416399999878e+01 9.623147072150000980e+00 -1.144366398799996887e+02
9.280000000000000471e-01 1.765864323119999924e+01 4.905688278129999857e-01 1.752998886829999847e+01 9.867647863520000229e+00 -8.479658389000036323e+01
9.306666666650000863e-01 1.763570242560000167e+01 5.007430020969999562e-01 1.749791619539999843e+01 1.011404163359999941e+01 -1.200481175200007868e+02
9.333333333349999039e-01 1.761237348290000071e+01 5.106746853379999784e-01 1.746491677630000083e+01 1.036102393259999843e+01 -8.619125318000092761e+01
9.360000000000000542e-01 1.758871183160000129e+01 5.203983423560000210e-01 1.742741184400000165e+01 1.060741522649999879e+01 -1.127373965799994835e+02
9.386666666650000934e-01 1.756464308520000017e+01 5.297778408679999496e-01 1.739667542260000133e+01 1.085646121359999938e+01 -9.739136589000001720e+01
9.413333333349999110e-01 1.754022863519999831e+01 5.389546056720000422e-01 1.735603147539999824e+01 1.110298191330000073e+01 -9.950323850999959063e+01
9.439999999999999503e-01 1.751546722679999846e+01 5.478022876250000506e-01 1.732337659179999889e+01 1.135255948510000046e+01 -1.095910094499997740e+02
9.466666666650001005e-01 1.749032644600000097e+01 5.563203763699999804e-01 1.728513979179999893e+01 1.160059733549999983e+01 -9.156001167000084706e+01
9.493333333349999181e-01 1.746486918360000118e+01 5.645527589879999475e-01 1.724661770350000012e+01 1.184887675119999884e+01 -1.123893099799994388e+02
9.519999999999999574e-01 1.743907305709999989e+01 5.724268241490000353e-01 1.721171724159999883e+01 1.209837786860000008e+01 -9.409615609999931962e+01
9.546666666649999966e-01 1.741297459780000167e+01 5.799729417400000253e-01 1.716940299550000049e+01 1.234548505060000068e+01 -1.059385942499991557e+02
9.573333333349999252e-01 1.738650622229999954e+01 5.871532141040000097e-01 1.713422271179999967e+01 1.259504933870000087e+01 -1.031166760399993478e+02
9.599999999999999645e-01 1.735976930380000027e+01 5.938564471709999459e-01 1.709282048429999890e+01 1.284220315859999850e+01 -9.784774340000004145e+01
9.626666666650000037e-01 1.733272962190000044e+01 6.002682567820000203e-01 1.705379842070000151e+01 1.309007510110000005e+01 -1.084464498299993522e+02
9.653333333349999323e-01 1.730541623370000082e+01 6.061976025459999695e-01 1.701468060719999897e+01 1.333743825510000036e+01 -9.510047974999993414e+01
9.679999999999999716e-01 1.727783623430000048e+01 6.118358708890000441e-01 1.697254353920000014e+01 1.358339123660000070e+01 -1.074991404500007661e+02
9.706666666650000108e-01 1.724995217540000070e+01 6.169391980820000398e-01 1.693452342349999995e+01 1.383040459739999939e+01 -9.968365768999979082e+01
9.733333333349999394e-01 1.722184965339999962e+01 6.217430823230000181e-01 1.689141092039999847e+01 1.407493885070000061e+01 -1.019670988599993251e+02
9.759999999999999787e-01 1.719347151359999870e+01 6.260412286280000460e-01 1.685286268810000010e+01 1.432057117210000108e+01 -1.052335148900002224e+02
9.786666666650000179e-01 1.716494294849999847e+01 6.299292214099999621e-01 1.680971672989999988e+01 1.456347055230000009e+01 -9.588446141000092382e+01
9.813333333349999466e-01 1.713615314429999970e+01 6.333691445189999492e-01 1.676886937809999978e+01 1.480653653879999965e+01 -1.080809746599998391e+02
9.839999999999999858e-01 1.710718726169999826e+01 6.363971078429999650e-01 1.672809420880000175e+01 1.504886110320000014e+01 -9.710849481000006733e+01
9.866666666650000250e-01 1.707804355460000068e+01 6.389733477590000543e-01 1.668486043229999893e+01 1.528918553699999983e+01 -1.048523424900006518e+02
9.893333333349999537e-01 1.704870764529999860e+01 6.410653335679999953e-01 1.664613240950000161e+01 1.553054393259999877e+01 -1.021699623899999949e+02
9.919999999999999929e-01 1.701927146359999909e+01 6.427591345719999572e-01 1.660183117260000074e+01 1.576823477199999957e+01 -9.760226748999953372e+01
9.946666666650000321e-01 1.698963866469999928e+01 6.440247370549999628e-01 1.656268258949999961e+01 1.600719646030000121e+01 -1.089720657800007615e+02
9.973333333349999608e-01 1.695990168590000025e+01 6.447391445839999458e-01 1.651997755660000067e+01 1.624328567030000059e+01 -9.337313082000054010e+01
1.000000000000000000e+00 1.693007224469999983e+01 6.451550164980000002e-01 1.647881793110000004e+01 1.647886110099999968e+01 -1.102274011499993520e+02
