<?xml version="1.0" encoding="utf-8" standalone="no"?>
<!DOCTYPE svg PUBLIC "-//W3C//DTD SVG 1.1//EN"
  "http://www.w3.org/Graphics/SVG/1.1/DTD/svg11.dtd">
<!-- Created with matplotlib (https://matplotlib.org/) -->
<svg height="345.6pt" version="1.1" viewBox="0 0 460.8 345.6" width="460.8pt" xmlns="http://www.w3.org/2000/svg" xmlns:xlink="http://www.w3.org/1999/xlink">
 <metadata>
  <rdf:RDF xmlns:cc="http://creativecommons.org/ns#" xmlns:dc="http://purl.org/dc/elements/1.1/" xmlns:rdf="http://www.w3.org/1999/02/22-rdf-syntax-ns#">
   <cc:Work>
    <dc:type rdf:resource="http://purl.org/dc/dcmitype/StillImage"/>
    <dc:date>2021-02-21T01:46:40.442857</dc:date>
    <dc:format>image/svg+xml</dc:format>
    <dc:creator>
     <cc:Agent>
      <dc:title>Matplotlib v3.3.0, https://matplotlib.org/</dc:title>
     </cc:Agent>
    </dc:creator>
   </cc:Work>
  </rdf:RDF>
 </metadata>
 <defs>
  <style type="text/css">*{stroke-linecap:butt;stroke-linejoin:round;}</style>
 </defs>
 <g id="figure_1">
  <g id="patch_1">
   <path d="M 0 345.6 
L 460.8 345.6 
L 460.8 0 
L 0 0 
z
" style="fill:#ffffff;"/>
  </g>
  <g id="axes_1">
   <g id="patch_2">
    <path d="M 57.6 307.584 
L 414.72 307.584 
L 414.72 41.472 
L 57.6 41.472 
z
" style="fill:#ffffff;"/>
   </g>
   <g id="matplotlib.axis_1">
    <g id="xtick_1">
     <g id="line2d_1">
      <defs>
       <path d="M 0 0 
L 0 3.5 
" id="mea48592145" style="stroke:#000000;stroke-width:0.8;"/>
      </defs>
      <g>
       <use style="stroke:#000000;stroke-width:0.8;" x="73.832727" xlink:href="#mea48592145" y="307.584"/>
      </g>
     </g>
     <g id="text_1">
      <!-- 0.0 -->
      <g transform="translate(65.881165 322.182437)scale(0.1 -0.1)">
       <defs>
        <path d="M 31.78125 66.40625 
Q 24.171875 66.40625 20.328125 58.90625 
Q 16.5 51.421875 16.5 36.375 
Q 16.5 21.390625 20.328125 13.890625 
Q 24.171875 6.390625 31.78125 6.390625 
Q 39.453125 6.390625 43.28125 13.890625 
Q 47.125 21.390625 47.125 36.375 
Q 47.125 51.421875 43.28125 58.90625 
Q 39.453125 66.40625 31.78125 66.40625 
z
M 31.78125 74.21875 
Q 44.046875 74.21875 50.515625 64.515625 
Q 56.984375 54.828125 56.984375 36.375 
Q 56.984375 17.96875 50.515625 8.265625 
Q 44.046875 -1.421875 31.78125 -1.421875 
Q 19.53125 -1.421875 13.0625 8.265625 
Q 6.59375 17.96875 6.59375 36.375 
Q 6.59375 54.828125 13.0625 64.515625 
Q 19.53125 74.21875 31.78125 74.21875 
z
" id="DejaVuSans-48"/>
        <path d="M 10.6875 12.40625 
L 21 12.40625 
L 21 0 
L 10.6875 0 
z
" id="DejaVuSans-46"/>
       </defs>
       <use xlink:href="#DejaVuSans-48"/>
       <use x="63.623047" xlink:href="#DejaVuSans-46"/>
       <use x="95.410156" xlink:href="#DejaVuSans-48"/>
      </g>
     </g>
    </g>
    <g id="xtick_2">
     <g id="line2d_2">
      <g>
       <use style="stroke:#000000;stroke-width:0.8;" x="138.763636" xlink:href="#mea48592145" y="307.584"/>
      </g>
     </g>
     <g id="text_2">
      <!-- 0.2 -->
      <g transform="translate(130.812074 322.182437)scale(0.1 -0.1)">
       <defs>
        <path d="M 19.1875 8.296875 
L 53.609375 8.296875 
L 53.609375 0 
L 7.328125 0 
L 7.328125 8.296875 
Q 12.9375 14.109375 22.625 23.890625 
Q 32.328125 33.6875 34.8125 36.53125 
Q 39.546875 41.84375 41.421875 45.53125 
Q 43.3125 49.21875 43.3125 52.78125 
Q 43.3125 58.59375 39.234375 62.25 
Q 35.15625 65.921875 28.609375 65.921875 
Q 23.96875 65.921875 18.8125 64.3125 
Q 13.671875 62.703125 7.8125 59.421875 
L 7.8125 69.390625 
Q 13.765625 71.78125 18.9375 73 
Q 24.125 74.21875 28.421875 74.21875 
Q 39.75 74.21875 46.484375 68.546875 
Q 53.21875 62.890625 53.21875 53.421875 
Q 53.21875 48.921875 51.53125 44.890625 
Q 49.859375 40.875 45.40625 35.40625 
Q 44.1875 33.984375 37.640625 27.21875 
Q 31.109375 20.453125 19.1875 8.296875 
z
" id="DejaVuSans-50"/>
       </defs>
       <use xlink:href="#DejaVuSans-48"/>
       <use x="63.623047" xlink:href="#DejaVuSans-46"/>
       <use x="95.410156" xlink:href="#DejaVuSans-50"/>
      </g>
     </g>
    </g>
    <g id="xtick_3">
     <g id="line2d_3">
      <g>
       <use style="stroke:#000000;stroke-width:0.8;" x="203.694545" xlink:href="#mea48592145" y="307.584"/>
      </g>
     </g>
     <g id="text_3">
      <!-- 0.4 -->
      <g transform="translate(195.742983 322.182437)scale(0.1 -0.1)">
       <defs>
        <path d="M 37.796875 64.3125 
L 12.890625 25.390625 
L 37.796875 25.390625 
z
M 35.203125 72.90625 
L 47.609375 72.90625 
L 47.609375 25.390625 
L 58.015625 25.390625 
L 58.015625 17.1875 
L 47.609375 17.1875 
L 47.609375 0 
L 37.796875 0 
L 37.796875 17.1875 
L 4.890625 17.1875 
L 4.890625 26.703125 
z
" id="DejaVuSans-52"/>
       </defs>
       <use xlink:href="#DejaVuSans-48"/>
       <use x="63.623047" xlink:href="#DejaVuSans-46"/>
       <use x="95.410156" xlink:href="#DejaVuSans-52"/>
      </g>
     </g>
    </g>
    <g id="xtick_4">
     <g id="line2d_4">
      <g>
       <use style="stroke:#000000;stroke-width:0.8;" x="268.625455" xlink:href="#mea48592145" y="307.584"/>
      </g>
     </g>
     <g id="text_4">
      <!-- 0.6 -->
      <g transform="translate(260.673892 322.182437)scale(0.1 -0.1)">
       <defs>
        <path d="M 33.015625 40.375 
Q 26.375 40.375 22.484375 35.828125 
Q 18.609375 31.296875 18.609375 23.390625 
Q 18.609375 15.53125 22.484375 10.953125 
Q 26.375 6.390625 33.015625 6.390625 
Q 39.65625 6.390625 43.53125 10.953125 
Q 47.40625 15.53125 47.40625 23.390625 
Q 47.40625 31.296875 43.53125 35.828125 
Q 39.65625 40.375 33.015625 40.375 
z
M 52.59375 71.296875 
L 52.59375 62.3125 
Q 48.875 64.0625 45.09375 64.984375 
Q 41.3125 65.921875 37.59375 65.921875 
Q 27.828125 65.921875 22.671875 59.328125 
Q 17.53125 52.734375 16.796875 39.40625 
Q 19.671875 43.65625 24.015625 45.921875 
Q 28.375 48.1875 33.59375 48.1875 
Q 44.578125 48.1875 50.953125 41.515625 
Q 57.328125 34.859375 57.328125 23.390625 
Q 57.328125 12.15625 50.6875 5.359375 
Q 44.046875 -1.421875 33.015625 -1.421875 
Q 20.359375 -1.421875 13.671875 8.265625 
Q 6.984375 17.96875 6.984375 36.375 
Q 6.984375 53.65625 15.1875 63.9375 
Q 23.390625 74.21875 37.203125 74.21875 
Q 40.921875 74.21875 44.703125 73.484375 
Q 48.484375 72.75 52.59375 71.296875 
z
" id="DejaVuSans-54"/>
       </defs>
       <use xlink:href="#DejaVuSans-48"/>
       <use x="63.623047" xlink:href="#DejaVuSans-46"/>
       <use x="95.410156" xlink:href="#DejaVuSans-54"/>
      </g>
     </g>
    </g>
    <g id="xtick_5">
     <g id="line2d_5">
      <g>
       <use style="stroke:#000000;stroke-width:0.8;" x="333.556364" xlink:href="#mea48592145" y="307.584"/>
      </g>
     </g>
     <g id="text_5">
      <!-- 0.8 -->
      <g transform="translate(325.604801 322.182437)scale(0.1 -0.1)">
       <defs>
        <path d="M 31.78125 34.625 
Q 24.75 34.625 20.71875 30.859375 
Q 16.703125 27.09375 16.703125 20.515625 
Q 16.703125 13.921875 20.71875 10.15625 
Q 24.75 6.390625 31.78125 6.390625 
Q 38.8125 6.390625 42.859375 10.171875 
Q 46.921875 13.96875 46.921875 20.515625 
Q 46.921875 27.09375 42.890625 30.859375 
Q 38.875 34.625 31.78125 34.625 
z
M 21.921875 38.8125 
Q 15.578125 40.375 12.03125 44.71875 
Q 8.5 49.078125 8.5 55.328125 
Q 8.5 64.0625 14.71875 69.140625 
Q 20.953125 74.21875 31.78125 74.21875 
Q 42.671875 74.21875 48.875 69.140625 
Q 55.078125 64.0625 55.078125 55.328125 
Q 55.078125 49.078125 51.53125 44.71875 
Q 48 40.375 41.703125 38.8125 
Q 48.828125 37.15625 52.796875 32.3125 
Q 56.78125 27.484375 56.78125 20.515625 
Q 56.78125 9.90625 50.3125 4.234375 
Q 43.84375 -1.421875 31.78125 -1.421875 
Q 19.734375 -1.421875 13.25 4.234375 
Q 6.78125 9.90625 6.78125 20.515625 
Q 6.78125 27.484375 10.78125 32.3125 
Q 14.796875 37.15625 21.921875 38.8125 
z
M 18.3125 54.390625 
Q 18.3125 48.734375 21.84375 45.5625 
Q 25.390625 42.390625 31.78125 42.390625 
Q 38.140625 42.390625 41.71875 45.5625 
Q 45.3125 48.734375 45.3125 54.390625 
Q 45.3125 60.0625 41.71875 63.234375 
Q 38.140625 66.40625 31.78125 66.40625 
Q 25.390625 66.40625 21.84375 63.234375 
Q 18.3125 60.0625 18.3125 54.390625 
z
" id="DejaVuSans-56"/>
       </defs>
       <use xlink:href="#DejaVuSans-48"/>
       <use x="63.623047" xlink:href="#DejaVuSans-46"/>
       <use x="95.410156" xlink:href="#DejaVuSans-56"/>
      </g>
     </g>
    </g>
    <g id="xtick_6">
     <g id="line2d_6">
      <g>
       <use style="stroke:#000000;stroke-width:0.8;" x="398.487273" xlink:href="#mea48592145" y="307.584"/>
      </g>
     </g>
     <g id="text_6">
      <!-- 1.0 -->
      <g transform="translate(390.53571 322.182437)scale(0.1 -0.1)">
       <defs>
        <path d="M 12.40625 8.296875 
L 28.515625 8.296875 
L 28.515625 63.921875 
L 10.984375 60.40625 
L 10.984375 69.390625 
L 28.421875 72.90625 
L 38.28125 72.90625 
L 38.28125 8.296875 
L 54.390625 8.296875 
L 54.390625 0 
L 12.40625 0 
z
" id="DejaVuSans-49"/>
       </defs>
       <use xlink:href="#DejaVuSans-49"/>
       <use x="63.623047" xlink:href="#DejaVuSans-46"/>
       <use x="95.410156" xlink:href="#DejaVuSans-48"/>
      </g>
     </g>
    </g>
    <g id="text_7">
     <!-- x norm. -->
     <g transform="translate(216.956094 335.860562)scale(0.1 -0.1)">
      <defs>
       <path d="M 54.890625 54.6875 
L 35.109375 28.078125 
L 55.90625 0 
L 45.3125 0 
L 29.390625 21.484375 
L 13.484375 0 
L 2.875 0 
L 24.125 28.609375 
L 4.6875 54.6875 
L 15.28125 54.6875 
L 29.78125 35.203125 
L 44.28125 54.6875 
z
" id="DejaVuSans-120"/>
       <path id="DejaVuSans-32"/>
       <path d="M 54.890625 33.015625 
L 54.890625 0 
L 45.90625 0 
L 45.90625 32.71875 
Q 45.90625 40.484375 42.875 44.328125 
Q 39.84375 48.1875 33.796875 48.1875 
Q 26.515625 48.1875 22.3125 43.546875 
Q 18.109375 38.921875 18.109375 30.90625 
L 18.109375 0 
L 9.078125 0 
L 9.078125 54.6875 
L 18.109375 54.6875 
L 18.109375 46.1875 
Q 21.34375 51.125 25.703125 53.5625 
Q 30.078125 56 35.796875 56 
Q 45.21875 56 50.046875 50.171875 
Q 54.890625 44.34375 54.890625 33.015625 
z
" id="DejaVuSans-110"/>
       <path d="M 30.609375 48.390625 
Q 23.390625 48.390625 19.1875 42.75 
Q 14.984375 37.109375 14.984375 27.296875 
Q 14.984375 17.484375 19.15625 11.84375 
Q 23.34375 6.203125 30.609375 6.203125 
Q 37.796875 6.203125 41.984375 11.859375 
Q 46.1875 17.53125 46.1875 27.296875 
Q 46.1875 37.015625 41.984375 42.703125 
Q 37.796875 48.390625 30.609375 48.390625 
z
M 30.609375 56 
Q 42.328125 56 49.015625 48.375 
Q 55.71875 40.765625 55.71875 27.296875 
Q 55.71875 13.875 49.015625 6.21875 
Q 42.328125 -1.421875 30.609375 -1.421875 
Q 18.84375 -1.421875 12.171875 6.21875 
Q 5.515625 13.875 5.515625 27.296875 
Q 5.515625 40.765625 12.171875 48.375 
Q 18.84375 56 30.609375 56 
z
" id="DejaVuSans-111"/>
       <path d="M 41.109375 46.296875 
Q 39.59375 47.171875 37.8125 47.578125 
Q 36.03125 48 33.890625 48 
Q 26.265625 48 22.1875 43.046875 
Q 18.109375 38.09375 18.109375 28.8125 
L 18.109375 0 
L 9.078125 0 
L 9.078125 54.6875 
L 18.109375 54.6875 
L 18.109375 46.1875 
Q 20.953125 51.171875 25.484375 53.578125 
Q 30.03125 56 36.53125 56 
Q 37.453125 56 38.578125 55.875 
Q 39.703125 55.765625 41.0625 55.515625 
z
" id="DejaVuSans-114"/>
       <path d="M 52 44.1875 
Q 55.375 50.25 60.0625 53.125 
Q 64.75 56 71.09375 56 
Q 79.640625 56 84.28125 50.015625 
Q 88.921875 44.046875 88.921875 33.015625 
L 88.921875 0 
L 79.890625 0 
L 79.890625 32.71875 
Q 79.890625 40.578125 77.09375 44.375 
Q 74.3125 48.1875 68.609375 48.1875 
Q 61.625 48.1875 57.5625 43.546875 
Q 53.515625 38.921875 53.515625 30.90625 
L 53.515625 0 
L 44.484375 0 
L 44.484375 32.71875 
Q 44.484375 40.625 41.703125 44.40625 
Q 38.921875 48.1875 33.109375 48.1875 
Q 26.21875 48.1875 22.15625 43.53125 
Q 18.109375 38.875 18.109375 30.90625 
L 18.109375 0 
L 9.078125 0 
L 9.078125 54.6875 
L 18.109375 54.6875 
L 18.109375 46.1875 
Q 21.1875 51.21875 25.484375 53.609375 
Q 29.78125 56 35.6875 56 
Q 41.65625 56 45.828125 52.96875 
Q 50 49.953125 52 44.1875 
z
" id="DejaVuSans-109"/>
      </defs>
      <use xlink:href="#DejaVuSans-120"/>
      <use x="59.179688" xlink:href="#DejaVuSans-32"/>
      <use x="90.966797" xlink:href="#DejaVuSans-110"/>
      <use x="154.345703" xlink:href="#DejaVuSans-111"/>
      <use x="215.527344" xlink:href="#DejaVuSans-114"/>
      <use x="254.890625" xlink:href="#DejaVuSans-109"/>
      <use x="352.302734" xlink:href="#DejaVuSans-46"/>
     </g>
    </g>
   </g>
   <g id="matplotlib.axis_2">
    <g id="ytick_1">
     <g id="line2d_7">
      <defs>
       <path d="M 0 0 
L -3.5 0 
" id="m62f8329133" style="stroke:#000000;stroke-width:0.8;"/>
      </defs>
      <g>
       <use style="stroke:#000000;stroke-width:0.8;" x="57.6" xlink:href="#m62f8329133" y="307.282508"/>
      </g>
     </g>
     <g id="text_8">
      <!-- 40 -->
      <g transform="translate(37.875 311.081727)scale(0.1 -0.1)">
       <use xlink:href="#DejaVuSans-52"/>
       <use x="63.623047" xlink:href="#DejaVuSans-48"/>
      </g>
     </g>
    </g>
    <g id="ytick_2">
     <g id="line2d_8">
      <g>
       <use style="stroke:#000000;stroke-width:0.8;" x="57.6" xlink:href="#m62f8329133" y="266.688778"/>
      </g>
     </g>
     <g id="text_9">
      <!-- 50 -->
      <g transform="translate(37.875 270.487997)scale(0.1 -0.1)">
       <defs>
        <path d="M 10.796875 72.90625 
L 49.515625 72.90625 
L 49.515625 64.59375 
L 19.828125 64.59375 
L 19.828125 46.734375 
Q 21.96875 47.46875 24.109375 47.828125 
Q 26.265625 48.1875 28.421875 48.1875 
Q 40.625 48.1875 47.75 41.5 
Q 54.890625 34.8125 54.890625 23.390625 
Q 54.890625 11.625 47.5625 5.09375 
Q 40.234375 -1.421875 26.90625 -1.421875 
Q 22.3125 -1.421875 17.546875 -0.640625 
Q 12.796875 0.140625 7.71875 1.703125 
L 7.71875 11.625 
Q 12.109375 9.234375 16.796875 8.0625 
Q 21.484375 6.890625 26.703125 6.890625 
Q 35.15625 6.890625 40.078125 11.328125 
Q 45.015625 15.765625 45.015625 23.390625 
Q 45.015625 31 40.078125 35.4375 
Q 35.15625 39.890625 26.703125 39.890625 
Q 22.75 39.890625 18.8125 39.015625 
Q 14.890625 38.140625 10.796875 36.28125 
z
" id="DejaVuSans-53"/>
       </defs>
       <use xlink:href="#DejaVuSans-53"/>
       <use x="63.623047" xlink:href="#DejaVuSans-48"/>
      </g>
     </g>
    </g>
    <g id="ytick_3">
     <g id="line2d_9">
      <g>
       <use style="stroke:#000000;stroke-width:0.8;" x="57.6" xlink:href="#m62f8329133" y="226.095048"/>
      </g>
     </g>
     <g id="text_10">
      <!-- 60 -->
      <g transform="translate(37.875 229.894267)scale(0.1 -0.1)">
       <use xlink:href="#DejaVuSans-54"/>
       <use x="63.623047" xlink:href="#DejaVuSans-48"/>
      </g>
     </g>
    </g>
    <g id="ytick_4">
     <g id="line2d_10">
      <g>
       <use style="stroke:#000000;stroke-width:0.8;" x="57.6" xlink:href="#m62f8329133" y="185.501317"/>
      </g>
     </g>
     <g id="text_11">
      <!-- 70 -->
      <g transform="translate(37.875 189.300536)scale(0.1 -0.1)">
       <defs>
        <path d="M 8.203125 72.90625 
L 55.078125 72.90625 
L 55.078125 68.703125 
L 28.609375 0 
L 18.3125 0 
L 43.21875 64.59375 
L 8.203125 64.59375 
z
" id="DejaVuSans-55"/>
       </defs>
       <use xlink:href="#DejaVuSans-55"/>
       <use x="63.623047" xlink:href="#DejaVuSans-48"/>
      </g>
     </g>
    </g>
    <g id="ytick_5">
     <g id="line2d_11">
      <g>
       <use style="stroke:#000000;stroke-width:0.8;" x="57.6" xlink:href="#m62f8329133" y="144.907587"/>
      </g>
     </g>
     <g id="text_12">
      <!-- 80 -->
      <g transform="translate(37.875 148.706806)scale(0.1 -0.1)">
       <use xlink:href="#DejaVuSans-56"/>
       <use x="63.623047" xlink:href="#DejaVuSans-48"/>
      </g>
     </g>
    </g>
    <g id="ytick_6">
     <g id="line2d_12">
      <g>
       <use style="stroke:#000000;stroke-width:0.8;" x="57.6" xlink:href="#m62f8329133" y="104.313857"/>
      </g>
     </g>
     <g id="text_13">
      <!-- 90 -->
      <g transform="translate(37.875 108.113076)scale(0.1 -0.1)">
       <defs>
        <path d="M 10.984375 1.515625 
L 10.984375 10.5 
Q 14.703125 8.734375 18.5 7.8125 
Q 22.3125 6.890625 25.984375 6.890625 
Q 35.75 6.890625 40.890625 13.453125 
Q 46.046875 20.015625 46.78125 33.40625 
Q 43.953125 29.203125 39.59375 26.953125 
Q 35.25 24.703125 29.984375 24.703125 
Q 19.046875 24.703125 12.671875 31.3125 
Q 6.296875 37.9375 6.296875 49.421875 
Q 6.296875 60.640625 12.9375 67.421875 
Q 19.578125 74.21875 30.609375 74.21875 
Q 43.265625 74.21875 49.921875 64.515625 
Q 56.59375 54.828125 56.59375 36.375 
Q 56.59375 19.140625 48.40625 8.859375 
Q 40.234375 -1.421875 26.421875 -1.421875 
Q 22.703125 -1.421875 18.890625 -0.6875 
Q 15.09375 0.046875 10.984375 1.515625 
z
M 30.609375 32.421875 
Q 37.25 32.421875 41.125 36.953125 
Q 45.015625 41.5 45.015625 49.421875 
Q 45.015625 57.28125 41.125 61.84375 
Q 37.25 66.40625 30.609375 66.40625 
Q 23.96875 66.40625 20.09375 61.84375 
Q 16.21875 57.28125 16.21875 49.421875 
Q 16.21875 41.5 20.09375 36.953125 
Q 23.96875 32.421875 30.609375 32.421875 
z
" id="DejaVuSans-57"/>
       </defs>
       <use xlink:href="#DejaVuSans-57"/>
       <use x="63.623047" xlink:href="#DejaVuSans-48"/>
      </g>
     </g>
    </g>
    <g id="ytick_7">
     <g id="line2d_13">
      <g>
       <use style="stroke:#000000;stroke-width:0.8;" x="57.6" xlink:href="#m62f8329133" y="63.720127"/>
      </g>
     </g>
     <g id="text_14">
      <!-- 100 -->
      <g transform="translate(31.5125 67.519345)scale(0.1 -0.1)">
       <use xlink:href="#DejaVuSans-49"/>
       <use x="63.623047" xlink:href="#DejaVuSans-48"/>
       <use x="127.246094" xlink:href="#DejaVuSans-48"/>
      </g>
     </g>
    </g>
    <g id="text_15">
     <!-- kPa -->
     <g transform="translate(25.432812 183.277219)rotate(-90)scale(0.1 -0.1)">
      <defs>
       <path d="M 9.078125 75.984375 
L 18.109375 75.984375 
L 18.109375 31.109375 
L 44.921875 54.6875 
L 56.390625 54.6875 
L 27.390625 29.109375 
L 57.625 0 
L 45.90625 0 
L 18.109375 26.703125 
L 18.109375 0 
L 9.078125 0 
z
" id="DejaVuSans-107"/>
       <path d="M 19.671875 64.796875 
L 19.671875 37.40625 
L 32.078125 37.40625 
Q 38.96875 37.40625 42.71875 40.96875 
Q 46.484375 44.53125 46.484375 51.125 
Q 46.484375 57.671875 42.71875 61.234375 
Q 38.96875 64.796875 32.078125 64.796875 
z
M 9.8125 72.90625 
L 32.078125 72.90625 
Q 44.34375 72.90625 50.609375 67.359375 
Q 56.890625 61.8125 56.890625 51.125 
Q 56.890625 40.328125 50.609375 34.8125 
Q 44.34375 29.296875 32.078125 29.296875 
L 19.671875 29.296875 
L 19.671875 0 
L 9.8125 0 
z
" id="DejaVuSans-80"/>
       <path d="M 34.28125 27.484375 
Q 23.390625 27.484375 19.1875 25 
Q 14.984375 22.515625 14.984375 16.5 
Q 14.984375 11.71875 18.140625 8.90625 
Q 21.296875 6.109375 26.703125 6.109375 
Q 34.1875 6.109375 38.703125 11.40625 
Q 43.21875 16.703125 43.21875 25.484375 
L 43.21875 27.484375 
z
M 52.203125 31.203125 
L 52.203125 0 
L 43.21875 0 
L 43.21875 8.296875 
Q 40.140625 3.328125 35.546875 0.953125 
Q 30.953125 -1.421875 24.3125 -1.421875 
Q 15.921875 -1.421875 10.953125 3.296875 
Q 6 8.015625 6 15.921875 
Q 6 25.140625 12.171875 29.828125 
Q 18.359375 34.515625 30.609375 34.515625 
L 43.21875 34.515625 
L 43.21875 35.40625 
Q 43.21875 41.609375 39.140625 45 
Q 35.0625 48.390625 27.6875 48.390625 
Q 23 48.390625 18.546875 47.265625 
Q 14.109375 46.140625 10.015625 43.890625 
L 10.015625 52.203125 
Q 14.9375 54.109375 19.578125 55.046875 
Q 24.21875 56 28.609375 56 
Q 40.484375 56 46.34375 49.84375 
Q 52.203125 43.703125 52.203125 31.203125 
z
" id="DejaVuSans-97"/>
      </defs>
      <use xlink:href="#DejaVuSans-107"/>
      <use x="57.910156" xlink:href="#DejaVuSans-80"/>
      <use x="113.712891" xlink:href="#DejaVuSans-97"/>
     </g>
    </g>
   </g>
   <g id="line2d_14">
    <path clip-path="url(#p320c16ec59)" d="M 73.832727 147.653347 
L 80.45833 163.805134 
L 87.083933 180.790813 
L 93.709536 198.22789 
L 100.335139 215.66947 
L 106.960743 232.610816 
L 113.586345 248.491871 
L 120.211947 262.687503 
L 126.837552 274.492874 
L 133.463154 283.181207 
L 140.088756 288.30591 
L 146.714361 290.313745 
L 153.339963 290.953051 
L 159.965565 290.77726 
L 166.59117 289.651823 
L 173.216772 286.117993 
L 179.842374 279.056819 
L 186.467979 268.604372 
L 193.093581 255.417982 
L 199.719183 240.231145 
L 206.344788 223.706752 
L 212.97039 206.434656 
L 219.595992 188.946625 
L 226.221597 171.718321 
L 232.847199 155.163386 
L 239.472801 139.627114 
L 246.098403 125.383261 
L 252.724008 112.634386 
L 259.34961 101.513535 
L 265.975212 92.085856 
L 272.600817 84.348655 
L 279.226419 78.230502 
L 285.852021 73.595355 
L 292.477626 70.264806 
L 299.103228 68.069319 
L 305.72883 66.89314 
L 312.354435 66.472495 
L 318.980037 66.310279 
L 325.605639 66.364215 
L 332.231244 67.022577 
L 338.856846 68.673374 
L 345.482448 71.426875 
L 352.108053 75.428686 
L 358.733655 80.858848 
L 365.359257 87.871858 
L 371.984862 96.563255 
L 378.610464 106.960523 
L 385.236066 119.023494 
L 391.861671 132.645273 
L 398.487273 147.651346 
" style="fill:none;stroke:#000000;stroke-linecap:square;"/>
   </g>
   <g id="line2d_15">
    <path clip-path="url(#p320c16ec59)" d="M 73.832727 140.42198 
L 77.079273 148.19162 
L 80.325818 156.131754 
L 83.572364 164.388518 
L 86.818909 172.763005 
L 90.065455 181.356698 
L 93.312 190.005192 
L 96.558545 198.751111 
L 99.805091 207.468615 
L 103.051636 216.139435 
L 106.298182 224.688475 
L 109.544727 233.026427 
L 112.791273 241.137055 
L 116.037818 248.864071 
L 119.284364 256.248071 
L 122.530909 263.067817 
L 125.777455 269.434944 
L 129.024 275.071383 
L 132.270545 280.153718 
L 135.517091 284.379526 
L 138.763636 287.992368 
L 142.010182 290.722296 
L 145.256727 292.877823 
L 148.503273 294.272218 
L 151.749818 295.220081 
L 154.996364 295.488 
L 158.242909 295.272853 
L 161.489455 294.373702 
L 164.736 293.040198 
L 167.982545 290.935413 
L 171.229091 288.276524 
L 174.475636 284.720513 
L 177.722182 280.577923 
L 180.968727 275.560538 
L 184.215273 270.025583 
L 187.461818 263.733554 
L 190.708364 257.023411 
L 193.954909 249.71451 
L 197.201455 242.107245 
L 200.448 234.077805 
L 203.694545 225.861634 
L 206.941091 217.393782 
L 210.187636 208.840683 
L 213.434182 200.198278 
L 216.680727 191.563991 
L 219.927273 182.980447 
L 223.173818 174.482149 
L 226.420364 166.158405 
L 229.666909 157.980798 
L 232.913455 150.075169 
L 236.16 142.36236 
L 239.406545 134.994598 
L 242.653091 127.854161 
L 245.899636 121.109513 
L 249.146182 114.614516 
L 252.392727 108.547783 
L 255.639273 102.746939 
L 258.885818 97.384507 
L 262.132364 92.296083 
L 265.378909 87.648101 
L 268.625455 83.278186 
L 271.872 79.332475 
L 275.118545 75.666861 
L 278.365091 72.401096 
L 281.611636 69.407308 
L 284.858182 66.780894 
L 288.104727 64.420368 
L 291.351273 62.382563 
L 294.597818 60.584261 
L 297.844364 59.043729 
L 301.090909 57.708195 
L 304.337455 56.569541 
L 307.584 55.609499 
L 310.830545 54.848367 
L 314.077091 54.316589 
L 317.323636 54.083175 
L 320.570182 54.150155 
L 323.816727 54.535795 
L 327.063273 55.162968 
L 330.309818 56.013407 
L 333.556364 57.034339 
L 336.802909 58.256211 
L 340.049455 59.672932 
L 343.296 61.355542 
L 346.542545 63.271566 
L 349.789091 65.524518 
L 353.035636 68.03321 
L 356.282182 70.927543 
L 359.528727 74.091825 
L 362.775273 77.678281 
L 366.021818 81.536715 
L 369.268364 85.845739 
L 372.514909 90.428771 
L 375.761455 95.476602 
L 379.008 100.792351 
L 382.254545 106.576957 
L 385.501091 112.619334 
L 388.747636 119.12245 
L 391.994182 125.863039 
L 395.240727 133.03798 
L 398.487273 140.42198 
" style="fill:none;stroke:#000000;stroke-linecap:square;"/>
   </g>
   <g id="line2d_16">
    <path clip-path="url(#p320c16ec59)" d="M 73.832727 138.337216 
L 82.157194 158.435184 
L 90.481694 180.056131 
L 98.806161 202.469724 
L 107.130596 224.717305 
L 115.455063 245.636829 
L 123.77953 263.909975 
L 132.103998 278.163875 
L 140.428465 287.335046 
L 148.752932 291.529494 
L 157.077399 292.693532 
L 165.401866 290.334934 
L 173.726334 284.064531 
L 182.050801 272.562273 
L 190.375268 256.425205 
L 198.699735 236.930984 
L 207.024202 215.421888 
L 215.34867 193.117607 
L 223.673137 171.056647 
L 231.997604 150.064773 
L 240.322396 130.747219 
L 248.646863 113.505264 
L 256.97133 98.56777 
L 265.295798 86.026105 
L 273.620265 75.864939 
L 281.944732 67.988582 
L 290.269199 62.226196 
L 298.593666 58.229256 
L 306.918134 55.362527 
L 315.242601 53.568 
L 323.567068 54.082891 
L 331.891535 56.300608 
L 340.216002 59.430425 
L 348.54047 64.034119 
L 356.864937 70.622624 
L 365.189404 79.434215 
L 373.513871 90.600467 
L 381.838338 104.181623 
L 390.162806 120.145237 
L 398.487273 138.337216 
" style="fill:none;stroke:#000000;stroke-linecap:square;"/>
   </g>
   <g id="line2d_17">
    <path clip-path="url(#p320c16ec59)" d="M 77.791889 148.555746 
L 85.710214 168.360615 
L 93.628863 189.387355 
L 101.547187 210.779845 
L 109.465512 231.485083 
L 117.383836 250.670086 
L 125.302485 267.321228 
L 133.220809 280.06766 
L 141.139134 288.092228 
L 149.057458 291.872722 
L 156.976107 292.464579 
L 164.894431 290.192548 
L 172.812756 284.359229 
L 180.73108 274.12149 
L 188.649729 259.460658 
L 196.568054 241.355855 
L 204.486378 221.178741 
L 212.404702 200.062289 
L 220.323351 178.845975 
L 228.241676 158.311637 
L 236.16 139.133941 
L 244.078324 121.717607 
L 251.996649 106.299702 
L 259.915298 93.050315 
L 267.833622 81.982028 
L 275.751946 73.015279 
L 283.670271 66.151691 
L 291.58892 61.227672 
L 299.507244 57.647305 
L 307.425569 54.988415 
L 315.343893 53.628525 
L 323.262542 54.152184 
L 331.180866 56.275236 
L 339.099191 59.315707 
L 347.017515 63.387258 
L 354.936164 69.271725 
L 362.854488 77.300353 
L 370.772813 87.287629 
L 378.691137 99.324076 
L 386.609786 113.703999 
L 394.528111 130.265023 
" style="fill:none;stroke:#000000;stroke-linecap:square;"/>
   </g>
   <g id="line2d_18">
    <path clip-path="url(#p320c16ec59)" d="M 73.832727 135.524225 
L 77.112066 142.914094 
L 80.391405 151.752547 
L 83.670744 160.35722 
L 86.950083 168.978208 
L 90.229422 177.765423 
L 93.50876 186.822282 
L 96.788099 195.393068 
L 100.067438 204.377556 
L 103.346777 213.408427 
L 106.626115 222.324905 
L 109.905454 231.432035 
L 113.184793 239.858336 
L 116.464132 247.857525 
L 119.743471 255.040606 
L 123.022809 262.125552 
L 126.302148 268.531928 
L 129.581487 274.340684 
L 132.860826 279.515776 
L 136.140165 283.602196 
L 139.419503 286.852504 
L 142.698842 289.28378 
L 145.978181 290.965814 
L 149.25752 292.029991 
L 152.536859 292.857514 
L 155.816198 293.167122 
L 159.095536 292.468346 
L 162.374875 291.553432 
L 165.654214 290.216145 
L 168.933553 288.189771 
L 172.212892 285.354806 
L 175.49223 281.682978 
L 178.771569 277.163174 
L 182.050908 271.859124 
L 185.330247 265.738459 
L 188.609586 258.693741 
L 191.888924 251.399685 
L 195.168263 243.544295 
L 198.447602 235.311672 
L 201.726941 226.761828 
L 205.00628 217.93596 
L 208.285618 209.386957 
L 211.564957 200.361334 
L 214.844296 190.845044 
L 218.123635 181.775126 
L 221.402974 172.844464 
L 224.682313 164.073121 
L 227.961651 155.474578 
L 231.24099 147.826678 
L 234.520329 139.848086 
L 237.799671 132.062014 
L 241.07901 124.764085 
L 244.358349 117.922353 
L 247.637687 111.257504 
L 250.917026 105.100787 
L 254.196365 99.455867 
L 257.475704 94.03466 
L 260.755043 89.103536 
L 264.034382 84.358645 
L 267.31372 79.656758 
L 270.593059 75.933668 
L 273.872398 72.623797 
L 277.151737 69.566225 
L 280.431076 66.928594 
L 283.710414 64.609072 
L 286.989753 62.972877 
L 290.269092 60.958738 
L 293.548431 59.496227 
L 296.82777 58.571624 
L 300.107108 58.160815 
L 303.386447 57.19578 
L 306.665786 56.337182 
L 309.945125 54.956549 
L 313.224464 54.13002 
L 316.503802 53.856053 
L 319.783141 53.979986 
L 323.06248 54.39047 
L 326.341819 55.069319 
L 329.621158 55.924385 
L 332.900497 56.788991 
L 336.179835 57.732145 
L 339.459174 58.893735 
L 342.738513 60.963447 
L 346.017852 62.631281 
L 349.297191 64.487604 
L 352.576529 66.62307 
L 355.855868 68.221411 
L 359.135207 71.031346 
L 362.414546 74.228171 
L 365.693885 77.951927 
L 368.973223 81.691361 
L 372.252562 86.047247 
L 375.531901 91.039715 
L 378.81124 96.621495 
L 382.090579 102.203864 
L 385.369917 108.141318 
L 388.649256 113.912407 
L 391.928595 120.760102 
L 395.207934 127.988242 
L 398.487273 135.612638 
" style="fill:none;stroke:#000000;stroke-linecap:square;"/>
   </g>
   <g id="line2d_19">
    <path clip-path="url(#p320c16ec59)" d="M 74.652558 140.169105 
L 79.571561 152.02563 
L 84.490555 164.445972 
L 91.049223 181.669979 
L 109.085572 229.663983 
L 114.004578 241.875955 
L 117.283917 249.562164 
L 120.563259 256.798126 
L 123.842601 263.515469 
L 127.121943 269.654241 
L 130.401288 275.165911 
L 133.680631 280.015227 
L 136.959976 284.180216 
L 138.599647 286.002419 
L 140.239321 287.650317 
L 141.878992 289.123887 
L 143.518666 290.423444 
L 145.158337 291.549527 
L 146.798015 292.50283 
L 148.437686 293.284092 
L 150.07736 293.894042 
L 151.717031 294.333313 
L 153.356706 294.602408 
L 154.996377 294.701654 
L 156.636054 294.631188 
L 158.275725 294.390948 
L 159.915399 293.980672 
L 161.55507 293.399942 
L 163.194745 292.648179 
L 164.834416 291.72475 
L 166.47409 290.628958 
L 168.113761 289.360211 
L 169.753435 287.918 
L 171.393106 286.302115 
L 173.032781 284.512595 
L 176.312126 280.415287 
L 179.591468 275.637001 
L 182.87081 270.199938 
L 186.150152 264.139408 
L 189.429491 257.503817 
L 192.70883 250.352799 
L 195.988169 242.75423 
L 200.907175 230.677314 
L 207.465846 213.699836 
L 227.141843 161.93124 
L 232.060831 149.805006 
L 236.979834 138.201337 
L 241.898827 127.317757 
L 246.817824 117.169866 
L 250.097157 110.84099 
L 253.376489 104.872348 
L 256.655821 99.269929 
L 259.935154 94.036899 
L 263.214489 89.173902 
L 266.493821 84.679343 
L 269.773157 80.549632 
L 273.052496 76.779367 
L 276.331831 73.361342 
L 279.61117 70.286248 
L 282.890509 67.541902 
L 286.169851 65.111943 
L 289.449193 62.974377 
L 292.728535 61.101008 
L 296.007877 59.459544 
L 299.287223 58.020068 
L 302.566568 56.765037 
L 305.845913 55.697262 
L 309.125258 54.838606 
L 312.404604 54.219218 
L 315.683949 53.865278 
L 318.963298 53.791466 
L 322.242643 53.998167 
L 325.521988 54.471473 
L 328.801337 55.186004 
L 332.080682 56.112468 
L 335.360027 57.22992 
L 338.639373 58.536477 
L 341.918715 60.050547 
L 345.19806 61.802819 
L 348.477402 63.826281 
L 351.756744 66.149785 
L 355.036083 68.795942 
L 358.315422 71.781691 
L 361.594761 75.119749 
L 364.874099 78.819889 
L 368.153438 82.889717 
L 371.432774 87.334959 
L 374.712109 92.159438 
L 377.991445 97.364925 
L 381.270777 102.950745 
L 384.55011 108.91403 
L 387.829445 115.247337 
L 392.475161 124.839965 
L 396.847611 134.500905 
L 397.94072 137.00647 
L 397.94072 137.00647 
" style="fill:none;stroke:#000000;stroke-linecap:square;"/>
   </g>
   <g id="line2d_20">
    <path clip-path="url(#p320c16ec59)" d="M 73.832727 140.234843 
L 74.644364 141.723821 
L 79.514182 153.407914 
L 84.384 165.657072 
L 90.877091 182.656103 
L 111.168 236.42737 
L 115.226182 246.346448 
L 119.284364 255.645254 
L 122.530909 262.52995 
L 125.777455 268.832533 
L 128.212364 273.130191 
L 130.647273 277.024754 
L 133.082182 280.490646 
L 135.517091 283.508384 
L 137.952 286.068225 
L 140.386909 288.173416 
L 142.010182 289.331961 
L 143.633455 290.303369 
L 146.068364 291.437964 
L 148.503273 292.255927 
L 152.561455 293.308929 
L 154.184727 293.623124 
L 155.808 293.640173 
L 157.431273 293.358047 
L 162.301091 292.150789 
L 164.736 291.287361 
L 166.359273 290.523387 
L 167.982545 289.585672 
L 169.605818 288.461631 
L 171.229091 287.143147 
L 172.852364 285.624941 
L 175.287273 282.96727 
L 177.722182 279.856166 
L 180.157091 276.305027 
L 182.592 272.33496 
L 185.026909 267.974787 
L 188.273455 261.608067 
L 191.52 254.683588 
L 194.766545 247.283757 
L 198.824727 237.487272 
L 203.694545 225.132976 
L 210.999273 205.889924 
L 223.173818 173.718581 
L 228.855273 159.318361 
L 233.725091 147.518982 
L 238.594909 136.328508 
L 242.653091 127.524946 
L 246.711273 119.232053 
L 250.769455 111.474997 
L 254.827636 104.26961 
L 258.074182 98.909614 
L 261.320727 93.911308 
L 264.567273 89.27388 
L 267.813818 84.994895 
L 271.060364 81.070699 
L 274.306909 77.494797 
L 277.553455 74.259883 
L 280.8 71.357837 
L 284.046545 68.777699 
L 287.293091 66.50648 
L 290.539636 64.526318 
L 293.786182 62.810827 
L 297.032727 61.325097 
L 301.090909 59.729763 
L 305.960727 58.089776 
L 310.018909 56.940974 
L 313.265455 56.246821 
L 315.700364 55.93019 
L 318.135273 55.832765 
L 320.570182 55.962665 
L 323.005091 56.287415 
L 326.251636 56.949092 
L 330.309818 58.004529 
L 335.179636 59.526794 
L 339.237818 61.061237 
L 342.484364 62.522612 
L 345.730909 64.24135 
L 348.977455 66.243839 
L 352.224 68.554028 
L 355.470545 71.188155 
L 358.717091 74.157992 
L 361.963636 77.4745 
L 365.210182 81.145391 
L 368.456727 85.178784 
L 371.703273 89.579145 
L 374.949818 94.350938 
L 378.196364 99.495787 
L 381.442909 105.012881 
L 384.689455 110.899378 
L 388.747636 118.76766 
L 392.805818 127.18477 
L 396.864 136.124322 
L 397.675636 137.971742 
L 398.487273 139.442047 
L 398.487273 139.442047 
" style="fill:none;stroke:#000000;stroke-linecap:square;"/>
   </g>
   <g id="line2d_21">
    <path clip-path="url(#p320c16ec59)" d="M 73.832727 139.075311 
L 77.890909 148.692161 
L 83.301818 162.170485 
L 88.712727 176.233278 
L 98.181818 201.637898 
L 106.298182 223.336578 
L 111.709092 237.223665 
L 115.767274 247.09075 
L 119.825456 256.315188 
L 122.530909 262.028516 
L 125.236363 267.337125 
L 127.941819 272.194684 
L 130.647273 276.558324 
L 133.352726 280.391671 
L 136.058183 283.668928 
L 138.763636 286.379546 
L 141.46909 288.532151 
L 144.174547 290.156212 
L 146.88 291.309391 
L 149.585453 292.121956 
L 153.643635 293.135435 
L 154.996364 293.282064 
L 156.349092 293.163083 
L 160.407274 292.228112 
L 163.112727 291.468462 
L 165.818181 290.369642 
L 167.170909 289.648685 
L 168.523637 288.801125 
L 171.229091 286.705384 
L 173.934544 284.053172 
L 176.640001 280.836075 
L 179.345455 277.064783 
L 182.050908 272.765193 
L 184.756365 267.973687 
L 187.461818 262.733065 
L 190.167272 257.089497 
L 194.225453 247.972515 
L 198.283635 238.215248 
L 203.694545 224.475857 
L 211.810909 202.993339 
L 222.632726 174.283573 
L 228.043636 160.454243 
L 233.454547 147.230827 
L 237.512728 137.798188 
L 241.57091 128.834289 
L 245.629092 120.375566 
L 249.687274 112.449039 
L 253.745456 105.073386 
L 257.803637 98.25987 
L 261.861819 92.013254 
L 265.920001 86.332568 
L 268.625455 82.857099 
L 271.330908 79.627762 
L 274.036365 76.640977 
L 276.741818 73.892522 
L 279.447272 71.377468 
L 282.152728 69.09017 
L 284.858182 67.023937 
L 287.563635 65.170338 
L 290.269092 63.518335 
L 292.974545 62.053064 
L 297.032727 60.161315 
L 301.090909 58.561191 
L 305.149091 57.170897 
L 309.207273 55.96851 
L 311.912726 55.318036 
L 314.618183 54.86022 
L 317.323636 54.659971 
L 320.02909 54.745015 
L 322.734547 55.087464 
L 326.792728 55.941678 
L 330.85091 57.041078 
L 334.909092 58.329157 
L 338.967274 59.857755 
L 341.672727 61.054255 
L 344.378181 62.421777 
L 347.083637 63.980219 
L 349.789091 65.744715 
L 352.494544 67.726667 
L 355.200001 69.93484 
L 357.905455 72.376228 
L 360.610908 75.056807 
L 363.316365 77.981755 
L 366.021818 81.155552 
L 368.727272 84.582 
L 371.432728 88.264127 
L 375.49091 94.271163 
L 379.549092 100.86119 
L 383.607274 108.031605 
L 387.665456 115.77341 
L 391.723637 124.070091 
L 395.781819 132.90025 
L 398.487273 139.075303 
L 398.487273 139.075303 
" style="fill:none;stroke:#000000;stroke-linecap:square;"/>
   </g>
   <g id="line2d_22">
    <path clip-path="url(#p320c16ec59)" d="M 77.791889 148.524894 
L 85.710214 168.395525 
L 93.628863 189.414147 
L 101.547187 210.739657 
L 109.465512 231.463163 
L 117.383836 250.713521 
L 125.302485 267.339901 
L 133.220809 280.027066 
L 141.139134 288.080456 
L 149.057458 291.909663 
L 156.976107 292.46945 
L 164.894431 290.162103 
L 172.812756 284.36207 
L 180.73108 274.143411 
L 188.649729 259.447668 
L 196.568054 241.340835 
L 204.486378 221.19985 
L 212.404702 200.070407 
L 220.323351 178.819589 
L 228.241676 158.310825 
L 236.16 139.163168 
L 244.078324 121.711518 
L 251.996649 106.270475 
L 259.915298 93.064928 
L 267.833622 82.010038 
L 275.751946 72.993764 
L 283.670271 66.126929 
L 291.58892 61.252028 
L 299.507244 57.667601 
L 307.425569 54.95594 
L 315.343893 53.616347 
L 323.262542 54.188719 
L 331.180866 56.283355 
L 339.099191 59.279173 
L 347.017515 63.391317 
L 354.936164 69.311507 
L 362.854488 77.289393 
L 370.772813 87.249876 
L 378.691137 99.343966 
L 386.609786 113.739315 
L 394.528111 130.237419 
" style="fill:none;stroke:#000000;stroke-linecap:square;"/>
   </g>
   <g id="line2d_23">
    <path clip-path="url(#p320c16ec59)" d="M 73.832727 144.56056 
L 75.100909 146.806431 
L 76.369091 150.322898 
L 77.637273 152.541718 
L 78.905455 156.046489 
L 80.173636 158.376114 
L 81.441818 161.898574 
L 82.71 164.365836 
L 83.978182 168.110737 
L 85.246364 170.54211 
L 86.514545 174.48616 
L 87.782727 176.956091 
L 89.050909 180.889189 
L 90.319091 183.537102 
L 91.587273 187.380566 
L 92.855455 190.109203 
L 94.123636 194.0654 
L 95.391818 196.576108 
L 96.66 200.94917 
L 97.928182 202.997201 
L 99.196364 207.927144 
L 100.464545 209.485739 
L 101.732727 214.85295 
L 103.000909 216.091391 
L 104.269091 221.608524 
L 105.537273 222.776822 
L 106.805455 228.137253 
L 108.073636 229.456437 
L 109.341818 234.437265 
L 110.61 236.037965 
L 111.878182 240.532921 
L 113.146364 242.442896 
L 114.414545 246.444505 
L 115.682727 248.609279 
L 116.950909 252.168199 
L 118.219091 254.487594 
L 119.487273 257.671572 
L 120.755455 260.035239 
L 122.023636 262.902496 
L 123.291818 265.212921 
L 124.56 267.79432 
L 128.364545 274.287943 
L 129.632727 276.310367 
L 132.169091 279.826689 
L 134.705455 282.80088 
L 137.241818 285.227585 
L 139.778182 287.157256 
L 142.314545 288.779209 
L 143.582727 289.555108 
L 146.119091 290.699503 
L 148.655455 291.304905 
L 152.46 291.717283 
L 154.996364 291.792842 
L 157.532727 291.686905 
L 160.069091 291.406314 
L 162.605455 290.929111 
L 163.873636 290.571383 
L 165.141818 290.059192 
L 167.678182 288.666226 
L 170.214545 287.06933 
L 172.750909 285.168211 
L 175.287273 282.784321 
L 177.823636 279.863836 
L 180.36 276.404363 
L 182.896364 272.422062 
L 185.432727 267.947473 
L 187.969091 263.023831 
L 190.505455 257.701778 
L 194.31 249.091282 
L 198.114545 239.883804 
L 203.187273 226.97236 
L 213.332727 200.253107 
L 220.941818 180.466328 
L 226.014545 167.766412 
L 231.087273 155.654832 
L 234.891818 147.046961 
L 238.696364 138.904455 
L 242.500909 131.247373 
L 246.305455 124.079115 
L 250.11 117.399948 
L 253.914545 111.217254 
L 257.719091 105.547758 
L 261.523636 100.408299 
L 265.328182 95.80172 
L 269.132727 91.707178 
L 272.937273 88.088173 
L 276.741818 84.907681 
L 280.546364 82.143713 
L 283.082727 80.528243 
L 285.619091 79.091878 
L 289.423636 77.2573 
L 293.228182 75.755784 
L 297.032727 74.497975 
L 303.373636 72.676447 
L 308.446364 71.442789 
L 312.250909 70.829801 
L 314.787273 70.61003 
L 317.323636 70.545974 
L 319.86 70.630551 
L 322.396364 70.854572 
L 324.932727 71.210214 
L 328.737273 71.971237 
L 332.541818 72.924936 
L 340.150909 75.251245 
L 341.419091 75.804829 
L 342.687273 76.186082 
L 343.955455 76.812098 
L 345.223636 77.227527 
L 346.491818 77.941194 
L 347.76 78.389194 
L 349.028182 79.217739 
L 350.296364 79.682433 
L 351.564545 80.668529 
L 352.832727 81.117786 
L 354.100909 82.318797 
L 355.369091 82.70645 
L 356.637273 84.189616 
L 357.905455 84.461037 
L 359.173636 86.294698 
L 360.441818 86.396439 
L 361.71 88.635075 
L 362.978182 88.532663 
L 364.246364 91.191952 
L 365.514545 90.89874 
L 366.782727 93.923221 
L 368.050909 93.532732 
L 369.319091 96.773676 
L 370.587273 96.471986 
L 371.855455 99.704057 
L 373.123636 99.732955 
L 374.391818 102.72708 
L 375.66 103.288609 
L 376.928182 105.92144 
L 378.196364 107.065948 
L 379.464545 109.39643 
L 380.732727 110.992426 
L 382.000909 113.212941 
L 383.269091 115.074479 
L 389.61 126.172207 
L 390.878182 128.942558 
L 392.146364 130.95278 
L 393.414545 133.868181 
L 394.682727 135.914835 
L 395.950909 139.013128 
L 397.219091 141.182169 
L 398.487273 144.56056 
L 398.487273 144.56056 
" style="fill:none;stroke:#ff0000;stroke-linecap:square;stroke-width:3;"/>
   </g>
   <g id="patch_3">
    <path d="M 57.6 307.584 
L 57.6 41.472 
" style="fill:none;stroke:#000000;stroke-linecap:square;stroke-linejoin:miter;stroke-width:0.8;"/>
   </g>
   <g id="patch_4">
    <path d="M 414.72 307.584 
L 414.72 41.472 
" style="fill:none;stroke:#000000;stroke-linecap:square;stroke-linejoin:miter;stroke-width:0.8;"/>
   </g>
   <g id="patch_5">
    <path d="M 57.6 307.584 
L 414.72 307.584 
" style="fill:none;stroke:#000000;stroke-linecap:square;stroke-linejoin:miter;stroke-width:0.8;"/>
   </g>
   <g id="patch_6">
    <path d="M 57.6 41.472 
L 414.72 41.472 
" style="fill:none;stroke:#000000;stroke-linecap:square;stroke-linejoin:miter;stroke-width:0.8;"/>
   </g>
   <g id="text_16">
    <!-- 40 km -->
    <g transform="translate(217.299375 35.472)scale(0.12 -0.12)">
     <use xlink:href="#DejaVuSans-52"/>
     <use x="63.623047" xlink:href="#DejaVuSans-48"/>
     <use x="127.246094" xlink:href="#DejaVuSans-32"/>
     <use x="159.033203" xlink:href="#DejaVuSans-107"/>
     <use x="216.943359" xlink:href="#DejaVuSans-109"/>
    </g>
   </g>
   <g id="legend_1">
    <g id="patch_7">
     <path d="M 354.099688 64.150125 
L 407.72 64.150125 
Q 409.72 64.150125 409.72 62.150125 
L 409.72 48.472 
Q 409.72 46.472 407.72 46.472 
L 354.099688 46.472 
Q 352.099688 46.472 352.099688 48.472 
L 352.099688 62.150125 
Q 352.099688 64.150125 354.099688 64.150125 
z
" style="fill:#ffffff;opacity:0.8;stroke:#cccccc;stroke-linejoin:miter;"/>
    </g>
    <g id="line2d_24">
     <path d="M 356.099688 54.570438 
L 376.099688 54.570438 
" style="fill:none;stroke:#ff0000;stroke-linecap:square;stroke-width:3;"/>
    </g>
    <g id="line2d_25"/>
    <g id="text_17">
     <!-- tsa1 -->
     <g transform="translate(384.099688 58.070438)scale(0.1 -0.1)">
      <defs>
       <path d="M 18.3125 70.21875 
L 18.3125 54.6875 
L 36.8125 54.6875 
L 36.8125 47.703125 
L 18.3125 47.703125 
L 18.3125 18.015625 
Q 18.3125 11.328125 20.140625 9.421875 
Q 21.96875 7.515625 27.59375 7.515625 
L 36.8125 7.515625 
L 36.8125 0 
L 27.59375 0 
Q 17.1875 0 13.234375 3.875 
Q 9.28125 7.765625 9.28125 18.015625 
L 9.28125 47.703125 
L 2.6875 47.703125 
L 2.6875 54.6875 
L 9.28125 54.6875 
L 9.28125 70.21875 
z
" id="DejaVuSans-116"/>
       <path d="M 44.28125 53.078125 
L 44.28125 44.578125 
Q 40.484375 46.53125 36.375 47.5 
Q 32.28125 48.484375 27.875 48.484375 
Q 21.1875 48.484375 17.84375 46.4375 
Q 14.5 44.390625 14.5 40.28125 
Q 14.5 37.15625 16.890625 35.375 
Q 19.28125 33.59375 26.515625 31.984375 
L 29.59375 31.296875 
Q 39.15625 29.25 43.1875 25.515625 
Q 47.21875 21.78125 47.21875 15.09375 
Q 47.21875 7.46875 41.1875 3.015625 
Q 35.15625 -1.421875 24.609375 -1.421875 
Q 20.21875 -1.421875 15.453125 -0.5625 
Q 10.6875 0.296875 5.421875 2 
L 5.421875 11.28125 
Q 10.40625 8.6875 15.234375 7.390625 
Q 20.0625 6.109375 24.8125 6.109375 
Q 31.15625 6.109375 34.5625 8.28125 
Q 37.984375 10.453125 37.984375 14.40625 
Q 37.984375 18.0625 35.515625 20.015625 
Q 33.0625 21.96875 24.703125 23.78125 
L 21.578125 24.515625 
Q 13.234375 26.265625 9.515625 29.90625 
Q 5.8125 33.546875 5.8125 39.890625 
Q 5.8125 47.609375 11.28125 51.796875 
Q 16.75 56 26.8125 56 
Q 31.78125 56 36.171875 55.265625 
Q 40.578125 54.546875 44.28125 53.078125 
z
" id="DejaVuSans-115"/>
      </defs>
      <use xlink:href="#DejaVuSans-116"/>
      <use x="39.208984" xlink:href="#DejaVuSans-115"/>
      <use x="91.308594" xlink:href="#DejaVuSans-97"/>
      <use x="152.587891" xlink:href="#DejaVuSans-49"/>
     </g>
    </g>
   </g>
  </g>
 </g>
 <defs>
  <clipPath id="p320c16ec59">
   <rect height="266.112" width="357.12" x="57.6" y="41.472"/>
  </clipPath>
 </defs>
</svg>
