X,Y,surf vx,surf vy,tauxy integr.,tauxy dir.,secinvare integr.,secinvar dir.,P integr.,P dir.,
0.0,1000.0,11.0270812939,5.69017633926,33783.4157686,34745.5562486,53041.757063,54668.6118749,7724551.73609,7724545.37132
50.0,1031.39525976,11.0900419139,5.64643663094,33847.6868074,33783.6582716,53225.8888697,51847.9322863,7309470.08007,7309476.7567
100.0,1062.66661678,11.2040231574,5.6260028183,33589.3279855,32928.7483067,53272.6796522,52204.5116815,7170850.43013,7170844.38444
150.0,1093.69065729,11.2712914801,5.51812283702,33637.6716884,34221.5898404,53367.6635901,53677.3140962,6633654.54237,6633655.03251
200.0,1124.34494358,11.3205325034,5.42207675364,33549.9383525,34244.2097333,53204.7200804,54262.7220896,6492575.47003,6492571.96228
250.0,1154.50849719,11.3523307375,5.27805925956,33576.7744671,34761.3709835,53162.0977405,53385.6163264,6046856.3534,6046854.64524
300.0,1184.06227634,11.3802357175,5.14954977816,33850.4971761,36005.3428382,52774.0468413,54412.2521664,6070149.31182,6070146.83069
350.0,1212.88964578,11.4032401448,4.98018857694,34042.0633281,37620.4160424,52311.2750204,55688.7605241,5647626.34754,5647624.44047
400.0,1240.87683705,11.4234042611,4.82623844681,34399.3105734,31808.6550357,51791.2184396,48736.6838333,5676455.22384,5676453.0935
450.0,1267.91339749,11.4417304132,4.6288243403,34340.0025779,33451.3374365,51163.3672683,49932.126157,5114475.0215,5114473.20712
500.0,1293.89262615,11.4574463119,4.44442885177,34509.6429436,34915.810704,50609.7664907,50769.1786367,5074016.44403,5074014.3278
550.0,1318.71199487,11.4714318303,4.21554662913,35018.1097082,37408.6822769,49873.3574488,52281.5555555,4503139.01685,4503137.29334
600.0,1342.27355296,11.4827518401,3.99865508042,35287.1249525,33070.638186,49069.2616653,46804.9303003,4514103.24966,4514101.24117
650.0,1364.48431371,11.4927370171,3.73815222689,35991.6767454,35267.1782939,48603.2176891,48205.7987179,4083655.67178,4083654.11781
700.0,1385.25662139,11.4996682685,3.48936413935,36668.4359315,39125.2072544,47873.8910534,49336.0321028,4258661.35286,4258659.58787
750.0,1404.50849719,11.5056942174,3.19927263054,37264.1431845,41002.6076203,47092.5288762,50522.511983,3829590.32468,3829589.02326
800.0,1422.16396275,11.5080931332,2.92202070866,37843.8732219,44465.2210581,46288.3701982,51704.9617351,4068839.13209,4068837.66386
850.0,1438.15334002,11.5092815573,2.60615215786,38654.1923599,46608.6424525,45616.0791129,53045.1822768,3640347.13161,3640346.19478
900.0,1452.41352623,11.5061671999,2.30777107677,39299.8085515,33705.4724591,44753.5380747,39641.6399831,3892397.48251,3892396.38006
950.0,1464.88824294,11.5029195536,1.97217389709,39723.9196046,33739.9832051,44158.6986173,39522.9644226,3372949.16773,3372948.45229
1000.0,1475.52825815,11.493514379,1.66058904154,40249.4076643,37185.244283,43610.6454552,40571.0935145,3619075.40697,3619074.51849
1050.0,1484.29158056,11.4866472915,1.31272035094,40917.0071843,37255.4478405,43330.8031819,40466.8583834,3124503.50743,3124502.98688
1100.0,1491.14362536,11.4718092075,0.995541710876,41489.4238843,40275.159206,42855.2027429,41639.6820691,3432842.42484,3432841.81068
1150.0,1496.05735066,11.4616425752,0.643308103487,41931.0553843,39706.9622269,42716.8454143,40843.6757726,2967324.26773,2967323.96616
1200.0,1499.01336421,11.4439111174,0.326658934185,42254.5970966,41927.3843223,42454.4778236,42159.1511859,3338312.70134,3338312.41705
1250.0,1500.0,11.4303788615,-0.022573696629,42392.681217,40593.657825,42467.1700907,40669.5404252,2909224.17966,2909224.11657
1300.0,1499.01336421,11.4133846025,-0.335250905161,42335.9221769,41958.5029883,42498.8130394,42008.0182794,3334670.65962,3334670.73755
1350.0,1496.05735066,11.39602185,-0.677198679739,42164.2910883,39740.3337846,42634.2090615,40091.2830202,2949072.17935,2949072.36522
1400.0,1491.14362536,11.3797766365,-0.980859164718,41725.1399086,40356.6734974,42922.640954,41238.2461068,3415224.2279,3415224.672
1450.0,1484.29158056,11.3590221177,-1.31105143364,41237.322647,37148.3456999,43138.3026943,39279.3805418,3077034.42527,3077034.86973
1500.0,1475.52825815,11.3423647732,-1.6006797875,40538.6989157,37213.4100038,43554.4306386,39995.6156152,3569302.5375,3569303.31333
1550.0,1464.88824294,11.3186569313,-1.91476292733,39843.5082273,33164.7388312,43813.3864372,38318.8956395,3277668.17716,3277668.84713
1600.0,1452.41352623,11.3002968663,-2.18546595855,39225.2486934,32928.221889,44314.693745,38519.5750143,3785402.38999,3785403.47485
1650.0,1438.15334002,11.2741953468,-2.4782614902,38973.4213489,48051.9813008,45156.7833168,52992.5108026,3510141.4088,3510142.35913
1700.0,1422.16396275,11.2529491117,-2.72567176051,38749.0923794,46566.6703997,46341.564226,52391.8819407,3987565.97952,3987567.485
1750.0,1404.50849719,11.2244289591,-2.99203040026,38450.2288805,43105.7893839,47194.1523466,50827.020765,3759459.10898,3759460.41705
1800.0,1385.25662139,11.2000271411,-3.21262476417,38420.7006455,41505.7037566,48124.094438,49753.7371984,4251486.88942,4251488.74594
1850.0,1364.48431371,11.1692028844,-3.44846192452,38396.532684,38263.4449314,48977.9044017,48661.8321582,4097205.62936,4097207.21925
1900.0,1342.27355296,11.1415548607,-3.63946726879,38334.809089,36652.1812677,49764.5291083,47616.2165158,4598228.27543,4598230.37527
1950.0,1318.71199487,11.1088430368,-3.84189975724,37687.8811098,38916.3358095,50265.3791222,52536.723944,4521216.43568,4521218.26914
2000.0,1293.89262615,11.0778272439,-4.00126169438,37125.376099,36818.036856,50819.3664013,51044.7026717,5041083.06955,5041085.44664
2050.0,1267.91339749,11.0434122514,-4.16819635788,36518.3314638,34569.8009093,51245.9122583,50302.6511134,4989554.32771,4989556.41967
2100.0,1240.87683705,11.0085086742,-4.29355424369,36161.9250379,32556.5889303,51512.5353566,48769.1791243,5504249.7344,5504252.20711
2150.0,1212.88964578,10.971905519,-4.42379230561,36133.6954968,39150.8844262,52009.8578344,55214.2269221,5480863.17356,5480865.43166
2200.0,1184.06227634,10.932732152,-4.51279109706,35916.5134038,37090.2944915,52443.4136693,53718.6405377,5995428.46421,5995431.15219
2250.0,1154.50849719,10.8933748568,-4.60580354155,35951.0593661,36109.7625214,52722.1657103,52867.5845481,6024665.82224,6024668.20209
2300.0,1124.34494358,10.8502106064,-4.65709941494,35855.9763116,35389.119747,52909.6939115,54180.2267584,6529054.03215,6529056.7174
2350.0,1093.69065729,10.8083418725,-4.71214538709,35490.1161571,35167.4630967,52808.7051318,53282.7860212,6570626.23663,6570628.75011
2400.0,1062.66661678,10.76156871,-4.72508300721,35373.3603518,33904.4960161,52724.4390099,52004.8731566,7048837.80376,7048840.58954
2450.0,1031.39525976,10.7175600581,-4.74186358076,35429.2487514,34174.7939623,52568.0562823,51400.8171561,7104729.75818,7104732.28418
2500.0,1000.0,10.6680006827,-4.71649974842,35338.7239387,35305.8745919,52371.5832169,53303.1733875,7597115.67756,7597118.45817
2550.0,968.604740235,10.6223638466,-4.69521596808,35388.2681525,35648.3540751,52092.3311366,52609.4610219,7699532.94619,7699535.50423
2600.0,937.333383218,10.5711975551,-4.63220246495,35509.4117751,34765.9949257,51747.7398454,51389.0248733,8172056.15409,8172058.83961
2650.0,906.309342707,10.5248265481,-4.57364369019,35598.1587164,35206.0654087,51289.5355527,51685.6998997,8268430.59962,8268433.10271
2700.0,875.655056418,10.4731757515,-4.47412480845,35689.7443977,34719.7129523,50776.0186217,50570.0378044,8698260.26194,8698262.90052
2750.0,845.491502813,10.4272929093,-4.37956065825,36014.0383626,35896.5644536,50260.4703707,50172.2162303,8790229.42775,8790231.8425
2800.0,815.937723658,10.3764929471,-4.24521237592,36228.6965123,35257.4288905,49695.7325919,49823.7084718,9219044.45811,9219046.94172
2850.0,787.110354217,10.3323738701,-4.11644619309,36507.4253612,36420.1118701,49090.8616605,49382.8694442,9333179.92436,9333182.22764
2900.0,759.123162949,10.2837260481,-3.94941378225,36777.5820979,36149.8787809,48469.6391179,48372.3764333,9740507.09877,9740509.4138
2950.0,732.086602511,10.2426511423,-3.78874340275,37212.0595282,36696.5903057,47867.6879438,48012.0441157,9847190.81089,9847192.9063
3000.0,706.107373854,10.1973831618,-3.59163852941,37492.6739161,36671.1303421,47222.2336334,47142.3626615,10209335.4397,10209337.5669
3050.0,681.288005126,10.1604452268,-3.40183250436,37949.8793142,37991.6629846,46622.1416537,46894.9387191,10289801.357,10289803.2964
3100.0,657.726447036,10.1196727253,-3.17768603524,38335.3253586,38139.4936187,46029.4983273,46177.0393722,10633286.0275,10633287.9168
3150.0,635.515686289,10.0876974795,-2.96196664272,38846.7533452,38092.7028523,45485.1315878,45185.7267296,10698465.3954,10698467.0932
3200.0,614.743378612,10.0523041349,-2.71411546398,39130.9318867,38261.717074,44885.4478786,44487.0355312,11021653.7927,11021655.4432
3250.0,595.491502813,10.025790788,-2.47608691443,39535.9685216,39203.2777679,44325.2601586,44258.117845,11072386.0441,11072387.5137
3300.0,577.836037249,9.99641747108,-2.20804539451,39913.332921,39483.0684271,43855.5511221,43676.4589944,11356175.7854,11356177.1687
3350.0,561.846659978,9.9755693348,-1.95163383304,40280.4365544,40303.9520462,43427.8697928,43613.4335318,11383617.1646,11383618.3605
3400.0,547.586473767,9.95252001298,-1.66692267866,40548.699189,40516.114806,42990.1786792,43101.3098626,11627837.4946,11627838.584
3450.0,535.111757056,9.93728299154,-1.39624166633,40843.5895429,40554.6061605,42616.2389051,42580.2276129,11628117.1356,11628118.0579
3500.0,524.471741852,9.9206558518,-1.09826487149,41107.3042917,40827.7060245,42330.5462416,42183.1623065,11836854.7223,11836855.5324
3550.0,515.708419436,9.91075316809,-0.81745805849,41314.651147,41345.1172071,42088.9452409,42277.7543841,11807897.7791,11807898.4225
3600.0,508.856374636,9.9005450195,-0.50950231579,41458.0722744,41435.5251781,41880.037707,41918.662673,11981416.1843,11981416.6984
3650.0,503.942649343,9.89550132643,-0.222414247207,41560.0153638,41785.661906,41742.1850906,42046.4934683,11921491.0319,11921491.3854
3700.0,500.986635786,9.89181249528,0.0921279670602,41620.7040852,41728.4234717,41662.8555872,41783.9927546,12057350.9563,12057351.1705
3750.0,500.0,9.891183826,0.38226992385,41601.2059647,41946.3026091,41637.1552226,41977.6373826,11965686.6337,11965686.696
3800.0,500.986635786,9.89417324328,0.699571933658,41557.8786176,41689.7141851,41675.5872258,41786.1479865,12061904.7554,12061904.6719
3850.0,503.942649343,9.89787287776,0.990182923689,41408.4807397,41801.1651178,41754.7484413,42052.4624558,11938029.8318,11938029.6062
3900.0,508.856374636,9.90770561009,1.30610343068,41260.2453396,41302.4807094,41912.904086,41906.4751838,11993358.0546,11993357.679
3950.0,515.708419436,9.91635361751,1.59454979418,41006.0150854,41352.535018,42120.9143635,42280.3639178,11836867.66,11836867.154
4000.0,524.471741852,9.93314130119,1.90498731915,40817.6847841,40613.6060303,42451.1838853,42205.88985,11850848.6966,11850848.0389
4050.0,535.111757056,9.94752221202,2.18792322398,40527.0942962,40764.1783283,42772.8822096,42775.2010418,11661518.07,11661517.297
4100.0,547.586473767,9.97151112703,2.48910631596,40152.6481446,40377.4066935,43083.8036554,43184.021089,11635712.359,11635711.4387
4150.0,561.846659978,9.99247778129,2.76249291189,39687.9035579,40279.0567172,43490.4606522,43735.068056,11426730.3121,11426729.2859
4200.0,577.836037249,10.0237656768,3.05064403732,39361.9393407,39276.1490461,44007.463471,43844.4103971,11385630.075,11385628.8898
4250.0,595.491502813,10.0519088195,3.31012411901,38923.2567437,39374.9644479,44508.8122578,44598.8488138,11147489.2715,11147488.0036
4300.0,614.743378612,10.09066103,3.58130943299,38523.1923682,38126.0087541,45051.7767906,44658.867281,11088335.4355,11088334.0216
4350.0,635.515686289,10.1260650681,3.8224388212,38071.2486758,38168.5233561,45670.3257814,45542.2481939,10822286.3251,10822284.8563
4400.0,657.726447036,10.1714999976,4.07258357746,37669.8422269,37933.7812076,46257.9319028,46185.2065229,10722864.4101,10722862.8026
4450.0,681.288005126,10.2137044183,4.29158059161,37047.0189479,38033.5514098,46810.3664858,47039.954303,10393820.2321,10393818.5504
4500.0,706.107373854,10.2656982656,4.51704930785,36676.145747,36287.754192,47507.4984413,47143.074859,10254121.278,10254119.4508
4550.0,732.086602511,10.3155685159,4.71018028201,36266.2425757,36854.7019352,48145.5488778,48254.9326989,9892637.77634,9892635.94975
4600.0,759.123162949,10.3736162142,4.9066129075,35909.9741809,35904.2886906,48823.8676214,48698.7687644,9776039.5133,9776037.50086
4650.0,787.110354217,10.4305554838,5.07021696107,35584.600188,36776.1648104,49465.5676649,50052.0132587,9443242.40686,9443240.47461
4700.0,815.937723658,10.4975646041,5.23431898135,35402.4320943,35190.3373056,50155.9207656,50308.80548,9346514.65905,9346512.38578
4750.0,845.491502813,10.5668828185,5.36332610139,35152.6531835,36262.5176899,50742.6366457,50605.5681477,8959070.7291,8959069.15097
4800.0,875.655056418,10.6488358556,5.48735762418,34815.3529934,34379.6886766,51331.5547049,50695.1616899,8790554.47643,8790550.97283
4850.0,906.309342707,10.7231364154,5.56937389442,34616.122054,35444.9102805,51862.8248224,52178.8145296,8330569.41755,8330569.82732
4900.0,937.333383218,10.8304480212,5.64291206066,34319.6617307,34605.9690279,52398.7423162,51986.5481249,8173531.96095,8173528.04643
4950.0,968.604740235,10.9096408484,5.66225502086,33985.5062359,35751.5481578,52807.4879313,53706.6669932,7781262.38996,7781270.60134
5000.0,1000.0,11.0270812939,5.69017633926,33783.4157686,34842.3438126,53041.757063,54136.0766478,7724551.73609,7724545.37132
