X,Y,surf vx,surf vy,basal vx,tau integr.,tau dir.,P integr.,P dir.,
0.0,20.0,15.1490368012,0.503629679216,14.3198086811,14031.7980474,14039.6701659,8830477.37062,94.9416913368
40.0,20.0,15.1706047719,0.496835137915,14.2774336551,14355.1970228,14349.5828093,8739714.04828,-69.9228820653
80.0,20.0,15.1169578062,0.48908545253,14.279026086,14694.3404205,14702.8477255,8825866.84557,79.5176477396
120.0,20.0,15.1376987982,0.480438359677,14.2344433913,15010.0225127,15006.9030472,8737349.02782,-73.0360722268
160.0,20.0,15.0806246645,0.474116306016,14.2144997601,15331.6490007,15334.7343844,8820219.26203,71.2569359852
200.0,20.0,15.103698974,0.46534152198,14.1744115073,17539.6605302,15638.4236189,8738086.72965,-62.6191947822
240.0,20.0,15.0429319774,0.460945660157,14.1302242969,17843.3603993,15934.59602,8823119.88823,73.1338718765
280.0,20.0,15.0715680302,0.451522996806,14.12645502,16269.0137925,16273.7661062,8740632.59573,-72.6743031736
320.0,20.0,15.0057339497,0.448317317895,14.0988257702,16586.2973528,16583.2029732,8823650.14238,77.0377487811
360.0,20.0,15.0432365793,0.437437562064,14.0835360997,16898.2312455,16904.1928721,8741722.0084,-59.72958901
400.0,20.0,14.9713976348,0.432107931285,14.0395325889,17191.5693396,17187.6558351,8820790.51957,80.7104486723
440.0,20.0,15.016240082,0.420909475169,14.0210090343,17495.9919795,17498.3818556,8743400.45136,-69.1711548367
480.0,20.0,14.9374479395,0.415067553471,13.997851344,17799.2780394,17800.0757485,8820092.74598,70.153168436
520.0,20.0,14.9872585994,0.407029425206,13.9729072911,18096.5489103,18095.776599,8744956.09491,-69.1502884563
560.0,20.0,14.9030898015,0.403090839126,13.9548265884,18395.3075148,18396.5861322,8816895.16007,68.3516969016
600.0,20.0,14.9572402994,0.39900042594,13.929442141,18686.2710715,18683.7334281,8749680.09581,-59.9637689059
640.0,20.0,14.8749054106,0.393329087703,13.9136136121,18976.8551733,18979.7820524,8818605.91423,79.7851512387
680.0,20.0,14.9293622478,0.389492570859,13.8872887143,19262.1067271,19256.8945209,8749700.30311,-59.949917188
720.0,20.0,14.8516939157,0.379346734968,13.8878577535,19558.3631433,19567.3995237,8813709.06148,74.3516287316
760.0,20.0,14.8987570062,0.376095973036,13.8494450991,19826.1303406,19818.1482029,8752071.18928,-52.1584889408
800.0,20.0,14.8307188046,0.362580569395,13.8456476796,20104.413083,20113.870146,8809410.98833,77.9620255322
840.0,20.0,14.8634443043,0.360753043311,13.8009081514,20353.6779218,20344.5524671,8755341.6074,-39.396598997
880.0,20.0,14.8102441614,0.346441119513,13.7972570135,20621.777452,20630.8735846,8809495.62038,73.1696992958
920.0,20.0,14.829068252,0.344440844586,13.7625219915,20873.3325247,20865.0991253,8756144.09932,-48.4814805692
960.0,20.0,14.7920906616,0.330607651991,13.7706679075,21148.3799167,21159.2690081,8808579.28329,48.6655907691
1000.0,20.0,14.8016813833,0.325411658845,13.7379644812,21643.2368861,21385.3397772,8749813.97064,-47.8426417831
1040.0,20.0,14.7740219579,0.312824342189,13.7233540485,23624.7578356,21633.6579933,8807435.0314,53.3890115643
1080.0,20.0,14.779582624,0.303878653624,13.692547687,21855.7282084,21850.3031328,8755822.29619,-38.0572769703
1120.0,20.0,14.7544899788,0.291398024905,13.6830443091,22088.1541899,22094.9932891,8805933.79793,57.6546168435
1160.0,20.0,14.7573415489,0.281192425054,13.6528715525,22304.9641115,22299.9447776,8759214.38945,-46.2029706225
1200.0,20.0,14.7333205493,0.268863692582,13.6498479637,22535.7125168,22543.0120381,8800407.9688,36.5348445506
1240.0,20.0,14.7337524738,0.259011686449,13.6251287341,22747.8432217,22744.0834632,8760005.6428,-55.8933293538
1280.0,20.0,14.7111627145,0.250046548147,13.6168629765,22961.5937524,22965.945841,8796955.61581,34.3775530187
1320.0,20.0,14.7140281804,0.239700776137,13.5904468254,23151.7645693,23150.638366,8764162.90485,-40.2850841365
1360.0,20.0,14.6900035381,0.234075479932,13.5705882761,23344.1024247,23339.4818419,8796953.63191,33.2299562544
1400.0,20.0,14.6990476156,0.22268363356,13.5684878899,23545.4932757,23552.2096879,8766985.05119,-39.1526193288
1440.0,20.0,14.6710869428,0.217664793983,13.5423245052,23722.9567387,23716.2550459,8798543.93163,43.8078313565
1480.0,20.0,14.6858137332,0.206582820689,13.5372139981,23900.3253309,23910.0237987,8764888.72679,-24.9089081152
1520.0,20.0,14.6531420703,0.201544345741,13.499260656,25800.9151852,24038.5770978,8795750.75098,51.297037075
1560.0,20.0,14.6712824872,0.192127744591,13.5021417405,25973.5974897,24232.3418015,8771489.30753,-23.5461404504
1600.0,20.0,14.6361066289,0.18723259308,13.4813172567,24387.5916924,24376.4772442,8795830.95591,29.6960283794
1640.0,20.0,14.6566200028,0.179943827409,13.4987538417,24564.9487737,24582.6606134,8769649.33632,-21.2515565332
1680.0,20.0,14.621994377,0.174407560415,13.4581065179,24693.7141876,24675.6735864,8792996.19563,36.4368060505
1720.0,20.0,14.6441928236,0.167763752865,13.4727396422,24841.0387918,24862.3721896,8771173.35395,0.466137820196
1760.0,20.0,14.6113533499,0.160169332152,13.4162981001,24935.0438811,24910.2414377,8796745.61715,50.6787214184
1800.0,20.0,14.6340399129,0.152272256374,13.4464866536,25090.7758795,25111.0205062,8774097.86582,-15.1944082288
1840.0,20.0,14.6014317168,0.142210411132,13.4169394773,25207.7626367,25192.8776367,8797534.20824,38.5894216236
1880.0,20.0,14.6228122458,0.13387542457,13.4348909359,25336.6072074,25356.082524,8772186.76639,-6.7954105363
1920.0,20.0,14.5904252455,0.12337135581,13.3901478938,27325.3904626,25393.1855671,8794769.05366,49.5606030389
1960.0,20.0,14.610663118,0.116066935134,13.4016619463,27489.2121258,25528.7397695,8777051.32473,-17.5012062378
2000.0,20.0,14.581076253,0.105379535469,13.3905734562,27347.2528442,25613.542277,8793957.07368,34.5454044913
2040.0,20.0,14.5998032544,0.0996855217115,13.4012061582,27635.5629805,25731.9161358,8777997.84207,-2.23763318484
2080.0,20.0,14.5762602375,0.087923024564,13.3886209421,26047.9682725,25797.8304767,8793032.56685,30.7217688965
2120.0,20.0,14.5907512372,0.0830960660414,13.3981536467,25886.3192601,25898.262239,8777965.26749,8.11179815051
2160.0,20.0,14.575303318,0.0701867714206,13.3709809043,25929.0876139,25919.6760506,8791347.4527,37.469278965
2200.0,20.0,14.5830087044,0.063991700331,13.3793879226,25994.6774125,26001.7576735,8779560.9573,-8.33541826987
2240.0,20.0,14.5736958819,0.0517194253104,13.3741151309,26055.7827286,26049.1902571,8790561.85891,13.8539826786
2280.0,20.0,14.5762760416,0.0444340491581,13.3903134029,26122.5981568,26130.2972203,8786521.64118,-4.68895946335
2320.0,20.0,14.571017706,0.0341689414415,13.3816285936,26158.8992776,26154.7000761,8788766.18436,26.775940676
2360.0,20.0,14.5713680252,0.0271892100171,13.3837393023,27903.4274151,26191.8993883,8786599.07296,11.9258913417
2400.0,20.0,14.5702721056,0.0194492267528,13.3748443847,28162.0291235,26199.3254747,8788909.88531,19.898258931
2440.0,20.0,14.572463916,0.0100502200263,13.3822389623,28127.6490431,26230.3672294,8791085.21893,11.4480073567
2480.0,20.0,14.5706291284,0.00397130444153,13.3760680383,26229.2888725,26226.5528396,8788642.75778,10.062528265
2520.0,20.0,14.5784892308,-0.00916061816373,13.3814809634,26229.5778966,26237.1640835,8788364.83766,7.14335373718
2560.0,20.0,14.5693722885,-0.0151644906407,13.3692942762,26211.4932423,26204.990029,8786052.55143,-3.67812301961
2600.0,20.0,14.5838250711,-0.0286356947329,13.383639101,26210.9550785,26216.5421421,8793697.63367,-10.5586745526
2640.0,20.0,14.567408083,-0.0354459561389,13.3865392087,26199.3552753,26197.3851586,8785523.51105,-17.5830153025
2680.0,20.0,14.5864549789,-0.0459731347455,13.3972730469,26178.4926853,26185.2533286,8791893.20055,-9.23017643228
2720.0,20.0,14.5671274146,-0.0525845346124,13.3913484629,28041.7552132,26132.340802,8784585.63476,-25.3407434094
2760.0,20.0,14.5896619926,-0.0610118151409,13.4032797512,26339.6846896,26106.0078325,8794077.49009,-22.9065448721
2800.0,20.0,14.5697417626,-0.067727440952,13.3974272736,26040.6123772,26036.9015108,8782420.14897,-48.0011201678
2840.0,20.0,14.5955379558,-0.0765697834809,13.4107017952,25989.7874396,25996.6957951,8791077.37778,-44.1665454429
2880.0,20.0,14.5746348363,-0.0853872579252,13.4108317973,25926.6223527,25922.9645782,8784007.20743,-71.7092509605
2920.0,20.0,14.600541053,-0.0949172604603,13.4226163246,27769.1306762,25863.3485766,8786886.80791,-36.2690546559
2960.0,20.0,14.5805945988,-0.10521884609,13.4190187973,26255.9865782,25766.3047376,8783633.02499,-69.302862088
3000.0,20.0,14.6033554478,-0.11386766089,13.4277781421,27598.2846075,25684.694557,8794173.96763,-29.4337470884
3040.0,20.0,14.58707104,-0.123835426954,13.4403499276,25603.2718134,25602.7079653,8781023.71198,-85.2320732186
3080.0,20.0,14.6065459008,-0.131426155979,13.4563147176,25514.2644744,25518.5938461,8796217.45423,-25.8483125707
3120.0,20.0,14.595202602,-0.141009248399,13.4616351577,25411.3859114,25406.8678358,8777465.18011,-89.0252391854
3160.0,20.0,14.6140421204,-0.15068742031,13.4852405644,25316.7563062,25321.1040654,8800156.05289,-30.7924914306
3200.0,20.0,14.6034762596,-0.1603455723,13.4935720939,25201.9697906,25199.1711199,8778654.05402,-75.9323821465
3240.0,20.0,14.6233526272,-0.172095405392,13.5067635115,25071.8266757,25078.1075812,8801231.29267,-6.04966544239
3280.0,20.0,14.609643527,-0.181387759519,13.4976331238,24915.8489367,24908.4584869,8777130.69392,-60.7743750592
3320.0,20.0,14.6310912588,-0.192685698409,13.516564061,24780.2102495,24782.8086099,8800334.01871,-12.32915477
3360.0,20.0,14.6140015962,-0.199555249121,13.5279678738,24636.5648505,24635.9736466,8778302.32407,-56.504534483
3400.0,20.0,14.6403323099,-0.209332176229,13.5373510632,24477.3255952,24477.7639969,8804736.29994,10.5904362876
3440.0,20.0,14.6201640935,-0.21481815235,13.5486662815,24316.9759975,24315.9698308,8776520.18373,-61.040019432
3480.0,20.0,14.6525684188,-0.223483951343,13.5691488987,24162.6057844,24162.9194658,8805644.21324,-1.62582105503
3520.0,20.0,14.6298522344,-0.230398849339,13.5881784281,24244.8526346,24000.1256235,8773277.55376,-51.9039286303
3560.0,20.0,14.664802188,-0.237916268176,13.5900887617,27519.7388101,23799.8523121,8808578.98271,26.8997665587
3600.0,20.0,14.6407965466,-0.244890364776,13.6087016076,25380.6727355,23622.017054,8773071.5244,-40.5444684195
3640.0,20.0,14.6766745496,-0.24997323698,13.6145328275,23418.2484564,23415.0841115,8810136.22375,40.8754422047
3680.0,20.0,14.6540410612,-0.254572914119,13.6298886209,23211.8627914,23217.7887015,8772531.7132,-27.9047137656
3720.0,20.0,14.6931415379,-0.257224067129,13.6255934001,22989.697825,22980.6993677,8811969.60733,42.9977212679
3760.0,20.0,14.675054149,-0.263333649501,13.6602880867,22795.575274,22802.7214485,8768913.63874,-44.0453922528
3800.0,20.0,14.7136016083,-0.266173869153,13.6659749789,22573.2235663,22569.7514142,8816234.84958,60.9414632392
3840.0,20.0,14.7009265251,-0.27578229473,13.6810466197,22344.434202,22345.8986889,8771430.47221,-25.9065595221
3880.0,20.0,14.7352958489,-0.281844543658,13.6916309921,22111.7839623,22108.8907302,8817300.38168,63.5112231223
3920.0,20.0,14.7255978355,-0.291721638364,13.7151580613,21883.834685,21886.3479726,8769805.04273,-25.6394545599
3960.0,20.0,14.7567579849,-0.298955054406,13.7228483312,23431.2571142,21633.0933335,8820254.63601,88.7756581125
4000.0,20.0,14.7483958271,-0.306067619057,13.7273071568,25422.1931971,21368.6511817,8771935.17064,-13.2245073346
4040.0,20.0,14.78112906,-0.313525388066,13.7395781387,23367.7795657,21111.7030953,8820358.91334,81.7595584037
4080.0,20.0,14.7735371354,-0.319484510353,13.7562459519,20854.3709569,20855.5149677,8770176.02784,-30.0944483931
4120.0,20.0,14.8099605894,-0.328913056462,13.7749311373,20856.1914391,20597.4447505,8819298.18475,66.3710213649
4160.0,20.0,14.8009278104,-0.337287588505,13.8119032352,22372.0357557,20360.7887691,8770737.42737,-46.081793861
4200.0,20.0,14.8383438368,-0.348548436406,13.8262907152,20087.8328732,20085.7270567,8820311.42116,74.8526627731
4240.0,20.0,14.826836076,-0.358294536477,13.8495319889,19812.6988088,19818.2135368,8765624.88138,-39.3854164804
4280.0,20.0,14.8652745431,-0.369981168185,13.8512341491,19520.0997175,19515.7985652,8823855.00633,74.1738124579
4320.0,20.0,14.8523167204,-0.378440629493,13.8791111497,19240.1226794,19245.5243066,8759607.43841,-54.7546965423
4360.0,20.0,14.8954401251,-0.391039285961,13.8927993594,18955.9536187,18951.2058029,8826202.58079,53.6175593327
4400.0,20.0,14.8791249045,-0.398020094203,13.9306501128,20526.9219164,18685.3371982,8758588.47823,-57.3412350371
4440.0,20.0,14.9308788196,-0.411478509248,13.9222438903,20216.8529454,18353.5353202,8828303.30605,53.5393703978
4480.0,20.0,14.908567419,-0.419462756371,13.9733944108,18082.6472022,18096.465108,8755267.71742,-76.3250749828
4520.0,20.0,14.9662420284,-0.432040874472,13.9623118146,17764.788435,17754.7753492,8826093.81643,54.6941540494
4560.0,20.0,14.9386811895,-0.439307684479,14.0035949564,19341.6755168,17476.7750388,8752121.1693,-83.5316297017
4600.0,20.0,14.9985407865,-0.449760463786,14.006828277,19029.5650873,17147.4004426,8835237.98251,52.4481920706
4640.0,20.0,14.9660112526,-0.452916685104,14.0544452414,16861.1484885,16869.4680357,8749994.23608,-82.4484812815
4680.0,20.0,15.0302377146,-0.458664697171,14.0563497225,16537.3108698,16533.1656935,8833373.90552,68.0809244525
4720.0,20.0,14.9967507481,-0.460056880958,14.0814333087,16220.4086703,16221.9850008,8751444.21451,-81.3247258671
4760.0,20.0,15.0644468052,-0.463929409379,14.1003958642,15900.1518588,15900.917111,8833087.18217,68.3080874637
4800.0,20.0,15.0313655721,-0.468011279261,14.1185150645,15578.0289517,15576.9432125,8752404.1388,-82.701242373
4840.0,20.0,15.10029975,-0.473451184267,14.1468665051,15259.6275792,15261.7074852,8831918.48614,63.7180686797
4880.0,20.0,15.0642516423,-0.479817332435,14.1661876005,16853.4875038,14935.045546,8749417.42674,-82.5313144419
4920.0,20.0,15.1339102951,-0.484926844899,14.1881656942,18923.3698941,14609.1675662,8834231.32425,66.6882709295
4960.0,20.0,15.0941624235,-0.492290526578,14.2117128853,16686.6161589,14283.7354259,8746319.05817,-88.201799691
5000.0,20.0,15.163725507,-0.494191823647,14.2468643766,13965.5293309,13967.8710879,8838463.37781,70.6142484854
5040.0,20.0,15.1263493239,-0.502332214334,14.2686847246,13640.121382,13637.8846602,8747095.52481,-84.2620469472
5080.0,20.0,15.1933863078,-0.502661422814,14.3072604665,13318.9930337,13322.3286866,8839416.32869,69.8296485566
5120.0,20.0,15.1645275487,-0.512688653278,14.3285293209,12991.1807505,12989.9932161,8743055.18833,-86.394456683
5160.0,20.0,15.2255315477,-0.515364968574,14.3598873212,12938.1722636,12665.7831047,8839564.94766,69.9777915477
5200.0,20.0,15.2044370517,-0.527445863666,14.3731398974,14496.9619006,12325.8227063,8744877.65764,-87.3457843685
5240.0,20.0,15.2558265383,-0.533045214468,14.4058128744,12001.8133766,12001.9647273,8842489.42291,60.6746899802
5280.0,20.0,15.2387319979,-0.54339079789,14.445305097,11682.5692907,11684.1561658,8741238.56477,-95.4684846489
5320.0,20.0,15.2834144501,-0.549553144309,14.4731596118,11355.7326071,11355.9956752,8845460.91913,65.9271445799
5360.0,20.0,15.2678458076,-0.555573730082,14.49657921,11024.7081897,11025.6068642,8739481.10435,-86.9004033642
5400.0,20.0,15.3120052702,-0.559284822231,14.5165042137,10694.7019147,10692.9280953,8845656.56605,63.9601385513
5440.0,20.0,15.2989858305,-0.562085954126,14.5589906981,10375.3652852,10378.3897753,8739276.43118,-94.1684323667
5480.0,20.0,15.3455080552,-0.565392741963,14.5828229937,10053.4248935,10050.4660982,8843948.37654,59.32867042
5520.0,20.0,15.3329391202,-0.566342559214,14.6322280829,9737.14083265,9742.10433781,8738294.91221,-89.4857096896
5560.0,20.0,15.3836402208,-0.572000187578,14.6347286511,9409.91594523,9403.37898572,8843905.75827,66.0741537681
5600.0,20.0,15.3649026256,-0.570383033797,14.6928446949,9093.74796443,9102.67932962,8738199.53962,-78.1905438531
5640.0,20.0,15.42299149,-0.577705576014,14.6604317922,8758.72290246,8748.36403322,8848037.43682,72.1207907765
5680.0,20.0,15.3925016733,-0.573359664737,14.7450610073,8456.94075125,8466.68601505,8733255.09008,-88.8897479181
5720.0,20.0,15.4604928283,-0.578493835321,14.7322429818,8139.33678192,8130.56519231,8850174.29491,70.8184380021
5760.0,20.0,15.4188917725,-0.5718713033,14.812900246,7840.70094202,7849.07756463,8731393.77316,-81.7960491554
5800.0,20.0,15.4979853119,-0.574812830594,14.7972919191,7526.42076387,7519.01477421,8852462.66552,74.4968992563
5840.0,20.0,15.4478052303,-0.568436498131,14.8731659347,7231.48002619,7238.83479639,8728890.23033,-80.6689501729
5880.0,20.0,15.5367968484,-0.571000126348,14.8650330595,6926.80530428,6920.60641637,8853361.85439,70.072340131
5920.0,20.0,15.4790704063,-0.56633145614,14.9419740823,6640.10501666,6645.8429401,8727861.2406,-80.549606765
5960.0,20.0,15.574187773,-0.568885129518,14.9448671327,6345.95897873,6341.06537844,8855030.03849,69.5716898713
6000.0,20.0,15.5088562528,-0.56549103661,15.0117134162,6062.3014113,6067.5521122,8726307.93353,-71.2512390172
6040.0,20.0,15.6055007943,-0.566378176762,15.0007098311,5771.56087994,5766.84294067,8861107.5226,69.5633247953
6080.0,20.0,15.5352764744,-0.563491641238,15.0714108775,5497.83965855,5502.15399794,8723190.19384,-72.7269914845
6120.0,20.0,15.6290713529,-0.55941951713,15.0794944663,7311.36289238,5218.66155683,8860414.45422,64.6552824815
6160.0,20.0,15.560212856,-0.553606245078,15.1505479211,7046.57812455,4961.76955736,8722835.62769,-66.2277146316
6200.0,20.0,15.651694783,-0.545599991698,15.1413803087,4686.49811474,4683.7107079,8859372.18371,67.5115020648
6240.0,20.0,15.585014824,-0.536082596148,15.1890103033,4725.61908974,4428.80426648,8719291.18765,-63.4628859771
6280.0,20.0,15.680455511,-0.527037454465,15.2054478133,6525.25982607,4170.30676513,8863950.79314,60.1963164543
6320.0,20.0,15.6117362261,-0.518310799345,15.2627011953,3926.21856191,3928.58436755,8717060.92415,-58.7810938396
6360.0,20.0,15.711121726,-0.508139533338,15.2632307351,3978.20648469,3678.32939845,8862105.3029,59.3868469917
6400.0,20.0,15.6398819512,-0.501245592817,15.2952724672,5789.29935247,3442.03968228,8716841.07693,-52.5361560057
6440.0,20.0,15.740035189,-0.492700282797,15.2846342139,3205.45448481,3203.34310701,8863055.3761,53.3622027357
6480.0,20.0,15.6634424018,-0.483371633386,15.3431209252,2984.28814399,2985.83361051,8712037.61201,-53.2422101835
6520.0,20.0,15.7661879066,-0.476334553707,15.3613546946,2768.32211323,2766.82988753,8867670.75689,49.0911589899
6560.0,20.0,15.6798781879,-0.464228313044,15.4123811635,2558.82676238,2560.4968264,8710992.0342,-44.421507494
6600.0,20.0,15.7876213311,-0.455539957219,15.4020170185,2353.58751865,2351.53012107,8870305.05556,45.4651066931
6640.0,20.0,15.6931173102,-0.441756091936,15.4714397649,2159.55147217,2161.86242446,8707198.94606,-41.9867976091
6680.0,20.0,15.8045285573,-0.427798958988,15.4603447428,1970.86925425,1968.34075732,8872411.3706,36.8464301373
6720.0,20.0,15.7091996476,-0.414112564528,15.5556038047,1793.57205412,1795.92493446,8705436.23546,-37.8161569688
6760.0,20.0,15.8181406756,-0.397010700328,15.5187679671,1618.31403937,1615.91969708,8875199.57036,35.3233328483
6800.0,20.0,15.728023356,-0.381698316438,15.5891024196,1452.97617874,1455.23399415,8700005.45671,-31.094436751
6840.0,20.0,15.8334588908,-0.365128924456,15.5218511013,1292.97649027,1290.43020616,8879397.22996,28.1141603997
6880.0,20.0,15.7448227539,-0.346480900231,15.6260318332,1146.86926061,1148.57278311,8698262.38828,-29.9767751226
6920.0,20.0,15.8511630326,-0.331325732275,15.6063728231,3710.27509134,1005.28209113,8875982.52875,22.2121503367
6960.0,20.0,15.7583454847,-0.311614866936,15.7346054513,3587.06807628,880.100184181,8693702.55275,-24.231574647
7000.0,20.0,15.8661551113,-0.295346641705,15.6379947059,754.098402565,750.90113124,8887155.43409,19.9571899379
7040.0,20.0,15.7685753103,-0.276128220335,15.8412583948,642.313622396,644.616515267,8689776.74935,-16.706460416
7080.0,20.0,15.8749967017,-0.256041671,15.7112713855,536.218499618,533.516373793,8888694.99967,12.276905776
7120.0,20.0,15.7756112026,-0.237475507373,15.9135759635,441.953749834,442.893091461,8682199.72863,-11.6070451529
7160.0,20.0,15.8769706949,-0.212358610262,15.7943973076,661.822272167,352.318136289,8899934.68109,10.6449803745
7200.0,20.0,15.7818070736,-0.192919870174,15.9325083332,2698.39082524,276.825686097,8681655.5904,-6.45720898169
7240.0,20.0,15.8764512691,-0.166168882271,15.7217232982,2383.98408987,205.462843933,8902884.84128,7.1253815067
7280.0,20.0,15.7870599105,-0.143418856144,15.9250902456,2326.06396363,149.059197844,8676320.20262,-4.48526021781
7320.0,20.0,15.8775072721,-0.117518998101,15.8292516193,100.776391828,99.3336415834,8935019.49584,4.32366718329
7360.0,20.0,15.7919608928,-0.0929945465142,16.5211323246,62.0346653992,62.7561762247,8647218.68975,-2.871358354
7400.0,20.0,15.880711639,-0.0674093210441,15.2846426043,31.2616529487,29.5693643216,8772629.64362,0.00503031518427
7440.0,20.0,15.797861401,-0.0423593852707,15.918479481,2210.23423013,11.0902205857,8845041.86397,0.12811974786
7480.0,20.0,15.8864811756,-0.0189349272111,15.7083729676,2200.49080768,1.21600258885,8797847.57432,0.00813747236163
7520.0,20.0,15.8017888709,0.00662731575791,15.9815728385,2.0501281124,1.23710428769,8757421.41227,-0.00322317725191
7560.0,20.0,15.891547349,0.0286165963521,15.7026557715,11.9058200839,10.9399500184,8846299.83815,0.130274972699
7600.0,20.0,15.8028929511,0.0534808175213,16.459965916,31.7731301725,31.8443501196,8770602.51809,-0.197885546778
7640.0,20.0,15.8936931021,0.0763514373069,15.1504363889,59.7744293285,57.5616643932,8663099.07048,-2.76253434407
7680.0,20.0,15.799853968,0.0999782627999,15.828098811,99.1140115574,99.2633317239,8921412.26384,3.52537798335
7720.0,20.0,15.8915791739,0.1241092001,15.6257363471,147.931999429,146.272396894,8676436.72421,-4.64601457097
7760.0,20.0,15.79334297,0.147615714363,15.9492677374,207.483275577,208.347011841,8897046.82886,5.79572435201
7800.0,20.0,15.885671618,0.172924197796,15.6325991383,274.002898322,271.707861752,8674030.61088,-8.08846561149
7840.0,20.0,15.7845178947,0.197242369703,15.7772915417,351.281227373,352.025374065,8903470.57849,12.0137011239
7880.0,20.0,15.8771743347,0.22240206808,15.6350905248,436.999572345,435.158344279,8683235.51377,-11.7019044966
7920.0,20.0,15.774771457,0.247118514881,15.7786835892,534.593516577,535.844884403,8889423.34611,13.1570148601
7960.0,20.0,15.8706228296,0.27050763031,15.6494302085,639.321016129,636.839654484,8682073.63113,-17.0556040736
8000.0,20.0,15.7649929326,0.296153460573,15.7645629728,755.276274456,756.930078362,8887816.79123,19.1831664784
8040.0,20.0,15.8648500515,0.316844598905,15.6353172749,1185.53099077,874.372908875,8688738.51902,-20.6857731305
8080.0,20.0,15.7561461835,0.338333505408,15.6544178226,3441.29440579,1008.50054995,8883040.77382,24.9221411857
8120.0,20.0,15.8565066347,0.357888406017,15.5965768394,1148.0232201,1146.30933387,8691884.30938,-27.9718855081
8160.0,20.0,15.7487189097,0.376002559025,15.6480613596,1299.69681551,1300.91332076,8876322.5528,28.1228076397
8200.0,20.0,15.8445687763,0.393457473234,15.5884244605,1456.92549027,1455.14348858,8697941.01526,-30.4495116857
8240.0,20.0,15.7424953929,0.405893632825,15.6002965779,1623.07423121,1624.40759733,8870670.32593,35.476562939
8280.0,20.0,15.8259924153,0.423281233826,15.5391625197,1795.92602052,1793.92548949,8704338.57418,-35.2898121565
8320.0,20.0,15.7377980651,0.431091301971,15.5593967683,2281.60647371,1981.10469029,8867910.82759,40.9678778189
8360.0,20.0,15.8050946226,0.445342880935,15.5062026722,4546.56078042,2166.59713175,8704748.61761,-38.7912061581
8400.0,20.0,15.7258214674,0.453426234347,15.5083289154,2366.15499431,2367.8232405,8865473.91347,47.3492582814
8440.0,20.0,15.7880246885,0.464742958134,15.4474050851,4723.66440941,2566.2064692,8704686.74481,-41.2626923025
8480.0,20.0,15.7100657138,0.473245196127,15.4160346843,4932.22867721,2776.9282484,8865165.38153,55.8590519035
8520.0,20.0,15.7710981153,0.483318975861,15.3761341438,2993.3460034,2992.05433463,8709907.77499,-47.299012742
8560.0,20.0,15.6926508221,0.492786666099,15.3697545746,5340.91242307,3221.43474248,8860173.56844,60.7588904377
8600.0,20.0,15.7523299219,0.500966805279,15.3087082575,5568.16168954,3444.9341256,8711166.37674,-48.1665170517
8640.0,20.0,15.6739997209,0.511360031297,15.2940318216,6029.08845158,3685.86394566,8857908.37735,62.8710746304
8680.0,20.0,15.7324196091,0.518812629712,15.2570929887,4226.52853328,3927.1551605,8710019.57355,-59.2365092454
8720.0,20.0,15.6545920557,0.527213783037,15.2591597471,4182.5121105,4185.16387802,8855890.78715,64.6219320204
8760.0,20.0,15.7109592198,0.53450028114,15.2089257452,4436.38137692,4434.58926906,8709955.31685,-62.7761519613
8800.0,20.0,15.6322870182,0.542067157151,15.1875948399,4695.86235771,4698.19648979,8854693.31824,74.0205682452
8840.0,20.0,15.688296984,0.54753583406,15.1265809009,4956.02010618,4953.86426977,8709701.7059,-63.9852678738
8880.0,20.0,15.6041072762,0.55662963423,15.1101714701,5226.78569036,5229.56876331,8853831.99037,75.6112201727
8920.0,20.0,15.6643942417,0.558749718461,15.054531689,7823.73925549,5495.88018336,8713126.04865,-68.2900239648
8960.0,20.0,15.5714910565,0.56821903935,15.0665574718,6083.51669786,5792.46142808,8852675.68551,81.5068974748
9000.0,20.0,15.6401867062,0.569236413,15.0074936202,6069.01398249,6065.60358357,8718425.08533,-60.0024008198
9040.0,20.0,15.5377464202,0.576169366143,14.9891860884,6357.41168869,6360.48822996,8851682.32301,93.8209703014
9080.0,20.0,15.6139644882,0.57843578474,14.9426453715,6648.10125509,6645.84481846,8724900.0399,-67.2085259506
9120.0,20.0,15.5074089175,0.579376123908,14.9434261449,9232.89557863,6957.38921336,8845415.77219,83.373157952
9160.0,20.0,15.5831781462,0.5818531474,14.9053850626,7545.00888039,7254.44269786,8722014.57223,-77.4856892896
9200.0,20.0,15.478654111,0.577170102314,14.8826214504,9599.43441242,7562.62651871,8840170.09421,86.754054113
9240.0,20.0,15.5465401126,0.579111607661,14.8171238048,9895.66867262,7851.3510045,8720587.61235,-83.5031831873
9280.0,20.0,15.44836737,0.572067309045,14.8004056557,8164.87020143,8168.33523156,8837528.75585,79.3832263732
9320.0,20.0,15.5058905969,0.573705267554,14.7533194273,8475.67547556,8471.46229147,8722100.29396,-90.5560551946
9360.0,20.0,15.4170059041,0.566157528375,14.7537520186,8800.08682206,8804.22013995,8842352.22738,82.1849519797
9400.0,20.0,15.4635154424,0.566482282954,14.7022552111,9112.42426898,9108.48287679,8725571.29799,-76.6788195586
9440.0,20.0,15.383555216,0.56021002088,14.6868211317,9434.35012842,9437.25156203,8844647.36256,90.457395293
9480.0,20.0,15.4213788334,0.560110522392,14.6460261237,9751.502263,9751.05056034,8730434.04052,-75.351326681
9520.0,20.0,15.3484340037,0.556845681514,14.6169141501,10070.0311619,10074.3448387,8836570.43357,86.0017276527
9560.0,20.0,15.3835670704,0.556265259946,14.5666062644,10388.0965627,10383.8291936,8725447.87557,-94.8030170253
9600.0,20.0,15.3148656322,0.553036864125,14.5660276505,10723.3380291,10729.5246907,8834915.79688,73.3374673263
9640.0,20.0,15.3477121941,0.550509075125,14.5121058976,11045.1234409,11037.4627159,8726325.99507,-89.9121179742
9680.0,20.0,15.2808975807,0.544858107218,14.5164290285,11383.4448673,11390.1674206,8836844.57776,83.0380843326
9720.0,20.0,15.309801389,0.541487765163,14.4615690155,11983.8931424,11697.0137606,8733318.52891,-75.1944690559
9760.0,20.0,15.2457802912,0.535536205852,14.4738295332,14236.5538786,12058.9692647,8837933.30646,88.2446059296
9800.0,20.0,15.271815943,0.531484833505,14.4184446193,12371.2442866,12364.521981,8730441.05057,-76.1269752658
9840.0,20.0,15.2106625255,0.526293162123,14.4203773864,12712.0086289,12719.2047846,8827716.7696,76.1712731474
9880.0,20.0,15.2368299881,0.522203751126,14.3782068903,13041.4741414,13034.9755787,8732797.99385,-82.4990467758
9920.0,20.0,15.178555643,0.516234166458,14.372283164,13377.0681966,13383.1772144,8826934.15721,94.675204985
9960.0,20.0,15.2035151747,0.511808886448,14.3198376379,13694.4709905,13686.5517948,8738758.17078,-63.8760457133
10000.0,20.0,15.1490368012,0.503629679216,14.3198086811,14031.7980474,14039.6701659,8830477.37062,94.9416913368
