<?xml version="1.0" encoding="utf-8" standalone="no"?>
<!DOCTYPE svg PUBLIC "-//W3C//DTD SVG 1.1//EN"
  "http://www.w3.org/Graphics/SVG/1.1/DTD/svg11.dtd">
<!-- Created with matplotlib (https://matplotlib.org/) -->
<svg height="345.6pt" version="1.1" viewBox="0 0 460.8 345.6" width="460.8pt" xmlns="http://www.w3.org/2000/svg" xmlns:xlink="http://www.w3.org/1999/xlink">
 <metadata>
  <rdf:RDF xmlns:cc="http://creativecommons.org/ns#" xmlns:dc="http://purl.org/dc/elements/1.1/" xmlns:rdf="http://www.w3.org/1999/02/22-rdf-syntax-ns#">
   <cc:Work>
    <dc:type rdf:resource="http://purl.org/dc/dcmitype/StillImage"/>
    <dc:date>2021-02-23T13:55:44.738464</dc:date>
    <dc:format>image/svg+xml</dc:format>
    <dc:creator>
     <cc:Agent>
      <dc:title>Matplotlib v3.3.0, https://matplotlib.org/</dc:title>
     </cc:Agent>
    </dc:creator>
   </cc:Work>
  </rdf:RDF>
 </metadata>
 <defs>
  <style type="text/css">*{stroke-linecap:butt;stroke-linejoin:round;}</style>
 </defs>
 <g id="figure_1">
  <g id="patch_1">
   <path d="M 0 345.6 
L 460.8 345.6 
L 460.8 0 
L 0 0 
z
" style="fill:#ffffff;"/>
  </g>
  <g id="axes_1">
   <g id="patch_2">
    <path d="M 57.6 307.584 
L 414.72 307.584 
L 414.72 41.472 
L 57.6 41.472 
z
" style="fill:#ffffff;"/>
   </g>
   <g id="matplotlib.axis_1">
    <g id="xtick_1">
     <g id="line2d_1">
      <defs>
       <path d="M 0 0 
L 0 3.5 
" id="m1fe0e84bb7" style="stroke:#000000;stroke-width:0.8;"/>
      </defs>
      <g>
       <use style="stroke:#000000;stroke-width:0.8;" x="73.832727" xlink:href="#m1fe0e84bb7" y="307.584"/>
      </g>
     </g>
     <g id="text_1">
      <!-- 0.0 -->
      <g transform="translate(65.881165 322.182437)scale(0.1 -0.1)">
       <defs>
        <path d="M 31.78125 66.40625 
Q 24.171875 66.40625 20.328125 58.90625 
Q 16.5 51.421875 16.5 36.375 
Q 16.5 21.390625 20.328125 13.890625 
Q 24.171875 6.390625 31.78125 6.390625 
Q 39.453125 6.390625 43.28125 13.890625 
Q 47.125 21.390625 47.125 36.375 
Q 47.125 51.421875 43.28125 58.90625 
Q 39.453125 66.40625 31.78125 66.40625 
z
M 31.78125 74.21875 
Q 44.046875 74.21875 50.515625 64.515625 
Q 56.984375 54.828125 56.984375 36.375 
Q 56.984375 17.96875 50.515625 8.265625 
Q 44.046875 -1.421875 31.78125 -1.421875 
Q 19.53125 -1.421875 13.0625 8.265625 
Q 6.59375 17.96875 6.59375 36.375 
Q 6.59375 54.828125 13.0625 64.515625 
Q 19.53125 74.21875 31.78125 74.21875 
z
" id="DejaVuSans-48"/>
        <path d="M 10.6875 12.40625 
L 21 12.40625 
L 21 0 
L 10.6875 0 
z
" id="DejaVuSans-46"/>
       </defs>
       <use xlink:href="#DejaVuSans-48"/>
       <use x="63.623047" xlink:href="#DejaVuSans-46"/>
       <use x="95.410156" xlink:href="#DejaVuSans-48"/>
      </g>
     </g>
    </g>
    <g id="xtick_2">
     <g id="line2d_2">
      <g>
       <use style="stroke:#000000;stroke-width:0.8;" x="138.763636" xlink:href="#m1fe0e84bb7" y="307.584"/>
      </g>
     </g>
     <g id="text_2">
      <!-- 0.2 -->
      <g transform="translate(130.812074 322.182437)scale(0.1 -0.1)">
       <defs>
        <path d="M 19.1875 8.296875 
L 53.609375 8.296875 
L 53.609375 0 
L 7.328125 0 
L 7.328125 8.296875 
Q 12.9375 14.109375 22.625 23.890625 
Q 32.328125 33.6875 34.8125 36.53125 
Q 39.546875 41.84375 41.421875 45.53125 
Q 43.3125 49.21875 43.3125 52.78125 
Q 43.3125 58.59375 39.234375 62.25 
Q 35.15625 65.921875 28.609375 65.921875 
Q 23.96875 65.921875 18.8125 64.3125 
Q 13.671875 62.703125 7.8125 59.421875 
L 7.8125 69.390625 
Q 13.765625 71.78125 18.9375 73 
Q 24.125 74.21875 28.421875 74.21875 
Q 39.75 74.21875 46.484375 68.546875 
Q 53.21875 62.890625 53.21875 53.421875 
Q 53.21875 48.921875 51.53125 44.890625 
Q 49.859375 40.875 45.40625 35.40625 
Q 44.1875 33.984375 37.640625 27.21875 
Q 31.109375 20.453125 19.1875 8.296875 
z
" id="DejaVuSans-50"/>
       </defs>
       <use xlink:href="#DejaVuSans-48"/>
       <use x="63.623047" xlink:href="#DejaVuSans-46"/>
       <use x="95.410156" xlink:href="#DejaVuSans-50"/>
      </g>
     </g>
    </g>
    <g id="xtick_3">
     <g id="line2d_3">
      <g>
       <use style="stroke:#000000;stroke-width:0.8;" x="203.694545" xlink:href="#m1fe0e84bb7" y="307.584"/>
      </g>
     </g>
     <g id="text_3">
      <!-- 0.4 -->
      <g transform="translate(195.742983 322.182437)scale(0.1 -0.1)">
       <defs>
        <path d="M 37.796875 64.3125 
L 12.890625 25.390625 
L 37.796875 25.390625 
z
M 35.203125 72.90625 
L 47.609375 72.90625 
L 47.609375 25.390625 
L 58.015625 25.390625 
L 58.015625 17.1875 
L 47.609375 17.1875 
L 47.609375 0 
L 37.796875 0 
L 37.796875 17.1875 
L 4.890625 17.1875 
L 4.890625 26.703125 
z
" id="DejaVuSans-52"/>
       </defs>
       <use xlink:href="#DejaVuSans-48"/>
       <use x="63.623047" xlink:href="#DejaVuSans-46"/>
       <use x="95.410156" xlink:href="#DejaVuSans-52"/>
      </g>
     </g>
    </g>
    <g id="xtick_4">
     <g id="line2d_4">
      <g>
       <use style="stroke:#000000;stroke-width:0.8;" x="268.625455" xlink:href="#m1fe0e84bb7" y="307.584"/>
      </g>
     </g>
     <g id="text_4">
      <!-- 0.6 -->
      <g transform="translate(260.673892 322.182437)scale(0.1 -0.1)">
       <defs>
        <path d="M 33.015625 40.375 
Q 26.375 40.375 22.484375 35.828125 
Q 18.609375 31.296875 18.609375 23.390625 
Q 18.609375 15.53125 22.484375 10.953125 
Q 26.375 6.390625 33.015625 6.390625 
Q 39.65625 6.390625 43.53125 10.953125 
Q 47.40625 15.53125 47.40625 23.390625 
Q 47.40625 31.296875 43.53125 35.828125 
Q 39.65625 40.375 33.015625 40.375 
z
M 52.59375 71.296875 
L 52.59375 62.3125 
Q 48.875 64.0625 45.09375 64.984375 
Q 41.3125 65.921875 37.59375 65.921875 
Q 27.828125 65.921875 22.671875 59.328125 
Q 17.53125 52.734375 16.796875 39.40625 
Q 19.671875 43.65625 24.015625 45.921875 
Q 28.375 48.1875 33.59375 48.1875 
Q 44.578125 48.1875 50.953125 41.515625 
Q 57.328125 34.859375 57.328125 23.390625 
Q 57.328125 12.15625 50.6875 5.359375 
Q 44.046875 -1.421875 33.015625 -1.421875 
Q 20.359375 -1.421875 13.671875 8.265625 
Q 6.984375 17.96875 6.984375 36.375 
Q 6.984375 53.65625 15.1875 63.9375 
Q 23.390625 74.21875 37.203125 74.21875 
Q 40.921875 74.21875 44.703125 73.484375 
Q 48.484375 72.75 52.59375 71.296875 
z
" id="DejaVuSans-54"/>
       </defs>
       <use xlink:href="#DejaVuSans-48"/>
       <use x="63.623047" xlink:href="#DejaVuSans-46"/>
       <use x="95.410156" xlink:href="#DejaVuSans-54"/>
      </g>
     </g>
    </g>
    <g id="xtick_5">
     <g id="line2d_5">
      <g>
       <use style="stroke:#000000;stroke-width:0.8;" x="333.556364" xlink:href="#m1fe0e84bb7" y="307.584"/>
      </g>
     </g>
     <g id="text_5">
      <!-- 0.8 -->
      <g transform="translate(325.604801 322.182437)scale(0.1 -0.1)">
       <defs>
        <path d="M 31.78125 34.625 
Q 24.75 34.625 20.71875 30.859375 
Q 16.703125 27.09375 16.703125 20.515625 
Q 16.703125 13.921875 20.71875 10.15625 
Q 24.75 6.390625 31.78125 6.390625 
Q 38.8125 6.390625 42.859375 10.171875 
Q 46.921875 13.96875 46.921875 20.515625 
Q 46.921875 27.09375 42.890625 30.859375 
Q 38.875 34.625 31.78125 34.625 
z
M 21.921875 38.8125 
Q 15.578125 40.375 12.03125 44.71875 
Q 8.5 49.078125 8.5 55.328125 
Q 8.5 64.0625 14.71875 69.140625 
Q 20.953125 74.21875 31.78125 74.21875 
Q 42.671875 74.21875 48.875 69.140625 
Q 55.078125 64.0625 55.078125 55.328125 
Q 55.078125 49.078125 51.53125 44.71875 
Q 48 40.375 41.703125 38.8125 
Q 48.828125 37.15625 52.796875 32.3125 
Q 56.78125 27.484375 56.78125 20.515625 
Q 56.78125 9.90625 50.3125 4.234375 
Q 43.84375 -1.421875 31.78125 -1.421875 
Q 19.734375 -1.421875 13.25 4.234375 
Q 6.78125 9.90625 6.78125 20.515625 
Q 6.78125 27.484375 10.78125 32.3125 
Q 14.796875 37.15625 21.921875 38.8125 
z
M 18.3125 54.390625 
Q 18.3125 48.734375 21.84375 45.5625 
Q 25.390625 42.390625 31.78125 42.390625 
Q 38.140625 42.390625 41.71875 45.5625 
Q 45.3125 48.734375 45.3125 54.390625 
Q 45.3125 60.0625 41.71875 63.234375 
Q 38.140625 66.40625 31.78125 66.40625 
Q 25.390625 66.40625 21.84375 63.234375 
Q 18.3125 60.0625 18.3125 54.390625 
z
" id="DejaVuSans-56"/>
       </defs>
       <use xlink:href="#DejaVuSans-48"/>
       <use x="63.623047" xlink:href="#DejaVuSans-46"/>
       <use x="95.410156" xlink:href="#DejaVuSans-56"/>
      </g>
     </g>
    </g>
    <g id="xtick_6">
     <g id="line2d_6">
      <g>
       <use style="stroke:#000000;stroke-width:0.8;" x="398.487273" xlink:href="#m1fe0e84bb7" y="307.584"/>
      </g>
     </g>
     <g id="text_6">
      <!-- 1.0 -->
      <g transform="translate(390.53571 322.182437)scale(0.1 -0.1)">
       <defs>
        <path d="M 12.40625 8.296875 
L 28.515625 8.296875 
L 28.515625 63.921875 
L 10.984375 60.40625 
L 10.984375 69.390625 
L 28.421875 72.90625 
L 38.28125 72.90625 
L 38.28125 8.296875 
L 54.390625 8.296875 
L 54.390625 0 
L 12.40625 0 
z
" id="DejaVuSans-49"/>
       </defs>
       <use xlink:href="#DejaVuSans-49"/>
       <use x="63.623047" xlink:href="#DejaVuSans-46"/>
       <use x="95.410156" xlink:href="#DejaVuSans-48"/>
      </g>
     </g>
    </g>
    <g id="text_7">
     <!-- x norm. -->
     <g transform="translate(216.956094 335.860562)scale(0.1 -0.1)">
      <defs>
       <path d="M 54.890625 54.6875 
L 35.109375 28.078125 
L 55.90625 0 
L 45.3125 0 
L 29.390625 21.484375 
L 13.484375 0 
L 2.875 0 
L 24.125 28.609375 
L 4.6875 54.6875 
L 15.28125 54.6875 
L 29.78125 35.203125 
L 44.28125 54.6875 
z
" id="DejaVuSans-120"/>
       <path id="DejaVuSans-32"/>
       <path d="M 54.890625 33.015625 
L 54.890625 0 
L 45.90625 0 
L 45.90625 32.71875 
Q 45.90625 40.484375 42.875 44.328125 
Q 39.84375 48.1875 33.796875 48.1875 
Q 26.515625 48.1875 22.3125 43.546875 
Q 18.109375 38.921875 18.109375 30.90625 
L 18.109375 0 
L 9.078125 0 
L 9.078125 54.6875 
L 18.109375 54.6875 
L 18.109375 46.1875 
Q 21.34375 51.125 25.703125 53.5625 
Q 30.078125 56 35.796875 56 
Q 45.21875 56 50.046875 50.171875 
Q 54.890625 44.34375 54.890625 33.015625 
z
" id="DejaVuSans-110"/>
       <path d="M 30.609375 48.390625 
Q 23.390625 48.390625 19.1875 42.75 
Q 14.984375 37.109375 14.984375 27.296875 
Q 14.984375 17.484375 19.15625 11.84375 
Q 23.34375 6.203125 30.609375 6.203125 
Q 37.796875 6.203125 41.984375 11.859375 
Q 46.1875 17.53125 46.1875 27.296875 
Q 46.1875 37.015625 41.984375 42.703125 
Q 37.796875 48.390625 30.609375 48.390625 
z
M 30.609375 56 
Q 42.328125 56 49.015625 48.375 
Q 55.71875 40.765625 55.71875 27.296875 
Q 55.71875 13.875 49.015625 6.21875 
Q 42.328125 -1.421875 30.609375 -1.421875 
Q 18.84375 -1.421875 12.171875 6.21875 
Q 5.515625 13.875 5.515625 27.296875 
Q 5.515625 40.765625 12.171875 48.375 
Q 18.84375 56 30.609375 56 
z
" id="DejaVuSans-111"/>
       <path d="M 41.109375 46.296875 
Q 39.59375 47.171875 37.8125 47.578125 
Q 36.03125 48 33.890625 48 
Q 26.265625 48 22.1875 43.046875 
Q 18.109375 38.09375 18.109375 28.8125 
L 18.109375 0 
L 9.078125 0 
L 9.078125 54.6875 
L 18.109375 54.6875 
L 18.109375 46.1875 
Q 20.953125 51.171875 25.484375 53.578125 
Q 30.03125 56 36.53125 56 
Q 37.453125 56 38.578125 55.875 
Q 39.703125 55.765625 41.0625 55.515625 
z
" id="DejaVuSans-114"/>
       <path d="M 52 44.1875 
Q 55.375 50.25 60.0625 53.125 
Q 64.75 56 71.09375 56 
Q 79.640625 56 84.28125 50.015625 
Q 88.921875 44.046875 88.921875 33.015625 
L 88.921875 0 
L 79.890625 0 
L 79.890625 32.71875 
Q 79.890625 40.578125 77.09375 44.375 
Q 74.3125 48.1875 68.609375 48.1875 
Q 61.625 48.1875 57.5625 43.546875 
Q 53.515625 38.921875 53.515625 30.90625 
L 53.515625 0 
L 44.484375 0 
L 44.484375 32.71875 
Q 44.484375 40.625 41.703125 44.40625 
Q 38.921875 48.1875 33.109375 48.1875 
Q 26.21875 48.1875 22.15625 43.53125 
Q 18.109375 38.875 18.109375 30.90625 
L 18.109375 0 
L 9.078125 0 
L 9.078125 54.6875 
L 18.109375 54.6875 
L 18.109375 46.1875 
Q 21.1875 51.21875 25.484375 53.609375 
Q 29.78125 56 35.6875 56 
Q 41.65625 56 45.828125 52.96875 
Q 50 49.953125 52 44.1875 
z
" id="DejaVuSans-109"/>
      </defs>
      <use xlink:href="#DejaVuSans-120"/>
      <use x="59.179688" xlink:href="#DejaVuSans-32"/>
      <use x="90.966797" xlink:href="#DejaVuSans-110"/>
      <use x="154.345703" xlink:href="#DejaVuSans-111"/>
      <use x="215.527344" xlink:href="#DejaVuSans-114"/>
      <use x="254.890625" xlink:href="#DejaVuSans-109"/>
      <use x="352.302734" xlink:href="#DejaVuSans-46"/>
     </g>
    </g>
   </g>
   <g id="matplotlib.axis_2">
    <g id="ytick_1">
     <g id="line2d_7">
      <defs>
       <path d="M 0 0 
L -3.5 0 
" id="m7008f224f9" style="stroke:#000000;stroke-width:0.8;"/>
      </defs>
      <g>
       <use style="stroke:#000000;stroke-width:0.8;" x="57.6" xlink:href="#m7008f224f9" y="293.704666"/>
      </g>
     </g>
     <g id="text_8">
      <!-- 0 -->
      <g transform="translate(44.2375 297.503885)scale(0.1 -0.1)">
       <use xlink:href="#DejaVuSans-48"/>
      </g>
     </g>
    </g>
    <g id="ytick_2">
     <g id="line2d_8">
      <g>
       <use style="stroke:#000000;stroke-width:0.8;" x="57.6" xlink:href="#m7008f224f9" y="254.055368"/>
      </g>
     </g>
     <g id="text_9">
      <!-- 5 -->
      <g transform="translate(44.2375 257.854587)scale(0.1 -0.1)">
       <defs>
        <path d="M 10.796875 72.90625 
L 49.515625 72.90625 
L 49.515625 64.59375 
L 19.828125 64.59375 
L 19.828125 46.734375 
Q 21.96875 47.46875 24.109375 47.828125 
Q 26.265625 48.1875 28.421875 48.1875 
Q 40.625 48.1875 47.75 41.5 
Q 54.890625 34.8125 54.890625 23.390625 
Q 54.890625 11.625 47.5625 5.09375 
Q 40.234375 -1.421875 26.90625 -1.421875 
Q 22.3125 -1.421875 17.546875 -0.640625 
Q 12.796875 0.140625 7.71875 1.703125 
L 7.71875 11.625 
Q 12.109375 9.234375 16.796875 8.0625 
Q 21.484375 6.890625 26.703125 6.890625 
Q 35.15625 6.890625 40.078125 11.328125 
Q 45.015625 15.765625 45.015625 23.390625 
Q 45.015625 31 40.078125 35.4375 
Q 35.15625 39.890625 26.703125 39.890625 
Q 22.75 39.890625 18.8125 39.015625 
Q 14.890625 38.140625 10.796875 36.28125 
z
" id="DejaVuSans-53"/>
       </defs>
       <use xlink:href="#DejaVuSans-53"/>
      </g>
     </g>
    </g>
    <g id="ytick_3">
     <g id="line2d_9">
      <g>
       <use style="stroke:#000000;stroke-width:0.8;" x="57.6" xlink:href="#m7008f224f9" y="214.40607"/>
      </g>
     </g>
     <g id="text_10">
      <!-- 10 -->
      <g transform="translate(37.875 218.205289)scale(0.1 -0.1)">
       <use xlink:href="#DejaVuSans-49"/>
       <use x="63.623047" xlink:href="#DejaVuSans-48"/>
      </g>
     </g>
    </g>
    <g id="ytick_4">
     <g id="line2d_10">
      <g>
       <use style="stroke:#000000;stroke-width:0.8;" x="57.6" xlink:href="#m7008f224f9" y="174.756772"/>
      </g>
     </g>
     <g id="text_11">
      <!-- 15 -->
      <g transform="translate(37.875 178.555991)scale(0.1 -0.1)">
       <use xlink:href="#DejaVuSans-49"/>
       <use x="63.623047" xlink:href="#DejaVuSans-53"/>
      </g>
     </g>
    </g>
    <g id="ytick_5">
     <g id="line2d_11">
      <g>
       <use style="stroke:#000000;stroke-width:0.8;" x="57.6" xlink:href="#m7008f224f9" y="135.107474"/>
      </g>
     </g>
     <g id="text_12">
      <!-- 20 -->
      <g transform="translate(37.875 138.906693)scale(0.1 -0.1)">
       <use xlink:href="#DejaVuSans-50"/>
       <use x="63.623047" xlink:href="#DejaVuSans-48"/>
      </g>
     </g>
    </g>
    <g id="ytick_6">
     <g id="line2d_12">
      <g>
       <use style="stroke:#000000;stroke-width:0.8;" x="57.6" xlink:href="#m7008f224f9" y="95.458176"/>
      </g>
     </g>
     <g id="text_13">
      <!-- 25 -->
      <g transform="translate(37.875 99.257395)scale(0.1 -0.1)">
       <use xlink:href="#DejaVuSans-50"/>
       <use x="63.623047" xlink:href="#DejaVuSans-53"/>
      </g>
     </g>
    </g>
    <g id="ytick_7">
     <g id="line2d_13">
      <g>
       <use style="stroke:#000000;stroke-width:0.8;" x="57.6" xlink:href="#m7008f224f9" y="55.808878"/>
      </g>
     </g>
     <g id="text_14">
      <!-- 30 -->
      <g transform="translate(37.875 59.608097)scale(0.1 -0.1)">
       <defs>
        <path d="M 40.578125 39.3125 
Q 47.65625 37.796875 51.625 33 
Q 55.609375 28.21875 55.609375 21.1875 
Q 55.609375 10.40625 48.1875 4.484375 
Q 40.765625 -1.421875 27.09375 -1.421875 
Q 22.515625 -1.421875 17.65625 -0.515625 
Q 12.796875 0.390625 7.625 2.203125 
L 7.625 11.71875 
Q 11.71875 9.328125 16.59375 8.109375 
Q 21.484375 6.890625 26.8125 6.890625 
Q 36.078125 6.890625 40.9375 10.546875 
Q 45.796875 14.203125 45.796875 21.1875 
Q 45.796875 27.640625 41.28125 31.265625 
Q 36.765625 34.90625 28.71875 34.90625 
L 20.21875 34.90625 
L 20.21875 43.015625 
L 29.109375 43.015625 
Q 36.375 43.015625 40.234375 45.921875 
Q 44.09375 48.828125 44.09375 54.296875 
Q 44.09375 59.90625 40.109375 62.90625 
Q 36.140625 65.921875 28.71875 65.921875 
Q 24.65625 65.921875 20.015625 65.03125 
Q 15.375 64.15625 9.8125 62.3125 
L 9.8125 71.09375 
Q 15.4375 72.65625 20.34375 73.4375 
Q 25.25 74.21875 29.59375 74.21875 
Q 40.828125 74.21875 47.359375 69.109375 
Q 53.90625 64.015625 53.90625 55.328125 
Q 53.90625 49.265625 50.4375 45.09375 
Q 46.96875 40.921875 40.578125 39.3125 
z
" id="DejaVuSans-51"/>
       </defs>
       <use xlink:href="#DejaVuSans-51"/>
       <use x="63.623047" xlink:href="#DejaVuSans-48"/>
      </g>
     </g>
    </g>
    <g id="text_15">
     <!-- m/a -->
     <g transform="translate(31.795313 184.14675)rotate(-90)scale(0.1 -0.1)">
      <defs>
       <path d="M 25.390625 72.90625 
L 33.6875 72.90625 
L 8.296875 -9.28125 
L 0 -9.28125 
z
" id="DejaVuSans-47"/>
       <path d="M 34.28125 27.484375 
Q 23.390625 27.484375 19.1875 25 
Q 14.984375 22.515625 14.984375 16.5 
Q 14.984375 11.71875 18.140625 8.90625 
Q 21.296875 6.109375 26.703125 6.109375 
Q 34.1875 6.109375 38.703125 11.40625 
Q 43.21875 16.703125 43.21875 25.484375 
L 43.21875 27.484375 
z
M 52.203125 31.203125 
L 52.203125 0 
L 43.21875 0 
L 43.21875 8.296875 
Q 40.140625 3.328125 35.546875 0.953125 
Q 30.953125 -1.421875 24.3125 -1.421875 
Q 15.921875 -1.421875 10.953125 3.296875 
Q 6 8.015625 6 15.921875 
Q 6 25.140625 12.171875 29.828125 
Q 18.359375 34.515625 30.609375 34.515625 
L 43.21875 34.515625 
L 43.21875 35.40625 
Q 43.21875 41.609375 39.140625 45 
Q 35.0625 48.390625 27.6875 48.390625 
Q 23 48.390625 18.546875 47.265625 
Q 14.109375 46.140625 10.015625 43.890625 
L 10.015625 52.203125 
Q 14.9375 54.109375 19.578125 55.046875 
Q 24.21875 56 28.609375 56 
Q 40.484375 56 46.34375 49.84375 
Q 52.203125 43.703125 52.203125 31.203125 
z
" id="DejaVuSans-97"/>
      </defs>
      <use xlink:href="#DejaVuSans-109"/>
      <use x="97.412109" xlink:href="#DejaVuSans-47"/>
      <use x="131.103516" xlink:href="#DejaVuSans-97"/>
     </g>
    </g>
   </g>
   <g id="line2d_14">
    <path clip-path="url(#p4942f207e5)" d="M 74.644364 161.231715 
L 81.137455 146.687028 
L 86.007273 136.220311 
L 90.877091 126.228268 
L 95.746909 116.785367 
L 100.616727 107.954683 
L 103.863273 102.433693 
L 107.109818 97.220659 
L 110.356364 92.326159 
L 113.602909 87.758861 
L 116.849455 83.525696 
L 120.096 79.632008 
L 123.342545 76.081786 
L 126.589091 72.877806 
L 129.835636 70.021906 
L 133.082182 67.515119 
L 136.328727 65.35788 
L 139.575273 63.550213 
L 142.821818 62.091864 
L 146.068364 60.982437 
L 149.314909 60.221536 
L 152.561455 59.808794 
L 155.808 59.743984 
L 159.054545 60.027032 
L 162.301091 60.658035 
L 165.547636 61.637206 
L 168.794182 62.964879 
L 172.040727 64.641394 
L 175.287273 66.666997 
L 178.533818 69.04176 
L 181.780364 71.765389 
L 185.026909 74.837068 
L 188.273455 78.255305 
L 191.52 82.017722 
L 194.766545 86.12083 
L 198.013091 90.559894 
L 201.259636 95.328674 
L 204.506182 100.419263 
L 207.752727 105.821924 
L 212.622545 114.484788 
L 217.492364 123.774293 
L 222.362182 133.630593 
L 227.232 143.982351 
L 233.725091 158.411087 
L 241.841455 177.131908 
L 258.074182 214.883868 
L 264.567273 229.293375 
L 269.437091 239.562777 
L 274.306909 249.234977 
L 277.553455 255.293681 
L 280.8 261.002797 
L 284.046545 266.331841 
L 287.293091 271.252445 
L 290.539636 275.738535 
L 293.786182 279.766456 
L 297.032727 283.315085 
L 300.279273 286.365914 
L 303.525818 288.903112 
L 306.772364 290.91357 
L 308.395636 291.717931 
L 310.018909 292.386946 
L 311.642182 292.919757 
L 313.265455 293.315685 
L 314.888727 293.574223 
L 316.512 293.695043 
L 318.135273 293.677993 
L 319.758545 293.523098 
L 321.381818 293.230558 
L 323.005091 292.800753 
L 324.628364 292.234235 
L 326.251636 291.531735 
L 327.874909 290.694159 
L 329.498182 289.722588 
L 332.744727 287.382654 
L 335.991273 284.524047 
L 339.237818 281.161623 
L 342.484364 277.312925 
L 345.730909 272.99813 
L 348.977455 268.239969 
L 352.224 263.06362 
L 355.470545 257.496589 
L 358.717091 251.568547 
L 363.586909 242.069302 
L 368.456727 231.943303 
L 373.326545 221.311217 
L 379.819636 206.564335 
L 392.805818 176.236032 
L 397.675636 164.949383 
L 397.675636 164.949383 
" style="fill:none;stroke:#000000;stroke-linecap:square;"/>
   </g>
   <g id="line2d_15">
    <path clip-path="url(#p4942f207e5)" d="M 73.832727 163.918581 
L 82.157194 144.888536 
L 90.481694 126.998368 
L 98.806161 110.720539 
L 107.130596 96.35946 
L 115.455063 84.17148 
L 123.77953 74.272652 
L 132.103998 66.735495 
L 140.428465 61.568486 
L 148.752932 58.743434 
L 157.077399 58.228318 
L 165.401866 60.010411 
L 173.726334 64.113535 
L 182.050801 70.566117 
L 190.375268 79.384866 
L 198.699735 90.525106 
L 207.024202 103.905404 
L 215.34867 119.337442 
L 223.673137 136.516015 
L 231.997604 155.084313 
L 240.322396 174.511724 
L 248.646863 194.259152 
L 256.97133 213.680884 
L 265.295798 232.150774 
L 273.620265 249.033865 
L 281.944732 263.829145 
L 290.269199 275.965094 
L 298.593666 285.171629 
L 306.918134 291.120492 
L 315.242601 293.634964 
L 323.567068 292.621714 
L 331.891535 288.263708 
L 340.216002 280.553453 
L 348.54047 269.753662 
L 356.864937 256.153429 
L 365.189404 240.132575 
L 373.513871 222.314461 
L 381.838338 203.252564 
L 390.162806 183.57499 
L 398.487273 163.929413 
" style="fill:none;stroke:#000000;stroke-linecap:square;"/>
   </g>
   <g id="line2d_16">
    <path clip-path="url(#p4942f207e5)" d="M 73.832727 163.877798 
L 77.079273 156.397561 
L 80.325818 148.999002 
L 83.572364 141.761419 
L 86.818909 134.71336 
L 90.065455 127.882579 
L 93.312 121.292866 
L 96.558545 114.966424 
L 99.805091 108.923078 
L 103.051636 103.17948 
L 106.298182 97.749906 
L 109.544727 92.646248 
L 112.791273 87.880402 
L 116.037818 83.45792 
L 119.284364 79.38673 
L 122.530909 75.670797 
L 125.777455 72.312502 
L 129.024 69.313429 
L 132.270545 66.674372 
L 135.517091 64.394537 
L 138.763636 62.473925 
L 142.010182 60.909364 
L 145.256727 59.70006 
L 148.503273 58.844428 
L 151.749818 58.340882 
L 154.996364 58.187836 
L 158.242909 58.386082 
L 161.489455 58.935622 
L 164.736 59.836454 
L 167.982545 61.089372 
L 171.229091 62.696754 
L 174.475636 64.659394 
L 177.722182 66.979671 
L 180.968727 69.659171 
L 184.215273 72.696307 
L 187.461818 76.092666 
L 190.708364 79.845869 
L 193.954909 83.952743 
L 197.201455 88.408531 
L 200.448 93.208475 
L 203.694545 98.342266 
L 206.941091 103.801974 
L 210.187636 109.574119 
L 213.434182 115.643634 
L 216.680727 121.993865 
L 219.927273 128.605782 
L 223.173818 135.456388 
L 226.420364 142.521893 
L 229.666909 149.774542 
L 232.913455 157.185789 
L 236.16 164.723121 
L 239.406545 172.354025 
L 242.653091 180.042024 
L 245.899636 187.749847 
L 249.146182 195.441811 
L 252.392727 203.077473 
L 255.639273 210.619562 
L 258.885818 218.030175 
L 262.132364 225.271405 
L 265.378909 232.306539 
L 268.625455 239.099574 
L 271.872 245.615619 
L 275.118545 251.820337 
L 278.365091 257.681296 
L 281.611636 263.170187 
L 284.858182 268.266232 
L 288.104727 272.953492 
L 291.351273 277.212778 
L 294.597818 281.019508 
L 297.844364 284.351159 
L 301.090909 287.190508 
L 304.337455 289.524893 
L 307.584 291.345009 
L 310.830545 292.639757 
L 314.077091 293.43984 
L 317.323636 293.773021 
L 320.570182 293.286054 
L 323.816727 292.437958 
L 327.063273 291.099723 
L 330.309818 289.240679 
L 333.556364 286.868873 
L 336.802909 283.993522 
L 340.049455 280.625949 
L 343.296 276.782504 
L 346.542545 272.484758 
L 349.789091 267.756897 
L 353.035636 262.619061 
L 356.282182 257.088698 
L 359.528727 251.188169 
L 362.775273 244.947052 
L 366.021818 238.398495 
L 369.268364 231.577071 
L 372.514909 224.517989 
L 375.761455 217.257251 
L 379.008 209.831334 
L 382.254545 202.278936 
L 385.501091 194.636137 
L 388.747636 186.941001 
L 391.994182 179.233178 
L 395.240727 171.549144 
L 398.487273 163.877798 
" style="fill:none;stroke:#000000;stroke-linecap:square;"/>
   </g>
   <g id="line2d_17">
    <path clip-path="url(#p4942f207e5)" d="M 73.832727 159.899419 
L 78.727017 148.982445 
L 83.621307 138.583774 
L 88.515596 128.756378 
L 91.778456 122.596011 
L 96.672746 113.904084 
L 99.935605 108.51718 
L 103.198465 103.448144 
L 106.461324 98.737847 
L 109.724183 94.347909 
L 112.987046 90.320515 
L 116.249905 86.615835 
L 119.512765 83.258325 
L 122.775624 80.223766 
L 126.038483 77.518859 
L 129.301343 75.130489 
L 132.564202 73.052461 
L 135.827061 71.280724 
L 139.089924 69.800394 
L 142.352783 68.613904 
L 145.615643 67.702137 
L 148.878502 67.071444 
L 152.141361 66.703895 
L 155.404221 66.607245 
L 158.66708 66.770624 
L 161.929939 67.204427 
L 165.192802 67.905046 
L 168.455661 68.884083 
L 171.718521 70.1447 
L 174.98138 71.694694 
L 178.244239 73.545436 
L 181.507099 75.695832 
L 184.769958 78.167625 
L 188.032817 80.949158 
L 191.29568 84.06886 
L 194.558539 87.508397 
L 197.821399 91.297625 
L 201.084258 95.414459 
L 204.347117 99.884703 
L 207.609977 104.685979 
L 210.872836 109.833465 
L 214.135695 115.308875 
L 219.029986 124.119242 
L 223.924277 133.628413 
L 228.818564 143.76313 
L 233.712855 154.430012 
L 240.238573 169.316373 
L 248.395723 188.566139 
L 261.447164 219.363358 
L 266.341451 230.38521 
L 271.235742 240.938018 
L 276.130033 250.818222 
L 279.392892 256.980204 
L 282.655751 262.753495 
L 285.918611 268.104879 
L 289.18147 273.005413 
L 292.444329 277.429308 
L 295.707192 281.353677 
L 298.970051 284.761309 
L 302.232911 287.636482 
L 305.49577 289.966456 
L 307.127198 290.921377 
L 308.758629 291.741413 
L 310.390061 292.414401 
L 312.021489 292.954118 
L 313.65292 293.33957 
L 315.284348 293.601054 
L 316.915779 293.147677 
L 318.547207 293.632437 
L 320.178639 293.490522 
L 321.81007 293.161994 
L 323.441498 292.706472 
L 325.072929 292.093816 
L 326.704357 291.354164 
L 329.967217 289.439193 
L 333.230076 286.985323 
L 336.492939 283.940529 
L 339.755798 280.425668 
L 343.018657 276.346946 
L 346.281517 271.818291 
L 349.544376 266.803662 
L 352.807235 261.348825 
L 356.070095 255.493634 
L 359.332954 249.22733 
L 364.227245 239.266787 
L 370.752963 224.953924 
L 377.278685 209.857138 
L 398.487273 159.914494 
L 398.487273 159.914494 
" style="fill:none;stroke:#000000;stroke-linecap:square;"/>
   </g>
   <g id="line2d_18">
    <path clip-path="url(#p4942f207e5)" d="M 73.832727 163.85718 
L 77.079273 156.430867 
L 80.325818 149.238484 
L 83.572364 142.113505 
L 86.818909 135.285896 
L 90.065455 128.5812 
L 93.312 122.209557 
L 96.558545 116.016337 
L 99.805091 110.18789 
L 103.051636 104.57355 
L 106.298182 99.347772 
L 109.544727 94.36782 
L 112.791273 89.788326 
L 116.037818 85.470518 
L 119.284364 81.565062 
L 122.530909 77.937151 
L 125.777455 74.725558 
L 129.024 71.787545 
L 132.270545 69.26585 
L 135.517091 67.0217 
L 138.763636 65.193867 
L 142.010182 63.63565 
L 145.256727 62.497715 
L 148.503273 61.621465 
L 151.749818 61.169463 
L 154.996364 60.971217 
L 158.242909 61.205148 
L 161.489455 61.684904 
L 164.736 62.596838 
L 167.982545 63.762527 
L 171.229091 65.364359 
L 174.475636 67.212016 
L 177.722182 69.495816 
L 180.968727 72.037336 
L 184.215273 75.014998 
L 187.461818 78.250381 
L 190.708364 81.917941 
L 193.954909 85.847186 
L 197.201455 90.192749 
L 200.448 94.799998 
L 203.694545 99.803739 
L 206.941091 105.061236 
L 210.187636 110.691436 
L 213.434182 116.563497 
L 216.680727 122.760683 
L 219.927273 129.175939 
L 223.173818 135.868741 
L 226.420364 142.751859 
L 229.666909 149.845118 
L 232.913455 157.09301 
L 236.16 164.479674 
L 239.406545 171.977356 
L 242.653091 179.526583 
L 245.899636 187.139248 
L 249.146182 194.708299 
L 252.392727 202.29321 
L 255.639273 209.739348 
L 258.885818 217.153766 
L 262.132364 224.330289 
L 265.378909 231.415619 
L 268.625455 238.171859 
L 271.872 244.781397 
L 275.118545 250.982547 
L 278.365091 256.981486 
L 281.611636 262.492739 
L 284.858182 267.738341 
L 288.104727 272.480397 
L 291.351273 276.921118 
L 294.597818 280.699696 
L 297.844364 284.165045 
L 301.090909 287.091163 
L 304.337455 289.485981 
L 307.584 291.591359 
L 310.830545 293.514349 
L 314.077091 293.129751 
L 317.323636 292.63017 
L 320.570182 293.327998 
L 323.816727 293.268524 
L 327.063273 291.397077 
L 330.309818 289.378928 
L 333.556364 286.817583 
L 336.802909 283.843886 
L 340.049455 280.386467 
L 343.296 276.532555 
L 346.542545 272.083904 
L 349.789091 267.278409 
L 353.035636 262.040737 
L 356.282182 256.446221 
L 359.528727 250.475036 
L 362.775273 244.186658 
L 366.021818 237.620734 
L 369.268364 230.78123 
L 372.514909 223.74348 
L 375.761455 216.487658 
L 379.008 209.132713 
L 382.254545 201.611242 
L 385.501091 194.085805 
L 388.747636 186.445385 
L 391.994182 178.892194 
L 395.240727 171.291423 
L 398.487273 163.85718 
" style="fill:none;stroke:#000000;stroke-linecap:square;"/>
   </g>
   <g id="line2d_19">
    <path clip-path="url(#p4942f207e5)" d="M 73.832727 164.463672 
L 80.596364 148.93657 
L 86.007273 137.000276 
L 91.418182 125.641244 
L 95.476364 117.57074 
L 99.534546 109.931256 
L 103.592727 102.757636 
L 107.65091 96.078585 
L 111.709092 89.916965 
L 115.767274 84.290349 
L 118.472727 80.842977 
L 121.178181 77.641875 
L 123.883637 74.689009 
L 126.589091 71.985712 
L 129.294544 69.532713 
L 132.000001 67.330227 
L 134.705455 65.378062 
L 137.410908 63.675672 
L 140.116365 62.222223 
L 142.821818 61.01671 
L 145.527272 60.05803 
L 148.232728 59.345064 
L 150.938182 58.876822 
L 153.643635 58.652526 
L 156.349092 58.671708 
L 159.054545 58.934242 
L 161.759999 59.440381 
L 164.465456 60.190744 
L 167.170909 61.186203 
L 169.876363 62.427821 
L 172.581819 63.916676 
L 175.287273 65.653767 
L 177.992726 67.639927 
L 180.698183 69.875688 
L 183.403636 72.361255 
L 186.10909 75.09639 
L 188.814547 78.080325 
L 191.52 81.311711 
L 194.225453 84.788542 
L 198.283635 90.457662 
L 202.341817 96.659597 
L 206.399999 103.376553 
L 210.458181 110.58539 
L 214.516363 118.257165 
L 218.574544 126.356779 
L 223.985455 137.749251 
L 229.396365 149.712356 
L 236.16 165.262787 
L 249.687274 197.197331 
L 257.803637 216.006728 
L 263.214544 228.039533 
L 268.625455 239.46823 
L 272.683636 247.544872 
L 276.741818 255.124686 
L 280.8 262.147413 
L 284.858182 268.562477 
L 287.563635 272.484496 
L 290.269092 276.114228 
L 292.974545 279.441714 
L 295.679999 282.454146 
L 298.385456 285.139423 
L 301.090909 287.488091 
L 303.796363 289.493371 
L 306.501819 291.15099 
L 309.207273 292.459752 
L 311.912726 293.424361 
L 313.265455 293.807937 
L 314.618183 294.071557 
L 315.970908 294.466645 
L 317.323636 295.488 
L 318.676365 294.341816 
L 325.44 292.237044 
L 328.145453 290.893844 
L 330.85091 289.2039 
L 333.556364 287.16771 
L 336.261817 284.789048 
L 338.967274 282.074159 
L 341.672727 279.031828 
L 344.378181 275.673358 
L 347.083637 272.010906 
L 349.789091 268.054412 
L 352.494544 263.811809 
L 356.552726 256.934209 
L 360.610908 249.484763 
L 364.66909 241.523188 
L 368.727272 233.114162 
L 374.138182 221.323678 
L 380.901817 205.891788 
L 390.370909 183.593443 
L 398.487273 164.463672 
L 398.487273 164.463672 
" style="fill:none;stroke:#000000;stroke-linecap:square;"/>
   </g>
   <g id="line2d_20">
    <path clip-path="url(#p4942f207e5)" d="M 77.791889 173.628353 
L 85.710214 192.407054 
L 93.628863 210.953409 
L 101.547187 228.718277 
L 109.465512 245.164647 
L 117.383836 259.797697 
L 125.302485 272.18501 
L 133.220809 281.975135 
L 141.139134 288.909924 
L 149.057458 292.819226 
L 156.976107 293.607066 
L 164.894431 291.251548 
L 172.812756 285.811339 
L 180.73108 277.422761 
L 188.649729 266.298278 
L 196.568054 252.738536 
L 204.486378 237.138678 
L 212.404702 219.968867 
L 220.323351 201.746049 
L 228.241676 183.014135 
L 236.16 164.319491 
L 244.078324 146.176765 
L 251.996649 129.045889 
L 259.915298 113.317013 
L 267.833622 99.296228 
L 275.751946 87.193676 
L 283.670271 77.141786 
L 291.58892 69.211134 
L 299.507244 63.424715 
L 307.425569 59.765878 
L 315.343893 58.203696 
L 323.262542 58.721516 
L 331.180866 61.328853 
L 339.099191 66.049499 
L 347.017515 72.906448 
L 354.936164 81.902874 
L 362.854488 92.994369 
L 370.772813 106.077844 
L 378.691137 120.982808 
L 386.609786 137.455506 
L 394.528111 155.147815 
" style="fill:none;stroke:#000000;stroke-linecap:square;"/>
   </g>
   <g id="line2d_21">
    <path clip-path="url(#p4942f207e5)" d="M 77.791889 173.628353 
L 85.710214 192.407054 
L 93.628863 210.953409 
L 101.547187 228.718356 
L 109.465512 245.164727 
L 117.383836 259.797697 
L 125.302485 272.18501 
L 133.220809 281.975135 
L 141.139134 288.90994 
L 149.057458 292.819226 
L 156.976107 293.607066 
L 164.894431 291.251548 
L 172.812756 285.811363 
L 180.73108 277.42284 
L 188.649729 266.298278 
L 196.568054 252.738615 
L 204.486378 237.138757 
L 212.404702 219.968946 
L 220.323351 201.746049 
L 228.241676 183.014135 
L 236.16 164.319491 
L 244.078324 146.176765 
L 251.996649 129.045889 
L 259.915298 113.317013 
L 267.833622 99.295435 
L 275.751946 87.193676 
L 283.670271 77.141786 
L 291.58892 69.210341 
L 299.507244 63.424715 
L 307.425569 59.765085 
L 315.343893 58.202903 
L 323.262542 58.721516 
L 331.180866 61.329646 
L 339.099191 66.049499 
L 347.017515 72.907241 
L 354.936164 81.903667 
L 362.854488 92.994369 
L 370.772813 106.077844 
L 378.691137 120.982808 
L 386.609786 137.456299 
L 394.528111 155.148608 
" style="fill:none;stroke:#000000;stroke-linecap:square;"/>
   </g>
   <g id="line2d_22">
    <path clip-path="url(#p4942f207e5)" d="M 73.832727 168.237823 
L 82.490182 148.35498 
L 88.5504 134.917064 
L 94.610618 122.073281 
L 99.805091 111.648664 
L 104.133818 103.456551 
L 108.462545 95.755511 
L 111.925527 89.975554 
L 115.388509 84.565491 
L 118.851491 79.54309 
L 122.314473 74.921391 
L 125.777455 70.719863 
L 129.240436 66.955582 
L 131.837673 64.428856 
L 134.434909 62.144926 
L 137.032145 60.129991 
L 139.629382 58.383046 
L 142.226618 56.8922 
L 144.823855 55.685512 
L 147.421091 54.740944 
L 150.018327 54.080838 
L 152.615564 53.683615 
L 155.2128 53.568 
L 157.810036 53.73573 
L 160.407273 54.172856 
L 163.004509 54.883193 
L 165.601745 55.877429 
L 168.198982 57.133654 
L 170.796218 58.675999 
L 173.393455 60.471312 
L 175.990691 62.537906 
L 178.587927 64.858768 
L 181.185164 67.443836 
L 184.648145 71.264297 
L 187.245382 74.425439 
L 190.708364 78.991675 
L 194.171345 83.966743 
L 197.634327 89.336253 
L 201.097309 95.058892 
L 205.426036 102.705629 
L 209.754764 110.857692 
L 214.083491 119.447945 
L 219.277964 130.282597 
L 225.338182 143.523075 
L 233.129891 161.229432 
L 258.236509 218.983094 
L 263.430982 230.162465 
L 267.759709 239.054444 
L 272.088436 247.484715 
L 276.417164 255.379728 
L 279.880145 261.270431 
L 283.343127 266.747609 
L 286.806109 271.781603 
L 290.269091 276.349332 
L 292.866327 279.45072 
L 295.463564 282.266865 
L 298.0608 284.788194 
L 300.658036 287.006767 
L 303.255273 288.916731 
L 305.852509 290.512627 
L 308.449745 291.789561 
L 311.046982 292.743642 
L 313.644218 293.372113 
L 316.241455 293.673107 
L 318.838691 293.645733 
L 321.435927 293.290081 
L 324.033164 292.607201 
L 326.6304 291.59913 
L 329.227636 290.268877 
L 331.824873 288.62038 
L 334.422109 286.658235 
L 337.019345 284.388455 
L 339.616582 281.818169 
L 342.213818 278.953952 
L 344.811055 275.80466 
L 347.408291 272.380314 
L 350.871273 267.399699 
L 354.334255 261.972999 
L 357.797236 256.131442 
L 361.260218 249.903038 
L 365.588945 241.629666 
L 369.917673 232.873559 
L 375.112145 221.82919 
L 381.172364 208.36436 
L 388.964073 190.45421 
L 398.487273 168.237823 
L 398.487273 168.237823 
" style="fill:none;stroke:#ff0000;stroke-linecap:square;stroke-width:3;"/>
   </g>
   <g id="patch_3">
    <path d="M 57.6 307.584 
L 57.6 41.472 
" style="fill:none;stroke:#000000;stroke-linecap:square;stroke-linejoin:miter;stroke-width:0.8;"/>
   </g>
   <g id="patch_4">
    <path d="M 414.72 307.584 
L 414.72 41.472 
" style="fill:none;stroke:#000000;stroke-linecap:square;stroke-linejoin:miter;stroke-width:0.8;"/>
   </g>
   <g id="patch_5">
    <path d="M 57.6 307.584 
L 414.72 307.584 
" style="fill:none;stroke:#000000;stroke-linecap:square;stroke-linejoin:miter;stroke-width:0.8;"/>
   </g>
   <g id="patch_6">
    <path d="M 57.6 41.472 
L 414.72 41.472 
" style="fill:none;stroke:#000000;stroke-linecap:square;stroke-linejoin:miter;stroke-width:0.8;"/>
   </g>
   <g id="text_16">
    <!-- 10 km -->
    <g transform="translate(217.299375 35.472)scale(0.12 -0.12)">
     <defs>
      <path d="M 9.078125 75.984375 
L 18.109375 75.984375 
L 18.109375 31.109375 
L 44.921875 54.6875 
L 56.390625 54.6875 
L 27.390625 29.109375 
L 57.625 0 
L 45.90625 0 
L 18.109375 26.703125 
L 18.109375 0 
L 9.078125 0 
z
" id="DejaVuSans-107"/>
     </defs>
     <use xlink:href="#DejaVuSans-49"/>
     <use x="63.623047" xlink:href="#DejaVuSans-48"/>
     <use x="127.246094" xlink:href="#DejaVuSans-32"/>
     <use x="159.033203" xlink:href="#DejaVuSans-107"/>
     <use x="216.943359" xlink:href="#DejaVuSans-109"/>
    </g>
   </g>
   <g id="legend_1">
    <g id="patch_7">
     <path d="M 354.099688 64.150125 
L 407.72 64.150125 
Q 409.72 64.150125 409.72 62.150125 
L 409.72 48.472 
Q 409.72 46.472 407.72 46.472 
L 354.099688 46.472 
Q 352.099688 46.472 352.099688 48.472 
L 352.099688 62.150125 
Q 352.099688 64.150125 354.099688 64.150125 
z
" style="fill:#ffffff;opacity:0.8;stroke:#cccccc;stroke-linejoin:miter;"/>
    </g>
    <g id="line2d_23">
     <path d="M 356.099688 54.570438 
L 376.099688 54.570438 
" style="fill:none;stroke:#ff0000;stroke-linecap:square;stroke-width:3;"/>
    </g>
    <g id="line2d_24"/>
    <g id="text_17">
     <!-- tsa1 -->
     <g transform="translate(384.099688 58.070438)scale(0.1 -0.1)">
      <defs>
       <path d="M 18.3125 70.21875 
L 18.3125 54.6875 
L 36.8125 54.6875 
L 36.8125 47.703125 
L 18.3125 47.703125 
L 18.3125 18.015625 
Q 18.3125 11.328125 20.140625 9.421875 
Q 21.96875 7.515625 27.59375 7.515625 
L 36.8125 7.515625 
L 36.8125 0 
L 27.59375 0 
Q 17.1875 0 13.234375 3.875 
Q 9.28125 7.765625 9.28125 18.015625 
L 9.28125 47.703125 
L 2.6875 47.703125 
L 2.6875 54.6875 
L 9.28125 54.6875 
L 9.28125 70.21875 
z
" id="DejaVuSans-116"/>
       <path d="M 44.28125 53.078125 
L 44.28125 44.578125 
Q 40.484375 46.53125 36.375 47.5 
Q 32.28125 48.484375 27.875 48.484375 
Q 21.1875 48.484375 17.84375 46.4375 
Q 14.5 44.390625 14.5 40.28125 
Q 14.5 37.15625 16.890625 35.375 
Q 19.28125 33.59375 26.515625 31.984375 
L 29.59375 31.296875 
Q 39.15625 29.25 43.1875 25.515625 
Q 47.21875 21.78125 47.21875 15.09375 
Q 47.21875 7.46875 41.1875 3.015625 
Q 35.15625 -1.421875 24.609375 -1.421875 
Q 20.21875 -1.421875 15.453125 -0.5625 
Q 10.6875 0.296875 5.421875 2 
L 5.421875 11.28125 
Q 10.40625 8.6875 15.234375 7.390625 
Q 20.0625 6.109375 24.8125 6.109375 
Q 31.15625 6.109375 34.5625 8.28125 
Q 37.984375 10.453125 37.984375 14.40625 
Q 37.984375 18.0625 35.515625 20.015625 
Q 33.0625 21.96875 24.703125 23.78125 
L 21.578125 24.515625 
Q 13.234375 26.265625 9.515625 29.90625 
Q 5.8125 33.546875 5.8125 39.890625 
Q 5.8125 47.609375 11.28125 51.796875 
Q 16.75 56 26.8125 56 
Q 31.78125 56 36.171875 55.265625 
Q 40.578125 54.546875 44.28125 53.078125 
z
" id="DejaVuSans-115"/>
      </defs>
      <use xlink:href="#DejaVuSans-116"/>
      <use x="39.208984" xlink:href="#DejaVuSans-115"/>
      <use x="91.308594" xlink:href="#DejaVuSans-97"/>
      <use x="152.587891" xlink:href="#DejaVuSans-49"/>
     </g>
    </g>
   </g>
  </g>
 </g>
 <defs>
  <clipPath id="p4942f207e5">
   <rect height="266.112" width="357.12" x="57.6" y="41.472"/>
  </clipPath>
 </defs>
</svg>
