X,Y,surf vx,surf vy,tauxy integr.,tauxy dir.,secinvare integr.,secinvar dir.,P integr.,P dir.,
0.0,1000.0,20.2585188589,7.9881074044,59129.5186946,62551.9501366,70989.0662916,73475.904028,8723613.25908,8723509.39275
40.0,1012.56504772,20.1605574416,7.95114067149,57947.3718887,54156.3656673,70401.2927357,68067.9348992,8222654.06904,8221193.34194
80.0,1025.12215909,20.0508575442,7.96280847139,57603.0498066,55882.6186712,69961.3405302,69873.8573143,8530081.36037,8530374.86391
120.0,1037.66340276,19.9419229092,7.91188964127,56885.2581013,51953.6497674,70491.1466231,67052.7445335,7976351.38772,7976237.55799
160.0,1050.18085743,19.822922881,7.91159957442,58119.9231429,56076.9905208,71074.4186663,71258.739033,8275372.07883,8275381.88001
200.0,1062.66661678,19.7026947721,7.84605199987,57861.9724811,55966.6425615,70772.0482244,70676.1174208,7773143.64565,7773104.85422
240.0,1075.11279456,19.5734889188,7.83400725844,58194.92851,56447.7491543,70886.5831925,69950.2127022,8018468.88615,8018442.24635
280.0,1087.51152949,19.4421394345,7.75332289721,57152.6085279,53587.3152211,71009.1097446,67655.5909178,7559099.21489,7559064.55552
320.0,1099.85499026,19.3017092254,7.72951423429,58583.9749295,53649.0739777,71156.2857648,69631.1659481,7957575.47556,7957496.93495
360.0,1112.13538047,19.1590064687,7.63406385429,58259.9850131,52806.052739,71782.3881727,67112.9192339,7317401.66166,7317405.08883
400.0,1124.34494358,19.0079206909,7.59834425765,59423.7614398,57780.2842508,71698.0188477,71443.7477573,7601601.32747,7601563.77879
440.0,1136.47596776,18.8549980027,7.4876733134,59276.592672,57929.8479718,71275.3156812,69439.2290388,7044060.79008,7044037.97264
480.0,1148.52079079,18.6933084744,7.43970090988,58949.2448883,57901.4371427,71393.8165248,71166.0324971,7413291.88025,7413271.7797
520.0,1160.4718049,18.5301569036,7.31414989896,59729.2821955,65779.4278981,70855.0310904,71307.9010225,7000407.34269,7000351.81511
560.0,1172.32146159,18.3578251404,7.2535781894,58952.6785577,55345.304925,71419.0057826,69251.4276899,7168272.4536,7168269.38526
600.0,1184.06227634,18.1857898717,7.11393453706,60460.8745105,57659.0008554,71186.7539011,68931.5930438,6667966.18131,6667930.54923
640.0,1195.68683342,18.0025321591,7.04123900933,59427.2122793,55471.4999222,70757.3123803,69252.8876158,6902510.99418,6902495.41096
680.0,1207.1877905,17.8199690316,6.88839337296,59655.9253947,57219.8374593,70560.6569105,69307.7281004,6558100.96949,6558078.95173
720.0,1218.55788333,17.6264597484,6.80447832093,59771.1615711,57315.1111693,70603.7130148,69254.0764356,6763546.57119,6763518.78216
760.0,1229.78993031,17.434960123,6.64021263715,59670.2257064,57766.8336085,70664.1735535,68169.760561,6308441.29625,6308423.54305
800.0,1240.87683705,17.2318208933,6.54582693031,60742.8283992,65521.3513625,70500.2004143,72034.4612858,6493285.43743,6493242.0533
840.0,1251.81160082,17.0310120849,6.37191781168,59977.4556316,56509.2404969,70877.2878857,67108.8507266,6113103.47563,6113098.51238
880.0,1262.58731498,16.8210887508,6.26826380674,61922.1931098,59031.4914658,70926.2612262,70003.60403,6404908.34684,6404869.08443
920.0,1273.19717337,16.6131091833,6.08616107559,60811.203912,56862.2613191,70647.1936094,66914.7208591,5922881.15702,5922874.34847
960.0,1283.63447456,16.3980119915,5.97213137514,62312.6490128,59047.1771046,70684.625104,69580.1888576,6111330.70606,6111292.73745
1000.0,1293.89262615,16.1861791839,5.78268301573,61753.7369657,58589.7324323,70345.7938039,66810.0602218,5727159.2621,5727155.51622
1040.0,1303.96514885,15.9674599759,5.6601219425,62299.6118502,61482.6774623,69659.9712108,69387.1822581,6031891.84453,6031856.88744
1080.0,1313.84568065,15.7539664017,5.46266333457,61514.3703293,57970.7977599,69379.7647795,66297.4299682,5559371.44032,5559376.08961
1120.0,1323.52798078,15.5350546117,5.3317590019,62117.6098758,62975.1841785,69462.9419081,71375.614989,5713039.20224,5713015.93797
1160.0,1333.00593372,15.3202237228,5.12822437293,61981.9081997,60662.4713522,68723.6510187,67817.7108153,5415687.48156,5415684.83362
1200.0,1342.27355296,15.1034904132,4.99011277296,61453.0612454,58136.3600859,68431.4477438,67046.8439877,5624463.66115,5624440.33227
1240.0,1351.3249849,14.8901798976,4.78168251782,61945.4858187,59286.7030301,68547.7426541,66683.3267808,5250172.66574,5250168.1665
1280.0,1360.15451244,14.676457777,4.63730687451,62234.0727822,59463.974933,68716.8369108,66903.8026529,5378706.05507,5378687.75135
1320.0,1368.75655868,14.4674235037,4.42498924103,62391.1592063,61669.9434632,68086.022832,66880.2681402,5180944.85933,5180924.36629
1360.0,1377.12569037,14.2586919528,4.27688503791,62088.2773805,59650.8912921,68230.2567861,66709.5442423,5242653.73641,5242651.10896
1400.0,1385.25662139,14.055060155,4.06334858302,63057.1299538,63844.7767582,68490.3337968,69231.7293013,4900384.97477,4900369.4721
1440.0,1393.14421607,13.8533754013,3.91327748672,63271.3223226,61767.9271901,68122.6359752,67935.1231622,5108957.65641,5108958.20034
1480.0,1400.78349244,13.6574568102,3.70051556787,63157.6141117,60061.2084452,68003.7457868,65126.6454652,4883271.48962,4883258.75405
1520.0,1408.16962536,13.4652463654,3.55014677783,63945.2529176,62046.6533804,67920.6796231,66956.9046724,4943723.13912,4943701.71418
1560.0,1415.2979496,13.2814366012,3.33898618317,63203.7500994,61472.6486911,67386.1765868,65237.8523127,4697930.53664,4697935.77675
1600.0,1422.16396275,13.100870261,3.18848922212,63626.2557509,62666.4009658,67769.1282241,67618.8432022,4860663.72999,4860650.51395
1640.0,1428.7633281,12.9307085773,2.98079145452,64607.6517752,64645.4468079,67882.3977034,68644.5833553,4556627.20899,4556619.07801
1680.0,1435.09187733,12.7640194626,2.83090308021,63923.3996535,64235.7376939,66726.2235837,67320.9376071,4711176.52958,4711172.90331
1720.0,1441.14561322,12.6085339974,2.62910278526,63427.5829522,60894.4719725,66753.4894684,64503.0324384,4512635.43648,4512627.28112
1760.0,1446.92071208,12.456317958,2.48177045296,65062.29694,65324.0417956,67720.1012156,69071.2455919,4531365.78149,4531363.30394
1800.0,1452.41352623,12.3161521789,2.28888931494,64735.0871332,63860.18179,66826.967819,65878.5088833,4436089.9792,4436075.28786
1840.0,1457.62058631,12.1805701724,2.14508054111,64444.4877477,61995.7505376,66689.642938,64819.6820995,4481403.06823,4481407.05665
1880.0,1462.53860342,12.0590028863,1.96145066639,64817.1176047,64817.6736536,66737.5062666,66488.2274603,4267849.87855,4267841.31522
1920.0,1467.16447123,11.9410271814,1.82148763571,65012.6241959,64411.6158943,66845.5727456,66556.1120779,4492882.38579,4492873.94415
1960.0,1471.49526795,11.8370344189,1.64901692227,65773.5785284,66955.8942921,67045.3677611,68449.8163834,4213493.19086,4213491.30938
2000.0,1475.52825815,11.7374193146,1.51480689853,65344.9766466,65187.7097709,66297.8887709,66582.4121095,4328114.0922,4328108.63153
2040.0,1479.26089451,11.6502933492,1.35560945903,64921.3457422,63412.3896168,65925.6831484,64234.6878383,4172085.86694,4172086.42592
2080.0,1482.69081942,11.5682824124,1.22915882672,65449.3263133,65761.3088097,66300.2955769,66861.4593598,4148962.78099,4148956.45141
2120.0,1485.81586646,11.4992839154,1.08425302143,65372.1523411,65753.087485,65954.8658239,66217.4601445,4161605.70646,4161599.97423
2160.0,1488.63406178,11.4368740415,0.966072381239,65139.7639336,64485.4807164,65596.8974269,65097.725639,4063630.67398,4063626.23864
2200.0,1491.14362536,11.3865914149,0.834469193996,64821.4101858,64644.2452025,65145.4665907,64919.3888804,4106414.55896,4106412.01299
2240.0,1493.3429721,11.3447090026,0.723047744669,64568.2752831,64389.9582985,64827.7599337,64744.486031,4068601.00706,4068598.76347
2280.0,1495.23071285,11.3134746586,0.60204602985,64328.6052001,64474.1782382,64503.1851555,64606.7442094,4051560.70661,4051559.42111
2320.0,1496.80565526,11.2904160455,0.494370580217,64156.7126522,64263.3380848,64289.9816992,64453.9718178,4067035.20843,4067033.9821
2360.0,1498.06680457,11.2759608923,0.3796370422,64013.1618402,64353.031997,64087.3871062,64401.7439399,4012744.87658,4012744.10116
2400.0,1499.01336421,11.2676294293,0.272801067673,63919.1317511,64193.8799066,63969.3974779,64272.9501702,4062315.4953,4062314.79369
2440.0,1499.64473632,11.2625597635,0.161454354368,63850.0093777,64283.0100933,63865.2426126,64290.0145964,3991601.14393,3991600.69952
2480.0,1499.9605221,11.2598087925,0.0541182019261,63818.2444584,64171.5264366,63828.8875746,64187.3448265,4056774.76077,4056774.28512
2520.0,1499.9605221,11.2599342679,-0.0558398817493,63816.930777,64262.4386868,63820.1059941,64266.9288513,3989609.36843,3989608.88775
2560.0,1499.64473632,11.2625673205,-0.163698004177,63849.1916699,64198.724534,63868.8578159,64205.7486955,4052257.50197,4052257.23554
2600.0,1499.01336421,11.2678181829,-0.27357124355,63918.1081247,64267.1532978,63957.2882223,64308.4564712,4008246.78968,4008246.75843
2640.0,1498.06680457,11.2758393554,-0.383001907909,64024.3530068,64306.8934933,64099.7178367,64357.286068,4050471.8934,4050472.23054
2680.0,1496.80565526,11.2906197566,-0.494434984146,64159.8685303,64363.5497642,64278.3334286,64481.8123348,4049262.19853,4049262.81063
2720.0,1495.23071285,11.3137820538,-0.606422447257,64344.0429171,64441.3490355,64517.8819093,64585.1403503,4052960.85664,4052962.04755
2760.0,1493.3429721,11.3453875237,-0.721780027145,64576.3795989,64532.7153193,64816.4773748,64767.0613106,4114452.15745,4114454.35195
2800.0,1491.14362536,11.3875413896,-0.840458500139,64843.6226857,64676.9103866,65167.0541838,64974.3693302,4061885.12345,4061887.22528
2840.0,1488.63406178,11.4383346245,-0.963840065235,65157.676888,64663.8885368,65587.4726044,65087.3561064,4207041.51925,4207048.90132
2880.0,1485.81586646,11.5006024133,-1.09202215668,65410.8112541,66102.3597365,65990.9320697,66547.9218383,4093356.52259,4093362.05666
2920.0,1482.69081942,11.5705588001,-1.22597626048,65538.8238925,66085.1020052,66347.5701765,66886.1232282,4238911.65288,4238917.23997
2960.0,1479.26089451,11.6520696021,-1.36561650048,65005.9151167,64579.2421429,66026.9848437,65569.8743204,4192725.63716,4192729.01704
3000.0,1475.52825815,11.7398339525,-1.51073737339,65302.5416853,63008.9194595,66269.6759325,64546.8312037,4205656.33661,4205659.99873
3040.0,1471.49526795,11.8390071261,-1.66148965578,65872.8854426,67175.7021029,67168.1029109,68261.1266433,4274010.69708,4274019.1102
3080.0,1467.16447123,11.9438539824,-1.81732764835,65044.8613777,65582.2935225,66922.9403864,67620.8095562,4211646.85429,4211655.92925
3120.0,1462.53860342,12.0600411942,-1.97700343281,64880.6285264,64963.7674745,66839.3310689,66632.8713085,4371517.39617,4371527.0527
3160.0,1457.62058631,12.1819141039,-2.14061367758,64442.2363239,63496.4528983,66727.0523423,65974.9559029,4390019.85786,4390026.12538
3200.0,1452.41352623,12.3164682156,-2.30711900195,64795.908915,61651.0018485,66898.775427,64652.8309195,4381257.61917,4381265.49381
3240.0,1446.92071208,12.4554886543,-2.47661325822,65150.4001239,66180.6816205,67829.8121628,68414.5087087,4525358.31484,4525374.46829
3280.0,1441.14561322,12.6063619175,-2.64963641348,63365.9807118,63094.6292071,66873.5162024,67223.0051019,4501312.69669,4501323.32742
3320.0,1435.09187733,12.7600953006,-2.82480808391,63652.3894776,61024.988577,66634.9211179,64661.205401,4574135.1577,4574144.01044
3360.0,1428.7633281,12.9256782743,-3.00255299587,64253.0021495,65476.9476449,67758.6559171,68721.9890001,4659157.82234,4659173.34524
3400.0,1422.16396275,13.093442228,-3.18081038461,62482.6344141,61955.8392977,66820.5267063,67087.5200949,4672229.80212,4672247.15724
3440.0,1415.2979496,13.272704294,-3.36111027564,63155.6510922,60869.8579249,66827.6176283,65169.459533,4749527.76178,4749538.43426
3480.0,1408.16962536,13.4537570535,-3.54009729028,63837.1043031,64999.2415243,68062.9649453,68995.6360521,4843087.84098,4843109.18496
3520.0,1400.78349244,13.6458017127,-3.72054021228,62238.2402573,61690.3980752,67340.8104645,67541.4235521,4868157.96133,4868174.43693
3560.0,1393.14421607,13.8391893622,-3.89886664621,63032.4585586,60419.6616297,67421.6969079,65619.6081872,4941960.02065,4941973.48001
3600.0,1385.25662139,14.0422477989,-4.07888207445,63787.6542014,64868.1289498,68865.1980257,69579.5511448,5028024.21868,5028059.5807
3640.0,1377.12569037,14.2446277068,-4.25609899824,62109.1969753,61402.9895841,68238.5837477,68496.1671126,5102107.94352,5102122.8736
3680.0,1368.75655868,14.4562761198,-4.43508283097,62773.2695766,59047.3268878,68195.8137767,65521.8919185,5129197.01484,5129224.62388
3720.0,1360.15451244,14.6665691219,-4.60958421329,62372.822033,62632.1769366,68804.1105369,67215.2052461,5252341.77958,5252362.69551
3760.0,1351.3249849,14.8827486634,-4.78588442407,62121.4919825,58336.9727952,68640.5836166,67603.2626822,5315399.4828,5315420.51928
3800.0,1342.27355296,15.0961825415,-4.95835637636,61554.5747175,58531.91586,68473.7013977,64850.370193,5375419.30064,5375454.28909
3840.0,1333.00593372,15.3152901154,-5.13122457103,62143.1095499,61220.4946584,68840.5388071,69258.4609448,5488105.30902,5488125.62987
3880.0,1323.52798078,15.52975822,-5.29896192394,62276.8882695,62616.0434204,69545.5638635,69219.9229704,5575068.37854,5575114.48147
3920.0,1313.84568065,15.74837129,-5.46689139249,61673.0846637,62464.8122204,69625.9835459,70161.5195606,5680312.6258,5680334.46595
3960.0,1303.96514885,15.9619671198,-5.62791034176,62348.2532984,56825.9469366,69804.653439,66787.2973379,5674761.95998,5674810.71172
4000.0,1293.89262615,16.1792170187,-5.78846134696,61801.6917709,61534.3061547,70701.6950903,68407.5498537,5852658.46611,5852682.42967
4040.0,1283.63447456,16.3904846568,-5.9415398789,62137.8932075,57307.0666138,70821.359338,69457.8602901,5906335.47283,5906384.86283
4080.0,1273.19717337,16.6039066612,-6.09360578444,60239.3255029,56058.0579062,70711.9084946,66970.80919,6018515.29169,6018541.93816
4120.0,1262.58731498,16.811218523,-6.23839061807,60788.8257617,58711.9015779,70016.2690722,69976.6939584,6059743.82334,6059795.85356
4160.0,1251.81160082,17.0190507773,-6.38143372223,59769.4084023,53092.060753,70247.4688877,66469.9197837,6186773.29182,6186803.95209
4200.0,1240.87683705,17.220337063,-6.51712077133,59931.1330217,63854.7323207,70145.1798895,70130.1957289,6330858.95624,6330905.93805
4240.0,1229.78993031,17.4200421686,-6.64970498177,59451.1372891,54253.1232266,69945.4924912,69392.554453,6369497.48851,6369538.11252
4280.0,1218.55788333,17.6128263197,-6.77532570019,59367.2971493,56658.5246696,69946.3076327,66574.8579852,6497132.41816,6497170.21758
4320.0,1207.1877905,17.8045545186,-6.89702730185,60457.7953899,58446.6429242,70505.3719131,70387.3902919,6587784.97972,6587836.13028
4360.0,1195.68683342,17.9876735126,-7.01109152425,59455.5755182,56755.1922187,70695.7416973,68214.4098483,6710865.81584,6710899.19081
4400.0,1184.06227634,18.1702531116,-7.12021942585,60826.8126451,58027.7619861,71200.5245903,70372.6640722,6786450.80939,6786510.10998
4440.0,1172.32146159,18.3445422238,-7.22159075903,59102.0993196,55132.1285629,71386.5954003,68172.0143035,6906419.4961,6906456.50368
4480.0,1160.4718049,18.5176089645,-7.3174821372,60074.3717171,67467.0339892,70934.3828695,74073.4595983,6994476.49965,6994534.51055
4520.0,1148.52079079,18.6826981051,-7.40470543991,59150.4172111,51929.9127982,71418.4915811,67710.7842759,7101389.72442,7101440.2187
4560.0,1136.47596776,18.845948759,-7.48662045809,59376.8837434,63436.3569227,71411.0771673,71021.3979819,7249204.48215,7249245.74255
4600.0,1124.34494358,19.0019194357,-7.56104893128,59292.701712,53326.3072816,71490.6085033,70875.7937981,7287122.76523,7287185.21649
4640.0,1112.13538047,19.1548078089,-7.62970699262,58492.513525,54667.0145115,71537.4924747,67787.5072435,7463710.65259,7463753.35409
4680.0,1099.85499026,19.2998070821,-7.69137748443,59436.0075329,57209.8568435,71272.4980904,71364.2823841,7524703.61567,7524762.88778
4720.0,1087.51152949,19.4417655873,-7.74710789483,58443.3121579,51235.9027316,71618.0677285,68059.4203801,7664816.05941,7664871.59977
4760.0,1075.11279456,19.5755782778,-7.79634970973,58505.401978,62197.9521811,71524.3076905,70660.3812525,7773258.96389,7773302.43711
4800.0,1062.66661678,19.7063557688,-7.83949341959,57990.5522939,52502.2368458,70876.0297754,71038.5029748,7831041.19406,7831109.64328
4840.0,1050.18085743,19.8291095791,-7.87610369823,58351.1431998,51268.4594468,71157.5672104,66763.9159192,7993760.03906,7993810.04364
4880.0,1037.66340276,19.9481478189,-7.90656539743,58684.5654932,62673.9648932,71358.1954369,71047.2225316,8138618.56746,8138671.55377
4920.0,1025.12215909,20.0594931756,-7.93097994827,58650.494732,53352.77727,71343.582788,70887.4293956,8190765.045,8190829.51499
4960.0,1012.56504772,20.1675376433,-7.94856469121,58172.4037083,54733.6309152,71458.517797,67872.3631409,8330050.46166,8330096.2565
5000.0,1000.0,20.2682136202,-7.96036092351,59092.4093067,56839.3195588,71260.4934837,71424.4067447,8421822.90559,8421889.44655
5040.0,987.434952278,20.3654461392,-7.96498431941,58316.6816057,50960.8918452,71579.1845542,67923.6813571,8548141.61538,8548199.82473
5080.0,974.87784091,20.4556729671,-7.96484769689,58511.5099056,62149.8901703,71504.743215,70562.9111724,8668063.0141,8668111.60757
5120.0,962.336597236,20.5424429152,-7.95718640167,58005.5081107,52692.3344411,70855.8204386,71092.7048812,8739049.40389,8739120.94973
5160.0,949.819142574,20.6230130297,-7.94490975144,58482.7641859,51530.9513619,71067.1905648,66695.0117238,8893955.05197,8894006.77135
5200.0,937.333383218,20.7000749556,-7.92523624544,58920.9481744,62837.150494,71274.0492027,71032.3438119,9010291.29838,9010350.75714
5240.0,924.88720544,20.7708719005,-7.90110135004,58821.6661307,53548.1826738,71161.6128013,70646.1103182,9094950.30958,9095016.09754
5280.0,912.488470512,20.8382774179,-7.86986529061,58498.2323585,55199.7336376,71187.7137744,67414.9215524,9219643.66824,9219690.41173
5320.0,900.145009743,20.9005669956,-7.83458799348,59353.1574754,57189.1214829,70924.2413574,71282.6248122,9322526.40235,9322596.87035
5360.0,887.864619525,20.9592688621,-7.79212575488,58920.6146332,51799.362878,71204.0628712,67383.6432552,9430688.76852,9430744.18532
5400.0,875.655056418,21.0128992333,-7.74580275824,59526.1432442,63495.3708639,71270.3028691,70985.152466,9554368.99836,9554424.2819
5440.0,863.524032241,21.0629104516,-7.69273909015,59334.9892169,53478.489498,71176.1972692,70480.5767496,9625583.39536,9625651.98938
5480.0,851.479209211,21.1088853046,-7.63572241004,58933.2992254,55350.0860425,71039.3103526,67068.3802254,9780233.34131,9780279.40413
5520.0,839.528195096,21.1511153931,-7.57240302976,59773.4954217,57937.0294426,70745.3835146,71216.7860591,9864248.32213,9864315.75593
5560.0,827.678538413,21.1894627746,-7.50512752548,59285.8611487,52303.7591229,70875.8567444,67077.1183827,9975146.54201,9975199.46501
5600.0,815.937723658,21.2246240871,-7.43197617475,59875.999504,63748.3720253,70907.8886983,70657.3748687,10058678.7888,10058737.8084
5640.0,804.313166581,21.2563926979,-7.35447371565,59477.2062674,53814.4125347,70607.4123752,69985.5600591,10172115.3434,10172178.5385
5680.0,792.812209503,21.2849130534,-7.27188054825,59245.3979919,55739.4650025,70338.5362669,66170.479381,10300920.2217,10300965.8334
5720.0,781.442116675,21.3103467189,-7.18476163874,59824.6578606,58127.9174485,69975.4381396,70602.3266912,10400591.8435,10400660.9896
5760.0,770.210069689,21.3330267905,-7.0929728425,59645.8013617,52911.2363261,69988.3953456,65904.9714783,10466404.1067,10466446.8053
5800.0,759.123162949,21.3531047015,-6.99635641727,60113.8075866,63658.400917,69957.899764,72917.5598734,10590139.9387,10590205.5543
5840.0,748.188399182,21.370429235,-6.8955914346,59605.0164673,54331.7885445,69450.9906098,68778.4993025,10697744.7545,10697789.7088
5880.0,737.412685019,21.3855167964,-6.78984705309,60189.398958,63683.1972262,69276.4536145,70963.0234697,10822044.9647,10822104.7142
5920.0,726.802826633,21.398381293,-6.68031841491,60835.7735503,59228.8824717,69521.6165744,69769.7717113,10874454.7914,10874502.508
5960.0,716.365525437,21.4091198664,-6.56577626745,60530.5112037,62173.5662775,69193.438185,70307.5829711,10947541.2013,10947598.4902
6000.0,706.107373854,21.4179553512,-6.4475251125,61373.1970544,59528.189451,69414.5188059,69229.2518685,11079507.816,11079556.5565
6040.0,696.034851153,21.4248363208,-6.32434618292,60885.1791952,62790.0681205,69038.1953944,70351.7899293,11174370.4066,11174424.105
6080.0,686.154319355,21.4309227739,-6.1979477516,61681.9048622,60212.5903339,69191.1161927,69163.3158846,11252802.0833,11252848.2732
6120.0,676.472019215,21.4360869323,-6.06645495057,61156.8008942,62744.4392927,68774.7052927,70016.0693573,11297593.2635,11297646.7717
6160.0,666.994066283,21.4406368803,-5.93212647866,61816.0610645,60291.8657705,68820.4926198,68734.6404135,11448751.1314,11448792.1838
6200.0,657.726447036,21.4443956054,-5.79315400627,61417.433154,62951.9783819,68415.8302956,69684.3500702,11504953.1406,11505004.8498
6240.0,648.675015101,21.447635377,-5.65158509477,61882.2337486,60548.6725316,68310.0018576,68308.1971846,11595261.3906,11595296.0657
6280.0,639.845487556,21.4502368065,-5.50547343398,61810.6027027,63185.8870287,68026.0501379,69339.8661292,11633372.7089,11633427.6786
6320.0,631.243441321,21.4525881029,-5.35706655083,62246.0097506,61187.5184071,67957.559951,68249.0172581,11812897.8539,11812932.9461
6360.0,622.874309632,21.4543074135,-5.20431860459,62867.2719691,63538.7531718,68286.2146624,68868.3264034,11804417.2297,11804465.7135
6400.0,614.743378612,21.4559155749,-5.04960852887,62124.9767291,63670.9775983,67656.9644621,69350.062653,11889334.1982,11889377.5168
6440.0,606.855783932,21.4569579834,-4.89087764948,62686.49139,59107.76004,67389.8011579,65300.3579628,11958320.5658,11958352.1469
6480.0,599.216507565,21.4578916666,-4.73034334678,63262.1452463,65818.0023396,67782.5557231,70167.3760855,12046882.085,12046928.245
6520.0,591.830374641,21.4583339098,-4.56604573953,62712.4720777,59798.3789112,67287.1598691,66961.8298252,12098836.2652,12098869.3079
6560.0,584.702050402,21.4587520593,-4.40016513249,63624.4283452,65033.422827,67557.0278717,68345.947047,12176859.0683,12176893.1102
6600.0,577.836037249,21.4587959625,-4.23073192772,62802.8465338,63881.483137,66857.9210302,68519.0440913,12239127.361,12239166.9262
6640.0,571.236671903,21.4587663857,-4.05991129031,63266.0764529,60670.6727049,66475.8381144,64789.0691696,12289359.8167,12289388.5398
6680.0,564.908122665,21.4585445223,-3.88585486246,64308.637362,65934.5215958,67372.3269587,69079.0515305,12349358.7991,12349387.1276
6720.0,558.854386783,21.4582344048,-3.71057867701,63133.1867908,64328.5041463,66310.5919404,67646.8235588,12424755.7754,12424791.4848
6760.0,553.079287924,21.4577750625,-3.5322896506,63777.9454836,61854.5013995,66156.7338755,64722.9777103,12437088.3789,12437118.5605
6800.0,547.586473767,21.4572135141,-3.35299600507,64736.081396,65785.4128305,66985.0324243,68379.810895,12534003.9998,12534022.9266
6840.0,542.37941369,21.4566145415,-3.17092664739,64161.4288749,64934.2897308,66480.4428918,67210.1810419,12557522.0289,12557552.1956
6880.0,537.461396583,21.4559232578,-2.98802442938,63819.0691401,64511.9213669,65732.3322125,66649.5915162,12567831.9143,12567860.2913
6920.0,532.835528772,21.4552179124,-2.80261244359,64263.2019794,62178.2147766,65852.8839176,64641.3750818,12708497.8644,12708521.6695
6960.0,528.504732054,21.4545291753,-2.61654815184,65104.3510153,66550.6927757,66530.4193611,68109.456107,12660714.5922,12660730.1244
7000.0,524.471741852,21.4537433178,-2.42814477246,64491.5387944,65338.5185502,65972.0951983,66830.8873404,12727534.5187,12727549.2342
7040.0,520.739105491,21.4530569145,-2.23936813748,63944.5883006,64873.4954199,65088.2492599,66181.4085975,12751733.9845,12751758.4093
7080.0,517.309180583,21.452381022,-2.04844412971,64356.1285378,64624.0860111,65198.5745956,65206.8578365,12790725.4249,12790745.6625
7120.0,514.184133543,21.4517418948,-1.85732996471,65091.2611345,64006.0549079,65778.8203281,64644.325346,12857337.0759,12857353.683
7160.0,511.365938216,21.4510994354,-1.66430573395,64684.1364477,65218.2017534,65300.6629445,65838.6059274,12830368.3711,12830381.0408
7200.0,508.856374636,21.4506444042,-1.4713039628,64589.3317385,64601.0946209,65000.336151,65120.3780701,12888355.0155,12888363.8995
7240.0,506.657027896,21.4501008809,-1.27673248804,64893.7473369,65300.212697,65172.4690707,65556.8083865,12878785.3465,12878792.6729
7280.0,504.769287152,21.4498255368,-1.08216876498,65049.0082562,65030.8891305,65235.493244,65279.6213903,12905545.835,12905551.4331
7320.0,503.19434474,21.4493217719,-0.886502543337,65297.7531294,65534.1654397,65411.9165026,65631.5547698,12917568.1662,12917575.3247
7360.0,501.933195428,21.449278046,-0.690725131143,65445.3828334,65415.6843269,65516.9722425,65522.7001992,12922010.648,12922015.1521
7400.0,500.986635786,21.4488813129,-0.494489524013,65594.9502701,65702.8694894,65628.3628798,65725.7264006,12942435.9311,12942440.8945
7440.0,500.35526368,21.4490476734,-0.297874696859,65661.536197,65638.6652868,65680.5556469,65671.774344,12934927.1293,12934930.3936
7480.0,500.039477898,21.4487735124,-0.101496082283,65725.8938724,65750.260797,65729.0203163,65750.6056287,12952236.1138,12952237.3447
7520.0,500.039477898,21.449095098,0.0956133707574,65730.1928049,65687.6090539,65740.065985,65692.2333584,12942973.2482,12942972.5388
7560.0,500.35526368,21.4489802649,0.291647001974,65674.3858627,65736.6195652,65687.555436,65756.2169478,12945780.7448,12945777.6248
7600.0,500.986635786,21.4494848402,0.488912293002,65580.8910997,65613.1296467,65623.3275264,65628.6924987,12945269.2142,12945266.1449
7640.0,501.933195428,21.4494965484,0.684171905292,65455.6565569,65530.5188884,65523.3466956,65620.113029,12923131.9793,12923127.6119
7680.0,503.19434474,21.4501167869,0.881231258238,65295.0585606,65416.957287,65419.4702515,65484.1464321,12940829.8216,12940825.5357
7720.0,504.769287152,21.4503636382,1.0753128287,65063.3621005,65250.606793,65247.3736706,65479.1077746,12882617.0578,12882612.3022
7760.0,506.657027896,21.4511019932,1.27173600325,64896.6309053,65030.0411074,65186.8179881,65213.0918016,12928749.384,12928743.7548
7800.0,508.856374636,21.4515628635,1.4641646618,64611.2880009,65105.6917184,65018.8875341,65588.7037307,12821568.4478,12821560.8003
7840.0,511.365938216,21.4523685969,1.65947827657,64689.507999,64383.2905926,65310.1293692,64860.6029168,12905169.6662,12905157.6502
7880.0,514.184133543,21.4530525058,1.84993255598,65054.0979082,64534.4216424,65760.27226,65198.7268202,12750699.9765,12750683.4658
7920.0,517.309180583,21.4538711935,2.04361590989,64383.9398777,65725.6534902,65239.5748308,66082.8679338,12845006.7308,12844980.9759
7960.0,520.739105491,21.454740053,2.23173891545,63997.0282744,64785.3959015,65124.7971972,65999.7044612,12727044.6421,12727028.8989
8000.0,524.471741852,21.4556037704,2.42325049135,64479.547943,64455.4283163,65942.0929925,65699.7656591,12780850.9151,12780839.5022
8040.0,528.504732054,21.4565467842,2.60862353386,65047.5896118,66732.6723408,66504.6360734,68450.851687,12668451.6124,12668439.2193
8080.0,532.835528772,21.4573479466,2.79753973463,64331.717935,64031.771914,65927.2066772,66027.4703796,12654802.4394,12654783.7855
8120.0,537.461396583,21.4583376433,2.97979342154,63851.0355159,64099.5820044,65750.3193779,66216.9559174,12591974.6724,12591935.7395
8160.0,542.37941369,21.4590681278,3.16557633134,64156.1367973,64377.3660479,66458.1523851,66257.9323305,12643394.776,12643378.0776
8200.0,547.586473767,21.4600022431,3.34439766313,64703.3163143,65695.2764214,66989.7149519,68592.0878009,12452549.0555,12452535.3081
8240.0,553.079287924,21.4605447903,3.52658544272,63832.0344455,63946.4140086,66216.021465,66345.2996175,12582408.1451,12582380.83
8280.0,558.854386783,21.4612909986,3.70151958591,63208.3415222,63242.1106034,66326.3698819,66261.126264,12354408.8271,12354369.5739
8320.0,564.908122665,21.4616641199,3.87971681453,64263.2572954,65548.4955191,67327.816458,68853.4443174,12458736.5122,12458722.8699
8360.0,571.236671903,21.4621403649,4.05039584939,63390.4236001,63344.8746038,66593.9352642,67122.6213796,12254180.3361,12254156.8609
8400.0,577.836037249,21.4622488524,4.22417309154,62883.5363474,62432.0609999,66815.7151496,66296.8517165,12338800.743,12338754.0537
8440.0,584.702050402,21.4623641057,4.39007119271,63534.5962438,65018.7208942,67527.0753049,69129.3078658,12127476.3919,12127458.123
8480.0,591.830374641,21.4621093674,4.55903000741,62949.6211973,62216.370344,67375.1637147,67337.2071565,12248907.9829,12248872.3963
8520.0,599.216507565,21.4617045118,4.7197145663,63203.9099266,64183.7099952,67705.1533038,69522.0623196,11994018.6606,11993986.7905
8560.0,606.855783932,21.4609887913,4.88347469012,62828.1356099,62831.2847962,67477.1698637,67524.6530049,12107620.5649,12107595.2757
8600.0,614.743378612,21.4599178707,5.03844263184,62134.192786,61422.7169734,67574.8430827,67109.3777017,11866325.2337,11866259.7785
8640.0,622.874309632,21.4586096063,5.19662774349,62849.0491931,64258.8766667,68268.765253,69613.6482525,11981062.3163,11981037.5197
8680.0,631.243441321,21.4568261813,5.34529061379,62335.0852426,61817.5086137,67991.2885006,68359.7847917,11660809.2839,11660776.7588
8720.0,639.845487556,21.4547106127,5.4975662022,61884.5218772,63482.0844797,68012.5500758,69380.9521321,11855020.8363,11854980.8015
8760.0,648.675015101,21.4520671005,5.63937383771,61909.724275,61135.2691639,68317.4631099,68591.9842054,11544376.7966,11544355.2758
8800.0,657.726447036,21.4489554744,5.78518215264,61488.6991399,63036.8668817,68383.4733872,69602.395118,11671237.4727,11671182.209
8840.0,666.994066283,21.4451762278,5.91967023637,61760.2448682,60920.3089995,68796.8319064,69158.7157106,11358817.0072,11358795.0956
8880.0,676.472019215,21.4407222984,6.05867608896,61259.0441762,62784.2396049,68766.4654586,70087.3578908,11556071.2072,11556009.3435
8920.0,686.154319355,21.4355787913,6.18529586316,61600.2104628,60367.6568603,69171.6837129,69271.6383995,11197754.6424,11197730.4673
8960.0,696.034851153,21.4295497486,6.31697154126,61040.1049896,62310.8313183,69079.8816901,70322.7738554,11344124.0569,11344057.2843
9000.0,706.107373854,21.4225984353,6.43488905513,61365.4241341,60423.5082415,69405.9780417,69624.0540767,11006661.9149,11006637.1139
9040.0,716.365525437,21.4133337003,6.55926656275,60639.9424332,61897.9577522,69201.0461104,70319.4074238,11210609.4417,11210542.9621
9080.0,726.802826633,21.4029332761,6.66746255171,60895.6878883,59850.6242501,69590.1330382,69847.3409616,10827559.7439,10827535.3676
9120.0,737.412685019,21.3895039768,6.78429364229,60411.9651825,62076.886467,69335.0169029,71000.5471472,10984366.2401,10984300.4613
9160.0,748.188399182,21.3751453629,6.88243104389,59885.7766886,58804.5203643,69440.0252849,69713.8179633,10615865.568,10615843.4857
9200.0,759.123162949,21.3571356384,6.9913408256,59996.7939342,60032.1926655,69724.1773725,70575.200667,10825335.5718,10825275.9681
9240.0,770.210069689,21.3381118363,7.07927844207,59787.6974982,57880.7719509,70045.8260196,69657.0257481,10441503.9218,10441479.6272
9280.0,781.442116675,21.3146650172,7.1803001675,60217.7658091,59222.8690389,70021.5718331,70099.510698,10625363.1087,10625310.3073
9320.0,792.812209503,21.290086911,7.25747817748,59354.9056254,55567.8586483,70195.9755885,68195.3131705,10195995.605,10195955.1608
9360.0,804.313166581,21.2605568337,7.35031289713,60047.9338158,58364.1340362,70349.0534456,69832.882735,10439488.4381,10439449.1079
9400.0,815.937723658,21.2295281071,7.41678680388,59127.6752302,54931.8457641,70156.3400846,68002.3693192,10047191.0875,10047120.1239
9440.0,827.678538413,21.1931226606,7.50151805192,59179.64496,58489.8782794,70273.356,70681.6132868,10235033.8781,10235010.3941
9480.0,839.528195096,21.1549028814,7.55717786969,59046.2259539,59261.3349448,70426.3564841,71900.4245698,9740734.54284,9740672.57339
9520.0,851.479209211,21.1110495888,7.63393510033,58794.531368,55376.71382,70360.4970762,69106.8961351,10003330.65,10003304.9256
9560.0,863.524032241,21.064773179,7.67845179486,58066.6853732,54718.960531,70400.8137239,69808.8341013,9603789.71043,9603749.27121
9600.0,875.655056418,21.0129500031,7.74704389417,58936.7954999,57289.4721479,71130.2262885,69147.3006847,9848778.48639,9848718.59053
9640.0,887.864619525,20.9583860922,7.7796632585,58443.451109,55401.5438513,71146.0242761,68828.1299837,9344318.07102,9344292.24402
9680.0,900.145009743,20.8979162011,7.84005945972,58696.2615838,55625.2246932,71040.7135716,69715.8436903,9631506.33888,9631430.27241
9720.0,912.488470512,20.8345597938,7.85999137611,58678.77529,55006.9326292,71728.3652052,68830.5858193,9085652.92028,9085630.21221
9760.0,924.88720544,20.7658308897,7.91195510516,59300.7104136,57176.640012,72089.916611,70702.1503635,9405453.12054,9405400.52424
9800.0,937.333383218,20.6933829013,7.91850259759,59957.6682111,64667.5990835,71734.2954968,72501.4244723,8948421.92929,8948410.55694
9840.0,949.819142574,20.6155051048,7.96166059336,59263.0377907,57069.0662969,71842.2050027,70128.1534973,9171147.18135,9171002.57719
9880.0,962.336597236,20.5340696792,7.95394422559,59853.8811176,58788.5774149,71243.3558489,70663.7560183,8654196.67763,8654353.58792
9920.0,974.87784091,20.4473849466,7.9879745224,58214.3314724,52459.6067553,70808.3893111,68435.6359966,8922433.74577,8921646.97698
9960.0,987.434952278,20.3572366801,7.96436657417,58634.8030607,55440.7654879,71241.2714333,71198.9745428,8448383.98174,8450709.83312
10000.0,1000.0,20.2585188589,7.9881074044,59129.5186946,58817.5331868,70989.0662916,73422.5256207,8723613.25908,8723509.39275
