<?xml version="1.0" encoding="utf-8" standalone="no"?>
<!DOCTYPE svg PUBLIC "-//W3C//DTD SVG 1.1//EN"
  "http://www.w3.org/Graphics/SVG/1.1/DTD/svg11.dtd">
<svg xmlns:xlink="http://www.w3.org/1999/xlink" width="720pt" height="720pt" viewBox="0 0 720 720" xmlns="http://www.w3.org/2000/svg" version="1.1">
 <metadata>
  <rdf:RDF xmlns:dc="http://purl.org/dc/elements/1.1/" xmlns:cc="http://creativecommons.org/ns#" xmlns:rdf="http://www.w3.org/1999/02/22-rdf-syntax-ns#">
   <cc:Work>
    <dc:type rdf:resource="http://purl.org/dc/dcmitype/StillImage"/>
    <dc:date>2022-02-19T15:04:54.919362</dc:date>
    <dc:format>image/svg+xml</dc:format>
    <dc:creator>
     <cc:Agent>
      <dc:title>Matplotlib v3.5.0, https://matplotlib.org/</dc:title>
     </cc:Agent>
    </dc:creator>
   </cc:Work>
  </rdf:RDF>
 </metadata>
 <defs>
  <style type="text/css">*{stroke-linejoin: round; stroke-linecap: butt}</style>
 </defs>
 <g id="figure_1">
  <g id="patch_1">
   <path d="M 0 720 
L 720 720 
L 720 0 
L 0 0 
z
" style="fill: #ffffff"/>
  </g>
  <g id="axes_1">
   <g id="patch_2">
    <path d="M 57.508053 318.484688 
L 716.99976 318.484688 
L 716.99976 3.00024 
L 57.508053 3.00024 
z
" style="fill: #ffffff"/>
   </g>
   <g id="matplotlib.axis_1">
    <g id="xtick_1">
     <g id="line2d_1">
      <defs>
       <path id="me9169065a4" d="M 0 0 
L 0 3.5 
" style="stroke: #000000; stroke-width: 0.8"/>
      </defs>
      <g>
       <use xlink:href="#me9169065a4" x="87.484948" y="318.484688" style="stroke: #000000; stroke-width: 0.8"/>
      </g>
     </g>
     <g id="text_1">
      <!-- 0.0 -->
      <g transform="translate(79.533386 333.083125)scale(0.1 -0.1)">
       <defs>
        <path id="DejaVuSans-30" d="M 2034 4250 
Q 1547 4250 1301 3770 
Q 1056 3291 1056 2328 
Q 1056 1369 1301 889 
Q 1547 409 2034 409 
Q 2525 409 2770 889 
Q 3016 1369 3016 2328 
Q 3016 3291 2770 3770 
Q 2525 4250 2034 4250 
z
M 2034 4750 
Q 2819 4750 3233 4129 
Q 3647 3509 3647 2328 
Q 3647 1150 3233 529 
Q 2819 -91 2034 -91 
Q 1250 -91 836 529 
Q 422 1150 422 2328 
Q 422 3509 836 4129 
Q 1250 4750 2034 4750 
z
" transform="scale(0.015625)"/>
        <path id="DejaVuSans-2e" d="M 684 794 
L 1344 794 
L 1344 0 
L 684 0 
L 684 794 
z
" transform="scale(0.015625)"/>
       </defs>
       <use xlink:href="#DejaVuSans-30"/>
       <use xlink:href="#DejaVuSans-2e" x="63.623047"/>
       <use xlink:href="#DejaVuSans-30" x="95.410156"/>
      </g>
     </g>
    </g>
    <g id="xtick_2">
     <g id="line2d_2">
      <g>
       <use xlink:href="#me9169065a4" x="207.392531" y="318.484688" style="stroke: #000000; stroke-width: 0.8"/>
      </g>
     </g>
     <g id="text_2">
      <!-- 0.2 -->
      <g transform="translate(199.440969 333.083125)scale(0.1 -0.1)">
       <defs>
        <path id="DejaVuSans-32" d="M 1228 531 
L 3431 531 
L 3431 0 
L 469 0 
L 469 531 
Q 828 903 1448 1529 
Q 2069 2156 2228 2338 
Q 2531 2678 2651 2914 
Q 2772 3150 2772 3378 
Q 2772 3750 2511 3984 
Q 2250 4219 1831 4219 
Q 1534 4219 1204 4116 
Q 875 4013 500 3803 
L 500 4441 
Q 881 4594 1212 4672 
Q 1544 4750 1819 4750 
Q 2544 4750 2975 4387 
Q 3406 4025 3406 3419 
Q 3406 3131 3298 2873 
Q 3191 2616 2906 2266 
Q 2828 2175 2409 1742 
Q 1991 1309 1228 531 
z
" transform="scale(0.015625)"/>
       </defs>
       <use xlink:href="#DejaVuSans-30"/>
       <use xlink:href="#DejaVuSans-2e" x="63.623047"/>
       <use xlink:href="#DejaVuSans-32" x="95.410156"/>
      </g>
     </g>
    </g>
    <g id="xtick_3">
     <g id="line2d_3">
      <g>
       <use xlink:href="#me9169065a4" x="327.300115" y="318.484688" style="stroke: #000000; stroke-width: 0.8"/>
      </g>
     </g>
     <g id="text_3">
      <!-- 0.4 -->
      <g transform="translate(319.348552 333.083125)scale(0.1 -0.1)">
       <defs>
        <path id="DejaVuSans-34" d="M 2419 4116 
L 825 1625 
L 2419 1625 
L 2419 4116 
z
M 2253 4666 
L 3047 4666 
L 3047 1625 
L 3713 1625 
L 3713 1100 
L 3047 1100 
L 3047 0 
L 2419 0 
L 2419 1100 
L 313 1100 
L 313 1709 
L 2253 4666 
z
" transform="scale(0.015625)"/>
       </defs>
       <use xlink:href="#DejaVuSans-30"/>
       <use xlink:href="#DejaVuSans-2e" x="63.623047"/>
       <use xlink:href="#DejaVuSans-34" x="95.410156"/>
      </g>
     </g>
    </g>
    <g id="xtick_4">
     <g id="line2d_4">
      <g>
       <use xlink:href="#me9169065a4" x="447.207698" y="318.484688" style="stroke: #000000; stroke-width: 0.8"/>
      </g>
     </g>
     <g id="text_4">
      <!-- 0.6 -->
      <g transform="translate(439.256135 333.083125)scale(0.1 -0.1)">
       <defs>
        <path id="DejaVuSans-36" d="M 2113 2584 
Q 1688 2584 1439 2293 
Q 1191 2003 1191 1497 
Q 1191 994 1439 701 
Q 1688 409 2113 409 
Q 2538 409 2786 701 
Q 3034 994 3034 1497 
Q 3034 2003 2786 2293 
Q 2538 2584 2113 2584 
z
M 3366 4563 
L 3366 3988 
Q 3128 4100 2886 4159 
Q 2644 4219 2406 4219 
Q 1781 4219 1451 3797 
Q 1122 3375 1075 2522 
Q 1259 2794 1537 2939 
Q 1816 3084 2150 3084 
Q 2853 3084 3261 2657 
Q 3669 2231 3669 1497 
Q 3669 778 3244 343 
Q 2819 -91 2113 -91 
Q 1303 -91 875 529 
Q 447 1150 447 2328 
Q 447 3434 972 4092 
Q 1497 4750 2381 4750 
Q 2619 4750 2861 4703 
Q 3103 4656 3366 4563 
z
" transform="scale(0.015625)"/>
       </defs>
       <use xlink:href="#DejaVuSans-30"/>
       <use xlink:href="#DejaVuSans-2e" x="63.623047"/>
       <use xlink:href="#DejaVuSans-36" x="95.410156"/>
      </g>
     </g>
    </g>
    <g id="xtick_5">
     <g id="line2d_5">
      <g>
       <use xlink:href="#me9169065a4" x="567.115281" y="318.484688" style="stroke: #000000; stroke-width: 0.8"/>
      </g>
     </g>
     <g id="text_5">
      <!-- 0.8 -->
      <g transform="translate(559.163719 333.083125)scale(0.1 -0.1)">
       <defs>
        <path id="DejaVuSans-38" d="M 2034 2216 
Q 1584 2216 1326 1975 
Q 1069 1734 1069 1313 
Q 1069 891 1326 650 
Q 1584 409 2034 409 
Q 2484 409 2743 651 
Q 3003 894 3003 1313 
Q 3003 1734 2745 1975 
Q 2488 2216 2034 2216 
z
M 1403 2484 
Q 997 2584 770 2862 
Q 544 3141 544 3541 
Q 544 4100 942 4425 
Q 1341 4750 2034 4750 
Q 2731 4750 3128 4425 
Q 3525 4100 3525 3541 
Q 3525 3141 3298 2862 
Q 3072 2584 2669 2484 
Q 3125 2378 3379 2068 
Q 3634 1759 3634 1313 
Q 3634 634 3220 271 
Q 2806 -91 2034 -91 
Q 1263 -91 848 271 
Q 434 634 434 1313 
Q 434 1759 690 2068 
Q 947 2378 1403 2484 
z
M 1172 3481 
Q 1172 3119 1398 2916 
Q 1625 2713 2034 2713 
Q 2441 2713 2670 2916 
Q 2900 3119 2900 3481 
Q 2900 3844 2670 4047 
Q 2441 4250 2034 4250 
Q 1625 4250 1398 4047 
Q 1172 3844 1172 3481 
z
" transform="scale(0.015625)"/>
       </defs>
       <use xlink:href="#DejaVuSans-30"/>
       <use xlink:href="#DejaVuSans-2e" x="63.623047"/>
       <use xlink:href="#DejaVuSans-38" x="95.410156"/>
      </g>
     </g>
    </g>
    <g id="xtick_6">
     <g id="line2d_6">
      <g>
       <use xlink:href="#me9169065a4" x="687.022864" y="318.484688" style="stroke: #000000; stroke-width: 0.8"/>
      </g>
     </g>
     <g id="text_6">
      <!-- 1.0 -->
      <g transform="translate(679.071302 333.083125)scale(0.1 -0.1)">
       <defs>
        <path id="DejaVuSans-31" d="M 794 531 
L 1825 531 
L 1825 4091 
L 703 3866 
L 703 4441 
L 1819 4666 
L 2450 4666 
L 2450 531 
L 3481 531 
L 3481 0 
L 794 0 
L 794 531 
z
" transform="scale(0.015625)"/>
       </defs>
       <use xlink:href="#DejaVuSans-31"/>
       <use xlink:href="#DejaVuSans-2e" x="63.623047"/>
       <use xlink:href="#DejaVuSans-30" x="95.410156"/>
      </g>
     </g>
    </g>
    <g id="text_7">
     <!-- x norm. -->
     <g transform="translate(368.05 346.76125)scale(0.1 -0.1)">
      <defs>
       <path id="DejaVuSans-78" d="M 3513 3500 
L 2247 1797 
L 3578 0 
L 2900 0 
L 1881 1375 
L 863 0 
L 184 0 
L 1544 1831 
L 300 3500 
L 978 3500 
L 1906 2253 
L 2834 3500 
L 3513 3500 
z
" transform="scale(0.015625)"/>
       <path id="DejaVuSans-20" transform="scale(0.015625)"/>
       <path id="DejaVuSans-6e" d="M 3513 2113 
L 3513 0 
L 2938 0 
L 2938 2094 
Q 2938 2591 2744 2837 
Q 2550 3084 2163 3084 
Q 1697 3084 1428 2787 
Q 1159 2491 1159 1978 
L 1159 0 
L 581 0 
L 581 3500 
L 1159 3500 
L 1159 2956 
Q 1366 3272 1645 3428 
Q 1925 3584 2291 3584 
Q 2894 3584 3203 3211 
Q 3513 2838 3513 2113 
z
" transform="scale(0.015625)"/>
       <path id="DejaVuSans-6f" d="M 1959 3097 
Q 1497 3097 1228 2736 
Q 959 2375 959 1747 
Q 959 1119 1226 758 
Q 1494 397 1959 397 
Q 2419 397 2687 759 
Q 2956 1122 2956 1747 
Q 2956 2369 2687 2733 
Q 2419 3097 1959 3097 
z
M 1959 3584 
Q 2709 3584 3137 3096 
Q 3566 2609 3566 1747 
Q 3566 888 3137 398 
Q 2709 -91 1959 -91 
Q 1206 -91 779 398 
Q 353 888 353 1747 
Q 353 2609 779 3096 
Q 1206 3584 1959 3584 
z
" transform="scale(0.015625)"/>
       <path id="DejaVuSans-72" d="M 2631 2963 
Q 2534 3019 2420 3045 
Q 2306 3072 2169 3072 
Q 1681 3072 1420 2755 
Q 1159 2438 1159 1844 
L 1159 0 
L 581 0 
L 581 3500 
L 1159 3500 
L 1159 2956 
Q 1341 3275 1631 3429 
Q 1922 3584 2338 3584 
Q 2397 3584 2469 3576 
Q 2541 3569 2628 3553 
L 2631 2963 
z
" transform="scale(0.015625)"/>
       <path id="DejaVuSans-6d" d="M 3328 2828 
Q 3544 3216 3844 3400 
Q 4144 3584 4550 3584 
Q 5097 3584 5394 3201 
Q 5691 2819 5691 2113 
L 5691 0 
L 5113 0 
L 5113 2094 
Q 5113 2597 4934 2840 
Q 4756 3084 4391 3084 
Q 3944 3084 3684 2787 
Q 3425 2491 3425 1978 
L 3425 0 
L 2847 0 
L 2847 2094 
Q 2847 2600 2669 2842 
Q 2491 3084 2119 3084 
Q 1678 3084 1418 2786 
Q 1159 2488 1159 1978 
L 1159 0 
L 581 0 
L 581 3500 
L 1159 3500 
L 1159 2956 
Q 1356 3278 1631 3431 
Q 1906 3584 2284 3584 
Q 2666 3584 2933 3390 
Q 3200 3197 3328 2828 
z
" transform="scale(0.015625)"/>
      </defs>
      <use xlink:href="#DejaVuSans-78"/>
      <use xlink:href="#DejaVuSans-20" x="59.179688"/>
      <use xlink:href="#DejaVuSans-6e" x="90.966797"/>
      <use xlink:href="#DejaVuSans-6f" x="154.345703"/>
      <use xlink:href="#DejaVuSans-72" x="215.527344"/>
      <use xlink:href="#DejaVuSans-6d" x="254.890625"/>
      <use xlink:href="#DejaVuSans-2e" x="352.302734"/>
     </g>
    </g>
   </g>
   <g id="matplotlib.axis_2">
    <g id="ytick_1">
     <g id="line2d_7">
      <defs>
       <path id="m62883c4463" d="M 0 0 
L -3.5 0 
" style="stroke: #000000; stroke-width: 0.8"/>
      </defs>
      <g>
       <use xlink:href="#m62883c4463" x="57.508053" y="301.868677" style="stroke: #000000; stroke-width: 0.8"/>
      </g>
     </g>
     <g id="text_8">
      <!-- −100 -->
      <g transform="translate(23.040865 305.667896)scale(0.1 -0.1)">
       <defs>
        <path id="DejaVuSans-2212" d="M 678 2272 
L 4684 2272 
L 4684 1741 
L 678 1741 
L 678 2272 
z
" transform="scale(0.015625)"/>
       </defs>
       <use xlink:href="#DejaVuSans-2212"/>
       <use xlink:href="#DejaVuSans-31" x="83.789062"/>
       <use xlink:href="#DejaVuSans-30" x="147.412109"/>
       <use xlink:href="#DejaVuSans-30" x="211.035156"/>
      </g>
     </g>
    </g>
    <g id="ytick_2">
     <g id="line2d_8">
      <g>
       <use xlink:href="#m62883c4463" x="57.508053" y="233.494071" style="stroke: #000000; stroke-width: 0.8"/>
      </g>
     </g>
     <g id="text_9">
      <!-- −50 -->
      <g transform="translate(29.403365 237.29329)scale(0.1 -0.1)">
       <defs>
        <path id="DejaVuSans-35" d="M 691 4666 
L 3169 4666 
L 3169 4134 
L 1269 4134 
L 1269 2991 
Q 1406 3038 1543 3061 
Q 1681 3084 1819 3084 
Q 2600 3084 3056 2656 
Q 3513 2228 3513 1497 
Q 3513 744 3044 326 
Q 2575 -91 1722 -91 
Q 1428 -91 1123 -41 
Q 819 9 494 109 
L 494 744 
Q 775 591 1075 516 
Q 1375 441 1709 441 
Q 2250 441 2565 725 
Q 2881 1009 2881 1497 
Q 2881 1984 2565 2268 
Q 2250 2553 1709 2553 
Q 1456 2553 1204 2497 
Q 953 2441 691 2322 
L 691 4666 
z
" transform="scale(0.015625)"/>
       </defs>
       <use xlink:href="#DejaVuSans-2212"/>
       <use xlink:href="#DejaVuSans-35" x="83.789062"/>
       <use xlink:href="#DejaVuSans-30" x="147.412109"/>
      </g>
     </g>
    </g>
    <g id="ytick_3">
     <g id="line2d_9">
      <g>
       <use xlink:href="#m62883c4463" x="57.508053" y="165.119464" style="stroke: #000000; stroke-width: 0.8"/>
      </g>
     </g>
     <g id="text_10">
      <!-- 0 -->
      <g transform="translate(44.145553 168.918683)scale(0.1 -0.1)">
       <use xlink:href="#DejaVuSans-30"/>
      </g>
     </g>
    </g>
    <g id="ytick_4">
     <g id="line2d_10">
      <g>
       <use xlink:href="#m62883c4463" x="57.508053" y="96.744857" style="stroke: #000000; stroke-width: 0.8"/>
      </g>
     </g>
     <g id="text_11">
      <!-- 50 -->
      <g transform="translate(37.783053 100.544076)scale(0.1 -0.1)">
       <use xlink:href="#DejaVuSans-35"/>
       <use xlink:href="#DejaVuSans-30" x="63.623047"/>
      </g>
     </g>
    </g>
    <g id="ytick_5">
     <g id="line2d_11">
      <g>
       <use xlink:href="#m62883c4463" x="57.508053" y="28.370251" style="stroke: #000000; stroke-width: 0.8"/>
      </g>
     </g>
     <g id="text_12">
      <!-- 100 -->
      <g transform="translate(31.420553 32.16947)scale(0.1 -0.1)">
       <use xlink:href="#DejaVuSans-31"/>
       <use xlink:href="#DejaVuSans-30" x="63.623047"/>
       <use xlink:href="#DejaVuSans-30" x="127.246094"/>
      </g>
     </g>
    </g>
    <g id="text_13">
     <!-- delta p (kPa) -->
     <g transform="translate(16.961178 192.409651)rotate(-90)scale(0.1 -0.1)">
      <defs>
       <path id="DejaVuSans-64" d="M 2906 2969 
L 2906 4863 
L 3481 4863 
L 3481 0 
L 2906 0 
L 2906 525 
Q 2725 213 2448 61 
Q 2172 -91 1784 -91 
Q 1150 -91 751 415 
Q 353 922 353 1747 
Q 353 2572 751 3078 
Q 1150 3584 1784 3584 
Q 2172 3584 2448 3432 
Q 2725 3281 2906 2969 
z
M 947 1747 
Q 947 1113 1208 752 
Q 1469 391 1925 391 
Q 2381 391 2643 752 
Q 2906 1113 2906 1747 
Q 2906 2381 2643 2742 
Q 2381 3103 1925 3103 
Q 1469 3103 1208 2742 
Q 947 2381 947 1747 
z
" transform="scale(0.015625)"/>
       <path id="DejaVuSans-65" d="M 3597 1894 
L 3597 1613 
L 953 1613 
Q 991 1019 1311 708 
Q 1631 397 2203 397 
Q 2534 397 2845 478 
Q 3156 559 3463 722 
L 3463 178 
Q 3153 47 2828 -22 
Q 2503 -91 2169 -91 
Q 1331 -91 842 396 
Q 353 884 353 1716 
Q 353 2575 817 3079 
Q 1281 3584 2069 3584 
Q 2775 3584 3186 3129 
Q 3597 2675 3597 1894 
z
M 3022 2063 
Q 3016 2534 2758 2815 
Q 2500 3097 2075 3097 
Q 1594 3097 1305 2825 
Q 1016 2553 972 2059 
L 3022 2063 
z
" transform="scale(0.015625)"/>
       <path id="DejaVuSans-6c" d="M 603 4863 
L 1178 4863 
L 1178 0 
L 603 0 
L 603 4863 
z
" transform="scale(0.015625)"/>
       <path id="DejaVuSans-74" d="M 1172 4494 
L 1172 3500 
L 2356 3500 
L 2356 3053 
L 1172 3053 
L 1172 1153 
Q 1172 725 1289 603 
Q 1406 481 1766 481 
L 2356 481 
L 2356 0 
L 1766 0 
Q 1100 0 847 248 
Q 594 497 594 1153 
L 594 3053 
L 172 3053 
L 172 3500 
L 594 3500 
L 594 4494 
L 1172 4494 
z
" transform="scale(0.015625)"/>
       <path id="DejaVuSans-61" d="M 2194 1759 
Q 1497 1759 1228 1600 
Q 959 1441 959 1056 
Q 959 750 1161 570 
Q 1363 391 1709 391 
Q 2188 391 2477 730 
Q 2766 1069 2766 1631 
L 2766 1759 
L 2194 1759 
z
M 3341 1997 
L 3341 0 
L 2766 0 
L 2766 531 
Q 2569 213 2275 61 
Q 1981 -91 1556 -91 
Q 1019 -91 701 211 
Q 384 513 384 1019 
Q 384 1609 779 1909 
Q 1175 2209 1959 2209 
L 2766 2209 
L 2766 2266 
Q 2766 2663 2505 2880 
Q 2244 3097 1772 3097 
Q 1472 3097 1187 3025 
Q 903 2953 641 2809 
L 641 3341 
Q 956 3463 1253 3523 
Q 1550 3584 1831 3584 
Q 2591 3584 2966 3190 
Q 3341 2797 3341 1997 
z
" transform="scale(0.015625)"/>
       <path id="DejaVuSans-70" d="M 1159 525 
L 1159 -1331 
L 581 -1331 
L 581 3500 
L 1159 3500 
L 1159 2969 
Q 1341 3281 1617 3432 
Q 1894 3584 2278 3584 
Q 2916 3584 3314 3078 
Q 3713 2572 3713 1747 
Q 3713 922 3314 415 
Q 2916 -91 2278 -91 
Q 1894 -91 1617 61 
Q 1341 213 1159 525 
z
M 3116 1747 
Q 3116 2381 2855 2742 
Q 2594 3103 2138 3103 
Q 1681 3103 1420 2742 
Q 1159 2381 1159 1747 
Q 1159 1113 1420 752 
Q 1681 391 2138 391 
Q 2594 391 2855 752 
Q 3116 1113 3116 1747 
z
" transform="scale(0.015625)"/>
       <path id="DejaVuSans-28" d="M 1984 4856 
Q 1566 4138 1362 3434 
Q 1159 2731 1159 2009 
Q 1159 1288 1364 580 
Q 1569 -128 1984 -844 
L 1484 -844 
Q 1016 -109 783 600 
Q 550 1309 550 2009 
Q 550 2706 781 3412 
Q 1013 4119 1484 4856 
L 1984 4856 
z
" transform="scale(0.015625)"/>
       <path id="DejaVuSans-6b" d="M 581 4863 
L 1159 4863 
L 1159 1991 
L 2875 3500 
L 3609 3500 
L 1753 1863 
L 3688 0 
L 2938 0 
L 1159 1709 
L 1159 0 
L 581 0 
L 581 4863 
z
" transform="scale(0.015625)"/>
       <path id="DejaVuSans-50" d="M 1259 4147 
L 1259 2394 
L 2053 2394 
Q 2494 2394 2734 2622 
Q 2975 2850 2975 3272 
Q 2975 3691 2734 3919 
Q 2494 4147 2053 4147 
L 1259 4147 
z
M 628 4666 
L 2053 4666 
Q 2838 4666 3239 4311 
Q 3641 3956 3641 3272 
Q 3641 2581 3239 2228 
Q 2838 1875 2053 1875 
L 1259 1875 
L 1259 0 
L 628 0 
L 628 4666 
z
" transform="scale(0.015625)"/>
       <path id="DejaVuSans-29" d="M 513 4856 
L 1013 4856 
Q 1481 4119 1714 3412 
Q 1947 2706 1947 2009 
Q 1947 1309 1714 600 
Q 1481 -109 1013 -844 
L 513 -844 
Q 928 -128 1133 580 
Q 1338 1288 1338 2009 
Q 1338 2731 1133 3434 
Q 928 4138 513 4856 
z
" transform="scale(0.015625)"/>
      </defs>
      <use xlink:href="#DejaVuSans-64"/>
      <use xlink:href="#DejaVuSans-65" x="63.476562"/>
      <use xlink:href="#DejaVuSans-6c" x="125"/>
      <use xlink:href="#DejaVuSans-74" x="152.783203"/>
      <use xlink:href="#DejaVuSans-61" x="191.992188"/>
      <use xlink:href="#DejaVuSans-20" x="253.271484"/>
      <use xlink:href="#DejaVuSans-70" x="285.058594"/>
      <use xlink:href="#DejaVuSans-20" x="348.535156"/>
      <use xlink:href="#DejaVuSans-28" x="380.322266"/>
      <use xlink:href="#DejaVuSans-6b" x="419.335938"/>
      <use xlink:href="#DejaVuSans-50" x="477.246094"/>
      <use xlink:href="#DejaVuSans-61" x="533.048828"/>
      <use xlink:href="#DejaVuSans-29" x="594.328125"/>
     </g>
    </g>
   </g>
   <g id="line2d_12">
    <path d="M 87.484948 175.814606 
L 88.983793 164.908166 
L 91.981483 165.181831 
L 93.480327 162.892052 
L 94.979172 167.10535 
L 96.478017 164.428308 
L 97.976862 163.010395 
L 99.475707 160.963697 
L 100.974551 158.109125 
L 102.473396 154.320502 
L 103.972241 149.568344 
L 105.471086 143.922242 
L 106.969931 137.714512 
L 111.466465 116.798583 
L 112.96531 107.420732 
L 114.464155 101.489782 
L 115.962999 94.739157 
L 120.459534 80.608314 
L 121.958378 75.174447 
L 123.457223 70.383028 
L 124.956068 67.561071 
L 126.454913 63.947883 
L 127.953758 60.905077 
L 130.951447 53.696752 
L 135.447982 41.072885 
L 136.946826 37.714735 
L 139.944516 34.091017 
L 142.942206 33.097124 
L 145.939895 34.891547 
L 147.43874 37.267018 
L 148.937585 39.288035 
L 151.935274 45.324965 
L 154.932964 53.99172 
L 156.431809 60.092923 
L 157.930653 65.057603 
L 159.429498 74.957426 
L 160.928343 86.80866 
L 162.427188 89.868013 
L 163.926033 96.524281 
L 165.424877 98.830967 
L 166.923722 104.068872 
L 168.422567 105.417629 
L 169.921412 109.531456 
L 171.420257 109.319768 
L 172.919101 111.440612 
L 174.417946 112.44777 
L 175.916791 114.858248 
L 177.415636 114.900093 
L 178.91448 116.70067 
L 180.413325 115.488525 
L 181.91217 116.642278 
L 183.411015 112.39266 
L 184.90986 107.421005 
L 186.408704 107.400903 
L 187.907549 105.639437 
L 189.406394 105.692495 
L 190.905239 104.718157 
L 192.404084 105.09367 
L 193.902928 105.00998 
L 195.401773 105.724905 
L 196.900618 107.255676 
L 198.399463 111.598147 
L 199.898308 114.939067 
L 201.397152 120.460043 
L 202.895997 124.831505 
L 204.394842 131.533994 
L 205.893687 136.511255 
L 207.392531 146.03871 
L 208.891376 154.398463 
L 210.390221 155.666497 
L 211.889066 159.692284 
L 213.387911 160.266782 
L 214.886755 163.316795 
L 216.3856 163.124143 
L 217.884445 165.279182 
L 219.38329 163.684773 
L 220.882135 163.062264 
L 222.380979 160.496602 
L 223.879824 159.132201 
L 225.378669 154.928325 
L 226.877514 152.249244 
L 228.376359 146.424753 
L 229.875203 142.895666 
L 231.374048 134.461658 
L 232.872893 128.317926 
L 234.371738 127.747682 
L 235.870582 125.440039 
L 237.369427 125.668684 
L 238.868272 124.57428 
L 240.367117 125.648581 
L 241.865962 125.401886 
L 243.364806 127.891269 
L 244.863651 129.294862 
L 246.362496 128.740618 
L 247.861341 128.895828 
L 249.360186 128.367976 
L 250.85903 128.44565 
L 252.357875 127.947062 
L 253.85672 127.996429 
L 255.355565 127.522182 
L 256.85441 127.403894 
L 258.353254 126.673654 
L 259.852099 126.483299 
L 261.350944 125.782322 
L 262.849789 125.548208 
L 264.348633 124.979741 
L 265.847478 124.656603 
L 267.346323 125.639556 
L 268.845168 129.854714 
L 270.344013 126.359267 
L 271.842857 127.19289 
L 273.341702 122.317234 
L 274.840547 121.98425 
L 276.339392 115.135986 
L 277.838237 114.029001 
L 279.337081 100.917486 
L 280.835926 85.166302 
L 282.334771 84.455479 
L 283.833616 77.209412 
L 285.332461 77.430399 
L 286.831305 72.505512 
L 288.33015 73.93249 
L 289.828995 70.9437 
L 291.32784 74.253988 
L 292.826684 74.53911 
L 294.325529 77.791553 
L 295.824374 78.643091 
L 297.323219 83.289829 
L 298.822064 85.342161 
L 300.320908 91.726298 
L 301.819753 94.786062 
L 303.318598 107.019236 
L 304.817443 122.209202 
L 306.316288 124.953622 
L 307.815132 131.936174 
L 309.313977 133.221616 
L 310.812822 138.005651 
L 312.311667 137.114866 
L 313.810512 139.829475 
L 315.309356 133.93996 
L 316.808201 126.410275 
L 318.307046 123.664624 
L 319.805891 119.191284 
L 321.304735 115.479226 
L 324.302425 106.982587 
L 325.80127 103.01604 
L 327.300115 98.679722 
L 328.798959 96.313824 
L 331.796649 95.623651 
L 333.295494 96.198818 
L 334.794339 97.035723 
L 336.293183 98.359182 
L 337.792028 100.405497 
L 340.789718 102.125802 
L 342.288563 107.919593 
L 343.787407 111.913354 
L 345.286252 118.756558 
L 346.785097 123.766365 
L 348.283942 131.296461 
L 349.782787 136.562946 
L 351.281631 145.385048 
L 352.780476 149.967515 
L 355.778166 153.195343 
L 358.775855 155.047338 
L 361.773545 156.282621 
L 363.27239 157.204187 
L 364.771234 159.657072 
L 366.270079 160.661344 
L 367.768924 162.497024 
L 369.267769 163.538288 
L 370.766614 165.283283 
L 372.265458 166.462419 
L 373.764303 168.201983 
L 375.263148 170.548353 
L 376.761993 176.010322 
L 378.260838 177.095003 
L 379.759682 180.699302 
L 381.258527 181.347493 
L 382.757372 184.291977 
L 384.256217 184.267499 
L 385.755061 186.452615 
L 387.253906 185.823432 
L 388.752751 187.827628 
L 390.251596 184.833231 
L 391.750441 185.150489 
L 393.249285 180.451923 
L 394.74813 179.536934 
L 396.246975 172.712327 
L 397.74582 170.792533 
L 400.743509 144.673269 
L 402.242354 142.732661 
L 403.741199 136.574023 
L 405.240044 135.627582 
L 406.738889 131.616591 
L 408.237733 131.987728 
L 409.736578 129.833791 
L 411.235423 131.672521 
L 412.734268 130.841496 
L 414.233112 133.550088 
L 415.731957 134.124708 
L 417.230802 138.409061 
L 418.729647 140.303995 
L 420.228492 146.429265 
L 421.727336 149.387014 
L 423.226181 161.236074 
L 424.725026 175.53773 
L 426.223871 177.389684 
L 427.722716 184.091093 
L 429.22156 184.475358 
L 430.720405 189.014064 
L 432.21925 187.423124 
L 433.718095 189.843175 
L 435.21694 185.228709 
L 436.715784 182.565792 
L 438.214629 176.076919 
L 439.713474 172.580474 
L 441.212319 163.893942 
L 442.711163 159.195584 
L 444.210008 148.460812 
L 445.708853 143.299486 
L 448.706543 112.214612 
L 450.205387 110.754541 
L 451.704232 104.361652 
L 453.203077 105.136883 
L 454.701922 101.582224 
L 456.200767 104.425514 
L 457.699611 102.820352 
L 459.198456 109.198882 
L 460.697301 114.563553 
L 462.196146 116.890615 
L 463.694991 119.630385 
L 465.193835 121.715264 
L 466.69268 124.183861 
L 468.191525 125.835791 
L 469.69037 128.192801 
L 471.189214 128.143571 
L 472.688059 125.884337 
L 474.186904 128.312866 
L 475.685749 128.42418 
L 477.184594 131.290717 
L 478.683438 132.201057 
L 480.182283 135.457329 
L 481.681128 137.051415 
L 483.179973 139.999044 
L 484.678818 140.486145 
L 486.177662 145.985377 
L 487.676507 147.885371 
L 489.175352 153.864566 
L 490.674197 155.920098 
L 492.173042 162.410886 
L 493.671886 164.173698 
L 495.170731 174.038685 
L 496.669576 182.312532 
L 498.168421 181.628923 
L 499.667265 183.524951 
L 501.16611 181.776202 
L 502.664955 182.486751 
L 504.1638 180.057675 
L 505.662645 180.257739 
L 507.161489 177.056946 
L 508.660334 176.572074 
L 510.159179 174.627719 
L 511.658024 174.736188 
L 513.156869 172.409934 
L 514.655713 172.556447 
L 516.154558 169.601461 
L 517.653403 169.827466 
L 519.152248 164.432911 
L 520.651093 159.624525 
L 522.149937 161.456554 
L 523.648782 160.465888 
L 525.147627 162.558986 
L 526.646472 162.112896 
L 528.145316 164.361668 
L 529.644161 164.154161 
L 531.143006 166.958481 
L 532.641851 168.031306 
L 534.140696 169.372365 
L 535.63954 169.667401 
L 537.138385 171.018429 
L 538.63723 171.206404 
L 540.136075 172.647221 
L 541.63492 172.698352 
L 543.133764 174.877054 
L 544.632609 176.226851 
L 546.131454 175.093637 
L 547.630299 174.859851 
L 549.129144 173.580548 
L 550.627988 173.233246 
L 552.126833 171.939011 
L 553.625678 171.641554 
L 555.124523 170.123596 
L 556.623367 169.330383 
L 558.122212 168.894918 
L 559.621057 168.642589 
L 561.119902 168.181334 
L 562.618747 167.969304 
L 564.117591 167.397815 
L 565.616436 167.187222 
L 567.115281 166.246615 
L 568.614126 165.487894 
L 570.112971 165.921791 
L 571.611815 165.746316 
L 573.11066 166.159633 
L 574.609505 165.991641 
L 576.10835 166.37825 
L 577.607195 166.197175 
L 579.106039 166.709557 
L 580.604884 166.780311 
L 589.597953 165.840696 
L 598.591022 165.223803 
L 601.588711 164.976078 
L 604.586401 164.501902 
L 606.085246 164.595924 
L 607.58409 164.424127 
L 609.082935 164.496351 
L 610.58178 164.301583 
L 612.080625 164.374441 
L 613.57947 164.177251 
L 615.078314 164.391108 
L 616.577159 164.44734 
L 618.076004 164.107967 
L 621.073693 163.870781 
L 624.071383 164.247703 
L 627.069073 165.562674 
L 630.066762 164.789387 
L 631.565607 164.794523 
L 633.064452 164.644422 
L 634.563297 164.616656 
L 637.560986 163.62738 
L 639.059831 162.452417 
L 640.558676 162.336413 
L 642.057521 162.519998 
L 645.05521 162.055174 
L 646.554055 161.496813 
L 648.0529 161.114093 
L 649.551744 160.468541 
L 651.050589 160.201224 
L 655.547124 163.025984 
L 657.045968 164.192086 
L 658.544813 165.581745 
L 660.043658 167.188179 
L 661.542503 169.03071 
L 663.041348 171.082154 
L 664.540192 172.155868 
L 666.039037 173.505227 
L 669.036727 176.855842 
L 672.034416 180.290285 
L 675.032106 183.276478 
L 676.530951 184.496691 
L 678.029795 185.442312 
L 679.52864 185.993821 
L 681.027485 185.934882 
L 682.52633 185.066251 
L 684.025175 183.008723 
L 685.524019 178.345151 
L 687.022864 175.814606 
L 687.022864 175.814606 
" clip-path="url(#p3e93adfd23)" style="fill: none; stroke: #20b2aa; stroke-linecap: square"/>
   </g>
   <g id="line2d_13">
    <path d="M 99.720416 165.069327 
L 111.955884 171.839206 
L 124.191351 169.717907 
L 136.426819 165.189765 
L 148.662289 160.110218 
L 160.897755 159.733717 
L 173.13322 165.169549 
L 185.368692 164.990431 
L 197.604158 162.85568 
L 209.839623 165.254645 
L 222.075095 168.061133 
L 234.310561 167.372397 
L 246.546027 166.158794 
L 258.781498 167.068909 
L 271.016964 171.136787 
L 283.25243 166.556966 
L 295.487901 156.310018 
L 307.723367 163.769765 
L 319.958833 165.811262 
L 332.194305 165.050747 
L 344.42977 162.884941 
L 356.665236 162.914003 
L 368.900708 164.299219 
L 381.136173 165.165089 
L 393.371639 166.335655 
L 405.607105 165.957723 
L 417.842577 164.322591 
L 430.078042 166.101944 
L 442.313508 168.468351 
L 454.54898 164.876472 
L 466.784445 165.168134 
L 479.019911 164.647791 
L 491.255383 161.70888 
L 503.490849 164.128451 
L 515.726314 165.285178 
L 527.961786 164.440697 
L 540.197252 164.01305 
L 552.432717 164.741231 
L 564.668189 164.60021 
L 576.903655 164.691571 
L 589.139121 165.046378 
L 601.374592 165.571069 
L 613.610058 165.729539 
L 625.845524 166.00768 
L 638.080995 166.321363 
L 650.316461 166.086259 
L 662.551927 164.988229 
L 674.787398 163.641448 
L 687.022864 165.119077 
" clip-path="url(#p3e93adfd23)" style="fill: none; stroke: #ff0000; stroke-linecap: square"/>
   </g>
   <g id="line2d_14">
    <path d="M 87.484948 165.83928 
L 99.475707 157.844379 
L 111.466465 86.305822 
L 123.457223 39.91071 
L 135.447982 17.340442 
L 147.43874 18.015354 
L 159.429498 40.652989 
L 171.420257 84.38666 
L 183.411015 90.038919 
L 195.401773 102.427158 
L 207.392531 105.090931 
L 219.38329 130.259171 
L 231.374048 127.608096 
L 243.364806 104.294411 
L 255.355565 96.587477 
L 267.346323 85.550095 
L 279.337081 81.521656 
L 291.32784 51.486685 
L 303.318598 63.260567 
L 315.309356 91.884276 
L 327.300115 90.732354 
L 339.290873 102.496542 
L 351.281631 99.637096 
L 363.27239 123.57832 
L 375.263148 147.30328 
L 387.253906 163.227386 
L 399.244665 125.747915 
L 411.235423 123.272784 
L 423.226181 146.413485 
L 435.21694 152.053254 
L 447.207698 136.992731 
L 459.198456 91.590781 
L 471.189214 74.478153 
L 483.179973 94.790767 
L 495.170731 134.232139 
L 507.161489 141.045078 
L 519.152248 149.534259 
L 531.143006 138.883254 
L 543.133764 151.483894 
L 555.124523 152.93525 
L 567.115281 153.034553 
L 579.106039 151.518201 
L 591.096798 151.839828 
L 603.087556 152.417204 
L 615.078314 154.9234 
L 627.069073 154.433773 
L 639.059831 148.643201 
L 651.050589 151.227527 
L 663.041348 150.963417 
L 675.032106 160.848836 
L 687.022864 169.862754 
" clip-path="url(#p3e93adfd23)" style="fill: none; stroke: #0000ff; stroke-linecap: square"/>
   </g>
   <g id="line2d_15">
    <path d="M 87.484948 165.119464 
L 99.475707 169.468826 
L 111.466465 214.863038 
L 123.457223 261.227457 
L 135.447982 289.278896 
L 147.43874 287.966498 
L 159.429498 253.160169 
L 171.420257 226.015004 
L 183.411015 219.730636 
L 195.401773 218.913048 
L 207.392531 179.233216 
L 219.38329 170.708613 
L 231.374048 201.024415 
L 243.364806 202.774235 
L 255.355565 203.79323 
L 267.346323 208.136837 
L 279.337081 230.024334 
L 291.32784 248.507551 
L 303.318598 223.687391 
L 315.309356 205.624582 
L 327.300115 233.438811 
L 339.290873 223.179465 
L 351.281631 177.276489 
L 363.27239 171.854187 
L 375.263148 164.890675 
L 387.253906 154.441417 
L 399.244665 176.397501 
L 411.235423 192.323844 
L 423.226181 169.815388 
L 435.21694 156.786046 
L 447.207698 207.027074 
L 459.198456 217.485033 
L 471.189214 195.383264 
L 483.179973 178.725198 
L 495.170731 148.921597 
L 507.161489 152.711051 
L 519.152248 165.064223 
L 531.143006 159.521014 
L 543.133764 152.078634 
L 555.124523 158.87888 
L 567.115281 163.606498 
L 579.106039 162.667883 
L 591.096798 163.668927 
L 603.087556 164.715534 
L 615.078314 164.995555 
L 627.069073 165.9142 
L 639.059831 174.732484 
L 651.050589 176.140543 
L 663.041348 161.931924 
L 675.032106 148.431998 
L 687.022864 165.119464 
" clip-path="url(#p3e93adfd23)" style="fill: none; stroke: #32cd32; stroke-linecap: square"/>
   </g>
   <g id="line2d_16">
    <path d="M 87.484948 152.520993 
L 99.475707 172.342184 
L 111.466465 103.827674 
L 123.457223 72.683169 
L 135.447982 42.257865 
L 147.43874 34.973911 
L 159.429498 76.314641 
L 171.420257 111.692638 
L 183.411015 112.679765 
L 195.401773 104.741414 
L 207.392531 147.158379 
L 219.38329 166.035997 
L 231.374048 132.570909 
L 243.364806 127.443169 
L 255.355565 125.213603 
L 267.346323 129.517051 
L 279.337081 99.971137 
L 291.32784 69.527068 
L 303.318598 110.644357 
L 315.309356 133.196452 
L 327.300115 98.512236 
L 339.290873 101.518797 
L 351.281631 146.739581 
L 363.27239 157.664979 
L 375.263148 168.920069 
L 387.253906 187.601187 
L 399.244665 156.145517 
L 411.235423 127.493224 
L 423.226181 162.017223 
L 435.21694 189.710015 
L 447.207698 124.117504 
L 459.198456 109.844423 
L 471.189214 131.60672 
L 483.179973 140.793137 
L 495.170731 176.891888 
L 507.161489 180.911857 
L 519.152248 164.325032 
L 531.143006 166.778407 
L 543.133764 175.849518 
L 555.124523 171.018367 
L 567.115281 166.418322 
L 579.106039 166.828768 
L 591.096798 166.024881 
L 603.087556 165.153986 
L 615.078314 164.041046 
L 627.069073 164.675761 
L 639.059831 163.766577 
L 651.050589 158.511908 
L 663.041348 173.184317 
L 675.032106 180.700447 
L 687.022864 194.121471 
" clip-path="url(#p3e93adfd23)" style="fill: none; stroke: #c0c0c0; stroke-linecap: square"/>
   </g>
   <g id="line2d_17">
    <path d="M 87.484948 157.209749 
L 99.475707 138.131334 
L 111.466465 173.10006 
L 123.457223 248.802934 
L 135.447982 293.292776 
L 147.43874 304.144485 
L 159.429498 296.297052 
L 171.420257 255.706789 
L 183.411015 238.256915 
L 195.401773 237.411633 
L 207.392531 208.081575 
L 219.38329 196.02969 
L 231.374048 224.150578 
L 243.364806 222.362721 
L 255.355565 212.661986 
L 267.346323 214.904902 
L 279.337081 233.113685 
L 291.32784 286.230557 
L 303.318598 270.260936 
L 315.309356 234.98006 
L 327.300115 260.354612 
L 339.290873 248.71786 
L 351.281631 212.08364 
L 363.27239 200.68009 
L 375.263148 192.091014 
L 387.253906 162.799628 
L 399.244665 176.903861 
L 411.235423 209.011059 
L 423.226181 192.922609 
L 435.21694 159.372177 
L 447.207698 217.322664 
L 459.198456 240.528788 
L 471.189214 230.340878 
L 483.179973 230.785076 
L 495.170731 194.081333 
L 507.161489 164.467266 
L 519.152248 190.29251 
L 531.143006 209.724388 
L 543.133764 188.457053 
L 555.124523 170.127868 
L 567.115281 183.013226 
L 579.106039 201.927755 
L 591.096798 193.978202 
L 603.087556 179.974552 
L 615.078314 185.888295 
L 627.069073 201.190531 
L 639.059831 207.578319 
L 651.050589 224.01289 
L 663.041348 217.983123 
L 675.032106 193.842649 
L 687.022864 54.746649 
" clip-path="url(#p3e93adfd23)" style="fill: none; stroke: #000000; stroke-width: 4; stroke-linecap: square"/>
   </g>
   <g id="patch_3">
    <path d="M 57.508053 318.484688 
L 57.508053 3.00024 
" style="fill: none; stroke: #000000; stroke-width: 0.8; stroke-linejoin: miter; stroke-linecap: square"/>
   </g>
   <g id="patch_4">
    <path d="M 716.99976 318.484688 
L 716.99976 3.00024 
" style="fill: none; stroke: #000000; stroke-width: 0.8; stroke-linejoin: miter; stroke-linecap: square"/>
   </g>
   <g id="patch_5">
    <path d="M 57.508053 318.484688 
L 716.99976 318.484688 
" style="fill: none; stroke: #000000; stroke-width: 0.8; stroke-linejoin: miter; stroke-linecap: square"/>
   </g>
   <g id="patch_6">
    <path d="M 57.508053 3.00024 
L 716.99976 3.00024 
" style="fill: none; stroke: #000000; stroke-width: 0.8; stroke-linejoin: miter; stroke-linecap: square"/>
   </g>
   <g id="legend_1">
    <g id="patch_7">
     <path d="M 572.310697 313.484688 
L 709.99976 313.484688 
Q 711.99976 313.484688 711.99976 311.484688 
L 711.99976 257.2525 
Q 711.99976 255.2525 709.99976 255.2525 
L 572.310697 255.2525 
Q 570.310697 255.2525 570.310697 257.2525 
L 570.310697 311.484688 
Q 570.310697 313.484688 572.310697 313.484688 
z
" style="fill: #ffffff; opacity: 0.8; stroke: #cccccc; stroke-linejoin: miter"/>
    </g>
    <g id="line2d_18">
     <path d="M 574.310697 263.350938 
L 584.310697 263.350938 
L 594.310697 263.350938 
" style="fill: none; stroke: #20b2aa; stroke-linecap: square"/>
    </g>
    <g id="text_14">
     <!-- cma1 -->
     <g transform="translate(602.310697 266.850938)scale(0.1 -0.1)">
      <defs>
       <path id="DejaVuSans-63" d="M 3122 3366 
L 3122 2828 
Q 2878 2963 2633 3030 
Q 2388 3097 2138 3097 
Q 1578 3097 1268 2742 
Q 959 2388 959 1747 
Q 959 1106 1268 751 
Q 1578 397 2138 397 
Q 2388 397 2633 464 
Q 2878 531 3122 666 
L 3122 134 
Q 2881 22 2623 -34 
Q 2366 -91 2075 -91 
Q 1284 -91 818 406 
Q 353 903 353 1747 
Q 353 2603 823 3093 
Q 1294 3584 2113 3584 
Q 2378 3584 2631 3529 
Q 2884 3475 3122 3366 
z
" transform="scale(0.015625)"/>
      </defs>
      <use xlink:href="#DejaVuSans-63"/>
      <use xlink:href="#DejaVuSans-6d" x="54.980469"/>
      <use xlink:href="#DejaVuSans-61" x="152.392578"/>
      <use xlink:href="#DejaVuSans-31" x="213.671875"/>
     </g>
    </g>
    <g id="line2d_19">
     <path d="M 574.310697 278.029063 
L 584.310697 278.029063 
L 594.310697 278.029063 
" style="fill: none; stroke: #ff0000; stroke-linecap: square"/>
    </g>
    <g id="text_15">
     <!-- jvj1 -->
     <g transform="translate(602.310697 281.529063)scale(0.1 -0.1)">
      <defs>
       <path id="DejaVuSans-6a" d="M 603 3500 
L 1178 3500 
L 1178 -63 
Q 1178 -731 923 -1031 
Q 669 -1331 103 -1331 
L -116 -1331 
L -116 -844 
L 38 -844 
Q 366 -844 484 -692 
Q 603 -541 603 -63 
L 603 3500 
z
M 603 4863 
L 1178 4863 
L 1178 4134 
L 603 4134 
L 603 4863 
z
" transform="scale(0.015625)"/>
       <path id="DejaVuSans-76" d="M 191 3500 
L 800 3500 
L 1894 563 
L 2988 3500 
L 3597 3500 
L 2284 0 
L 1503 0 
L 191 3500 
z
" transform="scale(0.015625)"/>
      </defs>
      <use xlink:href="#DejaVuSans-6a"/>
      <use xlink:href="#DejaVuSans-76" x="27.783203"/>
      <use xlink:href="#DejaVuSans-6a" x="86.962891"/>
      <use xlink:href="#DejaVuSans-31" x="114.746094"/>
     </g>
    </g>
    <g id="line2d_20">
     <path d="M 574.310697 292.707188 
L 584.310697 292.707188 
L 594.310697 292.707188 
" style="fill: none; stroke: #0000ff; stroke-linecap: square"/>
    </g>
    <g id="text_16">
     <!-- mmr1 -->
     <g transform="translate(602.310697 296.207188)scale(0.1 -0.1)">
      <use xlink:href="#DejaVuSans-6d"/>
      <use xlink:href="#DejaVuSans-6d" x="97.412109"/>
      <use xlink:href="#DejaVuSans-72" x="194.824219"/>
      <use xlink:href="#DejaVuSans-31" x="235.9375"/>
     </g>
    </g>
    <g id="line2d_21">
     <path d="M 652.265385 263.350938 
L 662.265385 263.350938 
L 672.265385 263.350938 
" style="fill: none; stroke: #32cd32; stroke-linecap: square"/>
    </g>
    <g id="text_17">
     <!-- oga1 -->
     <g transform="translate(680.265385 266.850938)scale(0.1 -0.1)">
      <defs>
       <path id="DejaVuSans-67" d="M 2906 1791 
Q 2906 2416 2648 2759 
Q 2391 3103 1925 3103 
Q 1463 3103 1205 2759 
Q 947 2416 947 1791 
Q 947 1169 1205 825 
Q 1463 481 1925 481 
Q 2391 481 2648 825 
Q 2906 1169 2906 1791 
z
M 3481 434 
Q 3481 -459 3084 -895 
Q 2688 -1331 1869 -1331 
Q 1566 -1331 1297 -1286 
Q 1028 -1241 775 -1147 
L 775 -588 
Q 1028 -725 1275 -790 
Q 1522 -856 1778 -856 
Q 2344 -856 2625 -561 
Q 2906 -266 2906 331 
L 2906 616 
Q 2728 306 2450 153 
Q 2172 0 1784 0 
Q 1141 0 747 490 
Q 353 981 353 1791 
Q 353 2603 747 3093 
Q 1141 3584 1784 3584 
Q 2172 3584 2450 3431 
Q 2728 3278 2906 2969 
L 2906 3500 
L 3481 3500 
L 3481 434 
z
" transform="scale(0.015625)"/>
      </defs>
      <use xlink:href="#DejaVuSans-6f"/>
      <use xlink:href="#DejaVuSans-67" x="61.181641"/>
      <use xlink:href="#DejaVuSans-61" x="124.658203"/>
      <use xlink:href="#DejaVuSans-31" x="185.9375"/>
     </g>
    </g>
    <g id="line2d_22">
     <path d="M 652.265385 278.029063 
L 662.265385 278.029063 
L 672.265385 278.029063 
" style="fill: none; stroke: #c0c0c0; stroke-linecap: square"/>
    </g>
    <g id="text_18">
     <!-- ssu1 -->
     <g transform="translate(680.265385 281.529063)scale(0.1 -0.1)">
      <defs>
       <path id="DejaVuSans-73" d="M 2834 3397 
L 2834 2853 
Q 2591 2978 2328 3040 
Q 2066 3103 1784 3103 
Q 1356 3103 1142 2972 
Q 928 2841 928 2578 
Q 928 2378 1081 2264 
Q 1234 2150 1697 2047 
L 1894 2003 
Q 2506 1872 2764 1633 
Q 3022 1394 3022 966 
Q 3022 478 2636 193 
Q 2250 -91 1575 -91 
Q 1294 -91 989 -36 
Q 684 19 347 128 
L 347 722 
Q 666 556 975 473 
Q 1284 391 1588 391 
Q 1994 391 2212 530 
Q 2431 669 2431 922 
Q 2431 1156 2273 1281 
Q 2116 1406 1581 1522 
L 1381 1569 
Q 847 1681 609 1914 
Q 372 2147 372 2553 
Q 372 3047 722 3315 
Q 1072 3584 1716 3584 
Q 2034 3584 2315 3537 
Q 2597 3491 2834 3397 
z
" transform="scale(0.015625)"/>
       <path id="DejaVuSans-75" d="M 544 1381 
L 544 3500 
L 1119 3500 
L 1119 1403 
Q 1119 906 1312 657 
Q 1506 409 1894 409 
Q 2359 409 2629 706 
Q 2900 1003 2900 1516 
L 2900 3500 
L 3475 3500 
L 3475 0 
L 2900 0 
L 2900 538 
Q 2691 219 2414 64 
Q 2138 -91 1772 -91 
Q 1169 -91 856 284 
Q 544 659 544 1381 
z
M 1991 3584 
L 1991 3584 
z
" transform="scale(0.015625)"/>
      </defs>
      <use xlink:href="#DejaVuSans-73"/>
      <use xlink:href="#DejaVuSans-73" x="52.099609"/>
      <use xlink:href="#DejaVuSans-75" x="104.199219"/>
      <use xlink:href="#DejaVuSans-31" x="167.578125"/>
     </g>
    </g>
    <g id="line2d_23">
     <path d="M 652.265385 299.345938 
L 662.265385 299.345938 
L 672.265385 299.345938 
" style="fill: none; stroke: #000000; stroke-width: 4; stroke-linecap: square"/>
    </g>
    <g id="text_19">
     <!-- this -->
     <g transform="translate(680.265385 296.207188)scale(0.1 -0.1)">
      <defs>
       <path id="DejaVuSans-68" d="M 3513 2113 
L 3513 0 
L 2938 0 
L 2938 2094 
Q 2938 2591 2744 2837 
Q 2550 3084 2163 3084 
Q 1697 3084 1428 2787 
Q 1159 2491 1159 1978 
L 1159 0 
L 581 0 
L 581 4863 
L 1159 4863 
L 1159 2956 
Q 1366 3272 1645 3428 
Q 1925 3584 2291 3584 
Q 2894 3584 3203 3211 
Q 3513 2838 3513 2113 
z
" transform="scale(0.015625)"/>
       <path id="DejaVuSans-69" d="M 603 3500 
L 1178 3500 
L 1178 0 
L 603 0 
L 603 3500 
z
M 603 4863 
L 1178 4863 
L 1178 4134 
L 603 4134 
L 603 4863 
z
" transform="scale(0.015625)"/>
      </defs>
      <use xlink:href="#DejaVuSans-74"/>
      <use xlink:href="#DejaVuSans-68" x="39.208984"/>
      <use xlink:href="#DejaVuSans-69" x="102.587891"/>
      <use xlink:href="#DejaVuSans-73" x="130.371094"/>
     </g>
     <!-- study -->
     <g transform="translate(680.265385 307.405)scale(0.1 -0.1)">
      <defs>
       <path id="DejaVuSans-79" d="M 2059 -325 
Q 1816 -950 1584 -1140 
Q 1353 -1331 966 -1331 
L 506 -1331 
L 506 -850 
L 844 -850 
Q 1081 -850 1212 -737 
Q 1344 -625 1503 -206 
L 1606 56 
L 191 3500 
L 800 3500 
L 1894 763 
L 2988 3500 
L 3597 3500 
L 2059 -325 
z
" transform="scale(0.015625)"/>
      </defs>
      <use xlink:href="#DejaVuSans-73"/>
      <use xlink:href="#DejaVuSans-74" x="52.099609"/>
      <use xlink:href="#DejaVuSans-75" x="91.308594"/>
      <use xlink:href="#DejaVuSans-64" x="154.6875"/>
      <use xlink:href="#DejaVuSans-79" x="218.164062"/>
     </g>
    </g>
   </g>
  </g>
  <g id="axes_2">
   <g id="patch_8">
    <path d="M 57.508053 686.64351 
L 716.99976 686.64351 
L 716.99976 371.159063 
L 57.508053 371.159063 
z
" style="fill: #ffffff"/>
   </g>
   <g id="matplotlib.axis_3">
    <g id="xtick_7">
     <g id="line2d_24">
      <g>
       <use xlink:href="#me9169065a4" x="87.484948" y="686.64351" style="stroke: #000000; stroke-width: 0.8"/>
      </g>
     </g>
     <g id="text_20">
      <!-- 0.0 -->
      <g transform="translate(79.533386 701.241948)scale(0.1 -0.1)">
       <use xlink:href="#DejaVuSans-30"/>
       <use xlink:href="#DejaVuSans-2e" x="63.623047"/>
       <use xlink:href="#DejaVuSans-30" x="95.410156"/>
      </g>
     </g>
    </g>
    <g id="xtick_8">
     <g id="line2d_25">
      <g>
       <use xlink:href="#me9169065a4" x="207.392531" y="686.64351" style="stroke: #000000; stroke-width: 0.8"/>
      </g>
     </g>
     <g id="text_21">
      <!-- 0.2 -->
      <g transform="translate(199.440969 701.241948)scale(0.1 -0.1)">
       <use xlink:href="#DejaVuSans-30"/>
       <use xlink:href="#DejaVuSans-2e" x="63.623047"/>
       <use xlink:href="#DejaVuSans-32" x="95.410156"/>
      </g>
     </g>
    </g>
    <g id="xtick_9">
     <g id="line2d_26">
      <g>
       <use xlink:href="#me9169065a4" x="327.300115" y="686.64351" style="stroke: #000000; stroke-width: 0.8"/>
      </g>
     </g>
     <g id="text_22">
      <!-- 0.4 -->
      <g transform="translate(319.348552 701.241948)scale(0.1 -0.1)">
       <use xlink:href="#DejaVuSans-30"/>
       <use xlink:href="#DejaVuSans-2e" x="63.623047"/>
       <use xlink:href="#DejaVuSans-34" x="95.410156"/>
      </g>
     </g>
    </g>
    <g id="xtick_10">
     <g id="line2d_27">
      <g>
       <use xlink:href="#me9169065a4" x="447.207698" y="686.64351" style="stroke: #000000; stroke-width: 0.8"/>
      </g>
     </g>
     <g id="text_23">
      <!-- 0.6 -->
      <g transform="translate(439.256135 701.241948)scale(0.1 -0.1)">
       <use xlink:href="#DejaVuSans-30"/>
       <use xlink:href="#DejaVuSans-2e" x="63.623047"/>
       <use xlink:href="#DejaVuSans-36" x="95.410156"/>
      </g>
     </g>
    </g>
    <g id="xtick_11">
     <g id="line2d_28">
      <g>
       <use xlink:href="#me9169065a4" x="567.115281" y="686.64351" style="stroke: #000000; stroke-width: 0.8"/>
      </g>
     </g>
     <g id="text_24">
      <!-- 0.8 -->
      <g transform="translate(559.163719 701.241948)scale(0.1 -0.1)">
       <use xlink:href="#DejaVuSans-30"/>
       <use xlink:href="#DejaVuSans-2e" x="63.623047"/>
       <use xlink:href="#DejaVuSans-38" x="95.410156"/>
      </g>
     </g>
    </g>
    <g id="xtick_12">
     <g id="line2d_29">
      <g>
       <use xlink:href="#me9169065a4" x="687.022864" y="686.64351" style="stroke: #000000; stroke-width: 0.8"/>
      </g>
     </g>
     <g id="text_25">
      <!-- 1.0 -->
      <g transform="translate(679.071302 701.241948)scale(0.1 -0.1)">
       <use xlink:href="#DejaVuSans-31"/>
       <use xlink:href="#DejaVuSans-2e" x="63.623047"/>
       <use xlink:href="#DejaVuSans-30" x="95.410156"/>
      </g>
     </g>
    </g>
    <g id="text_26">
     <!-- x norm. -->
     <g transform="translate(368.05 714.920072)scale(0.1 -0.1)">
      <use xlink:href="#DejaVuSans-78"/>
      <use xlink:href="#DejaVuSans-20" x="59.179688"/>
      <use xlink:href="#DejaVuSans-6e" x="90.966797"/>
      <use xlink:href="#DejaVuSans-6f" x="154.345703"/>
      <use xlink:href="#DejaVuSans-72" x="215.527344"/>
      <use xlink:href="#DejaVuSans-6d" x="254.890625"/>
      <use xlink:href="#DejaVuSans-2e" x="352.302734"/>
     </g>
    </g>
   </g>
   <g id="matplotlib.axis_4">
    <g id="ytick_6">
     <g id="line2d_30">
      <g>
       <use xlink:href="#m62883c4463" x="57.508053" y="677.415689" style="stroke: #000000; stroke-width: 0.8"/>
      </g>
     </g>
     <g id="text_27">
      <!-- −1500 -->
      <g transform="translate(16.678365 681.214908)scale(0.1 -0.1)">
       <use xlink:href="#DejaVuSans-2212"/>
       <use xlink:href="#DejaVuSans-31" x="83.789062"/>
       <use xlink:href="#DejaVuSans-35" x="147.412109"/>
       <use xlink:href="#DejaVuSans-30" x="211.035156"/>
       <use xlink:href="#DejaVuSans-30" x="274.658203"/>
      </g>
     </g>
    </g>
    <g id="ytick_7">
     <g id="line2d_31">
      <g>
       <use xlink:href="#m62883c4463" x="57.508053" y="639.499574" style="stroke: #000000; stroke-width: 0.8"/>
      </g>
     </g>
     <g id="text_28">
      <!-- −1250 -->
      <g transform="translate(16.678365 643.298793)scale(0.1 -0.1)">
       <use xlink:href="#DejaVuSans-2212"/>
       <use xlink:href="#DejaVuSans-31" x="83.789062"/>
       <use xlink:href="#DejaVuSans-32" x="147.412109"/>
       <use xlink:href="#DejaVuSans-35" x="211.035156"/>
       <use xlink:href="#DejaVuSans-30" x="274.658203"/>
      </g>
     </g>
    </g>
    <g id="ytick_8">
     <g id="line2d_32">
      <g>
       <use xlink:href="#m62883c4463" x="57.508053" y="601.58346" style="stroke: #000000; stroke-width: 0.8"/>
      </g>
     </g>
     <g id="text_29">
      <!-- −1000 -->
      <g transform="translate(16.678365 605.382678)scale(0.1 -0.1)">
       <use xlink:href="#DejaVuSans-2212"/>
       <use xlink:href="#DejaVuSans-31" x="83.789062"/>
       <use xlink:href="#DejaVuSans-30" x="147.412109"/>
       <use xlink:href="#DejaVuSans-30" x="211.035156"/>
       <use xlink:href="#DejaVuSans-30" x="274.658203"/>
      </g>
     </g>
    </g>
    <g id="ytick_9">
     <g id="line2d_33">
      <g>
       <use xlink:href="#m62883c4463" x="57.508053" y="563.667345" style="stroke: #000000; stroke-width: 0.8"/>
      </g>
     </g>
     <g id="text_30">
      <!-- −750 -->
      <g transform="translate(23.040865 567.466564)scale(0.1 -0.1)">
       <defs>
        <path id="DejaVuSans-37" d="M 525 4666 
L 3525 4666 
L 3525 4397 
L 1831 0 
L 1172 0 
L 2766 4134 
L 525 4134 
L 525 4666 
z
" transform="scale(0.015625)"/>
       </defs>
       <use xlink:href="#DejaVuSans-2212"/>
       <use xlink:href="#DejaVuSans-37" x="83.789062"/>
       <use xlink:href="#DejaVuSans-35" x="147.412109"/>
       <use xlink:href="#DejaVuSans-30" x="211.035156"/>
      </g>
     </g>
    </g>
    <g id="ytick_10">
     <g id="line2d_34">
      <g>
       <use xlink:href="#m62883c4463" x="57.508053" y="525.75123" style="stroke: #000000; stroke-width: 0.8"/>
      </g>
     </g>
     <g id="text_31">
      <!-- −500 -->
      <g transform="translate(23.040865 529.550449)scale(0.1 -0.1)">
       <use xlink:href="#DejaVuSans-2212"/>
       <use xlink:href="#DejaVuSans-35" x="83.789062"/>
       <use xlink:href="#DejaVuSans-30" x="147.412109"/>
       <use xlink:href="#DejaVuSans-30" x="211.035156"/>
      </g>
     </g>
    </g>
    <g id="ytick_11">
     <g id="line2d_35">
      <g>
       <use xlink:href="#m62883c4463" x="57.508053" y="487.835116" style="stroke: #000000; stroke-width: 0.8"/>
      </g>
     </g>
     <g id="text_32">
      <!-- −250 -->
      <g transform="translate(23.040865 491.634334)scale(0.1 -0.1)">
       <use xlink:href="#DejaVuSans-2212"/>
       <use xlink:href="#DejaVuSans-32" x="83.789062"/>
       <use xlink:href="#DejaVuSans-35" x="147.412109"/>
       <use xlink:href="#DejaVuSans-30" x="211.035156"/>
      </g>
     </g>
    </g>
    <g id="ytick_12">
     <g id="line2d_36">
      <g>
       <use xlink:href="#m62883c4463" x="57.508053" y="449.919001" style="stroke: #000000; stroke-width: 0.8"/>
      </g>
     </g>
     <g id="text_33">
      <!-- 0 -->
      <g transform="translate(44.145553 453.71822)scale(0.1 -0.1)">
       <use xlink:href="#DejaVuSans-30"/>
      </g>
     </g>
    </g>
    <g id="ytick_13">
     <g id="line2d_37">
      <g>
       <use xlink:href="#m62883c4463" x="57.508053" y="412.002886" style="stroke: #000000; stroke-width: 0.8"/>
      </g>
     </g>
     <g id="text_34">
      <!-- 250 -->
      <g transform="translate(31.420553 415.802105)scale(0.1 -0.1)">
       <use xlink:href="#DejaVuSans-32"/>
       <use xlink:href="#DejaVuSans-35" x="63.623047"/>
       <use xlink:href="#DejaVuSans-30" x="127.246094"/>
      </g>
     </g>
    </g>
    <g id="ytick_14">
     <g id="line2d_38">
      <g>
       <use xlink:href="#m62883c4463" x="57.508053" y="374.086772" style="stroke: #000000; stroke-width: 0.8"/>
      </g>
     </g>
     <g id="text_35">
      <!-- 500 -->
      <g transform="translate(31.420553 377.88599)scale(0.1 -0.1)">
       <use xlink:href="#DejaVuSans-35"/>
       <use xlink:href="#DejaVuSans-30" x="63.623047"/>
       <use xlink:href="#DejaVuSans-30" x="127.246094"/>
      </g>
     </g>
    </g>
    <g id="text_36">
     <!-- delta p (kPa) -->
     <g transform="translate(10.598678 560.568474)rotate(-90)scale(0.1 -0.1)">
      <use xlink:href="#DejaVuSans-64"/>
      <use xlink:href="#DejaVuSans-65" x="63.476562"/>
      <use xlink:href="#DejaVuSans-6c" x="125"/>
      <use xlink:href="#DejaVuSans-74" x="152.783203"/>
      <use xlink:href="#DejaVuSans-61" x="191.992188"/>
      <use xlink:href="#DejaVuSans-20" x="253.271484"/>
      <use xlink:href="#DejaVuSans-70" x="285.058594"/>
      <use xlink:href="#DejaVuSans-20" x="348.535156"/>
      <use xlink:href="#DejaVuSans-28" x="380.322266"/>
      <use xlink:href="#DejaVuSans-6b" x="419.335938"/>
      <use xlink:href="#DejaVuSans-50" x="477.246094"/>
      <use xlink:href="#DejaVuSans-61" x="533.048828"/>
      <use xlink:href="#DejaVuSans-29" x="594.328125"/>
     </g>
    </g>
   </g>
   <g id="line2d_39">
    <path d="M 87.484948 391.130672 
L 88.983793 449.899182 
L 91.981483 449.930736 
L 93.480327 449.659791 
L 94.979172 450.096897 
L 96.478017 449.833422 
L 99.475707 449.45244 
L 100.974551 449.147182 
L 103.972241 448.19952 
L 106.969931 446.883452 
L 111.466465 444.532228 
L 112.96531 443.516819 
L 117.461844 441.562138 
L 123.457223 439.384949 
L 126.454913 438.665346 
L 129.452602 437.919597 
L 132.450292 437.05558 
L 136.946826 435.757438 
L 139.944516 435.349734 
L 142.942206 435.233165 
L 145.939895 435.425248 
L 151.935274 436.565689 
L 157.930653 438.734809 
L 160.928343 441.104566 
L 165.424877 442.612202 
L 168.422567 443.347956 
L 171.420257 443.775771 
L 172.919101 443.827322 
L 174.417946 444.122901 
L 180.413325 444.461386 
L 181.91217 444.414491 
L 183.411015 444.091977 
L 184.90986 443.424077 
L 186.408704 443.531804 
L 187.907549 443.229203 
L 189.406394 443.340494 
L 190.905239 443.126041 
L 192.404084 443.27038 
L 193.902928 443.152355 
L 196.900618 443.398127 
L 198.399463 443.976742 
L 199.898308 444.237802 
L 201.397152 444.962925 
L 202.895997 445.323189 
L 204.394842 446.202676 
L 205.893687 446.609971 
L 207.392531 447.87558 
L 208.891376 448.531291 
L 210.390221 448.985957 
L 211.889066 449.117556 
L 213.387911 449.516564 
L 214.886755 449.520227 
L 216.3856 449.84933 
L 217.884445 449.740801 
L 219.38329 449.91164 
L 220.882135 449.50828 
L 222.380979 449.551283 
L 223.879824 449.072751 
L 225.378669 448.919358 
L 226.877514 448.306732 
L 228.376359 447.952823 
L 231.374048 446.557116 
L 232.872893 445.688306 
L 234.371738 445.767171 
L 235.870582 445.360726 
L 237.369427 445.516258 
L 238.868272 445.259353 
L 240.367117 445.498589 
L 241.865962 445.347045 
L 243.364806 445.758708 
L 244.863651 445.748729 
L 246.362496 445.854242 
L 247.861341 445.70141 
L 249.360186 445.80492 
L 250.85903 445.647174 
L 252.357875 445.750003 
L 253.85672 445.592044 
L 255.355565 445.69369 
L 256.85441 445.518381 
L 258.353254 445.587252 
L 259.852099 445.406195 
L 261.350944 445.472078 
L 262.849789 445.289292 
L 264.348633 445.361984 
L 265.847478 445.177333 
L 268.845168 445.688412 
L 271.842857 445.386918 
L 274.840547 444.804602 
L 276.339392 444.206104 
L 277.838237 443.913695 
L 280.835926 440.808335 
L 282.334771 440.535673 
L 283.833616 439.90804 
L 285.332461 439.721765 
L 286.831305 439.367068 
L 289.828995 439.171314 
L 295.824374 439.967992 
L 297.323219 440.400388 
L 298.822064 440.707326 
L 300.320908 441.395838 
L 301.819753 441.78375 
L 303.318598 443.373224 
L 304.817443 444.694009 
L 306.316288 445.574937 
L 307.815132 445.897997 
L 309.313977 446.657624 
L 310.812822 446.746999 
L 312.311667 447.304412 
L 315.309356 447.130726 
L 316.808201 446.110919 
L 318.307046 446.271395 
L 319.805891 445.69281 
L 321.304735 445.74973 
L 322.80358 445.248585 
L 324.302425 445.242943 
L 325.80127 444.857746 
L 328.798959 444.646917 
L 331.796649 445.031053 
L 337.792028 445.918062 
L 339.290873 445.634753 
L 340.789718 445.728861 
L 342.288563 445.594031 
L 343.787407 445.882163 
L 345.286252 445.464585 
L 346.785097 445.520959 
L 348.283942 444.619541 
L 349.782787 441.01971 
L 351.281631 430.830209 
L 352.780476 432.939406 
L 354.279321 431.354058 
L 355.778166 431.516491 
L 357.27701 431.121253 
L 358.775855 430.939711 
L 360.2747 431.339043 
L 361.773545 430.897093 
L 363.27239 431.735949 
L 364.771234 431.63949 
L 366.270079 433.763854 
L 367.768924 433.182221 
L 369.267769 436.153616 
L 370.766614 434.711757 
L 372.265458 439.513227 
L 373.764303 435.959289 
L 375.263148 445.024774 
L 376.761993 434.975638 
L 378.260838 458.59301 
L 379.759682 440.010246 
L 381.258527 462.118223 
L 382.757372 441.742922 
L 384.256217 474.535053 
L 385.755061 447.797427 
L 387.253906 517.580459 
L 390.251596 454.322988 
L 391.750441 459.815001 
L 393.249285 447.849858 
L 394.74813 452.799185 
L 396.246975 443.872912 
L 397.74582 447.866541 
L 399.244665 439.533974 
L 400.743509 444.203344 
L 402.242354 436.574879 
L 403.741199 442.820816 
L 405.240044 436.249043 
L 406.738889 442.741966 
L 408.237733 436.975061 
L 409.736578 443.515166 
L 411.235423 438.443355 
L 412.734268 444.725479 
L 414.233112 440.212233 
L 415.731957 446.07781 
L 417.230802 442.140874 
L 418.729647 447.485272 
L 420.228492 444.157526 
L 421.727336 448.999512 
L 423.226181 447.308431 
L 424.725026 450.829488 
L 426.223871 450.298285 
L 427.722716 451.918757 
L 429.22156 451.523186 
L 430.720405 452.493854 
L 432.21925 452.149014 
L 433.718095 452.626348 
L 435.21694 452.058471 
L 436.715784 452.059259 
L 438.214629 451.19136 
L 439.713474 451.150052 
L 441.212319 450.051886 
L 442.711163 449.939014 
L 444.210008 448.542705 
L 445.708853 448.437743 
L 447.207698 445.885515 
L 448.706543 445.818858 
L 450.205387 443.851861 
L 451.704232 445.034162 
L 453.203077 443.161197 
L 454.701922 444.709266 
L 456.200767 442.957238 
L 457.699611 444.772222 
L 459.198456 443.583173 
L 460.697301 445.652953 
L 462.196146 444.42532 
L 463.694991 446.119806 
L 465.193835 444.865829 
L 466.69268 446.549032 
L 468.191525 445.247038 
L 469.69037 446.939462 
L 471.189214 445.303275 
L 472.688059 446.822134 
L 474.186904 445.227792 
L 475.685749 447.082512 
L 477.184594 445.527496 
L 478.683438 447.477961 
L 480.182283 445.980851 
L 481.681128 447.981685 
L 483.179973 446.424182 
L 484.678818 448.412603 
L 486.177662 447.093386 
L 487.676507 449.172355 
L 489.175352 448.024393 
L 490.674197 449.980256 
L 492.173042 449.055035 
L 493.671886 450.804646 
L 495.170731 450.78253 
L 496.669576 452.114314 
L 498.168421 451.944207 
L 499.667265 452.1313 
L 504.1638 451.893976 
L 505.662645 451.571355 
L 507.161489 451.545617 
L 508.660334 451.162986 
L 510.159179 451.249776 
L 511.658024 450.931883 
L 513.156869 450.982653 
L 514.655713 450.688067 
L 516.154558 450.637725 
L 517.653403 450.401194 
L 519.152248 449.839434 
L 522.149937 449.359157 
L 523.648782 449.704206 
L 525.147627 449.449874 
L 526.646472 449.912502 
L 528.145316 449.631805 
L 529.644161 450.151698 
L 531.143006 449.960935 
L 532.641851 450.502973 
L 534.140696 450.264726 
L 535.63954 450.670295 
L 537.138385 450.462337 
L 538.63723 450.818044 
L 540.136075 450.663839 
L 541.63492 450.956446 
L 546.131454 451.123634 
L 547.630299 450.985129 
L 549.129144 450.974705 
L 550.627988 450.778101 
L 552.126833 450.802123 
L 553.625678 450.583948 
L 555.124523 450.575153 
L 556.623367 450.365876 
L 558.122212 450.415597 
L 559.621057 450.288196 
L 561.119902 450.328128 
L 562.618747 450.217029 
L 565.616436 450.137005 
L 570.112971 449.987728 
L 574.609505 450.082231 
L 576.10835 450.024096 
L 577.607195 450.10695 
L 582.103729 450.075226 
L 586.600263 450.061153 
L 591.096798 449.981406 
L 595.593332 449.980165 
L 600.089866 449.910931 
L 604.586401 449.883828 
L 609.082935 449.835318 
L 618.076004 449.834267 
L 622.572538 449.771626 
L 627.069073 450.006149 
L 628.567917 449.883458 
L 630.066762 449.91947 
L 631.565607 449.842982 
L 633.064452 449.900376 
L 640.558676 449.60949 
L 645.05521 449.574199 
L 651.050589 449.372828 
L 658.544813 449.974725 
L 678.029795 452.174145 
L 681.027485 452.22838 
L 682.52633 452.131694 
L 684.025175 451.90256 
L 685.524019 451.387348 
L 687.022864 391.130672 
L 687.022864 391.130672 
" clip-path="url(#pd54e539efd)" style="fill: none; stroke: #20b2aa; stroke-linecap: square"/>
   </g>
   <g id="line2d_40">
    <path d="M 99.720416 449.913378 
L 111.955884 450.670611 
L 124.191351 450.452212 
L 136.426819 449.942137 
L 148.662289 449.363412 
L 160.897755 449.307143 
L 173.13322 449.931178 
L 185.368692 449.916023 
L 197.604158 449.66001 
L 209.839623 449.926098 
L 222.075095 450.262411 
L 234.310561 450.188969 
L 246.546027 450.050152 
L 258.781498 450.178358 
L 271.016964 450.618448 
L 283.25243 450.08421 
L 295.487901 448.949655 
L 307.723367 450.147759 
L 319.958833 450.502064 
L 332.194305 450.272468 
L 344.42977 451.048813 
L 356.665236 473.975782 
L 368.900708 450.385223 
L 381.136173 428.198844 
L 393.371639 448.9206 
L 405.607105 449.887129 
L 417.842577 449.79534 
L 430.078042 450.035504 
L 442.313508 450.357422 
L 454.54898 449.905539 
L 466.784445 449.931262 
L 479.019911 449.851956 
L 491.255383 449.524592 
L 503.490849 449.811832 
L 515.726314 449.934429 
L 527.961786 449.828739 
L 540.197252 449.79853 
L 552.432717 449.878825 
L 564.668189 449.865225 
L 576.903655 449.879296 
L 589.139121 449.914304 
L 601.374592 449.988785 
L 613.610058 450.008882 
L 625.845524 450.042473 
L 638.080995 450.078022 
L 650.316461 450.040733 
L 662.551927 449.925412 
L 674.787398 449.755531 
L 687.022864 449.918959 
" clip-path="url(#pd54e539efd)" style="fill: none; stroke: #ff0000; stroke-linecap: square"/>
   </g>
   <g id="line2d_41">
    <path d="M 87.484948 449.998834 
L 99.475707 449.112321 
L 111.466465 441.164764 
L 123.457223 435.969054 
L 135.447982 433.430636 
L 147.43874 433.487414 
L 159.429498 435.999728 
L 171.420257 440.888398 
L 183.411015 441.474539 
L 195.401773 442.863659 
L 207.392531 443.153207 
L 219.38329 445.984619 
L 231.374048 445.657877 
L 243.364806 442.976302 
L 255.355565 442.038477 
L 267.346323 440.690862 
L 279.337081 440.1403 
L 291.32784 436.550175 
L 303.318598 437.92985 
L 315.309356 441.690591 
L 327.300115 441.995385 
L 339.290873 433.772219 
L 351.281631 437.038525 
L 363.27239 469.772547 
L 375.263148 456.833442 
L 387.253906 449.576455 
L 399.244665 444.762481 
L 411.235423 444.930599 
L 423.226181 447.510246 
L 435.21694 448.367374 
L 447.207698 446.590164 
L 459.198456 441.266513 
L 471.189214 439.373845 
L 483.179973 441.807509 
L 495.170731 446.374836 
L 507.161489 447.174347 
L 519.152248 448.152781 
L 531.143006 446.960969 
L 543.133764 448.389869 
L 555.124523 448.55435 
L 567.115281 448.571954 
L 579.106039 448.404521 
L 591.096798 448.440476 
L 603.087556 448.506341 
L 615.078314 448.787261 
L 627.069073 448.732998 
L 639.059831 448.090719 
L 651.050589 448.37698 
L 663.041348 448.348471 
L 675.032106 449.445567 
L 687.022864 450.445282 
" clip-path="url(#pd54e539efd)" style="fill: none; stroke: #0000ff; stroke-linecap: square"/>
   </g>
   <g id="line2d_42">
    <path d="M 87.484948 449.919001 
L 99.475707 450.401182 
L 111.466465 455.452487 
L 123.457223 460.623278 
L 135.447982 463.759087 
L 147.43874 463.636945 
L 159.429498 459.780513 
L 171.420257 456.767681 
L 183.411015 456.063425 
L 195.401773 455.986486 
L 207.392531 451.589938 
L 219.38329 450.608196 
L 231.374048 454.047869 
L 243.364806 454.330923 
L 255.355565 454.508958 
L 267.346323 455.118581 
L 279.337081 457.768089 
L 291.32784 459.99235 
L 303.318598 456.868589 
L 315.309356 452.977556 
L 327.300115 452.310157 
L 339.290873 451.831788 
L 351.281631 510.263396 
L 363.27239 455.138228 
L 375.263148 447.832662 
L 387.253906 390.289644 
L 399.244665 459.689536 
L 411.235423 458.798766 
L 423.226181 451.309905 
L 435.21694 448.753375 
L 447.207698 453.454098 
L 459.198456 454.702365 
L 471.189214 452.597433 
L 483.179973 450.919425 
L 495.170731 447.711907 
L 507.161489 448.286353 
L 519.152248 449.760517 
L 531.143006 449.168881 
L 543.133764 448.369336 
L 555.124523 449.163592 
L 567.115281 449.711124 
L 579.106039 449.61694 
L 591.096798 449.736916 
L 603.087556 449.859528 
L 615.078314 449.895435 
L 627.069073 450.005254 
L 639.059831 450.985112 
L 651.050589 451.135851 
L 663.041348 449.56069 
L 675.032106 448.065919 
L 687.022864 451.124256 
" clip-path="url(#pd54e539efd)" style="fill: none; stroke: #32cd32; stroke-linecap: square"/>
   </g>
   <g id="line2d_43">
    <path d="M 87.484948 448.498993 
L 99.475707 450.742801 
L 111.466465 443.078846 
L 123.457223 439.573591 
L 135.447982 436.152044 
L 147.43874 435.281565 
L 159.429498 439.867452 
L 171.420257 443.793849 
L 183.411015 443.919254 
L 195.401773 443.006682 
L 207.392531 447.698281 
L 219.38329 449.899926 
L 231.374048 445.998984 
L 243.364806 445.225838 
L 255.355565 444.834634 
L 267.346323 445.094278 
L 279.337081 441.316633 
L 291.32784 436.978014 
L 303.318598 444.320493 
L 315.309356 446.236406 
L 327.300115 468.866203 
L 339.290873 396.168058 
L 351.281631 423.85295 
L 363.27239 439.835861 
L 375.263148 452.773971 
L 387.253906 466.212179 
L 399.244665 486.730492 
L 411.235423 421.802416 
L 423.226181 447.283442 
L 435.21694 453.000554 
L 447.207698 447.279535 
L 459.198456 445.520923 
L 471.189214 447.43205 
L 483.179973 448.145739 
L 495.170731 452.003291 
L 507.161489 452.147169 
L 519.152248 450.084779 
L 531.143006 450.325784 
L 543.133764 451.291946 
L 555.124523 450.679396 
L 567.115281 450.128421 
L 579.106039 450.158321 
L 591.096798 450.054301 
L 603.087556 449.945883 
L 615.078314 449.8179 
L 627.069073 449.869488 
L 639.059831 449.765013 
L 651.050589 449.199068 
L 663.041348 450.82073 
L 675.032106 451.650681 
L 687.022864 453.139318 
" clip-path="url(#pd54e539efd)" style="fill: none; stroke: #c0c0c0; stroke-linecap: square"/>
   </g>
   <g id="line2d_44">
    <path d="M 87.484948 443.726445 
L 99.475707 442.226922 
L 111.466465 447.064343 
L 123.457223 454.084752 
L 135.447982 458.984637 
L 147.43874 458.993505 
L 159.429498 458.460308 
L 171.420257 453.273515 
L 183.411015 451.761204 
L 195.401773 450.653318 
L 207.392531 448.695632 
L 219.38329 446.537826 
L 231.374048 449.80947 
L 243.364806 449.56489 
L 255.355565 448.53688 
L 267.346323 449.430219 
L 279.337081 450.39101 
L 291.32784 459.908445 
L 303.318598 457.338786 
L 315.309356 464.339392 
L 327.300115 471.689349 
L 339.290873 509.380691 
L 351.281631 672.303308 
L 363.27239 613.043929 
L 375.263148 385.499265 
L 387.253906 403.1401 
L 399.244665 403.568554 
L 411.235423 410.741365 
L 423.226181 440.756071 
L 435.21694 428.212643 
L 447.207698 450.437566 
L 459.198456 446.62425 
L 471.189214 452.515071 
L 483.179973 449.151214 
L 495.170731 447.2138 
L 507.161489 442.148817 
L 519.152248 445.757209 
L 531.143006 447.330943 
L 543.133764 446.150153 
L 555.124523 444.017821 
L 567.115281 445.990441 
L 579.106039 447.360187 
L 591.096798 446.702245 
L 603.087556 445.067471 
L 615.078314 446.07466 
L 627.069073 446.791245 
L 639.059831 447.623834 
L 651.050589 449.518064 
L 663.041348 447.813067 
L 675.032106 445.952832 
L 687.022864 430.719866 
" clip-path="url(#pd54e539efd)" style="fill: none; stroke: #000000; stroke-width: 4; stroke-linecap: square"/>
   </g>
   <g id="patch_9">
    <path d="M 57.508053 686.64351 
L 57.508053 371.159063 
" style="fill: none; stroke: #000000; stroke-width: 0.8; stroke-linejoin: miter; stroke-linecap: square"/>
   </g>
   <g id="patch_10">
    <path d="M 716.99976 686.64351 
L 716.99976 371.159063 
" style="fill: none; stroke: #000000; stroke-width: 0.8; stroke-linejoin: miter; stroke-linecap: square"/>
   </g>
   <g id="patch_11">
    <path d="M 57.508053 686.64351 
L 716.99976 686.64351 
" style="fill: none; stroke: #000000; stroke-width: 0.8; stroke-linejoin: miter; stroke-linecap: square"/>
   </g>
   <g id="patch_12">
    <path d="M 57.508053 371.159063 
L 716.99976 371.159063 
" style="fill: none; stroke: #000000; stroke-width: 0.8; stroke-linejoin: miter; stroke-linecap: square"/>
   </g>
   <g id="text_37">
    <!-- 1 -->
    <g transform="translate(383.436406 365.159063)scale(0.12 -0.12)">
     <use xlink:href="#DejaVuSans-31"/>
    </g>
   </g>
  </g>
 </g>
 <defs>
  <clipPath id="p3e93adfd23">
   <rect x="57.508053" y="3.00024" width="659.491707" height="315.484447"/>
  </clipPath>
  <clipPath id="pd54e539efd">
   <rect x="57.508053" y="371.159063" width="659.491707" height="315.484447"/>
  </clipPath>
 </defs>
</svg>
