<?xml version="1.0" encoding="UTF-8" standalone="no"?>
<svg
   xmlns:dc="http://purl.org/dc/elements/1.1/"
   xmlns:cc="http://creativecommons.org/ns#"
   xmlns:rdf="http://www.w3.org/1999/02/22-rdf-syntax-ns#"
   xmlns:svg="http://www.w3.org/2000/svg"
   xmlns="http://www.w3.org/2000/svg"
   xmlns:xlink="http://www.w3.org/1999/xlink"
   xmlns:sodipodi="http://sodipodi.sourceforge.net/DTD/sodipodi-0.dtd"
   xmlns:inkscape="http://www.inkscape.org/namespaces/inkscape"
   id="svg8"
   version="1.1"
   viewBox="0 0 210 297"
   height="297mm"
   width="210mm"
   sodipodi:docname="illustration-of-exp-b.svg"
   inkscape:version="1.0.1 (3bc2e813f5, 2020-09-07)">
  <defs
     id="defs2">
    <marker
       style="overflow:visible"
       id="marker1257"
       refX="0.0"
       refY="0.0"
       orient="auto"
       inkscape:stockid="StopL"
       inkscape:isstock="true">
      <path
         transform="scale(0.8)"
         style="fill:none;fill-opacity:0.75;fill-rule:evenodd;stroke:#000000;stroke-width:1pt;stroke-opacity:1"
         d="M 0.0,5.65 L 0.0,-5.65"
         id="path1255" />
    </marker>
    <marker
       style="overflow:visible"
       id="marker1223"
       refX="0.0"
       refY="0.0"
       orient="auto"
       inkscape:stockid="StopL"
       inkscape:isstock="true">
      <path
         transform="scale(0.8)"
         style="fill:none;fill-opacity:0.75;fill-rule:evenodd;stroke:#000000;stroke-width:1pt;stroke-opacity:1"
         d="M 0.0,5.65 L 0.0,-5.65"
         id="path1221" />
    </marker>
    <marker
       style="overflow:visible"
       id="StopL"
       refX="0.0"
       refY="0.0"
       orient="auto"
       inkscape:stockid="StopL"
       inkscape:isstock="true"
       inkscape:collect="always">
      <path
         transform="scale(0.8)"
         style="fill:none;fill-opacity:0.75;fill-rule:evenodd;stroke:#000000;stroke-width:1pt;stroke-opacity:1"
         d="M 0.0,5.65 L 0.0,-5.65"
         id="path1102" />
    </marker>
    <g
       id="g6588">
      <symbol
         overflow="visible"
         id="symbol7367">
        <path
           style="stroke:none;"
           d=""
           id="path94" />
      </symbol>
      <symbol
         overflow="visible"
         id="symbol7436">
        <path
           style="stroke:none;"
           d="M 4.75 -2.359375 C 4.75 -3.921875 3.828125 -4.40625 3.09375 -4.40625 C 1.71875 -4.40625 0.40625 -2.984375 0.40625 -1.578125 C 0.40625 -0.640625 1 0.109375 2.03125 0.109375 C 2.65625 0.109375 3.375 -0.125 4.125 -0.734375 C 4.25 -0.203125 4.578125 0.109375 5.03125 0.109375 C 5.5625 0.109375 5.875 -0.4375 5.875 -0.59375 C 5.875 -0.671875 5.8125 -0.703125 5.75 -0.703125 C 5.6875 -0.703125 5.65625 -0.671875 5.625 -0.59375 C 5.4375 -0.109375 5.078125 -0.109375 5.0625 -0.109375 C 4.75 -0.109375 4.75 -0.890625 4.75 -1.125 C 4.75 -1.328125 4.75 -1.359375 4.859375 -1.46875 C 5.796875 -2.65625 6 -3.8125 6 -3.8125 C 6 -3.84375 5.984375 -3.921875 5.875 -3.921875 C 5.78125 -3.921875 5.78125 -3.890625 5.734375 -3.703125 C 5.546875 -3.078125 5.21875 -2.328125 4.75 -1.734375 Z M 4.09375 -0.984375 C 3.203125 -0.21875 2.4375 -0.109375 2.046875 -0.109375 C 1.453125 -0.109375 1.140625 -0.5625 1.140625 -1.203125 C 1.140625 -1.6875 1.40625 -2.765625 1.71875 -3.265625 C 2.1875 -4 2.734375 -4.1875 3.078125 -4.1875 C 4.0625 -4.1875 4.0625 -2.875 4.0625 -2.109375 C 4.0625 -1.734375 4.0625 -1.15625 4.09375 -0.984375 Z M 4.09375 -0.984375 "
           id="path3996" />
      </symbol>
    </g>
    <marker
       style="overflow:visible"
       id="StopL-3"
       refX="0"
       refY="0"
       orient="auto"
       inkscape:stockid="StopL"
       inkscape:isstock="true"
       inkscape:collect="always">
      <path
         transform="scale(0.8)"
         style="fill:none;fill-opacity:0.75;fill-rule:evenodd;stroke:#000000;stroke-width:1pt;stroke-opacity:1"
         d="M 0,5.65 V -5.65"
         id="path1102-6" />
    </marker>
  </defs>
  <sodipodi:namedview
     id="base"
     pagecolor="#ffffff"
     bordercolor="#666666"
     borderopacity="1.0"
     inkscape:pageopacity="0.0"
     inkscape:pageshadow="2"
     inkscape:zoom="1.4"
     inkscape:cx="416.84547"
     inkscape:cy="268.65723"
     inkscape:document-units="mm"
     inkscape:current-layer="layer1"
     inkscape:document-rotation="0"
     showgrid="false"
     inkscape:window-width="1920"
     inkscape:window-height="1003"
     inkscape:window-x="0"
     inkscape:window-y="0"
     inkscape:window-maximized="1" />
  <metadata
     id="metadata5">
    <rdf:RDF>
      <cc:Work
         rdf:about="">
        <dc:format>image/svg+xml</dc:format>
        <dc:type
           rdf:resource="http://purl.org/dc/dcmitype/StillImage" />
        <dc:title />
      </cc:Work>
    </rdf:RDF>
  </metadata>
  <g
     inkscape:label="Ebene 1"
     inkscape:groupmode="layer"
     id="layer1">
    <g
       id="g1930"
       inkscape:export-xdpi="96"
       inkscape:export-ydpi="96">
      <path
         style="fill:none;stroke:#000000;stroke-width:0.264583px;stroke-linecap:butt;stroke-linejoin:miter;stroke-opacity:1"
         d="M 33.330156,22.820876 H 121.45778"
         id="path855"
         inkscape:export-xdpi="96"
         inkscape:export-ydpi="96" />
      <path
         style="fill:none;stroke:#000000;stroke-width:0.365;stroke-linecap:butt;stroke-linejoin:miter;stroke-miterlimit:4;stroke-dasharray:none;stroke-opacity:1"
         d="m 117.24706,21.292668 c 0,0 3.11631,3.845005 2.71228,7.109888 -0.40164,3.245584 -3.92039,5.976509 -3.92039,5.976509"
         id="path857"
         sodipodi:nodetypes="csc"
         inkscape:export-xdpi="96"
         inkscape:export-ydpi="96" />
      <g
         inkscape:label=""
         transform="translate(17.961174,-52.680571)"
         id="g908"
         inkscape:export-xdpi="96"
         inkscape:export-ydpi="96">
        <g
           id="g5243">
          <g
             style="fill:#000000;fill-opacity:1"
             id="g247">
            <use
               xlink:href="#symbol7436"
               x="91.925003"
               y="81.962997"
               id="use4380"
               width="100%"
               height="100%" />
          </g>
        </g>
      </g>
      <g
         id="g853"
         transform="rotate(6.14238,99.633576,55.524965)">
        <path
           style="fill:none;stroke:#000000;stroke-width:0.264583px;stroke-linecap:butt;stroke-linejoin:miter;stroke-opacity:1"
           d="m 30.139126,57.888621 c 0,0 11.802427,-7.409818 17.309944,-9.643301 5.507517,-2.233483 9.401818,-3.957541 15.302383,-4.107823 5.900565,-0.150282 13.023198,1.78342 19.13531,4.105228 6.112112,2.321808 11.144289,6.313214 17.111474,9.678074 5.967183,3.36486 13.218453,8.339625 18.692733,10.509068 5.47428,2.169443 8.74902,3.114845 13.48041,3.33403 4.73139,0.219185 9.72009,-0.747597 14.36929,-2.169845 4.6492,-1.422248 9.5533,-4.339257 13.22051,-6.286582 3.66721,-1.947325 8.85181,-5.215274 8.85181,-5.215274"
           id="path24"
           sodipodi:nodetypes="czzzzzzzzc" />
        <rect
           style="fill:none;fill-rule:evenodd;stroke:#000000;stroke-width:0.265;stroke-miterlimit:4;stroke-dasharray:none;stroke-opacity:1"
           id="rect26"
           width="137.45818"
           height="55.051743"
           x="30.211477"
           y="30.103062" />
      </g>
      <text
         xml:space="preserve"
         style="font-style:normal;font-weight:normal;font-size:8.6496px;line-height:1.25;font-family:sans-serif;fill:#000000;fill-opacity:1;stroke:none;stroke-width:0.21624"
         x="53.120323"
         y="60.7481"
         id="text923"
         transform="rotate(6.0110211)"><tspan
           sodipodi:role="line"
           id="tspan921"
           x="53.120323"
           y="60.7481"
           style="stroke-width:0.21624">bedrock</tspan></text>
      <text
         xml:space="preserve"
         style="font-style:normal;font-weight:normal;font-size:8.6496px;line-height:1.25;font-family:sans-serif;fill:#000000;fill-opacity:1;stroke:none;stroke-width:0.21624"
         x="97.502747"
         y="36.115593"
         id="text927"
         transform="rotate(6.0110211)"><tspan
           sodipodi:role="line"
           id="tspan925"
           x="97.502747"
           y="36.115593"
           style="stroke-width:0.21624">ice</tspan></text>
      <path
         style="fill:none;stroke:#000000;stroke-width:0.465;stroke-linecap:butt;stroke-linejoin:miter;stroke-miterlimit:4;stroke-dasharray:none;stroke-opacity:1;marker-start:url(#marker1223);marker-end:url(#marker1257)"
         d="M 66.287054,27.283594 64.993328,39.56984"
         id="path929"
         sodipodi:nodetypes="cc" />
      <path
         style="fill:none;stroke:#000000;stroke-width:0.465;stroke-linecap:butt;stroke-linejoin:miter;stroke-miterlimit:4;stroke-dasharray:none;stroke-opacity:1;marker-start:url(#StopL);marker-end:url(#StopL)"
         d="m 134.64328,34.68383 -4.15023,39.413827"
         id="path931"
         sodipodi:nodetypes="cc" />
      <text
         xml:space="preserve"
         style="font-style:normal;font-weight:normal;font-size:4.93257px;line-height:1.25;font-family:sans-serif;fill:#000000;fill-opacity:1;stroke:none;stroke-width:0.123314"
         x="52.028748"
         y="28.567329"
         id="text1417"
         transform="rotate(6.0110211)"><tspan
           sodipodi:role="line"
           id="tspan1415"
           x="52.028748"
           y="28.567329"
           style="stroke-width:0.123314">500 m</tspan></text>
      <text
         xml:space="preserve"
         style="font-style:normal;font-weight:normal;font-size:5.0938px;line-height:1.25;font-family:sans-serif;fill:#000000;fill-opacity:1;stroke:none;stroke-width:0.127345"
         x="138.60809"
         y="40.727013"
         id="text1421"
         transform="rotate(6.0110211)"><tspan
           sodipodi:role="line"
           id="tspan1419"
           x="138.60809"
           y="40.727013"
           style="stroke-width:0.127345">1500 m</tspan></text>
      <path
         style="fill:none;stroke:#000000;stroke-width:0.465;stroke-linecap:butt;stroke-linejoin:miter;stroke-miterlimit:4;stroke-dasharray:none;stroke-opacity:1;marker-start:url(#StopL-3);marker-end:url(#StopL-3)"
         d="M 162.82298,89.050291 29.252408,74.309417"
         id="path931-7"
         sodipodi:nodetypes="cc" />
      <text
         xml:space="preserve"
         style="font-style:normal;font-weight:normal;font-size:5.80259px;line-height:1.25;font-family:sans-serif;fill:#000000;fill-opacity:1;stroke:none;stroke-width:0.145065"
         x="105.35085"
         y="66.600372"
         id="text1810"
         transform="rotate(7.5370092)"
         inkscape:transform-center-x="3.3914144"
         inkscape:transform-center-y="0.1609343"><tspan
           sodipodi:role="line"
           id="tspan1808"
           x="105.35085"
           y="66.600372"
           style="stroke-width:0.145065">L</tspan></text>
    </g>
  </g>
</svg>
