X,Y,surf vx,surf vy,tauxy integr. above,tauxy dir. above,secinvare integr. above,secinvar dir. above,tauxy integr. below,tauxy dir. below,secinvare integr. below,secinvar dir. below,P integr.,P dir.,
0.0,1000.0,31.2884762146,10.2892533085,70839.4032103,71508.2547811,75256.9558711,75705.6886004,-152304.937747,-143488.576107,296125.391271,283295.592204,8272699.30634,8301841.95555
156.25,1024.53383716,30.0559618251,9.89726475643,70049.196985,70928.7036164,74428.370881,75016.3185618,-136009.799678,-121740.581445,252352.579346,256259.415056,8026968.11577,7994521.54866
312.5,1049.00857016,28.7534878917,9.78881497512,69171.5199425,69847.3726086,73583.5650364,74475.3144899,-119813.42934,-105202.020829,207502.574847,210789.624453,7832750.79252,7857393.99562
468.75,1073.36523723,27.4543024241,9.31955924824,68328.557093,67570.7513523,72655.3296332,71718.6004715,-101468.176369,-94745.4586755,159962.44397,165505.327812,7591001.7486,7555947.97228
625.0,1097.54516101,26.1036143452,9.12653766932,67383.5457827,66554.579743,71710.1688735,71184.3286811,-83740.4989604,-75135.3156387,114282.830746,115968.544537,7398106.8754,7418512.11158
781.25,1121.49008995,24.7653955888,8.58654867838,66475.4547021,66056.3203676,70689.6603388,70093.1358133,-64474.9219121,-64961.5729508,72764.275182,75609.6568872,7164309.83981,7136878.48591
937.5,1145.14233863,23.3834979032,8.32079194191,65477.3386894,65010.4953737,69645.5302045,69458.6394036,-46191.2404266,-43349.57464,62552.8963519,47171.0902561,6973012.07717,6990697.61852
1093.75,1168.4449267,22.040568557,7.74821285909,64504.4467813,64445.561144,68521.8536827,68271.6834356,-26905.0543158,-33959.817746,93570.5652531,76200.1061491,6748434.93388,6729851.12328
1250.0,1191.34171618,20.6701953701,7.41697278993,63455.9459366,63349.4754956,67393.6126566,67534.1136882,-9003.28049679,-11287.3281215,140658.68862,121250.539697,6560665.99086,6576779.8039
1406.25,1213.77754672,19.3473143224,6.82854913457,62434.2578304,62735.8590741,66181.164784,66284.8683595,9368.82849137,-3543.98395733,193517.62492,175278.571561,6347417.03194,6339079.23579
1562.5,1235.69836841,18.0235603877,6.46365646144,61338.5406483,61605.9218523,64975.8073647,65438.6128529,26027.2973226,19278.8613745,247962.454298,229410.923309,6165143.29238,6180899.36341
1718.75,1257.0513721,16.7600710287,5.87463106348,60281.7508027,60928.432076,63697.5016882,64149.7954581,42679.5937881,24885.9442769,303204.86894,284676.224764,5965050.98034,5968163.08029
1875.0,1277.78511651,15.5110235837,5.49418607586,59159.7500412,59797.5100853,62436.9174409,63213.0580985,57335.4595838,46904.3935769,358014.800563,339610.206201,5790360.79715,5807121.56333
2031.25,1297.84965225,14.3405099555,4.93245530441,58084.0083897,57385.7100324,61119.8443458,60407.9904058,71593.9969532,49892.1998162,412324.917366,393593.372253,5602768.8976,5612410.06308
2187.5,1317.19664208,13.1995193222,4.54870203073,56962.845157,56316.0823702,59840.9035838,59449.1235372,83687.8903604,70588.3638997,465319.348137,447231.929351,5435020.13723,5448175.05316
2343.75,1335.77947742,12.1449683631,4.03194097415,55902.3499999,55580.562585,58521.3724555,58193.0396271,94998.9432707,108880.683891,517132.756221,510118.69098,5260173.9697,5261508.46384
2500.0,1353.55339059,11.1394213988,3.66441517048,54814.4650234,54582.7097911,57257.6942998,57181.2025021,104095.299573,126050.738888,566905.409206,562249.919155,5105433.90974,5113525.58655
2656.25,1370.47556268,10.2199565412,3.19891501242,53817.8573701,53845.1487579,55987.7188883,56031.6352034,112218.910976,120872.024794,614946.670123,609197.705241,4945511.79397,4937198.98755
2812.5,1386.50522668,9.36505306193,2.86500106511,52801.7071286,52968.1311258,54781.4456047,55007.3473135,118163.14813,135671.16157,660330.639039,657124.738074,4806317.75281,4809912.85739
2968.75,1401.60376574,8.59324578625,2.45469066125,51919.0423564,52247.44202,53624.8112781,53999.1092344,122970.396083,126859.199555,703645.067486,699186.34998,4661885.98078,4643156.94669
3125.0,1415.73480615,7.89552470373,2.16483924061,51019.6439598,51561.6212695,52525.7178837,53059.5535121,125796.223327,139335.216055,743857.557985,742257.796096,4540878.5729,4541229.89063
3281.25,1428.864305,7.274482119,1.81041115861,50288.9156322,49514.978977,51541.1735019,50914.4412239,127319.423822,127097.425742,781599.3293,778626.104308,4412866.43205,4384943.99115
3437.5,1440.96063217,6.73275141177,1.57114476821,49547.9682573,49057.6187192,50604.587263,50145.9042044,127233.448484,137137.50997,816017.370608,815998.647423,4315048.63546,4317921.39969
3593.75,1451.99464656,6.25850985314,1.26936531824,48982.3332621,48509.0771728,49824.8333657,49456.9946189,125707.502543,122166.312319,847519.787038,846388.635885,4206584.22466,4185480.78786
3750.0,1461.93976626,5.86292255858,1.0834848945,48428.8572827,48257.8475294,49096.108155,48940.0987659,123038.509701,129602.491416,875598.962243,877023.650394,4129074.4959,4136978.50672
3906.25,1470.77203259,5.52634655891,0.83167403445,48016.7833166,47797.4234185,48520.2153523,48356.6662884,118870.730359,112746.195449,900374.303497,901376.754559,4038593.09969,4023204.12631
4062.5,1478.47016787,5.26069782192,0.697048336413,47641.9031756,47706.9323367,48011.02769,48098.6427605,114054.068628,117617.492218,921653.315398,924468.40899,3982023.52753,3993791.57663
4218.75,1485.0156266,5.04748605745,0.496250680535,47347.6215889,47332.9614246,47606.2966703,47606.6188265,107764.088805,99723.9314408,939350.768694,942607.998815,3910859.0958,3900205.09882
4375.0,1490.3926402,4.8937965805,0.405634286051,47111.7929927,47329.3832016,47285.6904011,47532.5198884,101292.917893,102217.704538,953485.834848,957730.14187,3875179.44142,3889276.09552
4531.25,1494.58825498,4.78717315562,0.255248303055,46902.054582,47026.9226618,47007.2923926,47127.5133235,93456.5147646,84098.4360574,963928.428334,969382.81926,3825030.66432,3818480.43236
4687.5,1497.59236334,4.72640234623,0.191564581863,46775.7308506,47078.2950051,46833.8433507,47161.6324459,85897.6159851,84456.4684858,970836.73354,976534.156749,3809874.14948,3824546.70869
4843.75,1499.3977281,4.70069329144,0.0747148619732,46661.3733281,46850.622863,46677.0685412,46861.7082607,77326.5468053,66944.1501244,974129.4848,981580.873654,3782469.9211,3779270.98503
5000.0,1500.0,4.68989816119,0.0134048263054,46652.9523881,46983.7380687,46664.0596872,46993.211903,69610.9758437,65858.041783,973843.553961,981051.578815,3787232.5888,3800852.98516
5156.25,1499.3977281,4.70121631322,-0.0918603545944,46660.0609343,46852.82237,46674.9366493,46871.3443862,61389.4443794,50071.7119374,969889.448921,979213.881111,3783168.20384,3782078.21987
5312.5,1497.59236334,4.72461507593,-0.162705132861,46773.4009286,47091.7892471,46832.4026808,47115.2659375,54392.2294033,48520.4540268,962094.352258,970924.427756,3806586.01053,3817594.63415
5468.75,1494.58825498,4.78836553251,-0.277161530345,46899.1830057,47046.8998839,47005.0465405,47166.8480141,47193.7654848,35164.2472614,950630.776077,961679.007713,3825419.62333,3824570.92771
5625.0,1490.3926402,4.88925512692,-0.374257476069,47122.508998,47367.3251681,47293.9974412,47481.6814953,41380.3926293,33716.0901439,935260.048319,945679.434338,3866927.89241,3874094.48391
5781.25,1485.0156266,5.05004410127,-0.52161683858,47346.4097613,47400.1152873,47601.9629003,47664.785462,35656.9644611,23007.9301121,916514.080374,928977.7381,3908375.22587,3905737.27197
5937.5,1478.47016787,5.25672283583,-0.665187080981,47668.83034,47761.1490715,48029.1626729,48048.5230402,31643.6172734,22189.9723027,894047.499145,905888.289621,3968651.17306,3971780.00276
6093.75,1470.77203259,5.52993298318,-0.858207559221,48015.7969989,47910.2812238,48511.050952,48399.6530083,28164.1187376,14682.0200985,868424.308439,882012.633526,4032173.15711,4026284.87636
6250.0,1461.93976626,5.85994433038,-1.05422129,48469.8230631,48339.7034872,49119.5456783,48911.5137046,26663.112855,15279.1748959,839272.2237,852306.592173,4111750.05551,4111851.37128
6406.25,1451.99464656,6.26300172989,-1.29499044064,48979.1206174,48648.8124385,49811.9857184,49463.3359252,26083.539534,11433.5483866,807153.407868,821553.578325,4196357.32994,4186871.82484
6562.5,1440.96063217,6.73252358799,-1.54453389552,49596.877937,49179.4221507,50627.2804459,50144.8520901,27623.1498954,14090.8716794,771794.489805,785674.684197,4295421.17087,4294577.52969
6718.75,1428.864305,7.27973608089,-1.83553550907,50284.7418729,49662.1009771,51533.0773362,50897.3472672,30396.009038,14137.4533419,733736.652254,748535.830306,4399934.71001,4387661.82369
6875.0,1415.73480615,7.89965857244,-2.1391023122,51067.4500449,51706.2470887,52542.5071359,53050.419252,35326.8284126,19328.6298897,692859.002178,707063.010975,4518929.49575,4519715.47226
7031.25,1401.60376574,8.59930674901,-2.4818626926,51914.4733364,52360.5357438,53629.5216997,53978.0766172,41710.6157895,23303.7056748,649689.872567,664279.59338,4643451.93026,4637659.72034
7187.5,1386.50522668,9.37366743209,-2.83853708509,52838.8813278,53149.452724,54790.4414814,54984.412753,50202.1370024,31323.8185242,604293.832393,618026.352856,4778849.22661,4780270.18926
7343.75,1370.47556268,10.2264030487,-3.23123647379,53809.9565422,53914.9992754,56004.3666511,56028.8718068,60251.8196597,39088.4484516,557241.312574,570658.207634,4920620.71438,4919769.41963
7500.0,1353.55339059,11.1514639784,-3.63670913803,54836.3901871,54776.3053116,57260.4827962,57118.0612312,72274.0051716,50017.3743616,508841.196748,520821.095459,5070935.74187,5070483.06895
7656.25,1335.77947742,12.1495758661,-4.07295259314,55887.6818508,55610.3925486,58543.1009189,58224.0931601,85836.0757943,61270.1857998,459832.618735,470433.442937,5228535.72667,5230167.88444
7812.5,1317.19664208,13.2133500104,-4.51807346577,56972.8081076,56509.3571102,59839.8928812,59344.0361769,101153.410523,127456.116747,410933.116916,430923.17856,5392466.82863,5387839.69046
7968.75,1297.84965225,14.3409767873,-4.98622523205,58063.1544761,57374.1014287,61139.9409786,60462.2347431,117926.819306,143046.207834,363553.926244,385027.285964,5564436.89249,5566420.32901
8125.0,1277.78511651,15.5236580533,-5.45691871987,59167.592363,60026.5916375,62433.3103524,63134.5849701,136162.56416,160079.96208,319134.10573,342161.2787,5741164.237,5732631.3607
8281.25,1257.0513721,16.7576338536,-5.9405267152,60262.3538519,60942.1615151,63714.3773644,64257.8425029,155555.389458,177743.678014,280054.348175,303880.805479,5926695.9731,5927365.09416
8437.5,1235.69836841,18.0328881009,-6.41887558023,61354.0200229,61844.3148939,64970.3998506,65346.0008448,176037.575391,196299.223299,249561.756731,273426.635067,6116442.42225,6112246.96914
8593.75,1213.77754672,19.3440168881,-6.89841116718,62426.8207122,62734.4838342,66198.3481361,66413.3414134,197327.485594,215291.079671,231577.788385,253598.410148,6312408.69881,6313055.97704
8750.0,1191.34171618,20.680599799,-7.36430968696,63482.6387539,63594.1930606,67389.1199472,67432.6009293,219267.623781,234656.936689,229331.376523,247462.869386,6512860.61858,6514357.64536
8906.25,1168.4449267,22.0355397712,-7.81946811285,64512.6226281,64440.0204315,68542.100402,68422.6410476,241584.801753,254122.350066,243166.998153,255598.510696,6717211.43457,6719071.31068
9062.5,1145.14233863,23.399326511,-8.25227150694,65516.8549556,65245.6101917,69649.4630821,69356.3910918,264061.543079,273462.359069,270137.17292,276281.221857,6926262.8162,6934191.18703
9218.75,1121.49008995,24.7631545883,-8.66379335139,66490.1340244,66036.5234204,70712.4806682,70254.9257796,286428.870457,292471.959864,305906.291134,306304.293747,7136902.59234,7140683.71286
9375.0,1097.54516101,26.1196116824,-9.04379176715,67433.8552509,66782.7427344,71724.2656337,71093.4933655,308436.567092,310873.853251,346712.750921,342152.613713,7352411.84021,7366997.37885
9531.25,1073.36523723,27.4587321003,-9.39433312053,68343.1353767,67515.7261587,72688.0534797,71892.5024972,329824.372511,328470.238858,389863.970543,381368.301532,7567237.2006,7573229.58069
9687.5,1049.00857016,28.7755753089,-9.70414686226,69222.0607177,70056.8021429,73598.9010254,74374.2622287,350335.24409,345008.249263,433492.234841,421691.518438,7785521.79662,7802482.16724
9843.75,1024.53383716,30.0602200164,-9.9787284179,70064.9209622,70743.997675,74460.7344245,75098.4903587,369726.874495,360266.248384,476318.451857,461949.04184,8001286.27566,8006904.34302
10000.0,1000.0,31.3096882863,-10.2045659716,70880.0293307,71419.0049048,75268.2217907,75779.2612483,387759.772704,374069.947593,517373.608911,500821.327264,8220427.66266,8232846.7255
10156.25,975.466162836,32.5154196906,-10.3913580725,71660.1139786,72049.8216241,76026.6756709,76404.3125086,404220.497319,386162.240362,555951.237272,537708.244208,8437239.87789,8441962.68061
10312.5,950.991429835,33.6756700466,-10.5239098016,72414.5148242,72671.6863459,76733.0361075,76988.8692647,418908.87247,396484.714795,591471.990539,571821.793706,8655643.18968,8663813.09284
10468.75,926.634762772,34.7837852901,-10.6154679305,73135.4542287,73253.2621048,77392.4781976,77519.8908009,431655.218045,464190.265931,623575.23796,636768.924653,8871389.53769,8875241.6562
10625.0,902.454838992,35.8392390084,-10.6501746978,73832.7574733,73824.382532,78003.247696,78015.5636557,442329.3919,469029.046629,652085.34326,662294.245624,9087044.22359,9091397.96185
10781.25,878.509910048,36.8366135178,-10.6444458119,74498.1236594,74362.6036339,78570.0329044,78459.4043956,450796.892385,471481.040389,676433.938078,684051.770391,9299591.45414,9302707.04417
10937.5,854.857661373,37.7773703912,-10.5812985193,75141.5450273,74884.7491913,79092.0244286,78873.2991502,456982.611815,471753.370861,696445.097491,701794.940766,9510486.10058,9511520.86836
11093.75,831.555073304,38.6563543814,-10.4813778918,75754.1188331,75384.4106592,79573.0936436,79238.5987265,460819.831465,469583.904,711936.069911,715341.52957,9717717.16808,9720274.16382
11250.0,808.658283817,39.4771731383,-10.3248128548,76346.0799081,75859.2395465,80013.395984,79577.0997493,462308.466027,465281.567618,722895.724957,724578.00104,9921877.46837,9920113.49668
11406.25,786.222453285,40.2354035683,-10.1372028205,76907.9131346,76323.3245747,80415.8487365,79872.7556823,461442.254598,458614.873969,729253.160452,729472.564345,10121725.6807,10123900.4499
11562.5,764.301631587,40.9352730097,-9.89595496725,77450.3240312,76753.4333246,80781.7282423,80143.1468325,458298.021964,450014.695372,731157.595349,730071.711977,10317249.7125,10313210.4176
11718.75,742.948627903,41.5746405783,-9.62897803187,77963.211784,77183.2883914,81113.2527226,80377.4861569,452925.990599,439259.119085,728641.118371,726457.004797,10507723.5896,10509679.1583
11875.0,722.21488349,42.1570950141,-9.3146045029,78458.0839835,77572.0385323,81412.6468026,80589.0799055,445475.851101,426909.317961,722014.304105,718840.168438,10692803.6171,10686989.4252
12031.25,702.150347754,42.6824523683,-8.97865157159,78924.0404311,77969.7296954,81682.1429541,80771.1203321,436027.648452,456745.335236,711528.118053,719299.100014,10872003.7469,10873898.1657
12187.5,682.803357918,43.1550722832,-8.60306744917,79373.8611874,78317.9169028,81924.0300988,80933.0956177,424791.926847,439550.186942,697588.394453,703362.848827,11044944.5291,11037837.544
12343.75,664.220522576,43.5740055761,-8.21114888837,79794.7660825,80770.9103722,82141.3442166,83152.3511397,411905.79851,420797.759519,680267.966535,683974.17503,11211543.9309,11213981.5886
12500.0,646.446609407,43.9464807829,-7.78588083484,80201.8167668,81071.1790911,82335.4609649,83282.9883968,397623.100919,401419.405838,660160.303568,662331.372949,11371634.5376,11367915.6908
12656.25,629.524437323,44.269338367,-7.35206713493,80581.0437774,81442.5228494,82511.2757752,83402.169997,382086.699472,380959.946885,637491.162592,637992.887058,11522861.1554,11526088.4386
12812.5,613.494773319,44.5522232089,-6.88937788415,80948.9120835,81701.4644423,82668.3865962,83502.6474183,365560.937189,360398.175607,612941.434961,612286.437267,11668135.9365,11667575.3629
12968.75,598.39623426,44.7907364895,-6.42672588524,81288.857736,82056.7691408,82812.7204455,83600.3321485,348191.890621,339214.787021,586748.994327,584804.522919,11802348.8743,11805952.171
13125.0,584.265193849,44.9955662983,-5.93922734079,81619.5936804,82270.5969907,82942.438207,83678.3141304,330220.155822,318426.82241,559642.210979,556855.38179,11931630.4336,11934094.4564
13281.25,571.135695,45.1615634571,-5.45938034341,81921.3603433,82616.0454437,83063.1181114,83764.5404454,311788.626231,324279.809678,531857.209047,544209.340158,12047229.2401,12050705.401
13437.5,559.039367826,45.3005347027,-4.95800488048,82214.6376954,82779.7877363,83172.5747576,83825.2505689,293088.302233,301760.545248,504213.911151,514157.752557,12159623.434,12165136.9612
13593.75,548.005353438,45.4062850626,-4.47044184596,82477.3687853,83116.2159076,83274.170391,83905.3842588,274237.548566,279334.712513,476698.035276,485563.967223,12255021.8048,12257725.9348
13750.0,538.060233744,45.4917402563,-3.96345877928,82728.8955588,83225.3418342,83366.6441471,83950.7400078,255354.931439,258067.725388,450029.621313,456859.573283,12349973.4651,12358764.2663
13906.25,529.227967408,45.5503610508,-3.47370539687,82949.4117446,83546.6712236,83450.1309873,84027.2948601,236537.443374,236757.087956,424257.971094,430582.385671,12423593.7337,12424716.8785
14062.5,521.529832134,45.5950309674,-2.96645804222,83150.3751858,83596.3614082,83524.5783868,84051.921064,217847.614391,217065.074138,400081.713367,404699.112843,12500915.7557,12513402.8282
14218.75,514.984373403,45.6238158592,-2.47853321132,83323.0578077,83890.6095379,83587.8992631,84129.0003421,199322.565353,196927.461452,377433.018472,382102.135271,12551223.255,12549834.2748
14375.0,509.607359798,45.6482387874,-1.97635461311,83462.1071413,83877.525171,83640.4625984,84120.4563737,181010.450873,178833.163567,357023.346341,360214.093249,12611077.6207,12627792.6848
14531.25,505.411745018,45.6661947244,-1.48983927572,83580.3850606,84125.9738095,83680.776739,84202.9607883,162847.878722,159678.412411,338660.380953,342403.738258,12636666.5068,12631812.8372
14687.5,502.407636664,45.6804386453,-0.984480551253,83649.2544806,84058.046978,83708.3762798,84153.1337249,144942.506062,142911.523172,323108.336676,325413.181232,12679474.8841,12700946.3491
14843.75,500.602271897,45.6876692987,-0.499526395231,83708.7516852,84233.8398129,83724.8547781,84239.5575769,127066.882135,124422.670287,310063.599398,313300.586111,12679186.9936,12670029.8284
15000.0,500.0,45.69174901,0.00854153768981,83706.0485172,84136.8797958,83726.7480529,84155.9127861,109492.230344,108447.479915,300335.734171,301949.123404,12705461.4595,12732067.6773
15156.25,500.602271897,45.6883873603,0.491341595828,83704.1379311,84207.8525062,83720.3226538,84232.9931046,91738.1195684,90296.2661344,293524.683822,296238.527632,12678548.8055,12664519.6599
15312.5,502.407636664,45.6825424145,1.00233367985,83634.3412913,84113.4316374,83697.2443776,84134.9472977,74365.0961473,74395.7011645,290374.720088,291165.498366,12688693.8889,12720493.4741
15468.75,505.411745018,45.6687588795,1.48182800472,83569.0378232,84057.3167639,83669.5474738,84184.5362589,56552.0010683,56319.897128,290408.818771,292221.121255,12635012.3054,12615987.2161
15625.0,509.607359798,45.6528766461,1.99513434334,83440.4252421,83982.8621344,83623.3026073,84092.4501806,39249.4344274,39714.1942743,294100.945846,293804.531804,12629142.0752,12665717.9927
15781.25,514.984373403,45.6282205947,2.47071971256,83311.0953788,83802.6031034,83575.9155885,84100.3847217,21268.1511143,21597.0341783,300951.940783,301434.142689,12549299.3829,12525722.8258
15937.5,521.529832134,45.5994542991,2.99121641903,83133.3077013,83741.3360679,83509.449805,84029.490946,3947.51159773,3575.60974326,310996.922284,309543.881838,12527143.329,12567546.8021
16093.75,529.227967408,45.5586033669,3.46027976108,82942.4169011,83466.1872024,83443.2109396,83987.9623806,-14160.7526944,-14536.7201707,323798.381992,322845.312713,12422512.3504,12395376.9297
16250.0,538.060233744,45.4964535394,3.99694140809,82723.5949821,83392.0539256,83360.0626302,83946.4901775,-31501.7587886,-34420.5282217,338965.511303,336704.151734,12383487.9896,12426363.9908
16406.25,548.005353438,45.4171269828,4.44947766322,82477.2657271,83065.3692017,83274.3239466,83854.7699488,-49503.4987987,-52403.7196848,356141.775826,354175.62187,12256023.537,12226667.3735
16562.5,559.039367826,45.3069542083,4.99778678474,82220.2923036,82945.2145959,83175.8028306,83839.7684396,-66731.9317809,-74106.8440419,374699.288595,372397.821149,12199495.78,12243375.846
16718.75,571.135695,45.1746010028,5.42888376252,81926.8352303,82605.3720735,83068.0036292,83703.350949,-84219.8036247,-91870.6530492,394267.676929,392236.332087,12051407.2792,12021207.5322
16875.0,584.265193849,45.0032326675,5.98395648464,81628.6050518,82416.7434641,82950.4767395,83703.1051331,-101016.50152,-93215.3486538,414333.457883,406753.077093,11977044.231,12020691.8607
17031.25,598.39623426,44.8045924596,6.38529215141,81296.5842155,82080.3709195,82817.3682146,83526.2404433,-117484.789041,-108483.563346,434353.894736,426222.396619,11810459.4823,11780534.9468
17187.5,613.494773319,44.5588298264,6.93925996508,80952.2846184,81820.0472319,82673.0830699,83527.7743113,-133294.094658,-129556.903569,453848.975532,446265.267505,11718496.5698,11761141.8617
17343.75,629.524437323,44.2822855055,7.30074021352,80586.1718044,81488.2738701,82510.5092912,83312.2981946,-148166.316913,-144396.845717,472118.172996,464410.334245,11535297.4008,11506411.4039
17500.0,646.446609407,43.9499157844,7.84157079223,80195.1068591,81155.080367,82331.4939399,83300.2536338,-162267.236447,-164426.623236,488960.65057,482500.808428,11426525.6772,11467761.0822
17656.25,664.220522576,43.5837946776,8.1523489534,79792.5683236,80831.7165918,82131.8889399,83045.0566408,-174920.989509,-178387.22553,503487.892762,497378.743767,11228496.312,11201335.9786
17812.5,682.803357918,43.1552684318,8.66630467393,79358.1643071,78397.6451935,81912.465958,81006.3784446,-186571.972593,-196341.589183,515761.525099,511592.515438,11103988.42,11143485.7051
17968.75,702.150347754,42.6880251169,8.91248217396,78914.1050595,78119.3616146,81664.8904956,80699.4116766,-196326.297334,-208658.383569,524805.411949,521639.745484,10892817.8984,10866813.1712
18125.0,722.21488349,42.1541413054,9.38776678243,78435.3770052,77616.5987698,81397.4671807,80673.5100156,-204883.039519,-186712.351436,530971.92243,530709.451946,10754102.9982,10794287.6913
18281.25,742.948627903,41.5785299346,9.55429769959,77950.5411386,77357.7415187,81093.3761909,80298.2596087,-211086.61934,-195108.314065,533454.805543,533613.504788,10531287.7788,10505261.4625
18437.5,764.301631587,40.9283512806,9.97697474563,77424.3917969,76759.9750369,80768.3930314,80239.6968096,-216023.18993,-204805.775733,532352.398535,533881.082712,10379803.0532,10420153.2337
18593.75,786.222453285,40.2400087734,10.056116256,76897.776836,76518.3754308,80398.9919092,79788.7216941,-218288.839967,-210510.4289,527045.629882,529512.455761,10147466.1015,10121297.8582
18750.0,808.658283817,39.4680597777,10.4082140807,76320.9436319,75833.019194,80004.5436196,79691.9717956,-219187.005462,-215859.188787,517741.231932,521718.834937,9984624.98415,10024440.4354
18906.25,831.555073304,38.6597109817,10.39500794,75746.6193014,75591.7975027,79560.0234026,79145.6396882,-217335.667653,-218607.812656,504043.345031,509460.862747,9744991.60275,9718547.09634
19062.5,854.857661373,37.767832723,10.667553374,75119.5921562,74824.6680442,79088.6433449,79008.726447,-214032.753315,-219213.389682,486223.66721,493364.894598,9572284.46896,9610682.78018
19218.75,878.509910048,36.8394705847,10.5516708353,74491.4642286,74584.2905923,78555.3257984,78361.2683661,-208013.180979,-218796.354573,463941.707909,472871.619731,9327763.38219,9300843.32794
19375.0,902.454838992,35.825969958,10.7385820396,73811.1802423,73718.4409635,78002.9628201,78155.5690623,-200705.663602,-214765.962047,437808.101472,448805.80968,9146720.86142,9182786.18488
19531.25,926.634762772,34.787593404,10.5238619079,73133.9904112,73488.7190248,77374.0015621,77429.3869667,-190740.505113,-211082.712826,407225.706997,420412.515074,8899746.50401,8871910.40717
19687.5,950.991429835,33.6623331378,10.6110302522,72386.481892,72528.8200218,76728.9924301,77117.6438028,-179766.884272,-152008.49873,373733.468265,373950.166199,8712103.28221,8745034.83804
19843.75,975.466162836,32.5168589663,10.2994809226,71654.6337675,72268.4214863,76004.160498,76321.6591415,-166335.453591,-144625.62846,336123.480337,337873.239384,8464767.42819,8435174.84474
20000.0,1000.0,31.2884762146,10.2892533085,70839.4032103,71241.9389117,75256.9558711,75894.0389843,-152304.937747,-131197.289693,296125.391271,298341.821784,8272699.30634,8301841.95555
