0.0000000	31.2496257	10.1710041	76.9604927	80.3754555
0.0039062	30.6305885	10.0627839	76.5407480	69.5286117
0.0078125	30.0034819	9.9428320	75.9698452	82.0191671
0.0117188	29.3648840	9.8114410	75.5804346	67.7809445
0.0156250	28.7201276	9.6725363	75.2305992	83.2755571
0.0195312	28.0658544	9.5187000	74.8261588	66.3342089
0.0234375	27.4070473	9.3617098	74.4588067	84.6257088
0.0273438	26.7401954	9.1868797	74.0272267	65.3527935
0.0312500	26.0699028	9.0137891	73.6480319	85.9012612
0.0351562	25.3939484	8.8204330	73.1923349	64.7706903
0.0390625	24.7167049	8.6335139	72.7978651	86.8861876
0.0429688	24.0363669	8.4241385	72.3214431	64.5114543
0.0468750	23.3561352	8.2248871	71.9186157	87.3936357
0.0507812	22.6751486	8.0014356	71.4182308	64.5674488
0.0546875	21.9961272	7.7916552	70.9991941	87.2237760
0.0585938	21.3187476	7.5568719	70.4864293	65.0496352
0.0625000	20.6446380	7.3387866	70.0491595	86.4962901
0.0664062	19.9750715	7.0958758	69.5277361	66.0212243
0.0703125	19.3105862	6.8720895	69.0618119	85.2270478
0.0742188	18.6534014	6.6242090	68.5349391	67.2436804
0.0781250	18.0024663	6.3960763	68.0467409	83.5450939
0.0820312	17.3614892	6.1463886	67.5211219	68.7242465
0.0859375	16.7285531	5.9163319	67.0037081	81.5850558
0.0898438	16.1078161	5.6674411	66.4794826	70.2634824
0.0937500	15.4965641	5.4375447	65.9446145	79.3735832
0.0976562	14.8996006	5.1926845	65.4312151	71.7867247
0.1015625	14.3141796	4.9656735	64.8824093	77.1394784
0.1054688	13.7452961	4.7273521	64.3696184	73.0638033
0.1093750	13.1890363	4.5041736	63.8255013	74.8406071
0.1132812	12.6512779	4.2743047	63.3195612	73.9515751
0.1171875	12.1265237	4.0557786	62.7763003	72.8025809
0.1210938	11.6207068	3.8362475	62.2746899	75.0655784
0.1250000	11.1304874	3.6254593	61.6601161	71.2348468
0.1289062	10.6601177	3.4172141	61.2203756	76.2315032
0.1328125	10.2062845	3.2164021	60.6969617	70.7743462
0.1367188	9.7721119	3.0210339	60.1951845	75.3801869
0.1406250	9.3556392	2.8314854	59.7073200	69.5951270
0.1445312	8.9600214	2.6494377	59.2427269	74.9541773
0.1484375	8.5824959	2.4705129	58.7757760	69.0030349
0.1523438	8.2249331	2.3016641	58.3394492	74.8503057
0.1562500	7.8859261	2.1347836	57.9021600	68.4093014
0.1601562	7.5661431	1.9793653	57.5015331	74.4624747
0.1640625	7.2654424	1.8261121	57.0918840	67.8261215
0.1679688	6.9838321	1.6843068	56.7308993	73.8904908
0.1718750	6.7210709	1.5445019	56.3619418	67.3306220
0.1757812	6.4769737	1.4158372	56.0425498	73.1367817
0.1796875	6.2513087	1.2889549	55.7207568	66.9303226
0.1835938	6.0431117	1.1726338	55.4502240	72.2449064
0.1875000	5.8523428	1.0583926	55.1843692	66.6676091
0.1914062	5.6776845	0.9540813	54.9540950	71.1385034
0.1953125	5.5195416	0.8528297	54.7242580	66.3922152
0.1992188	5.3766943	0.7609164	54.5198838	69.5933331
0.2031250	5.2495473	0.6727163	54.3314014	66.0486974
0.2070312	5.1369064	0.5930493	54.1494586	68.0442396
0.2109375	5.0390235	0.5174632	53.9924912	65.7720706
0.2148438	4.9548020	0.4489946	53.8335329	66.8201638
0.2187500	4.8838532	0.3847534	53.7090331	65.7909035
0.2226562	4.8257411	0.3266381	53.5741599	65.7706894
0.2265625	4.7797721	0.2717582	53.4492887	65.1913824
0.2304688	4.7444062	0.2207365	53.3012961	64.4790257
0.2343750	4.7183534	0.1718479	53.1631332	64.6412819
0.2382812	4.6998494	0.1264893	53.0105247	63.5232290
0.2421875	4.6899934	0.0833119	52.9075857	64.9116217
0.2460938	4.6858809	0.0394610	52.8537577	64.8792105
0.2500000	4.6853297	-0.0041935	52.8658666	66.6936677
0.2539062	4.6867268	-0.0482676	52.9255869	65.6376739
0.2578125	4.6904421	-0.0919277	53.0456292	66.7451914
0.2617188	4.6989696	-0.1350176	53.2000865	64.8479076
0.2656250	4.7148293	-0.1791095	53.3364290	65.7249018
0.2695312	4.7387631	-0.2246984	53.4882145	64.2548927
0.2734375	4.7748044	-0.2706557	53.6242881	65.2762292
0.2773438	4.8231642	-0.3235075	53.7679391	62.8088298
0.2812500	4.8839286	-0.3799159	53.8978899	64.1462699
0.2851562	4.9571138	-0.4450968	54.0462779	61.3757210
0.2890625	5.0423573	-0.5138363	54.1920849	63.2853294
0.2929688	5.1408680	-0.5910540	54.3698318	60.0166727
0.2968750	5.2532806	-0.6714572	54.5538701	62.8843697
0.3007812	5.3798533	-0.7612135	54.7534364	58.7704856
0.3046875	5.5216950	-0.8533917	54.9754666	62.4886513
0.3085938	5.6786121	-0.9554094	55.2129367	57.5021262
0.3125000	5.8522194	-1.0588810	55.4859875	62.1114007
0.3164062	6.0426196	-1.1730136	55.7635730	56.2876770
0.3203125	6.2511056	-1.2883992	56.0741112	61.5483926
0.3242188	6.4772294	-1.4156639	56.3918430	55.0981623
0.3281250	6.7216412	-1.5437812	56.7512495	60.8963444
0.3320312	6.9842579	-1.6841323	57.1108435	54.0641242
0.3359375	7.2659948	-1.8247085	57.5088809	60.1577183
0.3398438	7.5667990	-1.9785509	57.9089233	53.0682669
0.3437500	7.8869143	-2.1325956	58.3467926	59.1490143
0.3476562	8.2261158	-2.3003434	58.7899625	51.8982715
0.3515625	8.5843494	-2.4678090	59.2472016	57.9704546
0.3554688	8.9619211	-2.6483193	59.7150814	50.6959995
0.3593750	9.3587675	-2.8289947	60.2071988	56.6195941
0.3632812	9.7739902	-3.0224927	60.7079987	49.7073582
0.3671875	10.2083775	-3.2146650	61.2142891	55.6771596
0.3710938	10.6612290	-3.4204059	61.7291512	49.2940237
0.3750000	11.1320797	-3.6244150	62.2439756	54.8001615
0.3789062	11.6209483	-3.8395765	62.7820649	48.2202329
0.3828125	12.1279294	-4.0519498	63.2912872	53.4194043
0.3867188	12.6514199	-4.2771560	63.8330244	46.8181434
0.3906250	13.1912609	-4.4992510	64.3630863	52.1861492
0.3945312	13.7454315	-4.7330544	64.9112176	45.7200254
0.3984375	14.3161264	-4.9601636	65.4289629	51.4800651
0.4023438	14.9003667	-5.2004484	65.9689487	44.6325638
0.4062500	15.4983133	-5.4326024	66.4818813	50.9213532
0.4101562	16.1077621	-5.6769982	67.0171355	43.2141021
0.4140625	16.7295336	-5.9109685	67.5226213	50.4982097
0.4179688	17.3611736	-6.1568085	68.0464342	41.6328731
0.4218750	18.0032380	-6.3903213	68.5491301	50.1425655
0.4257812	18.6530563	-6.6356237	69.0470213	39.8588540
0.4296875	19.3112418	-6.8663189	69.5428463	49.7984865
0.4335938	19.9751804	-7.1081477	70.0262679	38.1486814
0.4375000	20.6448181	-7.3338137	70.5216269	49.3964245
0.4414062	21.3182004	-7.5692191	70.9791436	36.5658296
0.4453125	21.9951031	-7.7866335	71.4538777	48.8252083
0.4492188	22.6741405	-8.0122687	71.8897244	35.1123041
0.4531250	23.3543353	-8.2196650	72.3574134	48.1151685
0.4570312	24.0347614	-8.4334123	72.7754741	33.8744667
0.4609375	24.7141932	-8.6285795	73.2234130	47.1484168
0.4648438	25.3917617	-8.8282524	73.6217432	32.8286176
0.4687500	26.0659418	-9.0088907	74.0550529	45.9027477
0.4726562	26.7365810	-9.1918446	74.4479266	32.0485620
0.4765625	27.4019803	-9.3559218	74.8556014	44.4833271
0.4804688	28.0623053	-9.5201576	75.2364244	31.5650104
0.4843750	28.7153371	-9.6666614	75.6323199	43.1263107
0.4882812	29.3607733	-9.8107890	75.9978527	31.5204034
0.4921875	29.9975852	-9.9367888	76.3643200	41.9674718
0.4960938	30.6256717	-10.0590990	76.7154417	31.7390448
0.5000000	31.2439680	-10.1636893	77.0466780	40.6837391
0.5039062	31.8525947	-10.2633538	77.3902269	31.4568790
0.5078125	32.4495367	-10.3463150	77.7101792	39.0479344
0.5117188	33.0343015	-10.4227297	78.0490400	30.8106811
0.5156250	33.6071233	-10.4817359	78.3629485	37.5305950
0.5195312	34.1671387	-10.5341992	78.6961338	30.3004354
0.5234375	34.7145720	-10.5690225	78.9855741	36.5249177
0.5273438	35.2482777	-10.5972113	79.3018405	29.8314312
0.5312500	35.7681625	-10.6080770	79.5744989	35.9946058
0.5351562	36.2735818	-10.6121910	79.8800812	29.2424620
0.5390625	36.7649697	-10.5988278	80.1386496	35.8439288
0.5429688	37.2412751	-10.5787934	80.4336049	28.4224759
0.5468750	37.7031597	-10.5411535	80.6881151	35.9933313
0.5507812	38.1496841	-10.4977735	80.9562862	27.3345175
0.5546875	38.5817529	-10.4368890	81.2068574	36.2718025
0.5585938	38.9983884	-10.3708542	81.4621537	26.2280034
0.5625000	39.4001406	-10.2879916	81.7192906	36.6982213
0.5664062	39.7865932	-10.2001730	81.9521326	25.1985288
0.5703125	40.1579464	-10.0961096	82.1975638	37.0495659
0.5742188	40.5144014	-9.9869356	82.4095892	24.2946100
0.5781250	40.8558252	-9.8633095	82.6577966	37.3212192
0.5820312	41.1826408	-9.7344262	82.8579251	23.7689555
0.5859375	41.4948741	-9.5922558	83.0976199	37.3895181
0.5898438	41.7927258	-9.4452212	83.2805559	23.6044381
0.5937500	42.0760698	-9.2859768	83.5135867	37.1713924
0.5976562	42.3457973	-9.1220789	83.6945373	23.9160081
0.6015625	42.6011965	-8.9477760	83.9120660	36.7802966
0.6054688	42.8435940	-8.7681169	84.0917386	24.7443406
0.6093750	43.0723869	-8.5801792	84.2987301	36.4028871
0.6132812	43.2879984	-8.3869365	84.4664920	26.1485297
0.6171875	43.4912983	-8.1858101	84.6483389	36.0808002
0.6210938	43.6820682	-7.9811523	84.8186556	27.8341479
0.6250000	43.8608635	-7.7686148	85.0022292	35.8924152
0.6289062	44.0297081	-7.5526774	85.1761014	29.5045067
0.6328125	44.1857180	-7.3331176	85.3088298	34.8219054
0.6367188	44.3306507	-7.1078781	85.4756125	30.2360236
0.6406250	44.4654978	-6.8798563	85.6231487	34.0697420
0.6445312	44.5898365	-6.6482310	85.7964694	31.1633070
0.6484375	44.7047896	-6.4134436	85.9295211	33.7005715
0.6523438	44.8102196	-6.1764309	86.0952792	32.0814378
0.6562500	44.9065515	-5.9368418	86.2131483	33.9457465
0.6601562	44.9943634	-5.6955638	86.3732796	32.9454289
0.6640625	45.0739776	-5.4525237	86.4807523	34.7112770
0.6679688	45.1456227	-5.2082047	86.6349713	33.5847417
0.6718750	45.2099603	-4.9624158	86.7436109	35.8732894
0.6757812	45.2670625	-4.7162697	86.8762815	33.8864013
0.6796875	45.3177729	-4.4687664	86.9835412	37.2319189
0.6835938	45.3621406	-4.2215142	87.1047722	34.0512040
0.6875000	45.4008076	-3.9732707	87.2206752	38.8022449
0.6914062	45.4339476	-3.7255230	87.3240236	34.1760356
0.6953125	45.4621869	-3.4770243	87.4320711	40.2787303
0.6992188	45.4857939	-3.2291085	87.5132669	34.2562525
0.7031250	45.5053218	-2.9808008	87.6266349	41.6308084
0.7070312	45.5210416	-2.7331167	87.6949799	34.6319453
0.7109375	45.5335191	-2.4850930	87.8020937	42.7406666
0.7148438	45.5430582	-2.2377318	87.8493543	35.3034148
0.7187500	45.5501119	-1.9900787	87.9483362	43.4718902
0.7226562	45.5551740	-1.7429695	87.9874490	36.4145481
0.7265625	45.5584505	-1.4956921	88.0684232	43.8919351
0.7304688	45.5606295	-1.2486131	88.1027403	37.9725893
0.7343750	45.5617798	-1.0015280	88.1627252	44.0595505
0.7382812	45.5623306	-0.7544528	88.1814208	39.9715024
0.7421875	45.5627301	-0.5074342	88.2136489	44.1155974
0.7460938	45.5617805	-0.2611233	88.2253465	42.2396623
0.7500000	45.5613720	-0.0116767	88.2100094	43.9993584
0.7539062	45.5631830	0.2352125	88.1900407	44.1564774
0.7578125	45.5619599	0.4797373	88.1653623	43.8141863
0.7617188	45.5595636	0.7274596	88.1530190	45.9285121
0.7656250	45.5580229	0.9741793	88.1147793	43.3417733
0.7695312	45.5554786	1.2211812	88.0991038	47.4538221
0.7734375	45.5527206	1.4681221	88.0364323	43.0823952
0.7773438	45.5488868	1.7153246	88.0074286	48.8207798
0.7812500	45.5437130	1.9623493	87.9199971	43.3349948
0.7851562	45.5368020	2.2098717	87.8777803	50.0324723
0.7890625	45.5276475	2.4569445	87.7716750	44.1674233
0.7929688	45.5157050	2.7047178	87.7153012	51.0301186
0.7968750	45.5006266	2.9519832	87.6049191	45.5123191
0.8007812	45.4818167	3.1999824	87.5219123	51.6986602
0.8046875	45.4590135	3.4474079	87.4045162	47.1680503
0.8085938	45.4315629	3.6955575	87.3028547	52.2276474
0.8125000	45.3992114	3.9428931	87.1899576	49.1283182
0.8164062	45.3612596	4.1908957	87.0685040	52.7203867
0.8203125	45.3175366	4.4378697	86.9483565	51.0727106
0.8242188	45.2673313	4.6853456	86.8026178	53.1260722
0.8281250	45.2105352	4.9313171	86.6890370	52.9195773
0.8320312	45.1463590	5.1773098	86.5292943	53.8210844
0.8359375	45.0748377	5.4216766	86.4136670	54.5218532
0.8398438	44.9951411	5.6652125	86.2355503	54.7761022
0.8437500	44.9071540	5.9070221	86.1182140	55.7033379
0.8476562	44.8104543	6.1471871	85.9358221	56.1848771
0.8515625	44.7044806	6.3849061	85.8108637	56.5059616
0.8554688	44.5892213	6.6208045	85.6269751	58.1147117
0.8593750	44.4640759	6.8529684	85.4955964	57.0190188
0.8632812	44.3284280	7.0827359	85.3014028	60.7049580
0.8671875	44.1824879	7.3086172	85.1515697	57.3302708
0.8710938	44.0254698	7.5303546	84.9317180	63.8362740
0.8750000	43.8571307	7.7480204	84.8181538	57.7950631
0.8789062	43.6790257	7.9613686	84.6068969	67.4044127
0.8828125	43.4869937	8.1661852	84.4145988	56.2152310
0.8867188	43.2829933	8.3701803	84.2210631	70.7249996
0.8906250	43.0664315	8.5635107	84.0293397	54.4168192
0.8945312	42.8372993	8.7549061	83.8496475	73.9237437
0.8984375	42.5948392	8.9344132	83.6386547	52.4584459
0.9023438	42.3396505	9.1121658	83.4637095	77.0745710
0.9062500	42.0697703	9.2753735	83.2240072	50.9370815
0.9101562	41.7870327	9.4383182	83.0596282	80.2056950
0.9140625	41.4892918	9.5833657	82.7875842	49.9970031
0.9179688	41.1779764	9.7301485	82.6337753	82.9210184
0.9218750	40.8513185	9.8560953	82.3426964	49.7857981
0.9257812	40.5105053	9.9849912	82.1848566	84.7926820
0.9296875	40.1543540	10.0903048	81.8749641	50.3742752
0.9335938	39.7837229	10.2002960	81.7112414	85.7034292
0.9375000	39.3977452	10.2835260	81.3976453	51.9637628
0.9414062	38.9966640	10.3729277	81.2156527	85.6405104
0.9453125	38.5807887	10.4337200	80.8960553	54.4342398
0.9492188	38.1491441	10.5013485	80.6831166	84.4759657
0.9531250	37.7033215	10.5388954	80.3764407	57.6610330
0.9570312	37.2413592	10.5830768	80.1339144	82.5716359
0.9609375	36.7659509	10.5972116	79.8338877	61.3962196
0.9648438	36.2742469	10.6171200	79.5551355	80.0441480
0.9687500	35.7697630	10.6079588	79.2653988	65.2734785
0.9726562	35.2491271	10.6030505	78.9640903	77.2990605
0.9765625	34.7169169	10.5710272	78.6733829	69.1603902
0.9804688	34.1690671	10.5407728	78.3499659	74.6384479
0.9843750	33.6104994	10.4855547	78.0577610	73.0175017
0.9882812	33.0365054	10.4293579	77.7204106	72.4029877
0.9921875	32.4529428	10.3521295	77.4347795	76.9144923
0.9960938	31.8551290	10.2702040	77.2923692	70.3489550
1.0000000	31.2496257	10.1710041	76.9181479	80.3754555
