X,Y,surf vx,surf vy,tauxy integr. above,tauxy dir. above,secinvare integr. above,secinvar dir. above,tauxy integr. below,tauxy dir. below,secinvare integr. below,secinvar dir. below,P integr.,P dir.,
0.0,1000.0,31.3806064168,10.3024932459,75875.4496296,76142.0508488,79874.930889,80055.7838141,-35703.1804085,-60961.6314105,278608.582947,272505.414857,8868257.02169,8996323.73894
78.125,1012.27061426,30.7616321683,10.0196561047,75618.0462235,75419.311316,79580.0439207,79220.5138262,-28708.9753323,-30228.489082,256932.431573,265209.243462,8634458.50771,8508550.40754
156.25,1024.53383716,30.1299070876,10.0794912061,75124.7434542,74667.841945,79089.7178823,78817.7953062,-22027.9152542,2789.15324697,234547.896485,244005.921216,8648847.60252,8775879.65895
234.375,1036.7822818,29.4936980367,9.76328714178,74882.5605486,74743.7720668,78788.5932997,78461.5067535,-14486.399609,-16113.3127417,211646.42153,219615.474614,8415951.90524,8290899.04925
312.5,1049.00857016,28.8370881305,9.80925448835,74356.4837885,73902.7344034,78261.029872,78027.703642,-7450.22258678,16413.4521764,188204.812381,199076.782666,8429738.39344,8555381.69174
390.625,1061.2053376,28.1870387093,9.47481704609,74116.2966179,74052.0527373,77953.3806318,77662.3607567,427.843056121,-1411.48096701,164885.363387,172771.773078,8198432.88195,8074906.75611
468.75,1073.36523723,27.5202051535,9.50164353152,73534.9627108,73063.4220667,77364.3223643,77162.7818284,7856.59502365,31024.3074891,140687.654423,153723.071495,8211234.77182,8334636.54299
546.875,1085.48094438,26.8537592012,9.1431344798,73312.0871224,73338.9966491,77062.19207,76816.8488403,15918.085649,13795.9699069,117757.836171,124448.408776,7982729.49011,7861805.8626
625.0,1097.54516101,26.1761803626,9.15978532711,72674.7502326,72179.0997536,76413.3261851,76237.9834531,23571.603796,45576.8845862,94027.8924775,111219.838766,7993810.95886,8114012.22767
703.125,1109.55062008,25.5044453917,8.7779067304,72470.9248461,72592.3596086,76119.7925097,75924.7018206,31795.8963493,29907.5161963,74589.4557569,78636.8922061,7769354.86541,7652013.75275
781.25,1121.49008995,24.8157036801,8.78002955802,71779.2951717,71260.6796755,75412.4401552,75258.9126613,39491.2884895,60045.3543393,56120.64539,78647.4494419,7777972.73123,7894075.73522
859.375,1133.35637874,24.1409420375,8.38436506034,71594.1556105,71806.4694542,75125.8564468,74988.2471564,47795.3222223,46117.3206995,51478.6077056,50762.5223986,7558828.72222,7446109.00968
937.5,1145.14233863,23.4495120061,8.36956654532,70855.0821352,70324.0331415,74368.2287863,74229.3832559,55412.5603166,74701.9780727,59691.2990428,75419.7180752,7564269.30766,7675422.71464
1015.625,1156.8408702,22.7724536687,7.96267582302,70678.4752679,70965.190342,74078.2953337,74003.3220385,63640.3467381,61946.4007056,75964.1816653,70565.2034655,7351552.04266,7244295.98754
1093.75,1168.4449267,22.082813134,7.93464382524,69909.2425561,69385.9694476,73286.0224628,73160.1484858,71148.0621985,89279.2666616,99830.3217884,106337.287278,7353398.01987,7459119.61102
1171.875,1179.94751827,21.4095544985,7.51845717204,69726.7525659,70070.4818561,72981.6172108,72964.6467276,79088.9917611,77453.2407223,123666.767376,117005.955341,7147777.24043,7046386.53351
1250.0,1191.34171618,20.7235591833,7.47817588256,68939.3812012,68432.4089312,72164.6819069,72058.4930718,86441.6765355,103213.000875,150348.904796,152208.390859,7146053.80511,7246187.51806
1328.125,1202.620657,20.0595755318,7.05845732664,68747.5596716,69155.2837687,71846.8358463,71880.8112393,93976.9240134,92652.4497799,176430.514842,170090.042892,6947885.64461,6852584.87223
1406.25,1213.77754672,19.3817388471,7.00519526743,67936.1293326,67423.1112638,70998.492172,70913.5317032,101017.035488,116216.106597,203909.356733,203110.524997,6942666.86802,7036958.21642
1484.375,1224.80566483,18.7303061519,6.58760987701,67749.6725906,68256.8051321,70685.8009713,70777.3364302,108124.534936,107227.77617,230705.875305,225061.682386,6752592.5194,6664000.79136
1562.5,1235.69836841,18.065894749,6.52192186376,66894.1772938,66332.12569,69786.6836874,69706.3519479,114665.906649,128245.318799,258409.501947,255966.349951,6743352.60021,6830894.88222
1640.625,1246.44909611,17.4309856779,6.11109348002,66736.7789151,67381.5230576,69503.0977513,69674.5046101,121323.614024,120853.93329,285298.854265,280427.093907,6562790.49968,6482275.48876
1718.75,1257.0513721,16.7839322673,6.03367638878,65820.1599052,65176.7581098,68539.4393726,68435.8609535,127227.076282,139190.769157,312913.023343,309376.314309,6548200.96224,6627414.49335
1796.875,1267.49880994,16.1703491214,5.63451183755,65706.9309842,66501.0315112,68295.1121464,68570.7759938,133381.611056,133349.093726,339595.038095,335580.437105,6379191.12351,6308530.8739
1875.0,1277.78511651,15.5441692856,5.54515877556,64731.7148578,64010.6771339,67273.4802557,67126.3453471,138555.620524,148885.194499,366833.822674,362505.319706,6357583.64029,6426796.38842
1953.125,1287.90409571,14.9560494844,5.16285182909,64656.7759581,65572.4708749,67056.4756852,67445.0800575,144131.389619,144562.14615,393156.177296,390039.381088,6202137.88284,6142847.45895
2031.25,1297.84965225,14.3545326923,5.06087093672,63649.1284275,62894.4409543,66004.3130391,65814.7420889,148522.812721,157214.566955,419755.529728,414914.132104,6172224.29157,6230333.26983
2109.375,1307.61579529,13.7949898866,4.70035926039,63586.3218737,64565.3223218,65787.4819088,66274.6607639,153427.449776,154308.532674,445602.781068,443293.612408,6031659.41267,5984448.48674
2187.5,1317.19664208,13.2219575185,4.58528369657,62586.406513,61866.4853815,64742.9574846,64534.0322418,157017.586242,164133.636426,471360.384021,466353.663895,5993060.44626,6039862.43909
2265.625,1326.58642148,12.6933346541,4.25075936124,62501.4485966,63475.8829767,64497.8086819,65051.4730287,161151.811058,162393.583136,496595.626626,494886.977939,5867673.57654,5832345.56316
2343.75,1335.77947742,12.152427056,4.12304437742,61548.8431631,60932.6776999,63497.4767084,63305.1153818,163944.713921,169622.778623,521381.922,516586.49936,5821033.27591,5857176.61257
2421.875,1344.77027237,11.656546541,3.81741047105,61413.9729773,62326.1720114,63205.2751523,63786.7018092,167221.446274,168675.427954,545840.997957,544507.913114,5710140.80766,5685701.44774
2500.0,1353.55339059,11.1510577863,3.67881141333,60537.1339757,60073.5636453,62275.6809826,62135.5955659,169226.778373,173642.326702,569575.620786,565303.230421,5656946.11953,5683757.88306
2578.125,1362.12354148,10.6894344248,3.40332149249,60339.7601309,61155.4226617,61931.3712891,62507.5423867,171587.198463,173090.653546,593088.488715,591978.484134,5559163.31225,5544082.25103
2656.25,1370.47556268,10.2220741802,3.25673550412,59552.7871674,59261.6963334,61086.5501857,61024.0453113,172809.198713,176140.541451,615709.347144,612155.569673,5501377.33705,5520531.29808
2734.375,1378.60442325,9.79595597722,3.01097381459,59295.97713,60005.5404794,60696.8976346,61246.937603,174227.039011,175630.353922,638120.824658,637179.790227,5415007.3911,5407541.65717
2812.5,1386.50522668,9.36864005296,2.85996819679,58600.8780818,58047.8631023,59940.0546636,59604.5819557,174663.825829,177074.260022,659564.823497,656814.763554,5354666.56897,5367855.43775
2890.625,1394.17321381,8.97894579658,2.6421355679,58299.2942205,58246.8200332,59520.6472356,59349.5855111,175140.761818,176322.55956,680745.122646,679998.28672,5277762.79112,5275496.61398
2968.75,1401.60376574,8.59268688482,2.4904543742,57689.3397152,57250.2070883,58845.8152531,58558.2065499,174789.470244,176416.321611,700941.298847,699000.930346,5216674.30832,5224954.00976
3046.875,1408.79240658,8.23995393235,2.29787207521,57362.3641806,57287.1816818,58415.6165079,58269.1316409,174348.232686,175222.501588,720787.811575,720306.884476,5147974.13761,5148818.66538
3125.0,1415.73480615,7.89487023589,2.14903811397,56831.2810173,56489.3645323,57817.7681331,57579.2282704,173210.730538,174162.167121,739658.260692,738488.966243,5087983.69617,5092798.72735
3203.125,1422.42678262,7.57924048333,1.97872070347,56496.1205932,56409.2711438,57392.54616,57267.5412018,171889.309764,172403.455734,758091.416124,757964.015512,5026355.80706,5029072.15483
3281.25,1428.864305,7.27467799354,1.8357530974,56037.1017081,55776.4790185,56866.196218,56674.4799989,169976.343559,170335.356052,775556.307281,775102.095484,4968717.74084,4971138.11643
3359.375,1435.04349555,6.99589607649,1.68487811291,55709.5624051,55620.5086797,56460.4309422,56355.9621881,167823.605604,167952.057905,792512.613964,792821.612416,4913378.96593,4917107.75521
3437.5,1440.96063217,6.73062249847,1.55014191943,55315.7550521,55122.2142628,56000.3825379,55851.2846945,165157.536655,164989.041189,808496.2071,808702.111392,4859011.09173,4859777.3312
3515.625,1446.6121506,6.48802429723,1.41632627855,55008.6983586,54925.1361112,55625.4410763,55541.4770265,162229.361503,161964.032053,823921.325618,824730.391122,4809461.43812,4813652.16481
3593.75,1451.99464656,6.2604055396,1.29152050979,54673.8306225,54534.9378235,55227.5326454,55116.2383817,158845.972654,158206.054182,838356.897515,839180.659705,4759022.46351,4758645.99115
3671.875,1457.10487785,6.05291128432,1.17290875195,54396.2309973,54323.9375729,54890.8064205,54827.1438999,155202.478684,154544.685268,852201.196201,853549.604508,4714954.97741,4719250.82092
3750.0,1461.93976626,5.86103061468,1.05916431676,54114.8900316,54020.1007731,54551.6549128,54473.4203446,151151.42614,150092.373537,865032.967957,866448.690551,4668927.34773,4667789.08395
3828.125,1466.49639942,5.68715374718,0.954399985819,53871.3193426,53813.9843018,54256.5056133,54212.4249307,146855.686348,145812.869455,877249.757149,879152.685565,4630153.52559,4634316.24388
3906.25,1470.77203259,5.5288704595,0.852432871871,53638.5134709,53579.5254604,53972.4282493,53922.932153,142198.838165,140770.677231,888432.129651,890428.015085,4588896.96657,4587294.52074
3984.375,1474.7640903,5.3867852445,0.760586580773,53428.9541339,53388.1201787,53718.351403,53692.5795591,137317.04763,135902.942341,898977.768226,901433.463905,4555298.89686,4559164.37049
4062.5,1478.47016787,5.25977838474,0.670812201017,53238.6704212,53209.393986,53483.7778284,53459.2904518,132124.343204,130372.674537,908472.936138,911041.542643,4519087.95173,4517262.84999
4140.625,1481.8880329,5.14743081607,0.591276283871,53058.5014976,53033.9795947,53266.2837928,53257.0367261,126725.820163,124965.482588,917307.964881,920307.569978,4490589.74114,4494052.49245
4218.75,1485.0156266,5.04932620463,0.513804432937,52901.76483,52897.5787666,53072.1859664,53069.5055631,121069.883757,119035.087873,925085.100995,928216.349512,4459636.85857,4457766.26584
4296.875,1487.85106502,4.96454802037,0.446033451716,52742.1115922,52732.6834174,52882.6273522,52887.6215805,115225.609764,113155.853447,932177.254285,935708.359931,4436200.5778,4439206.38694
4375.0,1490.3926402,4.89311630263,0.380474107428,52606.2753763,52622.6093848,52716.2189509,52732.0000593,109177.505789,106898.353081,938216.070415,941890.623388,4410683.53191,4408887.60839
4453.125,1492.63882119,4.83385149489,0.32335044466,52456.2737674,52459.8941601,52543.4768721,52559.6790143,102960.511284,100625.14908,943548.429961,947596.022572,4392315.54854,4394840.03078
4531.25,1494.58825498,4.78700908153,0.268239398342,52329.2712912,52360.342725,52392.5197167,52422.2888552,96592.7605625,94105.2696025,947846.862419,952033.80763,4372408.22745,4370764.38381
4609.375,1496.2397673,4.75133916963,0.219244061229,52184.1261852,52196.8334977,52230.9028236,52253.4529423,90084.1853863,87525.0718444,951427.839222,955969.278297,4359175.68931,4361214.18616
4687.5,1497.59236334,4.72696692149,0.170782636805,52068.0972463,52105.7504833,52097.1839125,52134.0015247,83487.0475584,80810.4717948,954014.791479,958675.484325,4345072.99197,4343637.4731
4765.625,1498.64522834,4.71143194469,0.125877173682,51948.1213817,51964.4522664,51966.0339239,51988.5854963,76809.8836263,74029.9468586,955883.527373,960891.499028,4337090.60607,4338673.27632
4843.75,1499.3977281,4.70068928954,0.0816495056927,51876.5325812,51915.4090408,51883.7345762,51922.4351444,70138.2872692,67245.366928,956785.878271,961901.184469,4328907.84418,4327749.97642
4921.875,1499.84940935,4.69382877744,0.0392861925004,51819.1249503,51840.6025013,51821.6156473,51844.9409762,63461.2439215,60444.6825442,956920.285998,962390.687854,4326124.94055,4327321.46999
5000.0,1500.0,4.69166729727,-0.00285953589366,51812.0364685,51852.9681153,51812.3557625,51853.2663792,56845.4840099,53747.3154956,956078.202168,961641.949797,4323720.2524,4322861.12724
5078.125,1499.84940935,4.69375679885,-0.0446779859912,51820.2682195,51845.723852,51822.9220794,51846.4914141,50262.3899309,47044.7718345,954428.140065,960335.080575,4326019.26142,4326895.2229
5156.25,1499.3977281,4.70043803223,-0.0873122293842,51874.829949,51914.4237177,51883.5347944,51922.3795356,43789.5083791,40514.0018914,951820.276501,957814.94898,4329282.94428,4328732.16711
5234.375,1498.64522834,4.7112538554,-0.130894842381,51948.4598336,51975.1728455,51966.8968634,51988.9609273,37406.70926,34010.7209867,948373.927079,954692.122674,4336617.72094,4337284.80017
5312.5,1497.59236334,4.7266213952,-0.176335850438,52062.2039801,52100.5956938,52094.0545085,52130.3198468,31183.5444346,27759.096704,943964.616431,950386.837785,4345374.10255,4345137.13154
5390.625,1496.2397673,4.75076894194,-0.224198831326,52182.9705789,52210.8371757,52230.9116125,52252.7871253,25075.9879556,21564.2836735,938672.903339,945375.498029,4357633.67277,4358199.97071
5468.75,1494.58825498,4.78629185204,-0.27360948841,52321.9266256,52355.8384481,52388.709445,52418.5725538,19136.7473419,15641.0753607,932438.522664,939254.128031,4371731.38687,4371775.59731
5546.875,1492.63882119,4.83295945708,-0.327890100376,52455.1086403,52477.1305336,52544.1210062,52559.2172267,13340.5146855,9780.97072355,925334.204578,932370.810095,4388995.91742,4389586.4472
5625.0,1490.3926402,4.89200292624,-0.385389481778,52599.6417192,52622.4511392,52713.3743362,52729.7491496,7751.46823151,4223.25283247,917332.059599,924498.618425,4408449.35885,4408777.08462
5703.125,1487.85106502,4.96346372835,-0.449996534219,52741.210415,52751.5313321,52884.2282475,52886.6365112,2360.10799912,-1220.80525278,908474.462701,915806.054684,4430837.48654,4431581.19917
5781.25,1485.0156266,5.04816906193,-0.518093640697,52897.6281286,52905.3155513,53072.0770575,53070.9222642,-2774.21058594,-6324.35810799,898749.501498,906229.905333,4455623.04572,4456247.81856
5859.375,1481.8880329,5.14648696531,-0.594651861789,53058.3622122,53053.0678355,53269.4885026,53255.1626228,-7654.50462968,-11244.6577701,888176.336087,895770.785493,4483170.60155,4484166.16483
5937.5,1478.47016787,5.25892664905,-0.674418264007,53238.1715434,53227.8367401,53487.8437565,53466.5096978,-12231.9454027,-15796.9128059,876757.218372,884514.343473,4513209.65436,4514135.36757
6015.625,1474.7640903,5.3863553324,-0.7634608254,53428.6519489,53404.6603315,53722.3230873,53688.0399959,-16505.0047976,-20094.9194988,864497.711469,872324.508115,4545890.69864,4547199.39821
6093.75,1470.77203259,5.52872756594,-0.855415052777,53640.9834338,53609.8036067,53980.5022589,53936.5567036,-20434.5605532,-24005.8293966,851411.271673,859406.038763,4581080.66844,4582291.60548
6171.875,1466.49639942,5.68748261443,-0.957082118685,53868.7649689,53823.1602693,54259.3589612,54202.1647505,-24015.2091333,-27597.091321,837495.932964,845524.25101,4618835.26362,4620481.29091
6250.0,1461.93976626,5.8619755385,-1.06158649781,54119.6748812,54064.7799141,54563.368303,54494.3777114,-27216.9054282,-30785.4795651,822772.580655,830963.921242,4659064.9367,4660528.40555
6328.125,1457.10487785,6.05411213497,-1.17596745312,54389.2406628,54319.122294,54890.7862396,54807.9024363,-30031.2943433,-33599.0993383,807236.664899,815433.915777,4701809.79194,4703781.12725
6406.25,1451.99464656,6.26273072355,-1.29336527413,54682.05179,54600.5668262,55243.727678,55147.275234,-32436.3718055,-35994.8105489,790913.359271,799259.733424,4746963.7456,4748635.20592
6484.375,1446.6121506,6.49004315853,-1.42056299055,54995.2120301,54897.5416827,55621.2243075,55509.9113966,-34422.1699482,-37972.1037177,773799.131613,782130.815646,4794597.09988,4796850.6213
6562.5,1440.96063217,6.73450701541,-1.55119012405,55330.8214993,55219.8966258,56023.6566351,55897.3868868,-35973.4339761,-39517.4052776,755921.226986,764381.207491,4844556.1032,4846382.63575
6640.625,1435.04349555,6.99842468701,-1.69130629366,55687.0362128,55558.7274047,56450.371211,56307.9998217,-37080.0977343,-40610.9179573,737279.720055,745708.925065,4896961.66963,4899436.1634
6718.75,1428.864305,7.28010986802,-1.83541143442,56064.1562739,55920.8840483,56900.545517,56742.0861773,-37732.4120258,-41261.3307802,717902.6255,726435.431027,4951599.04358,4953512.37778
6796.875,1422.42678262,7.58165304819,-1.98851298634,56460.9102336,56298.8973788,57373.5316049,57197.5982268,-37921.4957846,-41435.5350521,697795.145727,706282.523884,5008650.3827,5011276.57334
6875.0,1415.73480615,7.90153109037,-2.14615744624,56876.4717793,56697.994005,57867.7664902,57674.8243106,-37642.1560717,-41159.5464211,676985.894316,685550.842037,5067830.84301,5069748.02648
6953.125,1408.79240658,8.24129314014,-2.31222793694,57309.7948992,57111.1994972,58382.4567707,58170.6908796,-36887.621789,-40391.3627265,655485.737003,663990.315523,5129392.15394,5132095.68583
7031.25,1401.60376574,8.59988295242,-2.48320699036,57759.4803144,57543.0480615,58915.673523,58686.0647944,-35656.5571175,-39170.5000914,633324.503037,641880.402883,5192971.41199,5194795.55417
7109.375,1394.17321381,8.97802059639,-2.66208661154,58224.4938981,57986.575582,59466.4329563,59216.7010131,-33945.0038522,-37449.2870698,610518.80208,618997.398647,5258899.74055,5261611.23434
7187.5,1386.50522668,9.37534314132,-2.84588871105,58703.2447873,58446.2577747,60032.7016202,59764.3682049,-31755.0072042,-35277.8885293,587100.793304,595604.445166,5326722.02584,5328347.33271
7265.625,1378.60442325,9.79156300892,-3.03721333037,59194.4480658,59491.3582508,60613.2401598,60875.842922,-29085.8889083,-32606.114455,563092.947178,571499.572412,5396785.00184,5399252.35188
7343.75,1370.47556268,10.2271089613,-3.23301069585,59696.6181726,59978.2174672,61206.1184759,61452.611586,-25942.7824471,-29491.3868733,538531.150847,546935.475074,5468645.73699,5469883.55832
7421.875,1362.12354148,10.6806517635,-3.43616463549,60208.534975,60476.995837,61810.052567,62043.7431572,-22328.5440321,-25884.2798302,513444.38338,521728.229357,5542755.60382,5544784.20841
7500.0,1353.55339059,11.1533632261,-3.64282502248,60728.6593277,60980.9214785,62423.160491,62640.1195837,-18251.2324354,-21846.5980881,487874.038243,496125.135491,5618607.24686,5619558.91643
7578.125,1344.77027237,11.6429897778,-3.85690182889,61255.7032522,61493.8512153,63044.0851827,63247.5998567,-13717.32473,-17331.9716823,461857.192087,469959.269749,5696597.35815,5698291.8642
7656.25,1335.77947742,12.1512353431,-4.07302089463,61788.1994954,62009.2593697,63671.0789566,63857.2631012,-8737.74726242,-12404.9680883,435443.465955,443476.227441,5776258.5979,5777044.6262
7734.375,1326.58642148,12.6751981358,-4.29680384033,62324.8609519,62530.9973688,64302.7602246,64474.9904391,-3322.57480858,-7022.92858285,408681.412814,416528.467302,5857936.23017,5859399.88763
7812.5,1317.19664208,13.2167794744,-4.52076014,62864.296411,63052.4318237,64937.5259438,65091.7947763,2514.43408567,-1253.23740871,381633.896423,389364.284992,5941213.78336,5941949.11694
7890.625,1307.61579529,13.772828997,-4.75271136654,63405.2711251,63577.8244647,65574.0044772,65713.936549,8759.71035578,4943.74709206,354367.944865,361861.739651,6026375.91704,6027707.17347
7968.75,1297.84965225,14.3450211147,-4.98271738711,63946.4832743,64100.1333549,66210.7381639,66332.0572625,15396.6951907,11497.0369662,326970.138416,334280.453112,6113065.91917,6113857.24136
8046.875,1287.90409571,14.9304131373,-5.22097960757,64486.7974428,64624.3178602,66846.4006518,66953.0885658,22408.4836354,18444.3023977,299541.522299,306537.959899,6201500.14942,6202787.98588
8125.0,1277.78511651,15.5300187664,-5.4551256268,65025.0280637,65142.808476,67479.6775575,67567.1228146,29775.7763302,25710.1934842,272216.566143,278925.191657,6291390.00664,6292334.98442
8203.125,1267.49880994,16.141537584,-5.69754207858,65560.1786969,65661.3561036,68109.3254815,68181.8900678,37478.5405339,33331.2324978,245168.196481,251432.787111,6382875.52625,6384195.64576
8281.25,1257.0513721,16.7649647382,-5.93381955748,66091.2158237,66171.9375968,68734.1742564,68786.9402448,45494.853744,41227.4853083,218640.378159,224434.444115,6475745.86846,6476933.16655
8359.375,1246.44909611,17.3989688821,-6.17797177591,66617.3147024,66681.0199426,69353.1026207,69390.7581614,53801.8038195,49434.5701211,192979.300048,198084.774525,6570054.63109,6571467.87678
8437.5,1235.69836841,18.042323865,-6.41427514457,67137.6278946,67180.3201559,69965.0904732,69982.5039896,62375.0437063,57868.4908525,168708.158682,172986.382379,6665680.79082,6667189.74207
8515.625,1224.80566483,18.6948132157,-6.6575417246,67651.5265045,67676.8557895,70569.1753377,70571.2654178,71189.072233,66563.603558,146625.216949,149719.81593,6762578.82276,6764131.90156
8593.75,1213.77754672,19.3539999617,-6.89165317947,68158.3699533,68162.3072487,71164.4954449,71146.0374051,80217.3930609,75433.0213294,127955.540228,129520.010763,6860731.68073,6862631.57612
8671.875,1202.620657,20.0207030288,-7.13128904809,68657.7373834,68644.0460905,71750.2758689,71716.3062833,89432.2673411,84509.0909817,114431.55562,113967.008148,6959980.2881,6961708.1127
8750.0,1191.34171618,20.6915187606,-7.3608571271,69149.1945164,69113.9141287,72325.8187804,72271.1420318,98805.3767988,93703.5571346,108018.47085,105235.328175,7060426.48549,7062775.61685
8828.125,1179.94751827,21.3679968408,-7.59408829309,69632.5253575,69579.444998,72890.5525732,72820.2156494,108307.170501,103045.966042,109934.213869,104965.854588,7161783.17369,7163711.8502
8906.25,1168.4449267,22.0462151446,-7.81661568678,70107.4782151,70032.7767822,73443.9413776,73352.8750316,117907.873605,112448.219462,119700.096611,113113.44242,7264284.87592,7267129.7604
8984.375,1156.8408702,22.7279771827,-8.04073910731,70574.0220672,70481.4540892,73985.616559,73878.7988458,127576.607487,121936.49831,135504.471809,128007.423347,7367503.84075,7369653.20857
9062.5,1145.14233863,23.4094130681,-8.25359625824,71032.0452142,70917.9551456,74515.191406,74387.7316182,137282.552282,131424.201877,155360.345077,147395.350736,7471818.36706,7475193.59266
9140.625,1133.35637874,24.0920322136,-8.46607030891,71481.6673179,71349.7509079,75032.4839051,74889.2515147,146994.011383,140933.867702,177751.303885,169673.831873,7576650.56619,7579035.67212
9218.75,1121.49008995,24.7725888151,-8.66654756559,71922.8633274,71769.6163058,75537.232265,75373.5236648,156679.588029,150381.553424,201664.414451,193573.98971,7682530.14199,7686458.8714
9296.875,1109.55062008,25.4518099475,-8.86505801785,72355.8607711,72184.9218837,76029.4118563,75849.9775523,166307.278627,159786.081059,226445.262372,218496.01695,7788723.15259,7791354.7606
9375.0,1097.54516101,26.1275116051,-9.05046064691,72780.6665878,72588.6502486,76508.8526599,76309.1624803,175845.628409,169067.217898,251660.066134,243833.408696,7895914.91133,7900409.78844
9453.125,1085.48094438,26.7993392721,-9.23295130632,73197.5725575,72988.0704882,76975.6503756,76760.335575,185262.834095,178240.13086,277012.620828,269400.45016,8003212.83983,8006097.38055
9531.25,1073.36523723,27.4663592199,-9.40073021644,73606.5701502,73376.2847211,77429.6896834,77194.3783026,194527.933392,187229.257765,302288.181734,294840.420144,8111459.15351,8116523.47334
9609.375,1061.2053376,28.1271178479,-9.5653960512,74007.9784439,73760.4628578,77871.1478963,77620.3501458,203609.832767,196046.29488,327326.52802,320113.480419,8219602.77054,8222742.08805
9687.5,1049.00857016,28.7818094102,-9.71329541749,74401.7392864,74133.7647503,78299.9292645,78029.4261434,212478.62154,204621.193927,351999.903292,344965.385614,8328641.94313,8334271.0217
9765.625,1036.7822818,29.428172187,-9.8585468834,74788.1739464,74503.2579437,78716.2584951,78430.4297285,221104.436413,212962.502895,376205.356571,369408.706808,8437369.1379,8440760.41786
9843.75,1024.53383716,30.0671098074,-9.98474140085,75167.1571616,74862.1388487,79120.0316984,78814.8243356,229458.964346,221006.389295,399854.420684,393241.378448,8546936.39001,8553118.96254
9921.875,1012.27061426,30.6960985651,-10.1091580796,75539.000556,75217.351826,79511.4959416,79191.1352654,237514.110186,228758.714391,422871.855517,416493.526173,8655982.97921,8659619.18457
10000.0,1000.0,31.3161298207,-10.2123505092,75903.511952,76283.2582259,79890.5230894,80266.4000111,245243.675904,258494.700883,445189.768814,444015.751456,8765811.59478,8772531.10728
10078.125,987.729385739,31.9250942078,-10.3146464133,76260.2646943,76626.4407282,80256.7275036,80620.1386851,252640.437195,265307.108086,466771.331592,465321.058814,8874769.81669,8878602.7589
10156.25,975.466162836,32.5233977593,-10.3941020377,76609.769305,76964.5537172,80610.6147045,80965.2630012,259662.91556,271754.925216,487537.432172,485904.281793,8984389.76013,8991063.54256
10234.375,963.2177182,33.1099864429,-10.4731216832,76952.2845376,77293.8215866,80952.4105275,81294.9608975,266288.262081,277775.421687,507439.062653,505634.57742,9093200.58016,9097184.39071
10312.5,950.991429835,33.6841257311,-10.5286299815,77287.6045629,77618.001415,81282.0016187,81615.8428456,272495.796028,283386.545941,526430.275781,524531.71825,9202490.60287,9209110.34781
10390.625,938.7946624,34.2462634567,-10.583383264,77615.9477556,77933.4321874,81599.5863037,81921.7066374,278266.127801,288535.776486,544470.241199,542486.51901,9310890.91137,9315021.6003
10468.75,926.634762772,34.7942247105,-10.6151558989,77937.1553655,78243.7414326,81905.0876144,82218.5212367,283581.979184,293238.044642,561520.677216,559516.332053,9419588.13856,9426150.57686
10546.875,914.51905562,35.3301049424,-10.6448845267,78251.4234633,78545.4550851,82198.7010118,82500.7975096,288427.85474,297450.773781,577548.033714,575530.729675,9527316.32691,9531592.84616
10625.0,902.454838992,35.8503122856,-10.6534157484,78558.657196,78842.0219045,82480.3955683,82773.8067106,292790.292953,301187.053027,592521.162584,590545.082435,9635160.16197,9641666.01324
10703.125,890.449379922,36.3584068879,-10.6576724898,78859.0488872,79130.2566127,82750.3910901,83032.8595617,296658.050717,304413.807146,606413.539212,604485.446639,9741956.98691,9746380.58187
10781.25,878.509910048,36.8497143085,-10.643595215,79152.5719955,79413.3376048,83008.7097565,83282.4886197,300021.84135,307143.474647,619201.105135,617366.538133,9848689.76566,9855142.83814
10859.375,866.643621263,37.3287942716,-10.6223150447,79439.4337607,79688.4895145,83255.6213866,83518.8653528,302874.944819,309351.916012,630864.420152,629129.028011,9954298.95742,9958872.29811
10937.5,854.857661373,37.7904589751,-10.5862818831,79719.6642658,79958.508969,83491.2014858,83745.7677264,305212.524215,311052.045852,641386.701898,639788.614625,10059666.4711,10066073.0013
11015.625,843.159129801,38.2396172318,-10.5398286304,79993.5044964,80221.1334017,83715.7910032,83960.2412744,307032.5577,312228.010073,650755.806357,649299.129677,10163835.111,10168561.3562
11093.75,831.555073304,38.6712601164,-10.4824373149,80261.0136552,80478.6875907,83929.509851,84165.3318016,308334.822779,312894.186119,658962.487847,657678.770881,10267586.9984,10273955.0753
11171.875,820.052481733,39.0899286975,-10.4116160233,80522.4849042,80729.4714659,84132.7847859,84358.917821,309122.069601,313042.317214,666002.176607,664893.583833,10370065.7851,10374947.8486
11250.0,808.658283817,39.4914860436,-10.3333871019,80777.9675517,80975.2990089,84325.7620803,84543.3685898,309398.71935,312689.005956,671873.392749,670965.338507,10471955.7964,10478294.7375
11328.125,797.379342998,39.8794444367,-10.2394185875,81027.8233543,81215.0097005,84508.9619476,84717.3092749,309172.264918,311832.915363,676579.435757,675871.945991,10572499.2965,10577539.3577
11406.25,786.222453285,40.2511116305,-10.1408240767,81272.0485225,81449.9435838,84682.5319026,84882.5204169,308451.644434,310493.355075,680126.704958,679639.159321,10672285.5116,10678605.2637
11484.375,775.194335173,40.6084872649,-10.0252798289,81511.0850593,81679.3621598,84847.0864274,85038.2333971,307248.961386,308675.247778,682526.655437,682257.030048,10770652.4289,10775851.5931
11562.5,764.301631587,40.9506576832,-9.90681871665,81744.8373424,81904.2684332,85002.7459527,85185.7807474,305577.377668,306400.806779,683793.493265,683754.961938,10868097.5132,10874408.0698
11640.625,753.550903885,41.2779140423,-9.7715147185,81973.8318104,82124.1352667,85150.2140019,85324.7994421,303453.370789,303680.562492,683947.083969,684135.947301,10964051.0549,10969409.2914
11718.75,742.948627903,41.5911270759,-9.6338232103,82197.8534343,82339.8318052,85289.5562785,85456.3494952,300893.86912,300539.524421,683009.141471,683432.038945,11058922.5363,11065233.171
11796.875,732.501190056,41.8890278993,-9.48068678882,82417.5103364,82550.8256765,85421.5570705,85580.2796194,297919.382566,296993.23592,681008.124145,681660.285511,11152230.9641,11157747.4062
11875.0,722.21488349,42.1739408621,-9.32464955504,82632.4522986,82757.9980284,85546.2009282,85697.4891462,294549.996285,293069.029834,677972.723614,678853.887365,11244301.5307,11250619.9302
11953.125,712.095904291,42.4434872732,-9.15559278277,82843.3642333,82960.7251351,85664.3467704,85807.9617475,290809.808245,288786.982225,673940.0498,675045.139899,11334738.8504,11340412.1047
12031.25,702.150347754,42.7008761527,-8.98241640371,83049.7510843,83159.8764251,85775.8702146,85912.4016395,286721.319309,284175.922941,668945.021872,670266.577311,11423786.7932,11430118.563
12109.375,692.38420471,42.9432216867,-8.7992455437,83252.3741135,83354.8501855,85881.7061025,86011.0109592,282311.668907,279260.046938,663033.290136,664566.779271,11511133.4531,11516961.6185
12187.5,682.803357918,43.1740012477,-8.61046631174,83450.5829726,83546.2800916,85981.5911248,86104.1128101,277604.937812,274068.611608,656245.053825,657975.662091,11596943.2975,11603291.9003
12265.625,673.413578523,43.390380912,-8.41485122377,83645.2286466,83733.9210528,86076.5509058,86192.3791755,272630.65922,268629.519612,648634.173972,650558.814469,11680986.905,11686967.4877
12343.75,664.220522576,43.5955901606,-8.21226995198,83835.4869677,83917.7173767,86166.1496918,86275.3933461,267413.611784,262971.223384,640245.03839,642341.515857,11763350.1299,11769717.0723
12421.875,655.229727631,43.7873181156,-8.00574792659,84022.3351888,84098.3706905,86251.5369475,86354.7521401,261984.981956,257124.92052,631139.127608,633406.815141,11843886.1597,11850015.8685
12500.0,646.446609407,43.9680609936,-7.79136496006,84204.7391698,84274.452898,86332.0625428,86428.7592906,256369.356779,251116.94573,621363.825406,623773.121271,11922601.9877,11928987.3744
12578.125,637.876458524,44.1365465117,-7.57529444212,84383.8614261,84448.3528057,86409.0478473,86500.5049665,250598.769573,244981.291384,610987.401187,613541.426155,11999434.3829,12005708.7313
12656.25,629.524437323,44.2940050018,-7.35128556561,84558.4056512,84616.5812998,86481.5822692,86566.496777,244696.743171,238741.007642,600058.904516,602720.425808,12074310.6401,12080714.0794
12734.375,621.395576747,44.4406452156,-7.12682212423,84729.7886219,84783.8000131,86551.2103452,86631.7241552,238695.333955,232432.11385,588652.449299,591430.074788,12147252.2992,12153665.3534
12812.5,613.494773319,44.5761885987,-6.89538617811,84896.3972594,84944.0667013,86616.7234872,86690.6744687,232616.098466,239329.121012,576818.472223,579465.10656,12218106.1736,12224527.3952
12890.625,605.826786187,44.7022726812,-6.6636472579,85059.9675078,85104.5349626,86679.9310154,86750.2973067,226489.937571,232512.209801,564640.774565,567153.997289,12286979.4832,12293524.2088
12968.75,598.39623426,44.8174462243,-6.42671983616,85218.516496,85256.7620966,86739.2994209,86803.1590654,220336.114864,225715.507751,552160.069385,554561.844581,12353638.0697,12360077.1512
13046.875,591.207593424,44.9242727743,-6.18893417492,85374.1561172,85410.2667242,86796.9301259,86857.8974568,214184.354592,218937.21271,539458.657586,541720.730121,12418275.4665,12424944.6216
13125.0,584.265193849,45.0206278661,-5.94810517952,85524.481984,85554.4060063,86850.9489403,86905.6200526,208050.397758,212228.507325,526581.763536,528731.405626,12480576.0547,12487033.2978
13203.125,577.573217375,45.1096299111,-5.70547920782,85672.0334951,85700.566722,86903.7628667,86955.9662756,201961.835185,205581.083142,513613.94229,515615.884711,12540820.5715,12547607.8259
13281.25,571.135695,45.1887206649,-5.46210952997,85813.9319725,85836.6218657,86953.1506852,86999.5402562,195930.313115,199045.092428,500595.833248,502484.207445,12598610.6154,12605085.6747
13359.375,564.956504446,45.2613641949,-5.2157241407,85953.2003132,85975.0012859,87001.8336774,87045.8690057,189981.123939,192606.912151,487613.514148,489344.612446,12654316.585,12661217.7985
13437.5,559.039367826,45.3248722372,-4.97085909241,86086.3980578,86102.894711,87047.2100832,87086.1987337,184120.918529,186313.368244,474701.312363,476318.680397,12707453.4422,12713944.2324
13515.625,553.387849402,45.3826174722,-4.72179854943,86217.1359223,86233.1453861,87092.3670576,87128.9305054,178372.903777,180146.915126,461945.593532,463394.141122,12758487.315,12765501.5189
13593.75,548.005353438,45.4322852593,-4.47603182967,86341.2304447,86352.50217,87134.1936966,87166.5971914,172737.726942,174149.090118,449373.860942,450711.184798,12806837.9611,12813340.3004
13671.875,542.895122148,45.4767151414,-4.22537067566,86463.0856824,86474.3080241,87176.3017812,87206.1795155,167237.123413,168299.825716,437069.982171,438223.946726,12853079.0135,12860208.6561
13750.0,538.060233744,45.5142285926,-3.97896839391,86577.4662684,86584.3741319,87214.7954777,87241.3011999,161864.636463,162633.445856,425056.648242,426106.627658,12896519.7096,12903027.1855
13828.125,533.503600583,45.5470616054,-3.72756608961,86689.8897061,86697.2499875,87254.1163299,87278.0762652,156641.473166,157129.434828,413409.539596,414257.227153,12937860.77,12945111.1025
13906.25,529.227967408,45.5740802816,-3.48063510253,86793.6573188,86796.9080345,87289.1569533,87310.2405316,151553.016051,151812.22119,402152.548473,402910.335065,12976276.8963,12982780.3266
13984.375,525.235909703,45.5970691079,-3.22894275054,86895.8273449,86900.1579679,87325.6677164,87344.4780428,146621.055393,146664.222969,391343.180687,391873.917068,13012625.3576,13020002.6699
14062.5,521.529832134,45.6153509337,-2.98158865473,86987.789676,86987.9649755,87356.7858019,87372.7218163,141822.070547,141696.188694,381017.880004,381481.330446,13045912.1134,13052399.8105
14140.625,518.111967102,45.6311690201,-2.73094349405,87078.6577419,87080.8229464,87390.2234955,87404.7785366,137179.514559,136898.514025,371200.866016,371405.755866,13077190.8892,13084700.0475
14218.75,514.984373403,45.6450541267,-2.48512806796,87157.4943188,87155.1602828,87416.7559613,87427.7558037,132660.785217,132262.990425,361958.242552,362127.161387,13105254.7201,13111714.3611
14296.875,512.148934981,45.6574082275,-2.23563028704,87235.963847,87236.8821039,87446.7654259,87458.0611061,128291.766938,127795.433692,353261.330331,353134.184522,13131402.168,13139044.6735
14375.0,509.607359798,45.6687265204,-1.98966358789,87300.4892462,87296.2967431,87468.0994028,87474.4938517,124031.262903,123460.780302,345227.16447,345101.190235,13154161.9068,13160582.2807
14453.125,507.361178806,45.678183494,-1.74019807004,87365.5606383,87366.1300624,87494.3218845,87503.2928283,119907.711785,119290.961173,337752.742379,337291.323888,13175130.5738,13182904.2148
14531.25,505.411745018,45.6869750071,-1.49378581846,87414.8859731,87409.6248243,87510.0455268,87512.4427894,115872.609536,115212.918702,331027.383374,330602.930297,13192518.3643,13198889.7377
14609.375,503.760232701,45.6936960145,-1.24439975838,87465.6559552,87466.7774457,87532.0673455,87539.5190426,111956.185303,111298.072937,324855.336889,324062.784294,13208273.2614,13216173.3056
14687.5,502.407636664,45.7000221007,-0.997486535578,87499.2029903,87493.7393284,87541.9919615,87541.2891104,108104.950707,107422.90583,319513.815973,318780.914011,13220236.2121,13226550.8426
14765.625,501.354771661,45.7040164339,-0.748400000467,87534.7855678,87537.3484844,87559.2348426,87565.7924322,104349.115084,103711.105885,314704.826766,313590.643812,13230752.2461,13238771.6275
14843.75,500.602271897,45.7078383975,-0.500904703022,87552.2580492,87547.4209372,87563.3759319,87560.6401781,100633.710599,99979.2786643,310797.363883,309737.351299,13237255.3345,13243509.1858
14921.875,500.150590652,45.7092160591,-0.252327604465,87571.71044,87576.3792479,87575.0175996,87580.9706748,96986.0006206,96410.7325015,307395.613233,305975.637011,13242513.5329,13250640.1411
15000.0,500.0,45.7104040564,-0.00424961631763,87573.1152276,87569.8186015,87573.6115867,87570.0957075,93354.2194239,92760.4587018,304948.662383,303533.7939,13243543.6444,13249738.2169
15078.125,500.150590652,45.7093012815,0.243762840254,87575.4206289,87582.5123772,87578.5918772,87583.9188711,89758.7290092,89269.3287882,302982.853652,301277.793539,13243527.2401,13251740.3662
15156.25,500.602271897,45.7078093245,0.492238448406,87561.1158381,87560.6098264,87572.1216786,87569.3427575,86156.586043,85639.8111152,302000.769991,300196.801388,13239097.5821,13245242.4191
15234.375,501.354771661,45.7041891849,0.739668239292,87545.2351994,87554.8463107,87569.2362398,87573.9024487,82556.6190426,82156.5864448,301482.776038,299515.154062,13233788.46,13242055.5955
15312.5,502.407636664,45.7000334767,0.988442219007,87515.9097472,87519.6664848,87558.3820355,87557.8592069,78930.6307353,78490.8233231,301949.790073,299721.812985,13223942.568,13230060.6287
15390.625,503.760232701,45.6938875245,1.23522988711,87480.9080504,87493.0377332,87546.4481685,87550.6283976,75271.4724122,74945.3366164,302871.13504,300661.333327,13213317.5737,13221589.1926
15468.75,505.411745018,45.6869510613,1.4842292895,87437.5059255,87446.8340172,87531.9991302,87534.8391818,71570.7971192,71192.1064287,304752.793486,302072.731227,13198132.2934,13204266.5486
15546.875,507.361178806,45.6783944231,1.73048463516,87382.7621625,87397.405186,87510.0778617,87514.2078015,67802.5118343,67517.061911,307080.320437,304643.613103,13182160.3866,13190363.5072
15625.0,509.607359798,45.6686210092,1.97940185255,87326.431191,87342.3389781,87492.8999738,87499.7745484,63981.104984,63632.6204568,310323.478935,307176.272072,13161746.8655,13167963.5854
15703.125,512.148934981,45.657525139,2.22537920464,87251.8723219,87269.1930198,87460.5008147,87465.2978963,60061.1688299,59766.3673677,313996.035831,311342.747571,13140389.1394,13148425.1955
15781.25,514.984373403,45.6450020635,2.47407630344,87183.9735888,87207.278957,87441.5937351,87453.0106595,56080.0436573,55717.688394,318527.117776,314913.265386,13114890.9947,13121278.6539
15859.375,518.111967102,45.6309710282,2.72009148428,87090.1871541,87110.5466107,87398.7361712,87405.1079389,51975.6130289,51604.3976806,323454.442334,320594.122976,13088102.9778,13095851.2839
15937.5,521.529832134,45.6153089404,2.9696737295,87012.4082832,87043.957273,87379.3980778,87395.9441372,47805.055024,47375.2397789,329176.697126,325110.796631,13057692.8325,13064359.7195
16015.625,525.235909703,45.5968286303,3.21762964374,86900.4538396,86924.0460897,87326.3981,87335.1742867,43494.8301656,42961.7539759,335240.370988,332188.607694,13025425.3723,13032746.2268
16093.75,529.227967408,45.5737436062,3.46823329919,86815.0445894,86856.2961085,87308.4870086,87331.1545255,39116.1569867,38561.0462444,342031.768607,337538.637128,12990303.9384,12997379.2301
16171.875,533.503600583,45.5468347733,3.71635186502,86685.8028639,86711.9384472,87245.3404518,87256.9344049,34591.8408271,33791.0500288,349086.927013,345871.937445,12952498.1264,12959228.6288
16250.0,538.060233744,45.5137084794,3.96653300085,86595.8501405,86649.7562167,87231.5389893,87262.1111339,29998.2534702,29262.194469,356800.25063,351911.189386,12912902.0321,12920546.3148
16328.125,542.895122148,45.4764283177,4.21469718872,86449.0405192,86475.2779702,87156.9949155,87171.058691,25265.7275535,24068.51819,364676.530593,361343.42008,12869473.687,12875410.5854
16406.25,548.005353438,45.4318349783,4.46405157937,86358.7589719,86430.369336,87151.0840881,87192.2366282,20462.4148033,19499.2585255,373142.093492,367892.532793,12825697.7503,12834128.472
16484.375,553.387849402,45.3824491317,4.71182773975,86192.1097326,86213.6010346,87061.8125085,87077.0027341,15542.7993482,13794.3152952,381643.89577,378256.875264,12776507.3704,12781372.1981
16562.5,559.039367826,45.3247669329,4.95975252836,86107.1280745,86203.7878411,87069.0022119,87124.1933088,10547.0033174,9328.47862816,390673.82193,385100.580991,12728943.5656,12738477.0375
16640.625,564.956504446,45.2617069825,5.20656950272,85916.0082965,85925.2550807,86959.1385716,86973.0805159,5477.09502518,2991.582704,399581.973224,396227.025647,12673750.8944,12677138.6303
16718.75,571.135695,45.1894373334,5.45200017595,85843.5089917,85975.1383411,86986.3299033,87059.9341254,318.698390714,-1155.92271709,408973.802263,403109.190479,12622941.1602,12634046.8139
16796.875,577.573217375,45.1108430398,5.69707575815,85620.9228369,85607.5207988,86847.3743647,86856.5550346,-4850.11811987,-8295.15216248,418050.795936,414840.548973,12561349.2594,12562670.0544
16875.0,584.265193849,45.0228127139,5.93909253491,85569.5787329,85749.334974,86903.1799799,87000.9697256,-10127.3619409,-11821.5513666,427588.625831,421452.195244,12508044.2803,12521401.3963
16953.125,591.207593424,44.9268047863,6.1808934405,85306.3676958,85256.3656173,86724.2523502,86723.6169272,-15331.7821743,-19999.8153459,436587.624641,433665.183709,12439442.4799,12437868.4334
17031.25,598.39623426,44.821637223,6.41891071902,85286.0872104,85530.9230058,86818.6063694,86948.1482902,-20669.0085631,-22503.4076939,446041.297351,439636.069544,12384655.2203,12401199.8885
17109.375,605.826786187,44.706654343,6.65549582009,84971.4835072,84867.0620804,86587.3078248,86569.9517311,-25836.9596256,-32029.7672158,454716.74703,452250.275062,12308173.1862,12302601.3499
17187.5,613.494773319,44.582859364,6.88884530328,84992.6932546,85322.6356992,86730.3196222,86900.7470998,-31160.0875936,-33017.0882485,463841.364063,457162.374404,12253212.9573,12274161.0856
17265.625,621.395576747,44.4472974144,7.11810182177,84615.7621391,84436.8306454,86434.6445772,86392.3638053,-36214.3261688,-33918.44841,471961.982613,473021.797624,12167703.2071,12156751.7585
17343.75,629.524437323,44.3036067686,7.34619724857,84687.6211159,85122.5822671,86634.2099609,86855.0859168,-41430.990373,-32010.0264249,480514.357317,479150.346409,12114168.945,12140993.2089
17421.875,637.876458524,44.1457997026,7.56554264463,84240.194221,83969.0753274,86265.8300617,86190.9535973,-46295.6233881,-45512.4475281,487851.010477,489555.658416,12018244.2809,12000310.7823
17500.0,646.446609407,43.9809361203,7.7881147532,84367.3238875,84920.9504086,86523.8324155,86802.8812672,-51303.3723601,-40705.4270558,495564.756449,493484.522981,11967945.9036,12002274.4764
17578.125,655.229727631,43.7994803331,7.99454614396,83848.338687,83477.2991405,86082.4427571,85970.8796304,-55896.0280543,-56887.7805037,501919.583026,504310.193337,11860104.8695,11833518.7199
17656.25,664.220522576,43.6119902809,8.21142724554,84026.5908039,84698.2672233,86390.3509685,86730.1060731,-60587.318116,-48781.9202301,508525.057219,505798.296627,11814882.0473,11858292.3727
17734.375,673.413578523,43.4057177471,8.40181873129,83446.3892165,82985.8235295,85887.6573077,85742.4131643,-64822.5611745,-67736.7325214,513729.621171,516757.46692,11693744.5277,11657025.9341
17812.5,682.803357918,43.1941220149,8.6127877781,83659.4103562,84427.8509508,86223.6397653,86618.2249525,-69090.2689503,-56165.1960609,518960.887808,515747.85729,11655179.2408,11708897.0283
17890.625,692.38420471,42.9619781996,8.78401128305,83041.4479069,82525.0157887,85684.5546838,85518.4057526,-72878.8329972,-77725.0871525,522868.250761,526404.975595,11519809.6946,11471989.8579
17968.75,702.150347754,42.7247998476,8.9887847385,83260.4058163,84082.3197818,86014.8662437,86448.0392286,-76625.3225095,-62789.5446711,526485.060777,523005.256792,11488892.7088,11553484.183
18046.875,712.095904291,42.4658992859,9.13786977371,82638.1128289,82120.8892826,85473.5457235,85309.464283,-79871.3401953,-86539.6633139,528949.482888,532833.680227,11339111.3244,11279992.2121
18125.0,722.21488349,42.2016319251,9.33597578103,82826.6944121,83644.4904529,85760.0474956,86207.1006146,-83017.9986724,-68561.3066782,530769.078438,527243.098404,11315994.8672,11391188.0188
18203.125,732.501190056,41.9152821723,9.46029951067,82234.769517,81778.9832258,85249.9272565,85115.6810567,-85617.5759004,-93939.0717696,531620.783492,535718.766793,11152522.8104,11082742.9651
18281.25,742.948627903,41.622523392,9.65100654124,82360.0582336,83121.0958348,85462.6175211,85898.7688379,-88107.9348045,-73330.2900196,531543.26355,528147.176596,11136514.7327,11221279.384
18359.375,753.550903885,41.3081086761,9.74831658738,81822.2177116,81472.0512789,85003.361364,84920.4712685,-89956.7856123,-99775.61093,530579.888374,534805.840813,10960811.3001,10881608.2096
18437.5,764.301631587,40.9858296638,9.93068533954,81868.1390664,82549.2941974,85132.1351873,85544.8925096,-91746.6993147,-76897.9966938,528584.080217,525449.730956,10950701.3082,11043631.9692
18515.625,775.194335173,40.6426299873,9.99899306051,81386.9081465,81146.2568294,84721.0097305,84693.7670347,-92761.4184517,-103969.22545,525599.835862,529908.947674,10764490.2673,10677219.8366
18593.75,786.222453285,40.2903009108,10.1720803275,81361.4330078,81980.4793515,84777.8788479,85173.9253685,-93794.6621266,-79075.1536861,521693.023995,518920.663518,10759100.5942,10858923.504
18671.875,797.379342998,39.91767062,10.2094296412,80918.8278056,80754.2787618,84394.2662468,84408.9632858,-93943.7591595,-106454.786254,516554.909506,520953.034956,10563817.394,10469499.5251
18750.0,808.658283817,39.5347905534,10.3724561437,80845.2197648,81441.2286748,84400.8585663,84798.9651827,-94130.3728781,-79724.0171067,510688.267503,508277.49491,10562465.7466,10668390.8276
18828.125,820.052481733,39.1326918966,10.3772108682,80419.1514705,80296.2823928,84024.2600177,84063.9780356,-93444.5222148,-107162.012069,503412.547563,508006.922797,10358970.7665,10258126.3687
18906.25,831.555073304,38.7187067909,10.5289928288,80314.3760333,80906.8936083,83992.0324509,84405.1752892,-92686.9429929,-78753.0319722,495448.582087,493275.004579,10361504.8967,10473143.9246
18984.375,843.159129801,38.2869682478,10.5004318126,79898.2975882,79819.7605287,83618.6496688,83682.1847202,-91193.5546439,-106056.423721,486156.40807,491130.620099,10150314.2485,10043250.9774
19062.5,854.857661373,37.8427365002,10.639783921,79759.4737366,80326.7260398,83540.2137687,83960.5303751,-89483.9639238,-76127.9329971,475999.272436,474050.283903,10156676.2026,10273621.5708
19140.625,866.643621263,37.3800168039,10.5763885147,79363.8959875,79367.5308131,83181.3211387,83287.497213,-87114.0964617,-103108.072017,464735.042319,470039.523904,9938486.46215,9825731.97438
19218.75,878.509910048,36.9070556404,10.7044749056,79175.8599355,79678.3803067,83040.9235876,83447.1884638,-84571.7412839,-71912.9884621,452480.101555,451079.446363,9948259.70588,10069754.0204
19296.875,890.449379922,36.4140045979,10.6031778626,78814.0222226,78936.0413964,82707.1851852,82877.2385463,-81229.9405748,-98237.654555,439191.362049,444448.517204,9724210.45265,9606703.84723
19375.0,902.454838992,35.9106843157,10.7207248905,78563.8133897,78979.0662714,82495.876546,82874.1995501,-77933.0101252,-66209.7879612,424956.578395,424424.072838,9736594.84223,9861515.91437
19453.125,914.51905562,35.3909874248,10.582735514,78240.2568774,78492.2882436,82186.7566974,82429.2468573,-73692.0492926,-91483.7199795,409750.831274,414820.607324,9508089.35083,9387006.08604
19531.25,926.634762772,34.8572597059,10.6855823014,77925.5654665,78252.1453156,81906.0111946,82253.4821221,-69557.8856502,-58953.1989726,393521.486831,393724.540647,9522171.56174,9649310.35635
19609.375,938.7946624,34.3088104222,10.5137187505,77635.2840276,78014.69867,81615.6287924,81933.1860276,-64599.1947392,-83165.4561991,376520.864308,381639.067504,9290624.13841,9167036.13624
19687.5,950.991429835,33.7511816462,10.604162339,77261.5903866,77504.8696561,81271.5723021,81585.199876,-59645.9836818,-50019.5096399,358596.709808,359366.137181,9305552.66331,9433814.97939
19765.625,963.2177182,33.1723925309,10.3922053275,76998.982913,77485.2296617,80993.1766352,81381.9108313,-53900.4440573,-73380.8423773,339614.000753,344626.417086,9072319.09612,8947175.88995
19843.75,975.466162836,32.5881090987,10.4774416024,76590.7694005,76783.7423685,80605.2841552,80901.1093813,-48357.4975534,-40080.1083232,320169.489085,321728.632807,9087383.27066,9215896.00205
19921.875,987.729385739,31.9888545004,10.2296971949,76327.8167743,76913.111433,80318.579107,80774.3591453,-41902.5327161,-61905.3424606,299811.558305,304841.731994,8853372.70945,8727346.26842
20000.0,1000.0,31.3806064168,10.3024932459,75875.4496296,76011.2700755,79874.930889,80149.333666,-35703.1804085,-28614.8840082,278608.582947,280615.681338,8868257.02169,8996323.73894
