X,Y,surf vx,surf vy,tauxy integr. above,tauxy dir. above,secinvare integr. above,secinvar dir. above,tauxy integr. below,tauxy dir. below,secinvare integr. below,secinvar dir. below,P integr.,P dir.,
0.0,1000.0,20.9419329637,8.18010832323,57414.1096219,57300.5264056,68975.8747538,69310.1705883,-132485.968094,-171717.932549,193133.148223,179642.763107,8228690.73874,8420669.97565
78.125,1024.53383716,20.7445606386,8.07545924062,57414.1096219,57517.4207642,68915.9489816,69353.6678722,-132485.968094,-87828.370572,129023.237212,96348.0060303,8228690.73874,7896448.97014
156.25,1049.00857016,20.5198755055,8.11518164631,56965.5425954,56965.1645557,68861.6741033,69943.7034332,-59018.2318871,-16754.2159419,135253.900159,78036.1410619,8023822.50771,7978659.19569
234.375,1073.36523723,20.2828012926,7.95316462833,56039.6088501,56191.3785054,68723.7999571,67595.5566347,-23492.0566449,17736.5817274,206199.361686,163893.985599,7615073.20888,7458684.71821
312.5,1097.54516101,20.0173852659,7.95124629843,55647.1453978,55611.1676785,68634.8013624,68277.5654638,46693.9583996,85046.988737,294641.736032,262081.478314,7416905.93654,7539802.79302
390.625,1121.49008995,19.7370778808,7.72915974526,56385.4578512,56549.2667021,68452.411729,67667.1622152,79017.7743377,115257.820471,388684.696438,356153.303835,7223881.17166,7035841.86215
468.75,1145.14233863,19.4301115195,7.68779618349,56023.4923475,56023.5931011,68315.7902028,68297.9457104,143582.595414,176570.394595,482846.9921,456453.723382,7029266.97146,7110746.06142
546.875,1168.4449267,19.1090101579,7.40480436423,56866.0300723,57035.5047387,68085.8517683,67670.5650983,171005.062026,201081.189811,575326.853532,546221.673892,6840859.30502,6624481.3431
625.0,1191.34171618,18.7620235141,7.32505131084,56583.3351207,56606.3359715,67903.0541019,68249.6434511,228230.040343,254491.90231,665145.512369,641261.233609,6651776.39451,6695438.07127
703.125,1213.77754672,18.4044491847,6.98426516791,57483.5861393,57648.0513998,67631.332276,67601.7744131,249125.865858,272051.042899,751668.134857,725081.787841,6469756.33163,6228564.27117
781.25,1235.69836841,18.0234892603,6.86759059197,57302.8793911,57342.0260344,67406.258113,68144.7570953,298074.074141,316808.001665,834521.70771,812849.140322,6288021.61361,6297695.53471
859.375,1257.0513721,17.6354251595,6.47310579203,58232.0769403,58377.9945061,67098.763878,67459.9999633,311442.079694,326448.118805,913350.8296,889594.708587,6114187.31863,5851867.57945
937.5,1277.78511651,17.228692971,6.3241590176,58147.1602769,58200.5313073,66842.416779,67994.5975352,351374.444159,362088.864184,988065.382485,969071.237185,5941428.71921,5920891.22336
1015.625,1297.84965225,16.8208928367,5.88322051367,57256.2161776,57533.0585263,66507.6748331,65476.4967075,356799.083352,363539.503839,1058398.19738,1038183.10561,5613289.2383,5493231.96426
1093.75,1317.19664208,16.3988420496,5.70600989679,57346.7362447,57374.8785273,66236.6627008,66022.0183704,387467.256681,389996.156942,1124444.03401,1108759.73909,5455513.45425,5560959.21804
1171.875,1335.77947742,15.9840012556,5.23043663993,58219.2068022,58465.6062659,65882.7253587,65258.595376,440339.789371,450281.728593,1186056.71333,1171833.99805,5307919.46634,5148751.18365
1250.0,1353.55339059,15.561014891,5.03085886935,58345.6511829,58394.5765846,65612.6892854,65829.4382775,460099.664946,465192.886113,1243324.87847,1232133.54731,5161576.00316,5224691.41992
1328.125,1370.47556268,15.1537431386,4.5341229165,59256.2782877,59460.9050761,65248.200693,65040.6535379,447287.280544,448131.070978,1296100.32926,1282309.14049,5027028.63397,4833753.27233
1406.25,1386.50522668,14.7455841243,4.31998396211,59386.5888018,59452.1020767,64995.8139746,65620.3360155,457875.348525,454088.690182,1344621.74634,1333276.15473,4893415.49219,4917276.03643
1484.375,1401.60376574,14.3625797879,3.81870537792,60313.3952928,60471.8675248,64633.8718185,64848.4591544,437458.056376,429583.590692,1388825.7868,1376066.39361,4773260.61191,4551850.91301
1562.5,1415.73480615,13.9861869827,3.5975672429,60435.6471079,60510.8504921,64409.2820519,65404.4605981,439549.219562,427471.404182,1428925.89258,1418040.86555,4653674.0897,4641987.74503
1640.625,1428.864305,13.6434673846,3.1097542565,59562.5699584,59771.9324695,64065.089008,62993.9469828,412412.836146,396517.774018,1464947.45973,1453734.4462,4410814.06587,4307237.26709
1718.75,1440.96063217,13.3162757,2.89023484293,59779.1849898,59896.0222489,63871.3310521,63594.3378938,406855.985977,387285.324817,1497040.31262,1487122.73288,4309537.85214,4406815.85646
1796.875,1451.99464656,13.0288015206,2.43179080204,60506.426986,60650.6364646,63559.2388909,62891.2952861,374040.562234,351066.571376,1525320.42897,1516017.39394,4224002.12319,4112561.81142
1875.0,1461.93976626,12.7655431409,2.22126850307,60705.2387783,60817.4348244,63394.1069587,63400.7351008,361823.720574,335770.254775,1549852.86065,1541293.95018,4138708.64185,4212394.44244
1953.125,1470.77203259,12.5462682074,1.80558894015,61292.8915339,61376.7664874,63122.4725274,62801.4566607,324460.998452,295524.373621,1570837.92476,1563655.61151,4069744.72037,3955516.43125
2031.25,1478.47016787,12.3584163035,1.60564086116,61483.3604683,61580.1901921,62984.9929082,63214.2686592,306674.930204,275327.126038,1588255.82015,1581307.70967,4001447.38842,4057298.08453
2109.375,1485.0156266,12.2139832026,1.23964951941,61897.1552364,61928.9239737,62758.219901,62708.4388432,265948.79726,232297.144169,1602375.33892,1597385.13937,3949708.82058,3837712.18718
2187.5,1490.3926402,12.1068306008,1.04502684469,62082.5853139,62161.0820611,62651.6346354,63038.3660969,243762.519607,208420.66415,1613116.49692,1607880.01426,3899221.95941,3943256.42519
2265.625,1494.58825498,12.0354162981,0.722648833599,62318.9048508,62310.6581299,62474.7428703,62612.6229268,200917.717202,163907.39298,1620772.31329,1617922.19816,3865375.10718,3760527.8056
2343.75,1497.59236334,11.9958955579,0.523605471128,62496.9741599,62557.9776847,62412.6659007,62884.059066,175635.103095,137656.936593,1625226.129,1621672.04467,3833275.27565,3871322.55794
2421.875,1499.3977281,11.9799331131,0.226095106227,62555.2949911,62513.7906116,62303.6148161,62542.4907435,132023.829115,93067.7343751,1626700.14105,1625870.78672,3817905.01243,3724920.72594
2500.0,1500.0,11.9718088218,0.0183224792278,62713.4273819,62751.1082422,62317.9239722,62788.8584936,105157.706231,65948.5456999,1625015.53518,1623081.65559,3804381.06815,3841609.43662
2578.125,1499.3977281,11.9788838618,-0.268955119405,62569.4992794,62492.250874,62304.4243277,62556.7935114,62226.607214,22750.089699,1620258.82005,1621345.28576,3807630.40062,3731121.13129
2656.25,1497.59236334,11.9903242392,-0.488955924365,62702.3660766,62719.4743118,62412.6145255,62808.7145365,35296.3809582,-3730.68468758,1612206.91043,1611853.8696,3812325.47483,3853381.58205
2734.375,1494.58825498,12.0333534945,-0.771723700171,62353.3867038,62247.3170529,62483.583667,62676.8818204,-5720.55426449,-44314.0141462,1600924.80809,1603811.85406,3833772.3161,3778563.84037
2812.5,1490.3926402,12.0938150248,-1.00300974146,62473.4282725,62486.3707317,62657.0073734,62919.6019841,-31498.1449221,-68963.1875534,1586217.39758,1587362.86872,3856220.78938,3906004.62371
2890.625,1485.0156266,12.2062523431,-1.29830538221,61955.5067561,61829.8230761,62777.2111372,62840.3723599,-69618.73461,-105980.736658,1568230.65052,1572743.65322,3895423.66354,3866715.71902
2968.75,1478.47016787,12.3439422815,-1.55176310868,62046.8338406,62052.2302052,62990.779638,63040.6149484,-93135.5320038,-127710.511549,1546731.15315,1549284.40359,3935515.82444,3999589.188
3046.875,1470.77203259,12.5333122306,-1.8703639718,61391.532303,61251.5016064,63150.8141322,63004.2591113,-127247.476384,-160118.370686,1521915.52587,1527896.08917,3992138.52515,3995499.8674
3125.0,1461.93976626,12.750182216,-2.15797110092,61424.0362945,61409.213686,63396.6193403,63151.2905979,-147296.899278,-177775.321298,1493436.17088,1497384.83733,4049795.54845,4134487.45158
3203.125,1451.99464656,13.0124677731,-2.49991871295,60658.3338961,60513.6693603,63595.4808903,63164.6022037,-176155.859564,-204417.775769,1461542.59946,1468905.69277,4123297.59649,4164626.49249
3281.25,1440.96063217,13.3003470136,-2.8203575015,60609.2796525,60571.8717605,63869.4441802,63264.2577435,-191547.917772,-216900.809711,1425780.6378,1431205.59079,4198219.78722,4310781.47888
3359.375,1428.864305,13.6248064485,-3.17970257553,59774.6875715,59636.4039382,64106.7838014,63326.8954106,-213931.426857,-236644.226259,1386456.77319,1395206.76704,4287851.28106,4373191.49383
3437.5,1415.73480615,13.9706091171,-3.52303245477,61340.6468599,61209.7806446,64405.1409721,65038.2484488,-223560.722862,-242959.140856,1343056.26509,1350107.59708,4517805.11526,4528830.06776
3515.625,1401.60376574,14.3428293207,-3.89024656038,60499.345686,60333.2027372,64676.7340232,65161.8866408,-238354.824434,-254788.970818,1295932.4137,1306145.40286,4625922.49587,4622522.22731
3593.75,1386.50522668,14.7305628239,-4.24256340501,60294.9842641,60170.6733818,64993.3246024,65222.5100361,-241230.776139,-254071.518955,1244569.81013,1253427.16121,4736916.86434,4784503.62395
3671.875,1370.47556268,15.1344669907,-4.60656067695,59478.6727765,59324.6056564,65289.4043172,65363.2191039,-247490.619278,-257160.446546,1189355.52754,1201132.3711,4859750.30839,4903647.9677
3750.0,1353.55339059,15.5465909661,-4.95349052796,59210.492739,59101.8430886,65614.1819151,65424.6234095,-242769.867066,-248705.494598,1129838.55343,1140631.67236,4985983.21451,5072570.20966
3828.125,1335.77947742,15.9656344774,-5.30253894161,58457.9525411,58322.3796972,65921.5325843,65568.2258642,-239768.07595,-242453.508982,1066439.06026,1079802.89293,5122410.57765,5213667.01326
3906.25,1317.19664208,16.3850907618,-5.63125146879,58144.5405883,58055.0535354,66241.6039795,65629.6503062,-161142.474863,-145780.605577,998843.257367,1020830.71623,5262597.19926,5390311.72123
3984.375,1297.84965225,16.8032210899,-5.95424646332,57480.3266882,57366.6031344,66544.9260622,65762.3981609,-146845.351286,-128055.284305,927737.775663,951314.967648,5411391.3379,5550198.45022
4062.5,1277.78511651,17.2148045142,-6.25377140515,58970.9660977,58839.1771589,66848.1284561,67656.4389659,-123847.710661,-101425.286541,852927.904926,876545.897269,5728320.54179,5735867.65311
4140.625,1257.0513721,17.6180400136,-6.54145427507,58408.3961777,58267.1419895,67135.4655764,67777.8638626,-100261.879214,-74688.9460218,775085.503887,800331.47689,5892843.2063,5913433.32095
4218.75,1235.69836841,18.0089959635,-6.80306612223,58068.527648,57955.7410759,67411.1219682,67828.3721703,-69042.6766165,-40296.9711707,694574.791379,720550.738277,6061291.58522,6110250.50581
4296.875,1213.77754672,18.386335821,-7.04823442753,57603.646695,57491.4056493,67667.9032387,67918.9007199,-36444.5439163,-4982.60202108,612561.58875,640117.779052,6235663.01851,6300522.95781
4375.0,1191.34171618,18.7470385147,-7.26591125037,57286.3096913,57191.5584828,67905.6429016,67948.4453786,2673.68378486,36712.962492,530416.49232,559063.45023,6413645.56277,6506672.27026
4453.125,1168.4449267,19.0904170805,-7.46367143646,56920.7147779,56830.8226727,68122.8513301,67999.1385845,43578.1635645,79749.3159301,450900.717456,480452.532077,6596256.87533,6706675.79757
4531.25,1145.14233863,19.4145288412,-7.63366351825,56644.6296348,56565.375153,68316.6675695,68005.2358621,89820.9908048,127850.81493,378484.131769,408053.894948,6781985.50298,6920787.91895
4609.375,1121.49008995,19.7187592502,-7.78167314077,56379.6604048,56304.2289996,68488.5897116,68013.6004246,137855.416484,177303.619414,321325.223287,348238.477477,6971129.8525,7127780.86271
4687.5,1097.54516101,20.002653832,-7.90213961718,56158.0031914,56087.9434205,68635.1590975,67990.129047,189954.618088,230437.159063,291566.920486,312211.891639,7162760.69607,7348227.0939
4765.625,1073.36523723,20.26516155,-7.99999169649,55994.980812,55928.3451959,68758.9778648,67960.8902763,243450.090494,284539.492297,300348.72241,309377.425297,7356652.26518,7559620.65828
4843.75,1049.00857016,20.5075758864,-8.07069706015,57328.2906404,57281.9633592,68857.1934698,69618.3425593,299633.637243,340860.1768,346660.160109,343282.748606,7758888.1971,7782088.49783
4921.875,1024.53383716,20.7278112371,-8.11951242713,57245.7615886,57204.8854078,68932.6268442,69537.9047803,356440.793747,397398.535943,418716.398929,404406.689257,7961035.42884,7992912.97351
5000.0,1000.0,20.9293479151,-8.14106269515,57138.868821,57113.5888737,68982.2476634,69465.6073328,414462.215053,454637.568162,505368.562771,483199.143296,8164150.2711,8216114.87642
5078.125,975.466162836,21.1086890433,-8.14303032529,57160.6098287,57136.2019629,69009.6030831,69349.9136015,472010.312655,511020.448851,599425.096296,571382.728445,8367333.97697,8427594.60751
5156.25,950.991429835,21.2711694766,-8.11680011211,57117.6028058,57104.6122012,69011.911888,69239.6617793,529231.011931,566571.396206,696867.438055,664517.532725,8570658.77744,8650410.94272
5234.375,926.634762772,21.4125514062,-8.07429112672,57243.5111218,57231.2992592,68993.2569739,69095.4939471,661655.567051,708741.3006,795017.048198,817835.495029,8772915.90924,8860256.2686
5312.5,902.454838992,21.5389287486,-8.00242472205,57259.7413703,57252.0235467,68950.4527714,68951.6165312,712800.317466,756945.979734,892181.074334,906703.287221,8974510.94169,9080965.57533
5390.625,878.509910048,21.6462533359,-7.91770948188,57488.5331777,57480.991682,68888.8813993,68775.8150626,760607.748713,801231.089949,986758.173513,994207.158382,9173874.05738,9286710.49126
5468.75,854.857661373,21.7404081172,-7.80285742625,57552.2931986,57546.6905178,68803.9529388,68611.1893136,805120.198631,842064.643432,1077603.57021,1079756.02079,9371839.03771,9503803.81476
5546.875,831.555073304,21.8181115006,-7.6779618319,57884.0254653,57872.2005087,68703.4112316,68399.51144,844831.698901,877671.791644,1163666.71522,1161422.51787,9566351.8936,9702847.93282
5625.0,808.658283817,21.8847375483,-7.52302763466,57975.9775796,57969.35014,68580.2238761,68223.3433074,880091.859347,908710.580099,1244100.35717,1238796.43904,9758845.85861,9914994.3961
5703.125,786.222453285,21.9373828032,-7.36004085894,58409.9771424,58388.7081548,68445.5947976,67980.1628734,909139.24808,933300.430795,1318119.18609,1310526.07951,9946583.60269,10104645.0778
5781.25,764.301631587,21.9814749472,-7.16765506815,58507.3094694,58493.3606063,68288.9902636,67794.4573222,932946.249219,952580.852726,1385106.66681,1376253.80909,10131837.5339,10310768.8457
5859.375,742.948627903,22.0139632316,-6.96879123715,59037.4336445,59005.9395872,68126.391514,67529.2474724,949270.482789,964359.021421,1444518.90206,1435119.03819,10310932.0362,10488129.7511
5937.5,722.21488349,22.0401836261,-6.74160914018,59118.9769303,59091.6786438,67942.4351134,67337.7100012,960086.995408,970611.216544,1495977.32396,1486795.88403,10487256.2188,10687557.5031
6015.625,702.150347754,22.0573273791,-6.50854464685,59731.7682608,59689.2368802,67759.3866385,67055.5762303,1012464.05633,1024028.07986,1539336.30299,1538424.35141,10655920.6209,10849471.2808
6093.75,682.803357918,22.0702355735,-6.24964507232,59781.331007,59740.0033501,67555.6199086,66870.3367209,1008258.18868,1014712.11724,1574400.41477,1570604.29555,10821710.4843,11041914.2275
6171.875,664.220522576,22.0790838858,-5.98566378187,61555.2418332,61679.0923887,67359.751057,68071.3649642,994755.44596,996612.645883,1601078.8606,1595374.78513,11253027.0517,11186506.1684
6250.0,646.446609407,22.0862691795,-5.69753725052,61528.8919442,61647.8895747,67144.2324681,67845.6516871,977214.44135,974438.314272,1619499.18805,1612281.82325,11410534.2542,11373843.6938
6328.125,629.524437323,22.0914367594,-5.40637966885,62249.0854846,62363.7418596,66944.4381385,67538.2636873,949733.384176,942993.349413,1629989.88305,1622121.61011,11557054.4955,11495603.3885
6406.25,613.494773319,22.0951337266,-5.09312319271,62175.9654822,62280.6461532,66727.4063596,67319.716132,919995.859113,909275.405825,1632918.66534,1624593.41959,11700761.0304,11676458.5529
6484.375,598.39623426,22.0974428715,-4.7794938808,62915.960171,63022.1065797,66532.4552397,67026.2383925,879799.524407,865896.876115,1628929.16375,1620924.22465,11831829.6628,11772161.6619
6562.5,584.265193849,22.0988181302,-4.44479179393,62808.4037109,62895.0817734,66323.386136,66826.6970248,839785.711591,822664.096565,1618598.23627,1610871.51769,11960371.8182,11946953.044
6640.625,571.135695,22.099319656,-4.11199989255,63529.1152742,63627.1679317,66141.6711668,66552.227316,831062.735589,811253.786012,1602867.46314,1616993.03245,12074723.9825,12013463.8898
6718.75,559.039367826,22.0994305313,-3.75909092256,63405.1178018,63472.1714143,65949.4136213,66379.3759346,780732.523259,758086.842921,1582566.91168,1596621.89057,12186844.479,12182740.4816
6796.875,548.005353438,22.0987910738,-3.4103469262,64066.1510434,64157.2051402,65788.5199296,66135.2379092,718742.248394,693965.168969,1558617.17683,1572824.11115,12283406.3292,12217247.7983
6875.0,538.060233744,22.0985230449,-3.0421686889,63945.9176745,63992.3992781,65621.038056,65987.734894,662914.702058,636154.745229,1531998.7731,1546541.02402,12377970.2876,12381443.3368
6953.125,529.227967408,22.0974257697,-2.68116614302,64508.9316243,64594.3479009,65487.4281432,65789.5313242,594642.826562,566520.23382,1503740.16342,1518808.02067,12455862.86,12381697.9588
7031.25,521.529832134,22.0970230306,-2.30093742535,64411.4744786,64438.5358249,65351.5046611,65664.5679821,535718.699728,506347.173647,1475046.36414,1490468.4088,12531882.1225,12540988.2432
7109.375,514.984373403,22.0960167388,-1.93097188724,64845.0421453,64923.9378586,65250.4568027,65522.6151169,463378.615079,433265.813025,1446718.10123,1462889.16009,12590412.6164,12505373.4341
7187.5,509.607359798,22.0956080494,-1.54189066893,64782.2652052,64793.9181557,65151.3500171,65421.9546428,403345.305263,372516.706838,1420130.31282,1436233.0907,12647079.2666,12659704.9671
7265.625,505.411745018,22.0949095963,-1.16573905947,65067.8437897,65138.5721549,65086.9909689,65341.61172,328710.740033,297656.490676,1395678.27125,1412693.41467,12685723.2738,12587173.9135
7343.75,502.407636664,22.0947980784,-0.770765450091,65041.2875474,65040.3528898,65028.208916,65265.5067085,269031.914431,237568.672665,1374787.71268,1390855.17035,12722442.8799,12736364.3438
7421.875,500.602271897,22.0945289182,-0.391332715776,65172.1088128,65236.0046019,65003.4687763,65253.1673579,193306.82457,162075.701965,1357298.99235,1374497.17642,12740829.6432,12626346.161
7500.0,500.0,22.094988452,0.00658013892665,65179.1439553,65166.5708315,64986.6264225,65200.1237925,134972.5181,103483.370786,1344548.95438,1359511.27052,12757241.6024,12770207.1256
7578.125,500.602271897,22.0951997561,0.386134321015,65152.8118695,65211.2525982,65003.2876969,65256.9934805,58859.0817414,28026.6969641,1335708.59213,1352238.21673,12755151.2869,12622459.6217
7656.25,502.407636664,22.0962095477,0.784055925097,65192.264784,65171.0922884,65027.9384209,65230.8190776,2564.96455971,-28417.8131024,1331932.6586,1344675.54208,12751130.5996,12760981.058
7734.375,505.411745018,22.0970040634,1.16057605866,65009.2154226,65062.4477857,65086.5560583,65351.6511196,-73500.4534318,-103406.066847,1331683.89997,1346792.7864,12728509.7974,12575421.0575
7812.5,509.607359798,22.0983236639,1.55540088419,65080.6713609,65052.9574849,65150.4204924,65354.4429901,-127084.627558,-156988.891923,1335916.25764,1345672.98265,12704143.0331,12708878.7337
7890.625,514.984373403,22.0996055305,1.92594386836,64744.5625866,64797.0913941,65249.8443671,65537.3604214,-202610.407469,-231006.851035,1342473.51367,1355824.22699,12661142.7027,12485594.2663
7968.75,521.529832134,22.1010926743,2.31446474981,64850.0011938,64814.3066537,65349.4077677,65565.857968,-252606.672007,-280765.593079,1352143.82729,1358801.98818,12616683.6661,12614413.7357
8046.875,529.227967408,22.1024222461,2.67607940064,64366.4511995,64424.3944149,65486.3986264,65805.9213832,-326741.236248,-352956.513291,1362360.03252,1374240.29036,12553701.559,12353887.2734
8125.0,538.060233744,22.1039040983,3.05535908027,64507.5514573,64465.5603966,65617.3445043,65864.7597345,-371925.582013,-397595.960038,1373803.3482,1378026.56889,12489532.7307,12478382.1377
8203.125,548.005353438,22.1050017275,3.40491452868,63891.5755295,63955.7164888,65786.5458798,66142.3550779,-443276.821556,-466589.31717,1383745.27648,1395119.48356,12407233.7287,12181739.8461
8281.25,559.039367826,22.1061258968,3.77177395217,64058.5670603,64018.2647715,65943.9400384,66247.9787463,-482080.719378,-504523.76484,1392826.90229,1396005.39055,12323857.167,12301888.7663
8359.375,571.135695,22.1065699252,4.1058243178,63343.6271502,63409.4812111,66138.1082042,66532.150836,-548733.954768,-568463.585888,1398375.8754,1410813.86455,12223153.8743,11971074.1992
8437.5,584.265193849,22.1067138745,4.45711167087,63510.1938441,63483.7894525,66316.3704878,66706.7461266,-545170.951682,-560461.877419,1401120.21865,1387895.52027,12121217.8276,12086412.5249
8515.625,598.39623426,22.1058690052,4.77232463242,62749.9891229,62812.4563416,66526.9328917,66965.9881749,-602435.502361,-614453.392002,1398584.2953,1396621.73602,12003218.9979,11724176.9276
8593.75,613.494773319,22.104125805,5.10497572062,62873.47655,62867.3856021,66719.6546467,67219.1746278,-620586.827664,-630632.130418,1391515.14562,1379831.63086,11883564.4096,11833866.8125
8671.875,629.524437323,22.1007963665,5.39822422037,62134.4117257,62199.0397428,66936.6884347,67440.9730975,-668876.289946,-675392.699243,1377704.65312,1378856.00196,11749511.6785,11443692.3121
8750.0,646.446609407,22.0963821248,5.70902096201,62173.3888741,62184.0650527,67137.5120494,67762.3777891,-675640.361872,-680079.49192,1358084.82138,1350091.75663,11613211.0823,11546543.6459
8828.125,664.220522576,22.0895181874,5.97582093735,61511.3986727,61585.0534742,67349.5821132,67943.6138396,-712962.403348,-713751.69109,1330716.30937,1336999.57268,11464430.3699,11132553.0134
8906.25,682.803357918,22.0807513376,6.261298379,60482.2826105,60335.3163474,67551.7304917,66920.101395,-707162.897012,-705993.13969,1296812.52441,1294751.23618,11036144.8843,11227290.5188
8984.375,702.150347754,22.0684832659,6.49606335983,59870.4381109,59752.2409719,67747.737569,67027.1558255,-732190.172041,-727441.207567,1254626.78678,1268175.29471,10877849.9584,10793137.8697
9062.5,722.21488349,22.048909382,6.75622719279,59727.6538664,59583.1908542,67939.6563324,67407.5290121,-671547.966158,-657521.036851,1205855.87471,1208649.43789,10716700.522,10882528.8539
9140.625,742.948627903,22.0243074982,6.95259662992,59236.9361448,59162.1174715,68115.3170836,67498.6942644,-682394.744832,-664283.37284,1148935.71375,1163956.98274,10546752.5627,10427802.5284
9218.75,764.301631587,21.9895581829,7.18543277702,59017.7914033,58881.9296644,68286.8531657,67884.6615225,-648987.03532,-629008.721553,1085771.88754,1090826.35654,10373951.9618,10512792.1785
9296.875,786.222453285,21.9478927559,7.34027734352,58640.0193869,58605.5043788,68436.4276701,67942.9323428,-647337.266138,-623824.333844,1014824.84714,1033305.02339,10193826.2288,10040116.4601
9375.0,808.658283817,21.893061545,7.54406918652,58384.8442109,58272.5403232,68578.6156236,68341.2269226,-601995.119977,-577076.138793,938487.259122,947180.716751,10011218.1359,10121743.4835
9453.125,831.555073304,21.8294365242,7.65445225133,58116.2662426,58115.7838459,68697.0497022,68351.217566,-589068.754505,-561368.502114,855306.454068,878657.886421,9822525.94452,9633485.59937
9531.25,854.857661373,21.7499987453,7.82736389522,57855.3294559,57773.8347347,68802.8467959,68760.0618487,-533483.373562,-504946.575122,768003.217382,781544.443182,9631974.63426,9713269.17944
9609.375,878.509910048,21.6585782329,7.88962225417,57699.8211856,57730.4286627,68883.691595,68712.4977194,-511288.992508,-480812.998273,675178.646913,704701.148731,9436511.04723,9211551.81463
9687.5,902.454838992,21.5500294094,8.03169205459,57449.483382,57401.1863847,68950.0945541,69132.4782758,-447622.777883,-417007.923818,579984.500345,599547.363808,9239855.75872,9291225.50374
9765.625,926.634762772,21.4268425522,8.0412043045,57428.5900182,57486.1769801,68986.3704441,69014.8286444,-418559.659416,-386911.547324,480898.5094,518088.942425,9039564.53199,8778314.67539
9843.75,950.991429835,21.283940289,8.15112036395,57177.5174472,57161.9864737,69002.2954106,69447.1926003,-278549.941787,-233638.133776,382531.469583,370845.255144,8838605.34777,8859337.88914
9921.875,975.466162836,21.1249754484,8.10381444537,57315.3210415,57390.301059,69006.0210989,69230.0564201,-243160.124111,-197085.517376,283335.099687,281250.909499,8635574.1839,8338091.76131
10000.0,1000.0,20.9419329637,8.18010832323,56994.5903904,56992.8442894,68975.8747538,69738.3502945,-169283.829878,-124853.535664,193133.148223,170107.446616,8431817.87275,8420669.97565
