<?xml version="1.0" encoding="utf-8" standalone="no"?>
<!DOCTYPE svg PUBLIC "-//W3C//DTD SVG 1.1//EN"
  "http://www.w3.org/Graphics/SVG/1.1/DTD/svg11.dtd">
<!-- Created with matplotlib (https://matplotlib.org/) -->
<svg height="345.6pt" version="1.1" viewBox="0 0 460.8 345.6" width="460.8pt" xmlns="http://www.w3.org/2000/svg" xmlns:xlink="http://www.w3.org/1999/xlink">
 <metadata>
  <rdf:RDF xmlns:cc="http://creativecommons.org/ns#" xmlns:dc="http://purl.org/dc/elements/1.1/" xmlns:rdf="http://www.w3.org/1999/02/22-rdf-syntax-ns#">
   <cc:Work>
    <dc:type rdf:resource="http://purl.org/dc/dcmitype/StillImage"/>
    <dc:date>2021-02-21T01:46:38.970186</dc:date>
    <dc:format>image/svg+xml</dc:format>
    <dc:creator>
     <cc:Agent>
      <dc:title>Matplotlib v3.3.0, https://matplotlib.org/</dc:title>
     </cc:Agent>
    </dc:creator>
   </cc:Work>
  </rdf:RDF>
 </metadata>
 <defs>
  <style type="text/css">*{stroke-linecap:butt;stroke-linejoin:round;}</style>
 </defs>
 <g id="figure_1">
  <g id="patch_1">
   <path d="M 0 345.6 
L 460.8 345.6 
L 460.8 0 
L 0 0 
z
" style="fill:#ffffff;"/>
  </g>
  <g id="axes_1">
   <g id="patch_2">
    <path d="M 57.6 307.584 
L 414.72 307.584 
L 414.72 41.472 
L 57.6 41.472 
z
" style="fill:#ffffff;"/>
   </g>
   <g id="matplotlib.axis_1">
    <g id="xtick_1">
     <g id="line2d_1">
      <defs>
       <path d="M 0 0 
L 0 3.5 
" id="m4e7f961e91" style="stroke:#000000;stroke-width:0.8;"/>
      </defs>
      <g>
       <use style="stroke:#000000;stroke-width:0.8;" x="73.832727" xlink:href="#m4e7f961e91" y="307.584"/>
      </g>
     </g>
     <g id="text_1">
      <!-- 0.0 -->
      <g transform="translate(65.881165 322.182437)scale(0.1 -0.1)">
       <defs>
        <path d="M 31.78125 66.40625 
Q 24.171875 66.40625 20.328125 58.90625 
Q 16.5 51.421875 16.5 36.375 
Q 16.5 21.390625 20.328125 13.890625 
Q 24.171875 6.390625 31.78125 6.390625 
Q 39.453125 6.390625 43.28125 13.890625 
Q 47.125 21.390625 47.125 36.375 
Q 47.125 51.421875 43.28125 58.90625 
Q 39.453125 66.40625 31.78125 66.40625 
z
M 31.78125 74.21875 
Q 44.046875 74.21875 50.515625 64.515625 
Q 56.984375 54.828125 56.984375 36.375 
Q 56.984375 17.96875 50.515625 8.265625 
Q 44.046875 -1.421875 31.78125 -1.421875 
Q 19.53125 -1.421875 13.0625 8.265625 
Q 6.59375 17.96875 6.59375 36.375 
Q 6.59375 54.828125 13.0625 64.515625 
Q 19.53125 74.21875 31.78125 74.21875 
z
" id="DejaVuSans-48"/>
        <path d="M 10.6875 12.40625 
L 21 12.40625 
L 21 0 
L 10.6875 0 
z
" id="DejaVuSans-46"/>
       </defs>
       <use xlink:href="#DejaVuSans-48"/>
       <use x="63.623047" xlink:href="#DejaVuSans-46"/>
       <use x="95.410156" xlink:href="#DejaVuSans-48"/>
      </g>
     </g>
    </g>
    <g id="xtick_2">
     <g id="line2d_2">
      <g>
       <use style="stroke:#000000;stroke-width:0.8;" x="138.763636" xlink:href="#m4e7f961e91" y="307.584"/>
      </g>
     </g>
     <g id="text_2">
      <!-- 0.2 -->
      <g transform="translate(130.812074 322.182437)scale(0.1 -0.1)">
       <defs>
        <path d="M 19.1875 8.296875 
L 53.609375 8.296875 
L 53.609375 0 
L 7.328125 0 
L 7.328125 8.296875 
Q 12.9375 14.109375 22.625 23.890625 
Q 32.328125 33.6875 34.8125 36.53125 
Q 39.546875 41.84375 41.421875 45.53125 
Q 43.3125 49.21875 43.3125 52.78125 
Q 43.3125 58.59375 39.234375 62.25 
Q 35.15625 65.921875 28.609375 65.921875 
Q 23.96875 65.921875 18.8125 64.3125 
Q 13.671875 62.703125 7.8125 59.421875 
L 7.8125 69.390625 
Q 13.765625 71.78125 18.9375 73 
Q 24.125 74.21875 28.421875 74.21875 
Q 39.75 74.21875 46.484375 68.546875 
Q 53.21875 62.890625 53.21875 53.421875 
Q 53.21875 48.921875 51.53125 44.890625 
Q 49.859375 40.875 45.40625 35.40625 
Q 44.1875 33.984375 37.640625 27.21875 
Q 31.109375 20.453125 19.1875 8.296875 
z
" id="DejaVuSans-50"/>
       </defs>
       <use xlink:href="#DejaVuSans-48"/>
       <use x="63.623047" xlink:href="#DejaVuSans-46"/>
       <use x="95.410156" xlink:href="#DejaVuSans-50"/>
      </g>
     </g>
    </g>
    <g id="xtick_3">
     <g id="line2d_3">
      <g>
       <use style="stroke:#000000;stroke-width:0.8;" x="203.694545" xlink:href="#m4e7f961e91" y="307.584"/>
      </g>
     </g>
     <g id="text_3">
      <!-- 0.4 -->
      <g transform="translate(195.742983 322.182437)scale(0.1 -0.1)">
       <defs>
        <path d="M 37.796875 64.3125 
L 12.890625 25.390625 
L 37.796875 25.390625 
z
M 35.203125 72.90625 
L 47.609375 72.90625 
L 47.609375 25.390625 
L 58.015625 25.390625 
L 58.015625 17.1875 
L 47.609375 17.1875 
L 47.609375 0 
L 37.796875 0 
L 37.796875 17.1875 
L 4.890625 17.1875 
L 4.890625 26.703125 
z
" id="DejaVuSans-52"/>
       </defs>
       <use xlink:href="#DejaVuSans-48"/>
       <use x="63.623047" xlink:href="#DejaVuSans-46"/>
       <use x="95.410156" xlink:href="#DejaVuSans-52"/>
      </g>
     </g>
    </g>
    <g id="xtick_4">
     <g id="line2d_4">
      <g>
       <use style="stroke:#000000;stroke-width:0.8;" x="268.625455" xlink:href="#m4e7f961e91" y="307.584"/>
      </g>
     </g>
     <g id="text_4">
      <!-- 0.6 -->
      <g transform="translate(260.673892 322.182437)scale(0.1 -0.1)">
       <defs>
        <path d="M 33.015625 40.375 
Q 26.375 40.375 22.484375 35.828125 
Q 18.609375 31.296875 18.609375 23.390625 
Q 18.609375 15.53125 22.484375 10.953125 
Q 26.375 6.390625 33.015625 6.390625 
Q 39.65625 6.390625 43.53125 10.953125 
Q 47.40625 15.53125 47.40625 23.390625 
Q 47.40625 31.296875 43.53125 35.828125 
Q 39.65625 40.375 33.015625 40.375 
z
M 52.59375 71.296875 
L 52.59375 62.3125 
Q 48.875 64.0625 45.09375 64.984375 
Q 41.3125 65.921875 37.59375 65.921875 
Q 27.828125 65.921875 22.671875 59.328125 
Q 17.53125 52.734375 16.796875 39.40625 
Q 19.671875 43.65625 24.015625 45.921875 
Q 28.375 48.1875 33.59375 48.1875 
Q 44.578125 48.1875 50.953125 41.515625 
Q 57.328125 34.859375 57.328125 23.390625 
Q 57.328125 12.15625 50.6875 5.359375 
Q 44.046875 -1.421875 33.015625 -1.421875 
Q 20.359375 -1.421875 13.671875 8.265625 
Q 6.984375 17.96875 6.984375 36.375 
Q 6.984375 53.65625 15.1875 63.9375 
Q 23.390625 74.21875 37.203125 74.21875 
Q 40.921875 74.21875 44.703125 73.484375 
Q 48.484375 72.75 52.59375 71.296875 
z
" id="DejaVuSans-54"/>
       </defs>
       <use xlink:href="#DejaVuSans-48"/>
       <use x="63.623047" xlink:href="#DejaVuSans-46"/>
       <use x="95.410156" xlink:href="#DejaVuSans-54"/>
      </g>
     </g>
    </g>
    <g id="xtick_5">
     <g id="line2d_5">
      <g>
       <use style="stroke:#000000;stroke-width:0.8;" x="333.556364" xlink:href="#m4e7f961e91" y="307.584"/>
      </g>
     </g>
     <g id="text_5">
      <!-- 0.8 -->
      <g transform="translate(325.604801 322.182437)scale(0.1 -0.1)">
       <defs>
        <path d="M 31.78125 34.625 
Q 24.75 34.625 20.71875 30.859375 
Q 16.703125 27.09375 16.703125 20.515625 
Q 16.703125 13.921875 20.71875 10.15625 
Q 24.75 6.390625 31.78125 6.390625 
Q 38.8125 6.390625 42.859375 10.171875 
Q 46.921875 13.96875 46.921875 20.515625 
Q 46.921875 27.09375 42.890625 30.859375 
Q 38.875 34.625 31.78125 34.625 
z
M 21.921875 38.8125 
Q 15.578125 40.375 12.03125 44.71875 
Q 8.5 49.078125 8.5 55.328125 
Q 8.5 64.0625 14.71875 69.140625 
Q 20.953125 74.21875 31.78125 74.21875 
Q 42.671875 74.21875 48.875 69.140625 
Q 55.078125 64.0625 55.078125 55.328125 
Q 55.078125 49.078125 51.53125 44.71875 
Q 48 40.375 41.703125 38.8125 
Q 48.828125 37.15625 52.796875 32.3125 
Q 56.78125 27.484375 56.78125 20.515625 
Q 56.78125 9.90625 50.3125 4.234375 
Q 43.84375 -1.421875 31.78125 -1.421875 
Q 19.734375 -1.421875 13.25 4.234375 
Q 6.78125 9.90625 6.78125 20.515625 
Q 6.78125 27.484375 10.78125 32.3125 
Q 14.796875 37.15625 21.921875 38.8125 
z
M 18.3125 54.390625 
Q 18.3125 48.734375 21.84375 45.5625 
Q 25.390625 42.390625 31.78125 42.390625 
Q 38.140625 42.390625 41.71875 45.5625 
Q 45.3125 48.734375 45.3125 54.390625 
Q 45.3125 60.0625 41.71875 63.234375 
Q 38.140625 66.40625 31.78125 66.40625 
Q 25.390625 66.40625 21.84375 63.234375 
Q 18.3125 60.0625 18.3125 54.390625 
z
" id="DejaVuSans-56"/>
       </defs>
       <use xlink:href="#DejaVuSans-48"/>
       <use x="63.623047" xlink:href="#DejaVuSans-46"/>
       <use x="95.410156" xlink:href="#DejaVuSans-56"/>
      </g>
     </g>
    </g>
    <g id="xtick_6">
     <g id="line2d_6">
      <g>
       <use style="stroke:#000000;stroke-width:0.8;" x="398.487273" xlink:href="#m4e7f961e91" y="307.584"/>
      </g>
     </g>
     <g id="text_6">
      <!-- 1.0 -->
      <g transform="translate(390.53571 322.182437)scale(0.1 -0.1)">
       <defs>
        <path d="M 12.40625 8.296875 
L 28.515625 8.296875 
L 28.515625 63.921875 
L 10.984375 60.40625 
L 10.984375 69.390625 
L 28.421875 72.90625 
L 38.28125 72.90625 
L 38.28125 8.296875 
L 54.390625 8.296875 
L 54.390625 0 
L 12.40625 0 
z
" id="DejaVuSans-49"/>
       </defs>
       <use xlink:href="#DejaVuSans-49"/>
       <use x="63.623047" xlink:href="#DejaVuSans-46"/>
       <use x="95.410156" xlink:href="#DejaVuSans-48"/>
      </g>
     </g>
    </g>
    <g id="text_7">
     <!-- x norm. -->
     <g transform="translate(216.956094 335.860562)scale(0.1 -0.1)">
      <defs>
       <path d="M 54.890625 54.6875 
L 35.109375 28.078125 
L 55.90625 0 
L 45.3125 0 
L 29.390625 21.484375 
L 13.484375 0 
L 2.875 0 
L 24.125 28.609375 
L 4.6875 54.6875 
L 15.28125 54.6875 
L 29.78125 35.203125 
L 44.28125 54.6875 
z
" id="DejaVuSans-120"/>
       <path id="DejaVuSans-32"/>
       <path d="M 54.890625 33.015625 
L 54.890625 0 
L 45.90625 0 
L 45.90625 32.71875 
Q 45.90625 40.484375 42.875 44.328125 
Q 39.84375 48.1875 33.796875 48.1875 
Q 26.515625 48.1875 22.3125 43.546875 
Q 18.109375 38.921875 18.109375 30.90625 
L 18.109375 0 
L 9.078125 0 
L 9.078125 54.6875 
L 18.109375 54.6875 
L 18.109375 46.1875 
Q 21.34375 51.125 25.703125 53.5625 
Q 30.078125 56 35.796875 56 
Q 45.21875 56 50.046875 50.171875 
Q 54.890625 44.34375 54.890625 33.015625 
z
" id="DejaVuSans-110"/>
       <path d="M 30.609375 48.390625 
Q 23.390625 48.390625 19.1875 42.75 
Q 14.984375 37.109375 14.984375 27.296875 
Q 14.984375 17.484375 19.15625 11.84375 
Q 23.34375 6.203125 30.609375 6.203125 
Q 37.796875 6.203125 41.984375 11.859375 
Q 46.1875 17.53125 46.1875 27.296875 
Q 46.1875 37.015625 41.984375 42.703125 
Q 37.796875 48.390625 30.609375 48.390625 
z
M 30.609375 56 
Q 42.328125 56 49.015625 48.375 
Q 55.71875 40.765625 55.71875 27.296875 
Q 55.71875 13.875 49.015625 6.21875 
Q 42.328125 -1.421875 30.609375 -1.421875 
Q 18.84375 -1.421875 12.171875 6.21875 
Q 5.515625 13.875 5.515625 27.296875 
Q 5.515625 40.765625 12.171875 48.375 
Q 18.84375 56 30.609375 56 
z
" id="DejaVuSans-111"/>
       <path d="M 41.109375 46.296875 
Q 39.59375 47.171875 37.8125 47.578125 
Q 36.03125 48 33.890625 48 
Q 26.265625 48 22.1875 43.046875 
Q 18.109375 38.09375 18.109375 28.8125 
L 18.109375 0 
L 9.078125 0 
L 9.078125 54.6875 
L 18.109375 54.6875 
L 18.109375 46.1875 
Q 20.953125 51.171875 25.484375 53.578125 
Q 30.03125 56 36.53125 56 
Q 37.453125 56 38.578125 55.875 
Q 39.703125 55.765625 41.0625 55.515625 
z
" id="DejaVuSans-114"/>
       <path d="M 52 44.1875 
Q 55.375 50.25 60.0625 53.125 
Q 64.75 56 71.09375 56 
Q 79.640625 56 84.28125 50.015625 
Q 88.921875 44.046875 88.921875 33.015625 
L 88.921875 0 
L 79.890625 0 
L 79.890625 32.71875 
Q 79.890625 40.578125 77.09375 44.375 
Q 74.3125 48.1875 68.609375 48.1875 
Q 61.625 48.1875 57.5625 43.546875 
Q 53.515625 38.921875 53.515625 30.90625 
L 53.515625 0 
L 44.484375 0 
L 44.484375 32.71875 
Q 44.484375 40.625 41.703125 44.40625 
Q 38.921875 48.1875 33.109375 48.1875 
Q 26.21875 48.1875 22.15625 43.53125 
Q 18.109375 38.875 18.109375 30.90625 
L 18.109375 0 
L 9.078125 0 
L 9.078125 54.6875 
L 18.109375 54.6875 
L 18.109375 46.1875 
Q 21.1875 51.21875 25.484375 53.609375 
Q 29.78125 56 35.6875 56 
Q 41.65625 56 45.828125 52.96875 
Q 50 49.953125 52 44.1875 
z
" id="DejaVuSans-109"/>
      </defs>
      <use xlink:href="#DejaVuSans-120"/>
      <use x="59.179688" xlink:href="#DejaVuSans-32"/>
      <use x="90.966797" xlink:href="#DejaVuSans-110"/>
      <use x="154.345703" xlink:href="#DejaVuSans-111"/>
      <use x="215.527344" xlink:href="#DejaVuSans-114"/>
      <use x="254.890625" xlink:href="#DejaVuSans-109"/>
      <use x="352.302734" xlink:href="#DejaVuSans-46"/>
     </g>
    </g>
   </g>
   <g id="matplotlib.axis_2">
    <g id="ytick_1">
     <g id="line2d_7">
      <defs>
       <path d="M 0 0 
L -3.5 0 
" id="m1a76272fb8" style="stroke:#000000;stroke-width:0.8;"/>
      </defs>
      <g>
       <use style="stroke:#000000;stroke-width:0.8;" x="57.6" xlink:href="#m1a76272fb8" y="278.840567"/>
      </g>
     </g>
     <g id="text_8">
      <!-- 55 -->
      <g transform="translate(37.875 282.639786)scale(0.1 -0.1)">
       <defs>
        <path d="M 10.796875 72.90625 
L 49.515625 72.90625 
L 49.515625 64.59375 
L 19.828125 64.59375 
L 19.828125 46.734375 
Q 21.96875 47.46875 24.109375 47.828125 
Q 26.265625 48.1875 28.421875 48.1875 
Q 40.625 48.1875 47.75 41.5 
Q 54.890625 34.8125 54.890625 23.390625 
Q 54.890625 11.625 47.5625 5.09375 
Q 40.234375 -1.421875 26.90625 -1.421875 
Q 22.3125 -1.421875 17.546875 -0.640625 
Q 12.796875 0.140625 7.71875 1.703125 
L 7.71875 11.625 
Q 12.109375 9.234375 16.796875 8.0625 
Q 21.484375 6.890625 26.703125 6.890625 
Q 35.15625 6.890625 40.078125 11.328125 
Q 45.015625 15.765625 45.015625 23.390625 
Q 45.015625 31 40.078125 35.4375 
Q 35.15625 39.890625 26.703125 39.890625 
Q 22.75 39.890625 18.8125 39.015625 
Q 14.890625 38.140625 10.796875 36.28125 
z
" id="DejaVuSans-53"/>
       </defs>
       <use xlink:href="#DejaVuSans-53"/>
       <use x="63.623047" xlink:href="#DejaVuSans-53"/>
      </g>
     </g>
    </g>
    <g id="ytick_2">
     <g id="line2d_8">
      <g>
       <use style="stroke:#000000;stroke-width:0.8;" x="57.6" xlink:href="#m1a76272fb8" y="245.901444"/>
      </g>
     </g>
     <g id="text_9">
      <!-- 60 -->
      <g transform="translate(37.875 249.700663)scale(0.1 -0.1)">
       <use xlink:href="#DejaVuSans-54"/>
       <use x="63.623047" xlink:href="#DejaVuSans-48"/>
      </g>
     </g>
    </g>
    <g id="ytick_3">
     <g id="line2d_9">
      <g>
       <use style="stroke:#000000;stroke-width:0.8;" x="57.6" xlink:href="#m1a76272fb8" y="212.962321"/>
      </g>
     </g>
     <g id="text_10">
      <!-- 65 -->
      <g transform="translate(37.875 216.76154)scale(0.1 -0.1)">
       <use xlink:href="#DejaVuSans-54"/>
       <use x="63.623047" xlink:href="#DejaVuSans-53"/>
      </g>
     </g>
    </g>
    <g id="ytick_4">
     <g id="line2d_10">
      <g>
       <use style="stroke:#000000;stroke-width:0.8;" x="57.6" xlink:href="#m1a76272fb8" y="180.023198"/>
      </g>
     </g>
     <g id="text_11">
      <!-- 70 -->
      <g transform="translate(37.875 183.822416)scale(0.1 -0.1)">
       <defs>
        <path d="M 8.203125 72.90625 
L 55.078125 72.90625 
L 55.078125 68.703125 
L 28.609375 0 
L 18.3125 0 
L 43.21875 64.59375 
L 8.203125 64.59375 
z
" id="DejaVuSans-55"/>
       </defs>
       <use xlink:href="#DejaVuSans-55"/>
       <use x="63.623047" xlink:href="#DejaVuSans-48"/>
      </g>
     </g>
    </g>
    <g id="ytick_5">
     <g id="line2d_11">
      <g>
       <use style="stroke:#000000;stroke-width:0.8;" x="57.6" xlink:href="#m1a76272fb8" y="147.084075"/>
      </g>
     </g>
     <g id="text_12">
      <!-- 75 -->
      <g transform="translate(37.875 150.883293)scale(0.1 -0.1)">
       <use xlink:href="#DejaVuSans-55"/>
       <use x="63.623047" xlink:href="#DejaVuSans-53"/>
      </g>
     </g>
    </g>
    <g id="ytick_6">
     <g id="line2d_12">
      <g>
       <use style="stroke:#000000;stroke-width:0.8;" x="57.6" xlink:href="#m1a76272fb8" y="114.144951"/>
      </g>
     </g>
     <g id="text_13">
      <!-- 80 -->
      <g transform="translate(37.875 117.94417)scale(0.1 -0.1)">
       <use xlink:href="#DejaVuSans-56"/>
       <use x="63.623047" xlink:href="#DejaVuSans-48"/>
      </g>
     </g>
    </g>
    <g id="ytick_7">
     <g id="line2d_13">
      <g>
       <use style="stroke:#000000;stroke-width:0.8;" x="57.6" xlink:href="#m1a76272fb8" y="81.205828"/>
      </g>
     </g>
     <g id="text_14">
      <!-- 85 -->
      <g transform="translate(37.875 85.005047)scale(0.1 -0.1)">
       <use xlink:href="#DejaVuSans-56"/>
       <use x="63.623047" xlink:href="#DejaVuSans-53"/>
      </g>
     </g>
    </g>
    <g id="ytick_8">
     <g id="line2d_14">
      <g>
       <use style="stroke:#000000;stroke-width:0.8;" x="57.6" xlink:href="#m1a76272fb8" y="48.266705"/>
      </g>
     </g>
     <g id="text_15">
      <!-- 90 -->
      <g transform="translate(37.875 52.065924)scale(0.1 -0.1)">
       <defs>
        <path d="M 10.984375 1.515625 
L 10.984375 10.5 
Q 14.703125 8.734375 18.5 7.8125 
Q 22.3125 6.890625 25.984375 6.890625 
Q 35.75 6.890625 40.890625 13.453125 
Q 46.046875 20.015625 46.78125 33.40625 
Q 43.953125 29.203125 39.59375 26.953125 
Q 35.25 24.703125 29.984375 24.703125 
Q 19.046875 24.703125 12.671875 31.3125 
Q 6.296875 37.9375 6.296875 49.421875 
Q 6.296875 60.640625 12.9375 67.421875 
Q 19.578125 74.21875 30.609375 74.21875 
Q 43.265625 74.21875 49.921875 64.515625 
Q 56.59375 54.828125 56.59375 36.375 
Q 56.59375 19.140625 48.40625 8.859375 
Q 40.234375 -1.421875 26.421875 -1.421875 
Q 22.703125 -1.421875 18.890625 -0.6875 
Q 15.09375 0.046875 10.984375 1.515625 
z
M 30.609375 32.421875 
Q 37.25 32.421875 41.125 36.953125 
Q 45.015625 41.5 45.015625 49.421875 
Q 45.015625 57.28125 41.125 61.84375 
Q 37.25 66.40625 30.609375 66.40625 
Q 23.96875 66.40625 20.09375 61.84375 
Q 16.21875 57.28125 16.21875 49.421875 
Q 16.21875 41.5 20.09375 36.953125 
Q 23.96875 32.421875 30.609375 32.421875 
z
" id="DejaVuSans-57"/>
       </defs>
       <use xlink:href="#DejaVuSans-57"/>
       <use x="63.623047" xlink:href="#DejaVuSans-48"/>
      </g>
     </g>
    </g>
    <g id="text_16">
     <!-- kPa -->
     <g transform="translate(31.795313 183.277219)rotate(-90)scale(0.1 -0.1)">
      <defs>
       <path d="M 9.078125 75.984375 
L 18.109375 75.984375 
L 18.109375 31.109375 
L 44.921875 54.6875 
L 56.390625 54.6875 
L 27.390625 29.109375 
L 57.625 0 
L 45.90625 0 
L 18.109375 26.703125 
L 18.109375 0 
L 9.078125 0 
z
" id="DejaVuSans-107"/>
       <path d="M 19.671875 64.796875 
L 19.671875 37.40625 
L 32.078125 37.40625 
Q 38.96875 37.40625 42.71875 40.96875 
Q 46.484375 44.53125 46.484375 51.125 
Q 46.484375 57.671875 42.71875 61.234375 
Q 38.96875 64.796875 32.078125 64.796875 
z
M 9.8125 72.90625 
L 32.078125 72.90625 
Q 44.34375 72.90625 50.609375 67.359375 
Q 56.890625 61.8125 56.890625 51.125 
Q 56.890625 40.328125 50.609375 34.8125 
Q 44.34375 29.296875 32.078125 29.296875 
L 19.671875 29.296875 
L 19.671875 0 
L 9.8125 0 
z
" id="DejaVuSans-80"/>
       <path d="M 34.28125 27.484375 
Q 23.390625 27.484375 19.1875 25 
Q 14.984375 22.515625 14.984375 16.5 
Q 14.984375 11.71875 18.140625 8.90625 
Q 21.296875 6.109375 26.703125 6.109375 
Q 34.1875 6.109375 38.703125 11.40625 
Q 43.21875 16.703125 43.21875 25.484375 
L 43.21875 27.484375 
z
M 52.203125 31.203125 
L 52.203125 0 
L 43.21875 0 
L 43.21875 8.296875 
Q 40.140625 3.328125 35.546875 0.953125 
Q 30.953125 -1.421875 24.3125 -1.421875 
Q 15.921875 -1.421875 10.953125 3.296875 
Q 6 8.015625 6 15.921875 
Q 6 25.140625 12.171875 29.828125 
Q 18.359375 34.515625 30.609375 34.515625 
L 43.21875 34.515625 
L 43.21875 35.40625 
Q 43.21875 41.609375 39.140625 45 
Q 35.0625 48.390625 27.6875 48.390625 
Q 23 48.390625 18.546875 47.265625 
Q 14.109375 46.140625 10.015625 43.890625 
L 10.015625 52.203125 
Q 14.9375 54.109375 19.578125 55.046875 
Q 24.21875 56 28.609375 56 
Q 40.484375 56 46.34375 49.84375 
Q 52.203125 43.703125 52.203125 31.203125 
z
" id="DejaVuSans-97"/>
      </defs>
      <use xlink:href="#DejaVuSans-107"/>
      <use x="57.910156" xlink:href="#DejaVuSans-80"/>
      <use x="113.712891" xlink:href="#DejaVuSans-97"/>
     </g>
    </g>
   </g>
   <g id="line2d_15">
    <path clip-path="url(#p4df1a97403)" d="M 77.791889 136.667406 
L 85.710214 153.212728 
L 93.628863 172.152065 
L 101.547187 192.897125 
L 109.465512 214.806912 
L 117.383836 236.756885 
L 125.302485 256.227859 
L 133.220809 270.871276 
L 141.139134 280.653536 
L 149.057458 286.556227 
L 156.976107 288.109636 
L 164.894431 284.343377 
L 172.812756 275.822026 
L 180.73108 263.459973 
L 188.649729 246.863266 
L 196.568054 226.103713 
L 204.486378 203.58587 
L 212.404702 182.10495 
L 220.323351 162.521983 
L 228.241676 144.728268 
L 236.16 129.094043 
L 244.078324 115.727347 
L 251.996649 103.971374 
L 259.915298 93.495415 
L 267.833622 84.514893 
L 275.751946 76.793303 
L 283.670271 69.825361 
L 291.58892 63.751387 
L 299.507244 58.960062 
L 307.425569 55.46588 
L 315.343893 53.587691 
L 323.262542 54.114717 
L 331.180866 57.042346 
L 339.099191 61.378452 
L 347.017515 66.616432 
L 354.936164 73.041537 
L 362.854488 80.605019 
L 370.772813 88.970897 
L 378.691137 98.452094 
L 386.609786 109.586177 
L 394.528111 122.321101 
" style="fill:none;stroke:#000000;stroke-linecap:square;"/>
   </g>
   <g id="line2d_16">
    <path clip-path="url(#p4df1a97403)" d="M 73.832727 126.524304 
L 82.157194 142.426838 
L 90.481694 161.003977 
L 98.806161 182.185987 
L 107.130596 205.339233 
L 115.455063 228.977744 
L 123.77953 250.685325 
L 132.103998 267.768041 
L 140.428465 278.862709 
L 148.752932 286.045783 
L 157.077399 289.530999 
L 165.401866 284.117428 
L 173.726334 276.700361 
L 182.050801 263.708769 
L 190.375268 245.029947 
L 198.699735 222.8517 
L 207.024202 199.802186 
L 215.34867 177.790301 
L 223.673137 157.806721 
L 231.997604 140.158229 
L 240.322396 124.758075 
L 248.646863 111.351859 
L 256.97133 99.659722 
L 265.295798 89.442322 
L 273.620265 80.507855 
L 281.944732 72.69563 
L 290.269199 65.896402 
L 298.593666 60.160443 
L 306.918134 55.84379 
L 315.242601 53.568 
L 323.567068 53.790754 
L 331.891535 56.353457 
L 340.216002 60.669932 
L 348.54047 66.249503 
L 356.864937 72.917798 
L 365.189404 80.725648 
L 373.513871 89.80842 
L 381.838338 100.328373 
L 390.162806 112.484246 
L 398.487273 126.524304 
" style="fill:none;stroke:#000000;stroke-linecap:square;"/>
   </g>
   <g id="line2d_17">
    <path clip-path="url(#p4df1a97403)" d="M 73.832727 127.751339 
L 76.538182 132.781532 
L 80.596364 140.857124 
L 84.654545 149.516932 
L 88.712727 158.774881 
L 92.770909 168.62437 
L 96.829091 179.031901 
L 102.24 193.651977 
L 110.356364 216.527164 
L 117.119999 235.352044 
L 121.178181 245.93267 
L 123.883637 252.485606 
L 126.589091 258.531272 
L 129.294544 263.994614 
L 132.000001 268.823378 
L 134.705455 272.994209 
L 137.410908 276.518069 
L 140.116365 279.448663 
L 142.821818 281.89853 
L 148.232728 286.158975 
L 152.29091 289.319141 
L 153.643635 290.085009 
L 154.996364 290.419196 
L 156.349092 290.209861 
L 157.701817 289.561692 
L 160.407274 287.70046 
L 168.523637 281.824522 
L 171.229091 279.375769 
L 173.934544 276.384883 
L 176.640001 272.770526 
L 179.345455 268.501345 
L 182.050908 263.583758 
L 184.756365 258.055605 
L 187.461818 251.980583 
L 190.167272 245.44137 
L 194.225453 234.968857 
L 199.636364 220.271684 
L 209.105456 194.39125 
L 214.516363 180.31988 
L 218.574544 170.323687 
L 222.632726 160.867576 
L 226.690908 151.972642 
L 230.74909 143.636481 
L 234.807272 135.840516 
L 238.865453 128.556035 
L 242.923635 121.74906 
L 246.981817 115.384121 
L 251.039999 109.426863 
L 255.098181 103.845665 
L 259.156363 98.612449 
L 263.214544 93.702609 
L 267.272726 89.094485 
L 271.330908 84.768603 
L 275.38909 80.707235 
L 279.447272 76.894262 
L 283.505453 73.316552 
L 287.563635 69.967579 
L 291.621817 66.850754 
L 295.679999 63.985492 
L 299.738181 61.410258 
L 303.796363 59.182032 
L 306.501819 57.925892 
L 309.207273 56.880991 
L 311.912726 56.06997 
L 314.618183 55.511645 
L 317.323636 55.218533 
L 320.02909 55.1951 
L 322.734547 55.437216 
L 325.44 55.932943 
L 328.145453 56.664304 
L 330.85091 57.609716 
L 333.556364 58.746504 
L 337.614545 60.763828 
L 341.672727 63.104746 
L 345.730909 65.728031 
L 349.789091 68.61162 
L 353.847273 71.750475 
L 357.905455 75.150715 
L 361.963636 78.825674 
L 366.021818 82.792605 
L 370.08 87.070244 
L 374.138182 91.678855 
L 378.196364 96.640508 
L 382.254545 101.979795 
L 386.312727 107.724365 
L 390.370909 113.905537 
L 394.429091 120.554654 
L 398.487273 127.751319 
L 398.487273 127.751319 
" style="fill:none;stroke:#000000;stroke-linecap:square;"/>
   </g>
   <g id="line2d_18">
    <path clip-path="url(#p4df1a97403)" d="M 73.832727 150.684011 
L 80.45833 164.786916 
L 87.083933 180.466446 
L 93.709536 197.518299 
L 100.335139 215.577766 
L 106.960743 234.047154 
L 113.586345 251.744416 
L 120.211947 267.413557 
L 126.837552 279.489152 
L 133.463154 287.051968 
L 140.088756 290.6601 
L 146.714361 291.871166 
L 153.339963 292.234603 
L 159.965565 292.466797 
L 166.59117 292.101746 
L 173.216772 290.16235 
L 179.842374 284.870541 
L 186.467979 275.120936 
L 193.093581 261.161613 
L 199.719183 244.53279 
L 206.344788 226.475339 
L 212.97039 208.421373 
L 219.595992 191.079214 
L 226.221597 174.963946 
L 232.847199 160.326083 
L 239.472801 147.19332 
L 246.098403 135.509609 
L 252.724008 125.202918 
L 259.34961 116.036573 
L 265.975212 107.973556 
L 272.600817 100.775554 
L 279.226419 94.44922 
L 285.852021 88.905085 
L 292.477626 84.205317 
L 299.103228 80.412193 
L 305.72883 77.617163 
L 312.354435 75.917162 
L 318.980037 75.355175 
L 325.605639 75.962882 
L 332.231244 77.698115 
L 338.856846 80.519199 
L 345.482448 84.329017 
L 352.108053 89.070255 
L 358.733655 94.701033 
L 365.359257 101.212287 
L 371.984862 108.716808 
L 378.610464 117.235366 
L 385.236066 127.022442 
L 391.861671 138.089606 
L 398.487273 150.681883 
" style="fill:none;stroke:#000000;stroke-linecap:square;"/>
   </g>
   <g id="line2d_19">
    <path clip-path="url(#p4df1a97403)" d="M 74.652545 127.978654 
L 77.931864 134.279392 
L 81.211171 140.9238 
L 84.490487 147.972976 
L 87.7698 155.405482 
L 91.049116 163.226973 
L 95.968099 175.653481 
L 100.88708 188.816728 
L 107.445738 207.164785 
L 115.644084 230.240297 
L 120.5631 243.309656 
L 123.842449 251.359397 
L 127.121804 258.701651 
L 130.401159 265.222673 
L 133.68052 270.863718 
L 135.320191 273.354878 
L 136.959882 275.636212 
L 138.599556 277.721051 
L 141.878921 281.368302 
L 145.158286 284.418715 
L 146.797979 285.72953 
L 148.437654 286.877432 
L 150.077347 287.833153 
L 151.717022 288.563545 
L 153.356719 289.039612 
L 154.996393 289.242065 
L 156.636087 289.1642 
L 158.275761 288.812565 
L 159.915455 288.206234 
L 161.555129 287.374195 
L 163.194823 286.34955 
L 164.834497 285.161987 
L 168.113865 282.359544 
L 169.753555 280.742588 
L 171.393227 278.964869 
L 173.032917 277.008482 
L 174.672588 274.857277 
L 176.312275 272.49763 
L 177.951946 269.921357 
L 181.231301 264.107254 
L 184.510656 257.439174 
L 187.790005 250.004293 
L 191.069347 241.935002 
L 195.988357 228.988403 
L 212.384989 184.532664 
L 217.303973 172.162668 
L 222.222934 160.563167 
L 225.502244 153.285078 
L 228.781553 146.373139 
L 232.060847 139.906087 
L 235.340166 133.628543 
L 238.619476 127.749471 
L 241.898782 122.18643 
L 246.817756 114.393189 
L 251.736714 107.199293 
L 256.655695 100.545491 
L 261.574666 94.377554 
L 266.493656 88.647678 
L 271.412646 83.312704 
L 276.33165 78.33953 
L 281.250659 73.7079 
L 286.169676 69.422948 
L 291.088708 65.51861 
L 294.368063 63.158536 
L 297.647422 61.020256 
L 300.926786 59.128946 
L 304.206148 57.508513 
L 307.485516 56.179866 
L 310.764884 55.159904 
L 314.044252 54.461072 
L 317.32362 54.091234 
L 320.602991 54.053684 
L 323.882359 54.347161 
L 327.161727 54.965824 
L 330.441092 55.899242 
L 333.720457 57.132517 
L 336.999819 58.646731 
L 340.27918 60.419966 
L 343.558535 62.429018 
L 346.837887 64.651695 
L 350.117235 67.069234 
L 355.036252 71.033293 
L 359.955262 75.387484 
L 364.874265 80.140646 
L 369.793255 85.320458 
L 374.712246 90.966707 
L 377.991568 95.012542 
L 381.270884 99.300774 
L 384.5502 103.84838 
L 387.829513 108.667976 
L 392.475183 116.021936 
L 395.754509 121.559903 
L 397.940736 125.54624 
L 397.940736 125.54624 
" style="fill:none;stroke:#000000;stroke-linecap:square;"/>
   </g>
   <g id="line2d_20">
    <path clip-path="url(#p4df1a97403)" d="M 73.832727 128.598639 
L 77.079273 135.034943 
L 80.325818 141.593123 
L 83.572364 148.76397 
L 86.818909 156.086337 
L 90.065455 164.004902 
L 93.312 172.088163 
L 96.558545 180.705038 
L 99.805091 189.466844 
L 103.051636 198.627214 
L 106.298182 207.869932 
L 109.544727 217.277346 
L 112.791273 226.632057 
L 116.037818 235.818778 
L 119.284364 244.751869 
L 122.530909 253.124994 
L 125.777455 261.004032 
L 129.024 267.954187 
L 132.270545 274.238972 
L 135.517091 279.390651 
L 138.763636 283.834138 
L 142.010182 287.289452 
L 145.256727 290.346203 
L 148.503273 292.721114 
L 151.749818 294.773221 
L 154.996364 295.488 
L 158.242909 295.04991 
L 161.489455 293.228376 
L 164.736 291.130154 
L 167.982545 288.317153 
L 171.229091 285.145115 
L 174.475636 280.945377 
L 177.722182 276.109914 
L 180.968727 270.085348 
L 184.215273 263.47776 
L 187.461818 255.868823 
L 190.708364 247.841558 
L 193.954909 239.162099 
L 197.201455 230.301475 
L 200.448 221.183926 
L 203.694545 212.079552 
L 206.941091 203.050939 
L 210.187636 194.147494 
L 213.434182 185.563558 
L 216.680727 177.160788 
L 219.927273 169.222459 
L 223.173818 161.462002 
L 226.420364 154.24504 
L 229.666909 147.179598 
L 232.913455 140.680709 
L 236.16 134.293813 
L 239.406545 128.460294 
L 242.653091 122.699242 
L 245.899636 117.455333 
L 249.146182 112.25754 
L 252.392727 107.527482 
L 255.639273 102.840244 
L 258.885818 98.561452 
L 262.132364 94.332069 
L 265.378909 90.448546 
L 268.625455 86.640784 
L 271.872 83.119591 
L 275.118545 79.703804 
L 278.365091 76.515297 
L 281.611636 73.481604 
L 284.858182 70.612606 
L 288.104727 67.951125 
L 291.351273 65.4214 
L 294.597818 63.155189 
L 297.844364 61.007558 
L 301.090909 59.192612 
L 304.337455 57.509423 
L 307.584 56.231385 
L 310.830545 55.121337 
L 314.077091 54.472436 
L 317.323636 54.027758 
L 320.570182 54.070579 
L 323.816727 54.320916 
L 327.063273 55.038989 
L 330.309818 55.948109 
L 333.556364 57.26238 
L 336.802909 58.734758 
L 340.049455 60.539822 
L 343.296 62.486525 
L 346.542545 64.700034 
L 349.789091 67.07165 
L 353.035636 69.650784 
L 356.282182 72.424258 
L 359.528727 75.362428 
L 362.775273 78.547641 
L 366.021818 81.858023 
L 369.268364 85.474739 
L 372.514909 89.186978 
L 375.761455 93.261547 
L 379.008 97.411877 
L 382.254545 101.993709 
L 385.501091 106.641419 
L 388.747636 111.779922 
L 391.994182 116.990892 
L 395.240727 122.74865 
L 398.487273 128.598639 
" style="fill:none;stroke:#000000;stroke-linecap:square;"/>
   </g>
   <g id="line2d_21">
    <path clip-path="url(#p4df1a97403)" d="M 77.791889 136.647643 
L 85.710214 153.283218 
L 93.628863 172.158653 
L 101.547187 192.820706 
L 109.465512 214.814158 
L 117.383836 236.843185 
L 125.302485 256.223248 
L 133.220809 270.798151 
L 141.139134 280.666053 
L 149.057458 286.613541 
L 156.976107 288.087238 
L 164.894431 284.304509 
L 172.812756 275.855624 
L 180.73108 263.477101 
L 188.649729 246.809246 
L 196.568054 226.091855 
L 204.486378 203.641867 
L 212.404702 182.104291 
L 220.323351 162.466645 
L 228.241676 144.742762 
L 236.16 129.144769 
L 244.078324 115.69836 
L 251.996649 103.926577 
L 259.915298 93.538236 
L 267.833622 84.551784 
L 275.751946 76.739942 
L 283.670271 69.796375 
L 291.58892 63.810018 
L 299.507244 58.979167 
L 307.425569 55.411201 
L 315.343893 53.589667 
L 323.262542 54.170713 
L 331.180866 57.019289 
L 339.099191 61.317844 
L 347.017515 66.651347 
L 354.936164 73.100169 
L 362.854488 80.562198 
L 370.772813 88.922806 
L 378.691137 98.505456 
L 386.609786 109.62241 
L 394.528111 122.259834 
" style="fill:none;stroke:#000000;stroke-linecap:square;"/>
   </g>
   <g id="line2d_22">
    <path clip-path="url(#p4df1a97403)" d="M 73.832727 103.28097 
L 77.112066 109.249144 
L 80.391405 116.713926 
L 83.670744 124.969281 
L 86.950083 133.545759 
L 90.229422 142.29966 
L 93.50876 151.568288 
L 96.788099 161.32568 
L 100.067438 171.520661 
L 103.346777 182.184979 
L 106.626115 193.187384 
L 109.905454 203.731428 
L 113.184793 214.536501 
L 116.464132 225.000371 
L 119.743471 235.109672 
L 123.022809 244.485859 
L 126.302148 253.038641 
L 129.581487 260.824105 
L 132.860826 267.268744 
L 136.140165 272.6891 
L 139.419503 277.118615 
L 142.698842 280.710851 
L 145.978181 283.606522 
L 149.25752 286.367974 
L 152.536859 289.119161 
L 155.816198 289.652044 
L 159.095536 287.776918 
L 162.374875 285.169523 
L 165.654214 282.242922 
L 168.933553 279.07398 
L 172.212892 275.146998 
L 175.49223 270.291198 
L 178.771569 264.235656 
L 182.050908 257.136821 
L 185.330247 249.193867 
L 188.609586 240.052338 
L 191.888924 230.274538 
L 195.168263 219.993084 
L 198.447602 209.39587 
L 201.726941 198.548398 
L 205.00628 187.732013 
L 208.285618 177.033742 
L 211.564957 166.594477 
L 214.844296 156.534533 
L 218.123635 146.89926 
L 221.402974 137.89429 
L 224.682313 129.293707 
L 227.961651 121.220769 
L 231.24099 113.838058 
L 234.520329 106.95805 
L 237.799671 100.616801 
L 241.07901 94.896171 
L 244.358349 89.73187 
L 247.637687 85.034988 
L 250.917026 80.869592 
L 254.196365 77.098056 
L 257.475704 73.823057 
L 260.755043 70.996551 
L 264.034382 68.642695 
L 267.31372 66.575409 
L 270.593059 64.750206 
L 273.872398 63.180894 
L 277.151737 61.820173 
L 280.431076 60.661941 
L 283.710414 59.635169 
L 286.989753 58.534759 
L 290.269092 57.702598 
L 293.548431 56.93505 
L 296.82777 56.335934 
L 300.107108 55.9377 
L 303.386447 55.31544 
L 306.665786 54.798441 
L 309.945125 54.320139 
L 313.224464 53.986202 
L 316.503802 53.882839 
L 319.783141 54.036427 
L 323.06248 54.291798 
L 326.341819 54.646835 
L 329.621158 55.141502 
L 332.900497 55.613994 
L 336.179835 56.235667 
L 339.459174 56.930617 
L 342.738513 57.474343 
L 346.017852 58.195558 
L 349.297191 59.075085 
L 352.576529 60.055051 
L 355.855868 61.40709 
L 359.135207 62.641628 
L 362.414546 64.064684 
L 365.693885 65.68604 
L 368.973223 67.643684 
L 372.252562 69.949608 
L 375.531901 72.575231 
L 378.81124 75.229373 
L 382.090579 78.520255 
L 385.369917 82.394186 
L 388.649256 87.114297 
L 391.928595 92.520773 
L 395.207934 98.253254 
L 398.487273 103.700746 
" style="fill:none;stroke:#000000;stroke-linecap:square;"/>
   </g>
   <g id="line2d_23">
    <path clip-path="url(#p4df1a97403)" d="M 73.832727 129.276526 
L 74.644364 130.455088 
L 78.702545 138.246508 
L 82.760727 146.611069 
L 86.818909 155.569193 
L 90.877091 165.122197 
L 94.935273 175.250319 
L 99.805091 188.088671 
L 105.486545 203.790751 
L 117.661091 237.762845 
L 121.719273 248.201254 
L 124.965818 255.862894 
L 127.400727 261.10812 
L 129.835636 265.867823 
L 132.270545 270.109723 
L 134.705455 273.819327 
L 137.140364 277.007176 
L 139.575273 279.710819 
L 142.010182 282.003382 
L 145.256727 284.636535 
L 152.561455 290.183484 
L 153.373091 290.628162 
L 154.184727 290.935154 
L 154.996364 291.068887 
L 155.808 291.014867 
L 156.619636 290.785611 
L 158.242909 289.943687 
L 161.489455 287.691968 
L 167.982545 283.061386 
L 170.417455 280.97107 
L 172.852364 278.475602 
L 175.287273 275.50054 
L 177.722182 272.007675 
L 180.157091 267.985809 
L 182.592 263.448774 
L 185.026909 258.428851 
L 187.461818 252.973474 
L 190.708364 245.129351 
L 194.766545 234.634946 
L 201.259636 217.00461 
L 209.376 194.996006 
L 214.245818 182.391521 
L 218.304 172.406355 
L 222.362182 162.953485 
L 226.420364 154.056628 
L 230.478545 145.713807 
L 234.536727 137.907894 
L 238.594909 130.611878 
L 242.653091 123.790844 
L 246.711273 117.411195 
L 250.769455 111.438014 
L 254.827636 105.839681 
L 258.885818 100.588526 
L 262.944 95.660833 
L 267.002182 91.034863 
L 271.872 85.855515 
L 276.741818 81.053649 
L 281.611636 76.603574 
L 286.481455 72.48816 
L 291.351273 68.706749 
L 295.409455 65.828528 
L 299.467636 63.23556 
L 302.714182 61.402827 
L 305.960727 59.823726 
L 309.207273 58.5391 
L 311.642182 57.791382 
L 314.077091 57.245251 
L 316.512 56.909931 
L 318.946909 56.79135 
L 321.381818 56.888191 
L 323.816727 57.195184 
L 326.251636 57.701787 
L 328.686545 58.394168 
L 331.933091 59.578659 
L 335.179636 61.027321 
L 338.426182 62.70524 
L 342.484364 65.083445 
L 346.542545 67.738997 
L 350.600727 70.654768 
L 354.658909 73.826806 
L 358.717091 77.263674 
L 362.775273 80.979866 
L 366.833455 84.991192 
L 370.891636 89.318075 
L 374.949818 93.980279 
L 379.008 99.00086 
L 383.066182 104.403535 
L 387.124364 110.217949 
L 391.182545 116.475724 
L 395.240727 123.209139 
L 398.487273 128.650024 
L 398.487273 128.650024 
" style="fill:none;stroke:#000000;stroke-linecap:square;"/>
   </g>
   <g id="line2d_24">
    <path clip-path="url(#p4df1a97403)" d="M 73.832727 144.602482 
L 75.100909 146.169768 
L 76.369091 149.100096 
L 77.637273 150.37036 
L 78.905455 153.528657 
L 80.173636 154.797844 
L 81.441818 158.181022 
L 82.71 159.501706 
L 83.978182 163.054663 
L 85.246364 164.455941 
L 86.514545 168.173786 
L 87.782727 169.635264 
L 89.050909 173.556261 
L 90.319091 175.020033 
L 91.587273 179.200342 
L 92.855455 180.595216 
L 94.123636 185.080658 
L 95.391818 186.34793 
L 96.66 191.173814 
L 97.928182 192.268491 
L 99.196364 197.439889 
L 100.464545 198.348918 
L 101.732727 203.805879 
L 103.000909 204.56702 
L 104.269091 210.178488 
L 105.537273 210.883774 
L 106.805455 216.473248 
L 108.073636 217.250872 
L 109.341818 222.636881 
L 110.61 223.610853 
L 111.878182 228.644426 
L 113.146364 229.890859 
L 114.414545 234.475807 
L 115.682727 236.001301 
L 116.950909 240.094569 
L 118.219091 241.842791 
L 119.487273 245.443336 
L 120.755455 247.31469 
L 122.023636 250.45757 
L 123.291818 252.340149 
L 124.56 255.05119 
L 125.828182 256.860096 
L 127.096364 259.168592 
L 128.364545 260.83745 
L 129.632727 262.77481 
L 133.437273 267.143552 
L 134.705455 268.434366 
L 137.241818 270.548928 
L 139.778182 272.293692 
L 142.314545 273.811046 
L 148.655455 277.673326 
L 151.191818 278.884621 
L 153.728182 279.426328 
L 156.264545 279.427193 
L 158.800909 278.87596 
L 161.337273 277.644602 
L 165.141818 275.306292 
L 168.946364 273.094703 
L 171.482727 271.446671 
L 174.019091 269.487697 
L 176.555455 267.112239 
L 179.091818 264.253371 
L 181.628182 260.870841 
L 184.164545 256.949959 
L 186.700909 252.503106 
L 189.237273 247.566737 
L 191.773636 242.196958 
L 195.578182 233.482785 
L 200.650909 221.049665 
L 210.796364 195.791791 
L 215.869091 183.921553 
L 219.673636 175.535336 
L 223.478182 167.605815 
L 227.282727 160.12248 
L 231.087273 153.078337 
L 234.891818 146.471701 
L 238.696364 140.31571 
L 242.500909 134.596194 
L 246.305455 129.28806 
L 250.11 124.353386 
L 253.914545 119.748921 
L 257.719091 115.430672 
L 262.791818 110.061236 
L 267.864545 105.08937 
L 272.937273 100.487561 
L 278.01 96.235917 
L 283.082727 92.31436 
L 288.155455 88.712525 
L 293.228182 85.453263 
L 297.032727 83.293743 
L 299.569091 82.010291 
L 302.105455 80.873101 
L 304.641818 79.892967 
L 307.178182 79.077727 
L 309.714545 78.43321 
L 312.250909 77.963739 
L 313.519091 77.757664 
L 317.323636 77.560942 
L 318.591818 77.53317 
L 322.396364 77.881351 
L 324.932727 78.3129 
L 327.469091 78.924064 
L 330.005455 79.712445 
L 335.078182 81.800191 
L 336.346364 82.535787 
L 337.614545 83.079989 
L 338.882727 83.931474 
L 340.150909 84.495741 
L 341.419091 85.465524 
L 342.687273 86.025754 
L 343.955455 87.122865 
L 345.223636 87.64798 
L 346.491818 88.892516 
L 347.76 89.344061 
L 349.028182 90.769275 
L 350.296364 91.100623 
L 351.564545 92.751632 
L 352.832727 92.91007 
L 354.100909 94.838231 
L 355.369091 94.772126 
L 356.637273 97.023773 
L 357.905455 96.694557 
L 359.173636 99.294861 
L 360.441818 98.692026 
L 361.71 101.627877 
L 362.978182 100.784085 
L 364.246364 103.991504 
L 365.514545 102.994508 
L 366.782727 106.355781 
L 368.050909 105.349503 
L 369.319091 108.708514 
L 370.587273 107.869158 
L 371.855455 111.07126 
L 373.123636 110.554109 
L 374.391818 113.499541 
L 375.66 113.382694 
L 376.928182 116.054057 
L 378.196364 116.334205 
L 379.464545 118.760878 
L 380.732727 119.408951 
L 382.000909 121.617168 
L 383.269091 122.60677 
L 384.537273 124.629791 
L 385.805455 125.917822 
L 387.073636 127.805802 
L 388.341818 129.348506 
L 394.682727 138.322632 
L 395.950909 140.38301 
L 397.219091 142.129713 
L 398.487273 144.602482 
L 398.487273 144.602482 
" style="fill:none;stroke:#ff0000;stroke-linecap:square;stroke-width:3;"/>
   </g>
   <g id="patch_3">
    <path d="M 57.6 307.584 
L 57.6 41.472 
" style="fill:none;stroke:#000000;stroke-linecap:square;stroke-linejoin:miter;stroke-width:0.8;"/>
   </g>
   <g id="patch_4">
    <path d="M 414.72 307.584 
L 414.72 41.472 
" style="fill:none;stroke:#000000;stroke-linecap:square;stroke-linejoin:miter;stroke-width:0.8;"/>
   </g>
   <g id="patch_5">
    <path d="M 57.6 307.584 
L 414.72 307.584 
" style="fill:none;stroke:#000000;stroke-linecap:square;stroke-linejoin:miter;stroke-width:0.8;"/>
   </g>
   <g id="patch_6">
    <path d="M 57.6 41.472 
L 414.72 41.472 
" style="fill:none;stroke:#000000;stroke-linecap:square;stroke-linejoin:miter;stroke-width:0.8;"/>
   </g>
   <g id="text_17">
    <!-- 20 km -->
    <g transform="translate(217.299375 35.472)scale(0.12 -0.12)">
     <use xlink:href="#DejaVuSans-50"/>
     <use x="63.623047" xlink:href="#DejaVuSans-48"/>
     <use x="127.246094" xlink:href="#DejaVuSans-32"/>
     <use x="159.033203" xlink:href="#DejaVuSans-107"/>
     <use x="216.943359" xlink:href="#DejaVuSans-109"/>
    </g>
   </g>
   <g id="legend_1">
    <g id="patch_7">
     <path d="M 64.6 64.150125 
L 118.220312 64.150125 
Q 120.220312 64.150125 120.220312 62.150125 
L 120.220312 48.472 
Q 120.220312 46.472 118.220312 46.472 
L 64.6 46.472 
Q 62.6 46.472 62.6 48.472 
L 62.6 62.150125 
Q 62.6 64.150125 64.6 64.150125 
z
" style="fill:#ffffff;opacity:0.8;stroke:#cccccc;stroke-linejoin:miter;"/>
    </g>
    <g id="line2d_25">
     <path d="M 66.6 54.570438 
L 86.6 54.570438 
" style="fill:none;stroke:#ff0000;stroke-linecap:square;stroke-width:3;"/>
    </g>
    <g id="line2d_26"/>
    <g id="text_18">
     <!-- tsa1 -->
     <g transform="translate(94.6 58.070438)scale(0.1 -0.1)">
      <defs>
       <path d="M 18.3125 70.21875 
L 18.3125 54.6875 
L 36.8125 54.6875 
L 36.8125 47.703125 
L 18.3125 47.703125 
L 18.3125 18.015625 
Q 18.3125 11.328125 20.140625 9.421875 
Q 21.96875 7.515625 27.59375 7.515625 
L 36.8125 7.515625 
L 36.8125 0 
L 27.59375 0 
Q 17.1875 0 13.234375 3.875 
Q 9.28125 7.765625 9.28125 18.015625 
L 9.28125 47.703125 
L 2.6875 47.703125 
L 2.6875 54.6875 
L 9.28125 54.6875 
L 9.28125 70.21875 
z
" id="DejaVuSans-116"/>
       <path d="M 44.28125 53.078125 
L 44.28125 44.578125 
Q 40.484375 46.53125 36.375 47.5 
Q 32.28125 48.484375 27.875 48.484375 
Q 21.1875 48.484375 17.84375 46.4375 
Q 14.5 44.390625 14.5 40.28125 
Q 14.5 37.15625 16.890625 35.375 
Q 19.28125 33.59375 26.515625 31.984375 
L 29.59375 31.296875 
Q 39.15625 29.25 43.1875 25.515625 
Q 47.21875 21.78125 47.21875 15.09375 
Q 47.21875 7.46875 41.1875 3.015625 
Q 35.15625 -1.421875 24.609375 -1.421875 
Q 20.21875 -1.421875 15.453125 -0.5625 
Q 10.6875 0.296875 5.421875 2 
L 5.421875 11.28125 
Q 10.40625 8.6875 15.234375 7.390625 
Q 20.0625 6.109375 24.8125 6.109375 
Q 31.15625 6.109375 34.5625 8.28125 
Q 37.984375 10.453125 37.984375 14.40625 
Q 37.984375 18.0625 35.515625 20.015625 
Q 33.0625 21.96875 24.703125 23.78125 
L 21.578125 24.515625 
Q 13.234375 26.265625 9.515625 29.90625 
Q 5.8125 33.546875 5.8125 39.890625 
Q 5.8125 47.609375 11.28125 51.796875 
Q 16.75 56 26.8125 56 
Q 31.78125 56 36.171875 55.265625 
Q 40.578125 54.546875 44.28125 53.078125 
z
" id="DejaVuSans-115"/>
      </defs>
      <use xlink:href="#DejaVuSans-116"/>
      <use x="39.208984" xlink:href="#DejaVuSans-115"/>
      <use x="91.308594" xlink:href="#DejaVuSans-97"/>
      <use x="152.587891" xlink:href="#DejaVuSans-49"/>
     </g>
    </g>
   </g>
  </g>
 </g>
 <defs>
  <clipPath id="p4df1a97403">
   <rect height="266.112" width="357.12" x="57.6" y="41.472"/>
  </clipPath>
 </defs>
</svg>
