length,160000.0,x_res:,256,y_res:,128,time in secs:,42.36796307563782
length,80000.0,x_res:,256,y_res:,128,time in secs:,46.591479539871216
length,40000.0,x_res:,256,y_res:,128,time in secs:,48.10892629623413
length,20000.0,x_res:,256,y_res:,128,time in secs:,48.245906829833984
length,10000.0,x_res:,256,y_res:,128,time in secs:,50.64718508720398
length,5000.0,x_res:,256,y_res:,128,time in secs:,52.14342737197876
