<?xml version="1.0" encoding="utf-8" standalone="no"?>
<!DOCTYPE svg PUBLIC "-//W3C//DTD SVG 1.1//EN"
  "http://www.w3.org/Graphics/SVG/1.1/DTD/svg11.dtd">
<svg xmlns:xlink="http://www.w3.org/1999/xlink" width="720pt" height="720pt" viewBox="0 0 720 720" xmlns="http://www.w3.org/2000/svg" version="1.1">
 <metadata>
  <rdf:RDF xmlns:dc="http://purl.org/dc/elements/1.1/" xmlns:cc="http://creativecommons.org/ns#" xmlns:rdf="http://www.w3.org/1999/02/22-rdf-syntax-ns#">
   <cc:Work>
    <dc:type rdf:resource="http://purl.org/dc/dcmitype/StillImage"/>
    <dc:date>2022-02-19T14:12:53.351569</dc:date>
    <dc:format>image/svg+xml</dc:format>
    <dc:creator>
     <cc:Agent>
      <dc:title>Matplotlib v3.5.0, https://matplotlib.org/</dc:title>
     </cc:Agent>
    </dc:creator>
   </cc:Work>
  </rdf:RDF>
 </metadata>
 <defs>
  <style type="text/css">*{stroke-linejoin: round; stroke-linecap: butt}</style>
 </defs>
 <g id="figure_1">
  <g id="patch_1">
   <path d="M 0 720 
L 720 720 
L 720 0 
L 0 0 
z
" style="fill: #ffffff"/>
  </g>
  <g id="axes_1">
   <g id="patch_2">
    <path d="M 42.765865 319.46994 
L 716.99976 319.46994 
L 716.99976 4.970745 
L 42.765865 4.970745 
z
" style="fill: #ffffff"/>
   </g>
   <g id="matplotlib.axis_1">
    <g id="xtick_1">
     <g id="line2d_1">
      <defs>
       <path id="mc628963bf4" d="M 0 0 
L 0 3.5 
" style="stroke: #000000; stroke-width: 0.8"/>
      </defs>
      <g>
       <use xlink:href="#mc628963bf4" x="73.41286" y="319.46994" style="stroke: #000000; stroke-width: 0.8"/>
      </g>
     </g>
     <g id="text_1">
      <!-- 0.0 -->
      <g transform="translate(65.461298 334.068378)scale(0.1 -0.1)">
       <defs>
        <path id="DejaVuSans-30" d="M 2034 4250 
Q 1547 4250 1301 3770 
Q 1056 3291 1056 2328 
Q 1056 1369 1301 889 
Q 1547 409 2034 409 
Q 2525 409 2770 889 
Q 3016 1369 3016 2328 
Q 3016 3291 2770 3770 
Q 2525 4250 2034 4250 
z
M 2034 4750 
Q 2819 4750 3233 4129 
Q 3647 3509 3647 2328 
Q 3647 1150 3233 529 
Q 2819 -91 2034 -91 
Q 1250 -91 836 529 
Q 422 1150 422 2328 
Q 422 3509 836 4129 
Q 1250 4750 2034 4750 
z
" transform="scale(0.015625)"/>
        <path id="DejaVuSans-2e" d="M 684 794 
L 1344 794 
L 1344 0 
L 684 0 
L 684 794 
z
" transform="scale(0.015625)"/>
       </defs>
       <use xlink:href="#DejaVuSans-30"/>
       <use xlink:href="#DejaVuSans-2e" x="63.623047"/>
       <use xlink:href="#DejaVuSans-30" x="95.410156"/>
      </g>
     </g>
    </g>
    <g id="xtick_2">
     <g id="line2d_2">
      <g>
       <use xlink:href="#mc628963bf4" x="196.000841" y="319.46994" style="stroke: #000000; stroke-width: 0.8"/>
      </g>
     </g>
     <g id="text_2">
      <!-- 0.2 -->
      <g transform="translate(188.049279 334.068378)scale(0.1 -0.1)">
       <defs>
        <path id="DejaVuSans-32" d="M 1228 531 
L 3431 531 
L 3431 0 
L 469 0 
L 469 531 
Q 828 903 1448 1529 
Q 2069 2156 2228 2338 
Q 2531 2678 2651 2914 
Q 2772 3150 2772 3378 
Q 2772 3750 2511 3984 
Q 2250 4219 1831 4219 
Q 1534 4219 1204 4116 
Q 875 4013 500 3803 
L 500 4441 
Q 881 4594 1212 4672 
Q 1544 4750 1819 4750 
Q 2544 4750 2975 4387 
Q 3406 4025 3406 3419 
Q 3406 3131 3298 2873 
Q 3191 2616 2906 2266 
Q 2828 2175 2409 1742 
Q 1991 1309 1228 531 
z
" transform="scale(0.015625)"/>
       </defs>
       <use xlink:href="#DejaVuSans-30"/>
       <use xlink:href="#DejaVuSans-2e" x="63.623047"/>
       <use xlink:href="#DejaVuSans-32" x="95.410156"/>
      </g>
     </g>
    </g>
    <g id="xtick_3">
     <g id="line2d_3">
      <g>
       <use xlink:href="#mc628963bf4" x="318.588822" y="319.46994" style="stroke: #000000; stroke-width: 0.8"/>
      </g>
     </g>
     <g id="text_3">
      <!-- 0.4 -->
      <g transform="translate(310.63726 334.068378)scale(0.1 -0.1)">
       <defs>
        <path id="DejaVuSans-34" d="M 2419 4116 
L 825 1625 
L 2419 1625 
L 2419 4116 
z
M 2253 4666 
L 3047 4666 
L 3047 1625 
L 3713 1625 
L 3713 1100 
L 3047 1100 
L 3047 0 
L 2419 0 
L 2419 1100 
L 313 1100 
L 313 1709 
L 2253 4666 
z
" transform="scale(0.015625)"/>
       </defs>
       <use xlink:href="#DejaVuSans-30"/>
       <use xlink:href="#DejaVuSans-2e" x="63.623047"/>
       <use xlink:href="#DejaVuSans-34" x="95.410156"/>
      </g>
     </g>
    </g>
    <g id="xtick_4">
     <g id="line2d_4">
      <g>
       <use xlink:href="#mc628963bf4" x="441.176803" y="319.46994" style="stroke: #000000; stroke-width: 0.8"/>
      </g>
     </g>
     <g id="text_4">
      <!-- 0.6 -->
      <g transform="translate(433.22524 334.068378)scale(0.1 -0.1)">
       <defs>
        <path id="DejaVuSans-36" d="M 2113 2584 
Q 1688 2584 1439 2293 
Q 1191 2003 1191 1497 
Q 1191 994 1439 701 
Q 1688 409 2113 409 
Q 2538 409 2786 701 
Q 3034 994 3034 1497 
Q 3034 2003 2786 2293 
Q 2538 2584 2113 2584 
z
M 3366 4563 
L 3366 3988 
Q 3128 4100 2886 4159 
Q 2644 4219 2406 4219 
Q 1781 4219 1451 3797 
Q 1122 3375 1075 2522 
Q 1259 2794 1537 2939 
Q 1816 3084 2150 3084 
Q 2853 3084 3261 2657 
Q 3669 2231 3669 1497 
Q 3669 778 3244 343 
Q 2819 -91 2113 -91 
Q 1303 -91 875 529 
Q 447 1150 447 2328 
Q 447 3434 972 4092 
Q 1497 4750 2381 4750 
Q 2619 4750 2861 4703 
Q 3103 4656 3366 4563 
z
" transform="scale(0.015625)"/>
       </defs>
       <use xlink:href="#DejaVuSans-30"/>
       <use xlink:href="#DejaVuSans-2e" x="63.623047"/>
       <use xlink:href="#DejaVuSans-36" x="95.410156"/>
      </g>
     </g>
    </g>
    <g id="xtick_5">
     <g id="line2d_5">
      <g>
       <use xlink:href="#mc628963bf4" x="563.764784" y="319.46994" style="stroke: #000000; stroke-width: 0.8"/>
      </g>
     </g>
     <g id="text_5">
      <!-- 0.8 -->
      <g transform="translate(555.813221 334.068378)scale(0.1 -0.1)">
       <defs>
        <path id="DejaVuSans-38" d="M 2034 2216 
Q 1584 2216 1326 1975 
Q 1069 1734 1069 1313 
Q 1069 891 1326 650 
Q 1584 409 2034 409 
Q 2484 409 2743 651 
Q 3003 894 3003 1313 
Q 3003 1734 2745 1975 
Q 2488 2216 2034 2216 
z
M 1403 2484 
Q 997 2584 770 2862 
Q 544 3141 544 3541 
Q 544 4100 942 4425 
Q 1341 4750 2034 4750 
Q 2731 4750 3128 4425 
Q 3525 4100 3525 3541 
Q 3525 3141 3298 2862 
Q 3072 2584 2669 2484 
Q 3125 2378 3379 2068 
Q 3634 1759 3634 1313 
Q 3634 634 3220 271 
Q 2806 -91 2034 -91 
Q 1263 -91 848 271 
Q 434 634 434 1313 
Q 434 1759 690 2068 
Q 947 2378 1403 2484 
z
M 1172 3481 
Q 1172 3119 1398 2916 
Q 1625 2713 2034 2713 
Q 2441 2713 2670 2916 
Q 2900 3119 2900 3481 
Q 2900 3844 2670 4047 
Q 2441 4250 2034 4250 
Q 1625 4250 1398 4047 
Q 1172 3844 1172 3481 
z
" transform="scale(0.015625)"/>
       </defs>
       <use xlink:href="#DejaVuSans-30"/>
       <use xlink:href="#DejaVuSans-2e" x="63.623047"/>
       <use xlink:href="#DejaVuSans-38" x="95.410156"/>
      </g>
     </g>
    </g>
    <g id="xtick_6">
     <g id="line2d_6">
      <g>
       <use xlink:href="#mc628963bf4" x="686.352765" y="319.46994" style="stroke: #000000; stroke-width: 0.8"/>
      </g>
     </g>
     <g id="text_6">
      <!-- 1.0 -->
      <g transform="translate(678.401202 334.068378)scale(0.1 -0.1)">
       <defs>
        <path id="DejaVuSans-31" d="M 794 531 
L 1825 531 
L 1825 4091 
L 703 3866 
L 703 4441 
L 1819 4666 
L 2450 4666 
L 2450 531 
L 3481 531 
L 3481 0 
L 794 0 
L 794 531 
z
" transform="scale(0.015625)"/>
       </defs>
       <use xlink:href="#DejaVuSans-31"/>
       <use xlink:href="#DejaVuSans-2e" x="63.623047"/>
       <use xlink:href="#DejaVuSans-30" x="95.410156"/>
      </g>
     </g>
    </g>
    <g id="text_7">
     <!-- x norm. -->
     <g transform="translate(360.678906 347.746503)scale(0.1 -0.1)">
      <defs>
       <path id="DejaVuSans-78" d="M 3513 3500 
L 2247 1797 
L 3578 0 
L 2900 0 
L 1881 1375 
L 863 0 
L 184 0 
L 1544 1831 
L 300 3500 
L 978 3500 
L 1906 2253 
L 2834 3500 
L 3513 3500 
z
" transform="scale(0.015625)"/>
       <path id="DejaVuSans-20" transform="scale(0.015625)"/>
       <path id="DejaVuSans-6e" d="M 3513 2113 
L 3513 0 
L 2938 0 
L 2938 2094 
Q 2938 2591 2744 2837 
Q 2550 3084 2163 3084 
Q 1697 3084 1428 2787 
Q 1159 2491 1159 1978 
L 1159 0 
L 581 0 
L 581 3500 
L 1159 3500 
L 1159 2956 
Q 1366 3272 1645 3428 
Q 1925 3584 2291 3584 
Q 2894 3584 3203 3211 
Q 3513 2838 3513 2113 
z
" transform="scale(0.015625)"/>
       <path id="DejaVuSans-6f" d="M 1959 3097 
Q 1497 3097 1228 2736 
Q 959 2375 959 1747 
Q 959 1119 1226 758 
Q 1494 397 1959 397 
Q 2419 397 2687 759 
Q 2956 1122 2956 1747 
Q 2956 2369 2687 2733 
Q 2419 3097 1959 3097 
z
M 1959 3584 
Q 2709 3584 3137 3096 
Q 3566 2609 3566 1747 
Q 3566 888 3137 398 
Q 2709 -91 1959 -91 
Q 1206 -91 779 398 
Q 353 888 353 1747 
Q 353 2609 779 3096 
Q 1206 3584 1959 3584 
z
" transform="scale(0.015625)"/>
       <path id="DejaVuSans-72" d="M 2631 2963 
Q 2534 3019 2420 3045 
Q 2306 3072 2169 3072 
Q 1681 3072 1420 2755 
Q 1159 2438 1159 1844 
L 1159 0 
L 581 0 
L 581 3500 
L 1159 3500 
L 1159 2956 
Q 1341 3275 1631 3429 
Q 1922 3584 2338 3584 
Q 2397 3584 2469 3576 
Q 2541 3569 2628 3553 
L 2631 2963 
z
" transform="scale(0.015625)"/>
       <path id="DejaVuSans-6d" d="M 3328 2828 
Q 3544 3216 3844 3400 
Q 4144 3584 4550 3584 
Q 5097 3584 5394 3201 
Q 5691 2819 5691 2113 
L 5691 0 
L 5113 0 
L 5113 2094 
Q 5113 2597 4934 2840 
Q 4756 3084 4391 3084 
Q 3944 3084 3684 2787 
Q 3425 2491 3425 1978 
L 3425 0 
L 2847 0 
L 2847 2094 
Q 2847 2600 2669 2842 
Q 2491 3084 2119 3084 
Q 1678 3084 1418 2786 
Q 1159 2488 1159 1978 
L 1159 0 
L 581 0 
L 581 3500 
L 1159 3500 
L 1159 2956 
Q 1356 3278 1631 3431 
Q 1906 3584 2284 3584 
Q 2666 3584 2933 3390 
Q 3200 3197 3328 2828 
z
" transform="scale(0.015625)"/>
      </defs>
      <use xlink:href="#DejaVuSans-78"/>
      <use xlink:href="#DejaVuSans-20" x="59.179688"/>
      <use xlink:href="#DejaVuSans-6e" x="90.966797"/>
      <use xlink:href="#DejaVuSans-6f" x="154.345703"/>
      <use xlink:href="#DejaVuSans-72" x="215.527344"/>
      <use xlink:href="#DejaVuSans-6d" x="254.890625"/>
      <use xlink:href="#DejaVuSans-2e" x="352.302734"/>
     </g>
    </g>
   </g>
   <g id="matplotlib.axis_2">
    <g id="ytick_1">
     <g id="line2d_7">
      <defs>
       <path id="mc5c1e8b7fa" d="M 0 0 
L -3.5 0 
" style="stroke: #000000; stroke-width: 0.8"/>
      </defs>
      <g>
       <use xlink:href="#mc5c1e8b7fa" x="42.765865" y="305.171187" style="stroke: #000000; stroke-width: 0.8"/>
      </g>
     </g>
     <g id="text_8">
      <!-- 0 -->
      <g transform="translate(29.403365 308.970406)scale(0.1 -0.1)">
       <use xlink:href="#DejaVuSans-30"/>
      </g>
     </g>
    </g>
    <g id="ytick_2">
     <g id="line2d_8">
      <g>
       <use xlink:href="#mc5c1e8b7fa" x="42.765865" y="262.546805" style="stroke: #000000; stroke-width: 0.8"/>
      </g>
     </g>
     <g id="text_9">
      <!-- 10 -->
      <g transform="translate(23.040865 266.346024)scale(0.1 -0.1)">
       <use xlink:href="#DejaVuSans-31"/>
       <use xlink:href="#DejaVuSans-30" x="63.623047"/>
      </g>
     </g>
    </g>
    <g id="ytick_3">
     <g id="line2d_9">
      <g>
       <use xlink:href="#mc5c1e8b7fa" x="42.765865" y="219.922423" style="stroke: #000000; stroke-width: 0.8"/>
      </g>
     </g>
     <g id="text_10">
      <!-- 20 -->
      <g transform="translate(23.040865 223.721642)scale(0.1 -0.1)">
       <use xlink:href="#DejaVuSans-32"/>
       <use xlink:href="#DejaVuSans-30" x="63.623047"/>
      </g>
     </g>
    </g>
    <g id="ytick_4">
     <g id="line2d_10">
      <g>
       <use xlink:href="#mc5c1e8b7fa" x="42.765865" y="177.298041" style="stroke: #000000; stroke-width: 0.8"/>
      </g>
     </g>
     <g id="text_11">
      <!-- 30 -->
      <g transform="translate(23.040865 181.09726)scale(0.1 -0.1)">
       <defs>
        <path id="DejaVuSans-33" d="M 2597 2516 
Q 3050 2419 3304 2112 
Q 3559 1806 3559 1356 
Q 3559 666 3084 287 
Q 2609 -91 1734 -91 
Q 1441 -91 1130 -33 
Q 819 25 488 141 
L 488 750 
Q 750 597 1062 519 
Q 1375 441 1716 441 
Q 2309 441 2620 675 
Q 2931 909 2931 1356 
Q 2931 1769 2642 2001 
Q 2353 2234 1838 2234 
L 1294 2234 
L 1294 2753 
L 1863 2753 
Q 2328 2753 2575 2939 
Q 2822 3125 2822 3475 
Q 2822 3834 2567 4026 
Q 2313 4219 1838 4219 
Q 1578 4219 1281 4162 
Q 984 4106 628 3988 
L 628 4550 
Q 988 4650 1302 4700 
Q 1616 4750 1894 4750 
Q 2613 4750 3031 4423 
Q 3450 4097 3450 3541 
Q 3450 3153 3228 2886 
Q 3006 2619 2597 2516 
z
" transform="scale(0.015625)"/>
       </defs>
       <use xlink:href="#DejaVuSans-33"/>
       <use xlink:href="#DejaVuSans-30" x="63.623047"/>
      </g>
     </g>
    </g>
    <g id="ytick_5">
     <g id="line2d_11">
      <g>
       <use xlink:href="#mc5c1e8b7fa" x="42.765865" y="134.673659" style="stroke: #000000; stroke-width: 0.8"/>
      </g>
     </g>
     <g id="text_12">
      <!-- 40 -->
      <g transform="translate(23.040865 138.472878)scale(0.1 -0.1)">
       <use xlink:href="#DejaVuSans-34"/>
       <use xlink:href="#DejaVuSans-30" x="63.623047"/>
      </g>
     </g>
    </g>
    <g id="ytick_6">
     <g id="line2d_12">
      <g>
       <use xlink:href="#mc5c1e8b7fa" x="42.765865" y="92.049277" style="stroke: #000000; stroke-width: 0.8"/>
      </g>
     </g>
     <g id="text_13">
      <!-- 50 -->
      <g transform="translate(23.040865 95.848496)scale(0.1 -0.1)">
       <defs>
        <path id="DejaVuSans-35" d="M 691 4666 
L 3169 4666 
L 3169 4134 
L 1269 4134 
L 1269 2991 
Q 1406 3038 1543 3061 
Q 1681 3084 1819 3084 
Q 2600 3084 3056 2656 
Q 3513 2228 3513 1497 
Q 3513 744 3044 326 
Q 2575 -91 1722 -91 
Q 1428 -91 1123 -41 
Q 819 9 494 109 
L 494 744 
Q 775 591 1075 516 
Q 1375 441 1709 441 
Q 2250 441 2565 725 
Q 2881 1009 2881 1497 
Q 2881 1984 2565 2268 
Q 2250 2553 1709 2553 
Q 1456 2553 1204 2497 
Q 953 2441 691 2322 
L 691 4666 
z
" transform="scale(0.015625)"/>
       </defs>
       <use xlink:href="#DejaVuSans-35"/>
       <use xlink:href="#DejaVuSans-30" x="63.623047"/>
      </g>
     </g>
    </g>
    <g id="ytick_7">
     <g id="line2d_13">
      <g>
       <use xlink:href="#mc5c1e8b7fa" x="42.765865" y="49.424895" style="stroke: #000000; stroke-width: 0.8"/>
      </g>
     </g>
     <g id="text_14">
      <!-- 60 -->
      <g transform="translate(23.040865 53.224114)scale(0.1 -0.1)">
       <use xlink:href="#DejaVuSans-36"/>
       <use xlink:href="#DejaVuSans-30" x="63.623047"/>
      </g>
     </g>
    </g>
    <g id="ytick_8">
     <g id="line2d_14">
      <g>
       <use xlink:href="#mc5c1e8b7fa" x="42.765865" y="6.800513" style="stroke: #000000; stroke-width: 0.8"/>
      </g>
     </g>
     <g id="text_15">
      <!-- 70 -->
      <g transform="translate(23.040865 10.599732)scale(0.1 -0.1)">
       <defs>
        <path id="DejaVuSans-37" d="M 525 4666 
L 3525 4666 
L 3525 4397 
L 1831 0 
L 1172 0 
L 2766 4134 
L 525 4134 
L 525 4666 
z
" transform="scale(0.015625)"/>
       </defs>
       <use xlink:href="#DejaVuSans-37"/>
       <use xlink:href="#DejaVuSans-30" x="63.623047"/>
      </g>
     </g>
    </g>
    <g id="text_16">
     <!-- velocity (m/a) -->
     <g transform="translate(16.961178 196.871905)rotate(-90)scale(0.1 -0.1)">
      <defs>
       <path id="DejaVuSans-76" d="M 191 3500 
L 800 3500 
L 1894 563 
L 2988 3500 
L 3597 3500 
L 2284 0 
L 1503 0 
L 191 3500 
z
" transform="scale(0.015625)"/>
       <path id="DejaVuSans-65" d="M 3597 1894 
L 3597 1613 
L 953 1613 
Q 991 1019 1311 708 
Q 1631 397 2203 397 
Q 2534 397 2845 478 
Q 3156 559 3463 722 
L 3463 178 
Q 3153 47 2828 -22 
Q 2503 -91 2169 -91 
Q 1331 -91 842 396 
Q 353 884 353 1716 
Q 353 2575 817 3079 
Q 1281 3584 2069 3584 
Q 2775 3584 3186 3129 
Q 3597 2675 3597 1894 
z
M 3022 2063 
Q 3016 2534 2758 2815 
Q 2500 3097 2075 3097 
Q 1594 3097 1305 2825 
Q 1016 2553 972 2059 
L 3022 2063 
z
" transform="scale(0.015625)"/>
       <path id="DejaVuSans-6c" d="M 603 4863 
L 1178 4863 
L 1178 0 
L 603 0 
L 603 4863 
z
" transform="scale(0.015625)"/>
       <path id="DejaVuSans-63" d="M 3122 3366 
L 3122 2828 
Q 2878 2963 2633 3030 
Q 2388 3097 2138 3097 
Q 1578 3097 1268 2742 
Q 959 2388 959 1747 
Q 959 1106 1268 751 
Q 1578 397 2138 397 
Q 2388 397 2633 464 
Q 2878 531 3122 666 
L 3122 134 
Q 2881 22 2623 -34 
Q 2366 -91 2075 -91 
Q 1284 -91 818 406 
Q 353 903 353 1747 
Q 353 2603 823 3093 
Q 1294 3584 2113 3584 
Q 2378 3584 2631 3529 
Q 2884 3475 3122 3366 
z
" transform="scale(0.015625)"/>
       <path id="DejaVuSans-69" d="M 603 3500 
L 1178 3500 
L 1178 0 
L 603 0 
L 603 3500 
z
M 603 4863 
L 1178 4863 
L 1178 4134 
L 603 4134 
L 603 4863 
z
" transform="scale(0.015625)"/>
       <path id="DejaVuSans-74" d="M 1172 4494 
L 1172 3500 
L 2356 3500 
L 2356 3053 
L 1172 3053 
L 1172 1153 
Q 1172 725 1289 603 
Q 1406 481 1766 481 
L 2356 481 
L 2356 0 
L 1766 0 
Q 1100 0 847 248 
Q 594 497 594 1153 
L 594 3053 
L 172 3053 
L 172 3500 
L 594 3500 
L 594 4494 
L 1172 4494 
z
" transform="scale(0.015625)"/>
       <path id="DejaVuSans-79" d="M 2059 -325 
Q 1816 -950 1584 -1140 
Q 1353 -1331 966 -1331 
L 506 -1331 
L 506 -850 
L 844 -850 
Q 1081 -850 1212 -737 
Q 1344 -625 1503 -206 
L 1606 56 
L 191 3500 
L 800 3500 
L 1894 763 
L 2988 3500 
L 3597 3500 
L 2059 -325 
z
" transform="scale(0.015625)"/>
       <path id="DejaVuSans-28" d="M 1984 4856 
Q 1566 4138 1362 3434 
Q 1159 2731 1159 2009 
Q 1159 1288 1364 580 
Q 1569 -128 1984 -844 
L 1484 -844 
Q 1016 -109 783 600 
Q 550 1309 550 2009 
Q 550 2706 781 3412 
Q 1013 4119 1484 4856 
L 1984 4856 
z
" transform="scale(0.015625)"/>
       <path id="DejaVuSans-2f" d="M 1625 4666 
L 2156 4666 
L 531 -594 
L 0 -594 
L 1625 4666 
z
" transform="scale(0.015625)"/>
       <path id="DejaVuSans-61" d="M 2194 1759 
Q 1497 1759 1228 1600 
Q 959 1441 959 1056 
Q 959 750 1161 570 
Q 1363 391 1709 391 
Q 2188 391 2477 730 
Q 2766 1069 2766 1631 
L 2766 1759 
L 2194 1759 
z
M 3341 1997 
L 3341 0 
L 2766 0 
L 2766 531 
Q 2569 213 2275 61 
Q 1981 -91 1556 -91 
Q 1019 -91 701 211 
Q 384 513 384 1019 
Q 384 1609 779 1909 
Q 1175 2209 1959 2209 
L 2766 2209 
L 2766 2266 
Q 2766 2663 2505 2880 
Q 2244 3097 1772 3097 
Q 1472 3097 1187 3025 
Q 903 2953 641 2809 
L 641 3341 
Q 956 3463 1253 3523 
Q 1550 3584 1831 3584 
Q 2591 3584 2966 3190 
Q 3341 2797 3341 1997 
z
" transform="scale(0.015625)"/>
       <path id="DejaVuSans-29" d="M 513 4856 
L 1013 4856 
Q 1481 4119 1714 3412 
Q 1947 2706 1947 2009 
Q 1947 1309 1714 600 
Q 1481 -109 1013 -844 
L 513 -844 
Q 928 -128 1133 580 
Q 1338 1288 1338 2009 
Q 1338 2731 1133 3434 
Q 928 4138 513 4856 
z
" transform="scale(0.015625)"/>
      </defs>
      <use xlink:href="#DejaVuSans-76"/>
      <use xlink:href="#DejaVuSans-65" x="59.179688"/>
      <use xlink:href="#DejaVuSans-6c" x="120.703125"/>
      <use xlink:href="#DejaVuSans-6f" x="148.486328"/>
      <use xlink:href="#DejaVuSans-63" x="209.667969"/>
      <use xlink:href="#DejaVuSans-69" x="264.648438"/>
      <use xlink:href="#DejaVuSans-74" x="292.431641"/>
      <use xlink:href="#DejaVuSans-79" x="331.640625"/>
      <use xlink:href="#DejaVuSans-20" x="390.820312"/>
      <use xlink:href="#DejaVuSans-28" x="422.607422"/>
      <use xlink:href="#DejaVuSans-6d" x="461.621094"/>
      <use xlink:href="#DejaVuSans-2f" x="559.033203"/>
      <use xlink:href="#DejaVuSans-61" x="592.724609"/>
      <use xlink:href="#DejaVuSans-29" x="654.003906"/>
     </g>
    </g>
   </g>
   <g id="line2d_15">
    <path d="M 73.41286 305.171187 
L 91.801057 305.071056 
L 93.333407 304.906605 
L 94.865757 304.576181 
L 96.398107 303.996894 
L 97.930456 303.074208 
L 99.462806 301.741706 
L 100.995156 299.987722 
L 102.527506 297.797979 
L 104.059855 295.182419 
L 105.592205 292.183623 
L 108.656905 285.297868 
L 111.721604 277.820571 
L 117.851003 262.324306 
L 120.915703 255.175771 
L 123.980402 248.748014 
L 127.045102 242.865423 
L 130.109801 237.535671 
L 133.174501 232.702492 
L 136.2392 228.284901 
L 139.3039 224.255618 
L 143.900949 218.71317 
L 148.497999 213.557751 
L 153.095048 208.80769 
L 157.692097 204.454888 
L 160.756797 201.82539 
L 163.821496 199.413702 
L 166.886196 197.259892 
L 169.950895 195.380157 
L 173.015595 193.771513 
L 176.080294 192.410942 
L 180.677344 190.716623 
L 186.806743 188.614815 
L 189.871442 187.377855 
L 192.936142 185.915413 
L 196.000841 184.154173 
L 199.065541 182.12099 
L 202.13024 179.845701 
L 205.19494 177.321059 
L 208.259639 174.563687 
L 214.389038 168.615881 
L 220.518437 162.682993 
L 223.583137 159.745321 
L 226.647836 156.545082 
L 229.712536 153.090376 
L 232.777235 149.352644 
L 237.374285 143.378837 
L 241.971334 137.10879 
L 248.100733 128.381022 
L 261.891881 108.564947 
L 266.48893 102.346476 
L 269.55363 98.476182 
L 272.618329 94.895307 
L 275.683029 91.62687 
L 278.747728 88.644442 
L 283.344778 84.533746 
L 294.071226 75.132939 
L 304.797674 65.360021 
L 307.862374 62.868626 
L 310.927073 60.751899 
L 313.991773 59.012824 
L 317.056472 57.604514 
L 323.185871 55.271256 
L 332.37997 51.86983 
L 336.977019 49.908256 
L 341.574068 47.717789 
L 346.171118 45.498337 
L 350.768167 43.483483 
L 355.365216 41.658733 
L 363.026965 38.904345 
L 372.221064 35.620563 
L 379.882812 32.512393 
L 384.479862 30.716202 
L 387.544561 29.689807 
L 390.609261 28.86332 
L 393.67396 28.259332 
L 396.73866 27.857811 
L 401.335709 27.530455 
L 413.594507 26.85699 
L 418.191557 26.343366 
L 428.918005 24.941877 
L 431.982704 24.835316 
L 436.579754 24.988764 
L 441.176803 25.345103 
L 444.241502 25.89922 
L 445.773852 26.343793 
L 447.306202 26.919648 
L 448.838552 27.635311 
L 450.370902 28.493766 
L 451.903251 29.494587 
L 453.435601 30.633937 
L 454.967951 31.916504 
L 456.500301 33.356782 
L 458.03265 34.966705 
L 459.565 36.765028 
L 461.09735 38.77903 
L 462.6297 41.037696 
L 464.162049 43.578109 
L 465.694399 46.446304 
L 467.226749 49.638017 
L 468.759099 53.125118 
L 470.291448 56.928918 
L 471.823798 61.057516 
L 474.888498 70.264808 
L 477.953197 80.630206 
L 481.017897 92.005801 
L 485.614946 110.422944 
L 493.276695 141.710092 
L 496.341394 152.951421 
L 499.406094 163.231143 
L 502.470793 172.526668 
L 505.535493 180.974821 
L 508.600192 188.688981 
L 511.664892 195.736923 
L 514.729591 202.188976 
L 519.326641 211.236853 
L 523.92369 219.735302 
L 528.520739 227.726522 
L 533.117789 235.210084 
L 537.714838 242.206877 
L 540.779537 246.589516 
L 543.844237 250.612831 
L 546.908936 254.29984 
L 549.973636 257.660346 
L 553.038336 260.705006 
L 556.103035 263.474482 
L 559.167735 265.982416 
L 562.232434 268.252079 
L 566.829483 271.279518 
L 571.426533 273.966858 
L 576.023582 276.368188 
L 580.620631 278.521614 
L 585.217681 280.460597 
L 591.34708 282.758819 
L 597.476479 284.75705 
L 603.605878 286.472425 
L 609.735277 287.909762 
L 614.332326 288.787142 
L 618.929375 289.465552 
L 623.526425 289.934974 
L 629.655824 290.27712 
L 640.382272 290.553923 
L 655.70577 290.862268 
L 658.770469 291.175599 
L 661.835169 291.790243 
L 664.899868 292.821071 
L 666.432218 293.513419 
L 669.496917 295.26575 
L 672.561617 297.452679 
L 680.223366 303.395613 
L 681.755715 304.25461 
L 683.288065 304.850783 
L 684.820415 305.147409 
L 686.352765 305.171187 
L 686.352765 305.171187 
" clip-path="url(#p72fd4d4f2d)" style="fill: none; stroke: #20b2aa; stroke-linecap: square"/>
   </g>
   <g id="line2d_16">
    <path d="M 85.921838 305.174522 
L 98.430816 301.188798 
L 110.939793 282.554085 
L 123.448771 256.348922 
L 135.957751 233.280197 
L 148.466726 217.089287 
L 160.975702 203.917475 
L 173.484684 194.664054 
L 185.993659 188.29364 
L 198.502635 181.73142 
L 211.011617 172.538168 
L 223.520592 159.684692 
L 236.029568 144.462464 
L 248.53855 127.812443 
L 261.047526 110.263481 
L 273.556501 94.776032 
L 286.065483 82.324218 
L 298.574459 71.683821 
L 311.083434 62.743075 
L 323.592416 55.46827 
L 336.101392 49.511163 
L 348.610367 45.150169 
L 361.119349 40.72349 
L 373.628325 35.673737 
L 386.1373 31.147207 
L 398.646276 28.180541 
L 411.155258 27.036175 
L 423.664233 26.705235 
L 436.173209 26.88106 
L 448.682191 29.369293 
L 461.191166 40.724066 
L 473.700142 68.390516 
L 486.209124 112.372885 
L 498.718099 158.149805 
L 511.227075 192.21467 
L 523.736057 217.279183 
L 536.245033 239.29619 
L 548.754008 256.011669 
L 561.26299 267.13766 
L 573.771966 274.98265 
L 586.280941 280.823266 
L 598.789923 285.11445 
L 611.298899 288.169239 
L 623.807874 289.924564 
L 636.316856 290.55956 
L 648.825832 290.730207 
L 661.334807 291.870064 
L 673.843789 298.220733 
L 686.352765 305.171187 
" clip-path="url(#p72fd4d4f2d)" style="fill: none; stroke: #ff0000; stroke-linecap: square"/>
   </g>
   <g id="line2d_17">
    <path d="M 73.41286 305.171187 
L 85.671658 305.17072 
L 97.930456 302.785957 
L 110.189255 281.661127 
L 122.448053 252.597533 
L 134.706851 231.216874 
L 146.965649 215.674111 
L 159.224447 203.873593 
L 171.483245 194.902082 
L 183.742043 189.795902 
L 196.000841 184.156769 
L 208.259639 174.586462 
L 220.518437 162.700035 
L 232.777235 149.233113 
L 245.036034 132.754995 
L 257.294832 115.136889 
L 269.55363 98.513154 
L 281.812428 85.983555 
L 294.071226 74.89359 
L 306.330024 64.547962 
L 318.588822 57.298949 
L 330.84762 52.519443 
L 343.106418 47.149943 
L 355.365216 41.941265 
L 367.624014 37.603999 
L 379.882812 32.869313 
L 392.141611 29.157253 
L 404.400409 27.878965 
L 416.659207 26.985294 
L 428.918005 25.767004 
L 441.176803 26.223571 
L 453.435601 30.985562 
L 465.694399 47.672684 
L 477.953197 81.251882 
L 490.211995 128.639083 
L 502.470793 171.47735 
L 514.729591 201.327452 
L 526.98839 225.194181 
L 539.247188 244.161486 
L 551.505986 258.979643 
L 563.764784 269.137837 
L 576.023582 276.295324 
L 588.28238 281.594966 
L 600.541178 285.59735 
L 612.799976 288.440022 
L 625.058774 289.952048 
L 637.317572 290.432446 
L 649.57637 290.669411 
L 661.835169 291.931157 
L 674.093967 298.850044 
L 686.352765 305.171187 
" clip-path="url(#p72fd4d4f2d)" style="fill: none; stroke: #0000ff; stroke-linecap: square"/>
   </g>
   <g id="line2d_18">
    <path d="M 73.41286 305.171187 
L 85.671658 305.170609 
L 97.930456 302.883944 
L 110.189255 281.731241 
L 122.448053 252.426351 
L 134.706851 230.810642 
L 146.965649 215.476115 
L 159.224447 203.424967 
L 171.483245 194.838604 
L 183.742043 189.689575 
L 196.000841 183.9523 
L 208.259639 174.573483 
L 220.518437 162.663357 
L 232.777235 149.186224 
L 245.036034 132.714287 
L 257.294832 115.119445 
L 269.55363 98.638383 
L 281.812428 85.899006 
L 294.071226 75.025038 
L 306.330024 64.259088 
L 318.588822 57.219732 
L 330.84762 52.496103 
L 343.106418 47.062406 
L 355.365216 41.934439 
L 367.624014 37.520979 
L 379.882812 32.827918 
L 392.141611 28.996039 
L 404.400409 27.788729 
L 416.659207 26.958336 
L 428.918005 25.665163 
L 441.176803 26.059159 
L 453.435601 31.452327 
L 465.694399 47.357139 
L 477.953197 81.152149 
L 490.211995 128.856905 
L 502.470793 171.427881 
L 514.729591 201.598634 
L 526.98839 224.903024 
L 539.247188 244.211428 
L 551.505986 258.960895 
L 563.764784 269.135363 
L 576.023582 276.277384 
L 588.28238 281.587927 
L 600.541178 285.590709 
L 612.799976 288.431082 
L 625.058774 289.956651 
L 637.317572 290.444123 
L 649.57637 290.652762 
L 661.835169 291.93288 
L 674.093967 298.832646 
L 686.352765 305.171187 
" clip-path="url(#p72fd4d4f2d)" style="fill: none; stroke: #32cd32; stroke-linecap: square"/>
   </g>
   <g id="line2d_19">
    <path d="M 73.41286 305.171187 
L 85.671658 305.16958 
L 97.930456 303.593629 
L 110.189255 283.296073 
L 122.448053 253.12365 
L 134.706851 231.717762 
L 146.965649 216.261364 
L 159.224447 203.74965 
L 171.483245 194.976892 
L 183.742043 190.109379 
L 196.000841 184.702966 
L 208.259639 174.846568 
L 220.518437 162.814242 
L 232.777235 149.637106 
L 245.036034 132.567457 
L 257.294832 114.386623 
L 269.55363 97.318388 
L 281.812428 84.544262 
L 294.071226 73.346747 
L 306.330024 61.538033 
L 318.588822 54.112883 
L 330.84762 49.802292 
L 343.106418 44.300707 
L 355.365216 38.437101 
L 367.624014 33.404372 
L 379.882812 27.967965 
L 392.141611 23.396679 
L 404.400409 22.249913 
L 416.659207 21.285587 
L 428.918005 19.266163 
L 441.176803 19.756322 
L 453.435601 25.118261 
L 465.694399 42.419966 
L 477.953197 77.842793 
L 490.211995 128.268783 
L 502.470793 171.475747 
L 514.729591 201.892237 
L 526.98839 225.507479 
L 539.247188 244.911377 
L 551.505986 259.458874 
L 563.764784 269.506446 
L 576.023582 276.554085 
L 588.28238 281.77038 
L 600.541178 285.718677 
L 612.799976 288.543996 
L 625.058774 290.00293 
L 637.317572 290.430764 
L 649.57637 290.664282 
L 661.835169 291.920802 
L 674.093967 299.156469 
L 686.352765 305.171187 
" clip-path="url(#p72fd4d4f2d)" style="fill: none; stroke: #c0c0c0; stroke-linecap: square"/>
   </g>
   <g id="line2d_20">
    <path d="M 73.41286 305.17114 
L 85.671658 305.030186 
L 97.930456 299.019175 
L 110.189255 271.312698 
L 122.448053 240.520347 
L 134.706851 219.95897 
L 146.965649 208.643942 
L 159.224447 200.335692 
L 171.483245 194.108886 
L 183.742043 189.425072 
L 196.000841 183.876638 
L 208.259639 175.058822 
L 220.518437 161.225686 
L 232.777235 145.481603 
L 245.036034 129.414442 
L 257.294832 110.937435 
L 269.55363 94.723416 
L 281.812428 79.732982 
L 294.071226 69.2242 
L 306.330024 61.951841 
L 318.588822 57.793363 
L 330.84762 53.780872 
L 343.106418 50.202033 
L 355.365216 45.613182 
L 367.624014 41.775693 
L 379.882812 36.765782 
L 392.141611 33.530683 
L 404.400409 31.986988 
L 416.659207 30.553209 
L 428.918005 29.87009 
L 441.176803 30.095453 
L 453.435601 35.002178 
L 465.694399 52.999271 
L 477.953197 88.922116 
L 490.211995 134.16732 
L 502.470793 168.894 
L 514.729591 200.416055 
L 526.98839 223.537238 
L 539.247188 242.345978 
L 551.505986 258.022769 
L 563.764784 267.939476 
L 576.023582 276.589189 
L 588.28238 282.063544 
L 600.541178 286.022395 
L 612.799976 289.012204 
L 625.058774 290.979074 
L 637.317572 290.330546 
L 649.57637 290.54838 
L 661.835169 293.214639 
L 674.093967 300.922971 
L 686.352765 304.962944 
" clip-path="url(#p72fd4d4f2d)" style="fill: none; stroke: #000000; stroke-width: 4; stroke-linecap: square"/>
   </g>
   <g id="patch_3">
    <path d="M 42.765865 319.46994 
L 42.765865 4.970745 
" style="fill: none; stroke: #000000; stroke-width: 0.8; stroke-linejoin: miter; stroke-linecap: square"/>
   </g>
   <g id="patch_4">
    <path d="M 716.99976 319.46994 
L 716.99976 4.970745 
" style="fill: none; stroke: #000000; stroke-width: 0.8; stroke-linejoin: miter; stroke-linecap: square"/>
   </g>
   <g id="patch_5">
    <path d="M 42.765865 319.46994 
L 716.99976 319.46994 
" style="fill: none; stroke: #000000; stroke-width: 0.8; stroke-linejoin: miter; stroke-linecap: square"/>
   </g>
   <g id="patch_6">
    <path d="M 42.765865 4.970745 
L 716.99976 4.970745 
" style="fill: none; stroke: #000000; stroke-width: 0.8; stroke-linejoin: miter; stroke-linecap: square"/>
   </g>
   <g id="legend_1">
    <g id="patch_7">
     <path d="M 572.310697 68.202933 
L 709.99976 68.202933 
Q 711.99976 68.202933 711.99976 66.202933 
L 711.99976 11.970745 
Q 711.99976 9.970745 709.99976 9.970745 
L 572.310697 9.970745 
Q 570.310697 9.970745 570.310697 11.970745 
L 570.310697 66.202933 
Q 570.310697 68.202933 572.310697 68.202933 
z
" style="fill: #ffffff; opacity: 0.8; stroke: #cccccc; stroke-linejoin: miter"/>
    </g>
    <g id="line2d_21">
     <path d="M 574.310697 18.069183 
L 584.310697 18.069183 
L 594.310697 18.069183 
" style="fill: none; stroke: #20b2aa; stroke-linecap: square"/>
    </g>
    <g id="text_17">
     <!-- cma1 -->
     <g transform="translate(602.310697 21.569183)scale(0.1 -0.1)">
      <use xlink:href="#DejaVuSans-63"/>
      <use xlink:href="#DejaVuSans-6d" x="54.980469"/>
      <use xlink:href="#DejaVuSans-61" x="152.392578"/>
      <use xlink:href="#DejaVuSans-31" x="213.671875"/>
     </g>
    </g>
    <g id="line2d_22">
     <path d="M 574.310697 32.747308 
L 584.310697 32.747308 
L 594.310697 32.747308 
" style="fill: none; stroke: #ff0000; stroke-linecap: square"/>
    </g>
    <g id="text_18">
     <!-- jvj1 -->
     <g transform="translate(602.310697 36.247308)scale(0.1 -0.1)">
      <defs>
       <path id="DejaVuSans-6a" d="M 603 3500 
L 1178 3500 
L 1178 -63 
Q 1178 -731 923 -1031 
Q 669 -1331 103 -1331 
L -116 -1331 
L -116 -844 
L 38 -844 
Q 366 -844 484 -692 
Q 603 -541 603 -63 
L 603 3500 
z
M 603 4863 
L 1178 4863 
L 1178 4134 
L 603 4134 
L 603 4863 
z
" transform="scale(0.015625)"/>
      </defs>
      <use xlink:href="#DejaVuSans-6a"/>
      <use xlink:href="#DejaVuSans-76" x="27.783203"/>
      <use xlink:href="#DejaVuSans-6a" x="86.962891"/>
      <use xlink:href="#DejaVuSans-31" x="114.746094"/>
     </g>
    </g>
    <g id="line2d_23">
     <path d="M 574.310697 47.425433 
L 584.310697 47.425433 
L 594.310697 47.425433 
" style="fill: none; stroke: #0000ff; stroke-linecap: square"/>
    </g>
    <g id="text_19">
     <!-- mmr1 -->
     <g transform="translate(602.310697 50.925433)scale(0.1 -0.1)">
      <use xlink:href="#DejaVuSans-6d"/>
      <use xlink:href="#DejaVuSans-6d" x="97.412109"/>
      <use xlink:href="#DejaVuSans-72" x="194.824219"/>
      <use xlink:href="#DejaVuSans-31" x="235.9375"/>
     </g>
    </g>
    <g id="line2d_24">
     <path d="M 652.265385 18.069183 
L 662.265385 18.069183 
L 672.265385 18.069183 
" style="fill: none; stroke: #32cd32; stroke-linecap: square"/>
    </g>
    <g id="text_20">
     <!-- oga1 -->
     <g transform="translate(680.265385 21.569183)scale(0.1 -0.1)">
      <defs>
       <path id="DejaVuSans-67" d="M 2906 1791 
Q 2906 2416 2648 2759 
Q 2391 3103 1925 3103 
Q 1463 3103 1205 2759 
Q 947 2416 947 1791 
Q 947 1169 1205 825 
Q 1463 481 1925 481 
Q 2391 481 2648 825 
Q 2906 1169 2906 1791 
z
M 3481 434 
Q 3481 -459 3084 -895 
Q 2688 -1331 1869 -1331 
Q 1566 -1331 1297 -1286 
Q 1028 -1241 775 -1147 
L 775 -588 
Q 1028 -725 1275 -790 
Q 1522 -856 1778 -856 
Q 2344 -856 2625 -561 
Q 2906 -266 2906 331 
L 2906 616 
Q 2728 306 2450 153 
Q 2172 0 1784 0 
Q 1141 0 747 490 
Q 353 981 353 1791 
Q 353 2603 747 3093 
Q 1141 3584 1784 3584 
Q 2172 3584 2450 3431 
Q 2728 3278 2906 2969 
L 2906 3500 
L 3481 3500 
L 3481 434 
z
" transform="scale(0.015625)"/>
      </defs>
      <use xlink:href="#DejaVuSans-6f"/>
      <use xlink:href="#DejaVuSans-67" x="61.181641"/>
      <use xlink:href="#DejaVuSans-61" x="124.658203"/>
      <use xlink:href="#DejaVuSans-31" x="185.9375"/>
     </g>
    </g>
    <g id="line2d_25">
     <path d="M 652.265385 32.747308 
L 662.265385 32.747308 
L 672.265385 32.747308 
" style="fill: none; stroke: #c0c0c0; stroke-linecap: square"/>
    </g>
    <g id="text_21">
     <!-- ssu1 -->
     <g transform="translate(680.265385 36.247308)scale(0.1 -0.1)">
      <defs>
       <path id="DejaVuSans-73" d="M 2834 3397 
L 2834 2853 
Q 2591 2978 2328 3040 
Q 2066 3103 1784 3103 
Q 1356 3103 1142 2972 
Q 928 2841 928 2578 
Q 928 2378 1081 2264 
Q 1234 2150 1697 2047 
L 1894 2003 
Q 2506 1872 2764 1633 
Q 3022 1394 3022 966 
Q 3022 478 2636 193 
Q 2250 -91 1575 -91 
Q 1294 -91 989 -36 
Q 684 19 347 128 
L 347 722 
Q 666 556 975 473 
Q 1284 391 1588 391 
Q 1994 391 2212 530 
Q 2431 669 2431 922 
Q 2431 1156 2273 1281 
Q 2116 1406 1581 1522 
L 1381 1569 
Q 847 1681 609 1914 
Q 372 2147 372 2553 
Q 372 3047 722 3315 
Q 1072 3584 1716 3584 
Q 2034 3584 2315 3537 
Q 2597 3491 2834 3397 
z
" transform="scale(0.015625)"/>
       <path id="DejaVuSans-75" d="M 544 1381 
L 544 3500 
L 1119 3500 
L 1119 1403 
Q 1119 906 1312 657 
Q 1506 409 1894 409 
Q 2359 409 2629 706 
Q 2900 1003 2900 1516 
L 2900 3500 
L 3475 3500 
L 3475 0 
L 2900 0 
L 2900 538 
Q 2691 219 2414 64 
Q 2138 -91 1772 -91 
Q 1169 -91 856 284 
Q 544 659 544 1381 
z
M 1991 3584 
L 1991 3584 
z
" transform="scale(0.015625)"/>
      </defs>
      <use xlink:href="#DejaVuSans-73"/>
      <use xlink:href="#DejaVuSans-73" x="52.099609"/>
      <use xlink:href="#DejaVuSans-75" x="104.199219"/>
      <use xlink:href="#DejaVuSans-31" x="167.578125"/>
     </g>
    </g>
    <g id="line2d_26">
     <path d="M 652.265385 54.064183 
L 662.265385 54.064183 
L 672.265385 54.064183 
" style="fill: none; stroke: #000000; stroke-width: 4; stroke-linecap: square"/>
    </g>
    <g id="text_22">
     <!-- this -->
     <g transform="translate(680.265385 50.925433)scale(0.1 -0.1)">
      <defs>
       <path id="DejaVuSans-68" d="M 3513 2113 
L 3513 0 
L 2938 0 
L 2938 2094 
Q 2938 2591 2744 2837 
Q 2550 3084 2163 3084 
Q 1697 3084 1428 2787 
Q 1159 2491 1159 1978 
L 1159 0 
L 581 0 
L 581 4863 
L 1159 4863 
L 1159 2956 
Q 1366 3272 1645 3428 
Q 1925 3584 2291 3584 
Q 2894 3584 3203 3211 
Q 3513 2838 3513 2113 
z
" transform="scale(0.015625)"/>
      </defs>
      <use xlink:href="#DejaVuSans-74"/>
      <use xlink:href="#DejaVuSans-68" x="39.208984"/>
      <use xlink:href="#DejaVuSans-69" x="102.587891"/>
      <use xlink:href="#DejaVuSans-73" x="130.371094"/>
     </g>
     <!-- study -->
     <g transform="translate(680.265385 62.123245)scale(0.1 -0.1)">
      <defs>
       <path id="DejaVuSans-64" d="M 2906 2969 
L 2906 4863 
L 3481 4863 
L 3481 0 
L 2906 0 
L 2906 525 
Q 2725 213 2448 61 
Q 2172 -91 1784 -91 
Q 1150 -91 751 415 
Q 353 922 353 1747 
Q 353 2572 751 3078 
Q 1150 3584 1784 3584 
Q 2172 3584 2448 3432 
Q 2725 3281 2906 2969 
z
M 947 1747 
Q 947 1113 1208 752 
Q 1469 391 1925 391 
Q 2381 391 2643 752 
Q 2906 1113 2906 1747 
Q 2906 2381 2643 2742 
Q 2381 3103 1925 3103 
Q 1469 3103 1208 2742 
Q 947 2381 947 1747 
z
" transform="scale(0.015625)"/>
      </defs>
      <use xlink:href="#DejaVuSans-73"/>
      <use xlink:href="#DejaVuSans-74" x="52.099609"/>
      <use xlink:href="#DejaVuSans-75" x="91.308594"/>
      <use xlink:href="#DejaVuSans-64" x="154.6875"/>
      <use xlink:href="#DejaVuSans-79" x="218.164062"/>
     </g>
    </g>
   </g>
  </g>
  <g id="axes_2">
   <g id="patch_8">
    <path d="M 42.765865 686.64351 
L 716.99976 686.64351 
L 716.99976 372.144315 
L 42.765865 372.144315 
z
" style="fill: #ffffff"/>
   </g>
   <g id="matplotlib.axis_3">
    <g id="xtick_7">
     <g id="line2d_27">
      <g>
       <use xlink:href="#mc628963bf4" x="73.41286" y="686.64351" style="stroke: #000000; stroke-width: 0.8"/>
      </g>
     </g>
     <g id="text_23">
      <!-- 0.0 -->
      <g transform="translate(65.461298 701.241948)scale(0.1 -0.1)">
       <use xlink:href="#DejaVuSans-30"/>
       <use xlink:href="#DejaVuSans-2e" x="63.623047"/>
       <use xlink:href="#DejaVuSans-30" x="95.410156"/>
      </g>
     </g>
    </g>
    <g id="xtick_8">
     <g id="line2d_28">
      <g>
       <use xlink:href="#mc628963bf4" x="196.000841" y="686.64351" style="stroke: #000000; stroke-width: 0.8"/>
      </g>
     </g>
     <g id="text_24">
      <!-- 0.2 -->
      <g transform="translate(188.049279 701.241948)scale(0.1 -0.1)">
       <use xlink:href="#DejaVuSans-30"/>
       <use xlink:href="#DejaVuSans-2e" x="63.623047"/>
       <use xlink:href="#DejaVuSans-32" x="95.410156"/>
      </g>
     </g>
    </g>
    <g id="xtick_9">
     <g id="line2d_29">
      <g>
       <use xlink:href="#mc628963bf4" x="318.588822" y="686.64351" style="stroke: #000000; stroke-width: 0.8"/>
      </g>
     </g>
     <g id="text_25">
      <!-- 0.4 -->
      <g transform="translate(310.63726 701.241948)scale(0.1 -0.1)">
       <use xlink:href="#DejaVuSans-30"/>
       <use xlink:href="#DejaVuSans-2e" x="63.623047"/>
       <use xlink:href="#DejaVuSans-34" x="95.410156"/>
      </g>
     </g>
    </g>
    <g id="xtick_10">
     <g id="line2d_30">
      <g>
       <use xlink:href="#mc628963bf4" x="441.176803" y="686.64351" style="stroke: #000000; stroke-width: 0.8"/>
      </g>
     </g>
     <g id="text_26">
      <!-- 0.6 -->
      <g transform="translate(433.22524 701.241948)scale(0.1 -0.1)">
       <use xlink:href="#DejaVuSans-30"/>
       <use xlink:href="#DejaVuSans-2e" x="63.623047"/>
       <use xlink:href="#DejaVuSans-36" x="95.410156"/>
      </g>
     </g>
    </g>
    <g id="xtick_11">
     <g id="line2d_31">
      <g>
       <use xlink:href="#mc628963bf4" x="563.764784" y="686.64351" style="stroke: #000000; stroke-width: 0.8"/>
      </g>
     </g>
     <g id="text_27">
      <!-- 0.8 -->
      <g transform="translate(555.813221 701.241948)scale(0.1 -0.1)">
       <use xlink:href="#DejaVuSans-30"/>
       <use xlink:href="#DejaVuSans-2e" x="63.623047"/>
       <use xlink:href="#DejaVuSans-38" x="95.410156"/>
      </g>
     </g>
    </g>
    <g id="xtick_12">
     <g id="line2d_32">
      <g>
       <use xlink:href="#mc628963bf4" x="686.352765" y="686.64351" style="stroke: #000000; stroke-width: 0.8"/>
      </g>
     </g>
     <g id="text_28">
      <!-- 1.0 -->
      <g transform="translate(678.401202 701.241948)scale(0.1 -0.1)">
       <use xlink:href="#DejaVuSans-31"/>
       <use xlink:href="#DejaVuSans-2e" x="63.623047"/>
       <use xlink:href="#DejaVuSans-30" x="95.410156"/>
      </g>
     </g>
    </g>
    <g id="text_29">
     <!-- x norm. -->
     <g transform="translate(360.678906 714.920072)scale(0.1 -0.1)">
      <use xlink:href="#DejaVuSans-78"/>
      <use xlink:href="#DejaVuSans-20" x="59.179688"/>
      <use xlink:href="#DejaVuSans-6e" x="90.966797"/>
      <use xlink:href="#DejaVuSans-6f" x="154.345703"/>
      <use xlink:href="#DejaVuSans-72" x="215.527344"/>
      <use xlink:href="#DejaVuSans-6d" x="254.890625"/>
      <use xlink:href="#DejaVuSans-2e" x="352.302734"/>
     </g>
    </g>
   </g>
   <g id="matplotlib.axis_4">
    <g id="ytick_9">
     <g id="line2d_33">
      <g>
       <use xlink:href="#mc5c1e8b7fa" x="42.765865" y="672.346717" style="stroke: #000000; stroke-width: 0.8"/>
      </g>
     </g>
     <g id="text_30">
      <!-- 0 -->
      <g transform="translate(29.403365 676.145936)scale(0.1 -0.1)">
       <use xlink:href="#DejaVuSans-30"/>
      </g>
     </g>
    </g>
    <g id="ytick_10">
     <g id="line2d_34">
      <g>
       <use xlink:href="#mc5c1e8b7fa" x="42.765865" y="629.863024" style="stroke: #000000; stroke-width: 0.8"/>
      </g>
     </g>
     <g id="text_31">
      <!-- 25 -->
      <g transform="translate(23.040865 633.662242)scale(0.1 -0.1)">
       <use xlink:href="#DejaVuSans-32"/>
       <use xlink:href="#DejaVuSans-35" x="63.623047"/>
      </g>
     </g>
    </g>
    <g id="ytick_11">
     <g id="line2d_35">
      <g>
       <use xlink:href="#mc5c1e8b7fa" x="42.765865" y="587.37933" style="stroke: #000000; stroke-width: 0.8"/>
      </g>
     </g>
     <g id="text_32">
      <!-- 50 -->
      <g transform="translate(23.040865 591.178549)scale(0.1 -0.1)">
       <use xlink:href="#DejaVuSans-35"/>
       <use xlink:href="#DejaVuSans-30" x="63.623047"/>
      </g>
     </g>
    </g>
    <g id="ytick_12">
     <g id="line2d_36">
      <g>
       <use xlink:href="#mc5c1e8b7fa" x="42.765865" y="544.895637" style="stroke: #000000; stroke-width: 0.8"/>
      </g>
     </g>
     <g id="text_33">
      <!-- 75 -->
      <g transform="translate(23.040865 548.694856)scale(0.1 -0.1)">
       <use xlink:href="#DejaVuSans-37"/>
       <use xlink:href="#DejaVuSans-35" x="63.623047"/>
      </g>
     </g>
    </g>
    <g id="ytick_13">
     <g id="line2d_37">
      <g>
       <use xlink:href="#mc5c1e8b7fa" x="42.765865" y="502.411944" style="stroke: #000000; stroke-width: 0.8"/>
      </g>
     </g>
     <g id="text_34">
      <!-- 100 -->
      <g transform="translate(16.678365 506.211162)scale(0.1 -0.1)">
       <use xlink:href="#DejaVuSans-31"/>
       <use xlink:href="#DejaVuSans-30" x="63.623047"/>
       <use xlink:href="#DejaVuSans-30" x="127.246094"/>
      </g>
     </g>
    </g>
    <g id="ytick_14">
     <g id="line2d_38">
      <g>
       <use xlink:href="#mc5c1e8b7fa" x="42.765865" y="459.92825" style="stroke: #000000; stroke-width: 0.8"/>
      </g>
     </g>
     <g id="text_35">
      <!-- 125 -->
      <g transform="translate(16.678365 463.727469)scale(0.1 -0.1)">
       <use xlink:href="#DejaVuSans-31"/>
       <use xlink:href="#DejaVuSans-32" x="63.623047"/>
       <use xlink:href="#DejaVuSans-35" x="127.246094"/>
      </g>
     </g>
    </g>
    <g id="ytick_15">
     <g id="line2d_39">
      <g>
       <use xlink:href="#mc5c1e8b7fa" x="42.765865" y="417.444557" style="stroke: #000000; stroke-width: 0.8"/>
      </g>
     </g>
     <g id="text_36">
      <!-- 150 -->
      <g transform="translate(16.678365 421.243776)scale(0.1 -0.1)">
       <use xlink:href="#DejaVuSans-31"/>
       <use xlink:href="#DejaVuSans-35" x="63.623047"/>
       <use xlink:href="#DejaVuSans-30" x="127.246094"/>
      </g>
     </g>
    </g>
    <g id="ytick_16">
     <g id="line2d_40">
      <g>
       <use xlink:href="#mc5c1e8b7fa" x="42.765865" y="374.960863" style="stroke: #000000; stroke-width: 0.8"/>
      </g>
     </g>
     <g id="text_37">
      <!-- 175 -->
      <g transform="translate(16.678365 378.760082)scale(0.1 -0.1)">
       <use xlink:href="#DejaVuSans-31"/>
       <use xlink:href="#DejaVuSans-37" x="63.623047"/>
       <use xlink:href="#DejaVuSans-35" x="127.246094"/>
      </g>
     </g>
    </g>
    <g id="text_38">
     <!-- velocity (m/a) -->
     <g transform="translate(10.598678 564.045475)rotate(-90)scale(0.1 -0.1)">
      <use xlink:href="#DejaVuSans-76"/>
      <use xlink:href="#DejaVuSans-65" x="59.179688"/>
      <use xlink:href="#DejaVuSans-6c" x="120.703125"/>
      <use xlink:href="#DejaVuSans-6f" x="148.486328"/>
      <use xlink:href="#DejaVuSans-63" x="209.667969"/>
      <use xlink:href="#DejaVuSans-69" x="264.648438"/>
      <use xlink:href="#DejaVuSans-74" x="292.431641"/>
      <use xlink:href="#DejaVuSans-79" x="331.640625"/>
      <use xlink:href="#DejaVuSans-20" x="390.820312"/>
      <use xlink:href="#DejaVuSans-28" x="422.607422"/>
      <use xlink:href="#DejaVuSans-6d" x="461.621094"/>
      <use xlink:href="#DejaVuSans-2f" x="559.033203"/>
      <use xlink:href="#DejaVuSans-61" x="592.724609"/>
      <use xlink:href="#DejaVuSans-29" x="654.003906"/>
     </g>
    </g>
   </g>
   <g id="line2d_41">
    <path d="M 73.41286 672.346717 
L 93.333407 672.240886 
L 96.398107 671.876375 
L 97.930456 671.50632 
L 99.462806 670.971581 
L 100.995156 670.267259 
L 102.527506 669.387507 
L 104.059855 668.336052 
L 107.124555 665.792265 
L 111.721604 661.343848 
L 119.383353 653.602572 
L 122.448053 650.851328 
L 125.512752 648.354816 
L 128.577452 646.072252 
L 131.642151 644.000917 
L 136.2392 641.223333 
L 140.83625 638.779671 
L 146.965649 635.831473 
L 153.095048 633.152281 
L 159.224447 630.760789 
L 163.821496 629.192461 
L 168.418545 627.850996 
L 173.015595 626.757126 
L 177.612644 625.88604 
L 191.403792 623.563542 
L 196.000841 622.423109 
L 200.59789 620.997357 
L 205.19494 619.301577 
L 209.791989 617.346988 
L 223.583137 610.980211 
L 228.180186 608.609621 
L 232.777235 605.936377 
L 238.906634 601.998819 
L 245.036034 597.751639 
L 252.697782 592.126458 
L 269.55363 579.588161 
L 274.150679 576.484982 
L 278.747728 573.615803 
L 294.071226 564.355208 
L 301.732975 559.26906 
L 307.862374 555.299723 
L 310.927073 553.568428 
L 313.991773 552.067054 
L 317.056472 550.796112 
L 321.653522 549.236621 
L 324.718221 548.367234 
L 327.782921 547.662685 
L 330.84762 547.144554 
L 333.91232 546.81437 
L 338.509369 546.615717 
L 344.638768 546.588697 
L 347.703468 546.749795 
L 352.300517 547.275743 
L 356.897566 547.807469 
L 359.962266 547.919626 
L 363.026965 547.799142 
L 366.091665 547.488162 
L 367.624014 547.196384 
L 369.156364 546.768828 
L 370.688714 546.202095 
L 372.221064 545.488539 
L 373.753413 544.605898 
L 375.285763 543.5331 
L 376.818113 542.239386 
L 378.350463 540.723058 
L 381.415162 537.185696 
L 384.479862 533.698295 
L 386.012212 532.266594 
L 387.544561 531.144855 
L 389.076911 530.338514 
L 390.609261 529.826841 
L 392.141611 529.555795 
L 393.67396 529.473716 
L 396.73866 529.648069 
L 401.335709 530.202737 
L 404.400409 530.760972 
L 407.465108 531.508855 
L 418.191557 534.46555 
L 421.256256 535.020387 
L 425.853305 535.582871 
L 436.579754 536.687617 
L 439.644453 537.193003 
L 442.709153 537.877331 
L 445.773852 538.815031 
L 448.838552 540.023437 
L 451.903251 541.506968 
L 454.967951 543.267322 
L 458.03265 545.3565 
L 461.09735 547.843835 
L 464.162049 550.82789 
L 467.226749 554.415213 
L 470.291448 558.544288 
L 473.356148 563.217324 
L 476.420847 568.38793 
L 479.485547 573.966379 
L 484.082596 582.910386 
L 491.744345 598.11275 
L 494.809045 603.628663 
L 497.873744 608.650236 
L 500.938444 613.179507 
L 504.003143 617.23755 
L 507.067843 620.921906 
L 510.132542 624.260954 
L 513.197242 627.299897 
L 517.794291 631.427443 
L 522.39134 635.272557 
L 526.98839 638.851554 
L 531.585439 642.183974 
L 536.182488 645.276787 
L 540.779537 648.13543 
L 545.376587 650.654713 
L 549.973636 652.844663 
L 554.570685 654.728389 
L 559.167735 656.351114 
L 563.764784 657.741843 
L 569.894183 659.327878 
L 576.023582 660.682768 
L 583.685331 662.116355 
L 591.34708 663.318456 
L 599.008828 664.3234 
L 608.202927 665.289122 
L 615.864676 665.88318 
L 623.526425 666.249984 
L 632.720523 666.43144 
L 658.770469 666.755557 
L 661.835169 667.002149 
L 664.899868 667.414904 
L 667.964568 668.018274 
L 671.029267 668.810561 
L 677.158666 670.744309 
L 680.223366 671.638386 
L 683.288065 672.218907 
L 686.352765 672.346717 
L 686.352765 672.346717 
" clip-path="url(#p54a244d09e)" style="fill: none; stroke: #20b2aa; stroke-linecap: square"/>
   </g>
   <g id="line2d_42">
    <path d="M 85.921838 672.348092 
L 98.430816 670.737539 
L 110.939793 663.17809 
L 123.448771 652.490369 
L 135.957751 643.001308 
L 148.466726 636.222642 
L 160.975702 630.621548 
L 173.484684 626.568451 
L 185.993659 623.642628 
L 198.502635 620.479936 
L 211.011617 615.890373 
L 223.520592 609.357178 
L 236.029568 601.395749 
L 248.53855 592.198646 
L 261.047526 581.906086 
L 273.556501 571.542302 
L 286.065483 561.355522 
L 298.574459 551.16986 
L 311.083434 542.161947 
L 323.592416 537.044819 
L 336.101392 536.24344 
L 348.610367 537.160248 
L 361.119349 537.220266 
L 373.628325 530.904557 
L 386.1373 522.544825 
L 398.646276 520.534468 
L 411.155258 521.729814 
L 423.664233 525.392595 
L 436.173209 529.54184 
L 448.682191 534.522118 
L 461.191166 543.988722 
L 473.700142 560.904128 
L 486.209124 584.41489 
L 498.718099 607.296721 
L 511.227075 623.550659 
L 523.736057 635.056667 
L 536.245033 644.791533 
L 548.754008 652.013965 
L 561.26299 656.769974 
L 573.771966 660.071493 
L 586.280941 662.500486 
L 598.789923 664.271244 
L 611.298899 665.52624 
L 623.807874 666.241425 
L 636.316856 666.50103 
L 648.825832 666.571807 
L 661.334807 667.027282 
L 673.843789 669.573329 
L 686.352765 672.346717 
" clip-path="url(#p54a244d09e)" style="fill: none; stroke: #ff0000; stroke-linecap: square"/>
   </g>
   <g id="line2d_43">
    <path d="M 73.41286 672.346717 
L 85.671658 672.346531 
L 97.930456 671.387718 
L 110.189255 662.829308 
L 122.448053 650.946105 
L 134.706851 642.069505 
L 146.965649 635.490929 
L 159.224447 630.355727 
L 171.483245 626.325041 
L 183.742043 623.85195 
L 196.000841 621.03991 
L 208.259639 616.163922 
L 220.518437 609.785159 
L 232.777235 602.238254 
L 245.036034 592.683453 
L 257.294832 581.768429 
L 269.55363 570.342995 
L 281.812428 559.745678 
L 294.071226 548.514547 
L 306.330024 536.346998 
L 318.588822 527.062019 
L 330.84762 523.229439 
L 343.106418 524.049942 
L 355.365216 530.024482 
L 367.624014 527.191786 
L 379.882812 512.864026 
L 392.141611 505.093725 
L 404.400409 506.825051 
L 416.659207 512.891598 
L 428.918005 517.723089 
L 441.176803 521.618305 
L 453.435601 528.685739 
L 465.694399 542.472192 
L 477.953197 564.121602 
L 490.211995 590.376461 
L 502.470793 612.24288 
L 514.729591 626.791808 
L 526.98839 637.968622 
L 539.247188 646.563839 
L 551.505986 653.102234 
L 563.764784 657.498693 
L 576.023582 660.550541 
L 588.28238 662.78057 
L 600.541178 664.446511 
L 612.799976 665.620787 
L 625.058774 666.245564 
L 637.317572 666.44513 
L 649.57637 666.543394 
L 661.835169 667.053466 
L 674.093967 669.822789 
L 686.352765 672.346717 
" clip-path="url(#p54a244d09e)" style="fill: none; stroke: #0000ff; stroke-linecap: square"/>
   </g>
   <g id="line2d_44">
    <path d="M 73.41286 672.346717 
L 85.671658 672.346486 
L 97.930456 671.426111 
L 110.189255 662.852931 
L 122.448053 650.861505 
L 134.706851 641.878991 
L 146.965649 635.364866 
L 159.224447 630.112307 
L 171.483245 626.218648 
L 183.742043 623.708145 
L 196.000841 620.829202 
L 208.259639 615.990196 
L 220.518437 609.522322 
L 232.777235 601.885082 
L 245.036034 592.199461 
L 257.294832 581.119766 
L 269.55363 569.53042 
L 281.812428 558.547642 
L 294.071226 547.062759 
L 306.330024 534.166339 
L 318.588822 524.315464 
L 330.84762 520.981725 
L 343.106418 521.938233 
L 355.365216 527.699241 
L 367.624014 524.089722 
L 379.882812 509.820531 
L 392.141611 501.153624 
L 404.400409 503.44283 
L 416.659207 509.896085 
L 428.918005 514.865741 
L 441.176803 519.104517 
L 453.435601 526.94487 
L 465.694399 540.763645 
L 477.953197 563.055992 
L 490.211995 589.849224 
L 502.470793 611.857522 
L 514.729591 626.699578 
L 526.98839 637.70403 
L 539.247188 646.508524 
L 551.505986 653.050166 
L 563.764784 657.472721 
L 576.023582 660.528285 
L 588.28238 662.769146 
L 600.541178 664.438739 
L 612.799976 665.614365 
L 625.058774 666.245572 
L 637.317572 666.448513 
L 649.57637 666.535624 
L 661.835169 667.053333 
L 674.093967 669.815674 
L 686.352765 672.346717 
" clip-path="url(#p54a244d09e)" style="fill: none; stroke: #32cd32; stroke-linecap: square"/>
   </g>
   <g id="line2d_45">
    <path d="M 73.41286 672.346717 
L 85.671658 672.346075 
L 97.930456 671.707326 
L 110.189255 663.345102 
L 122.448053 650.6413 
L 134.706851 641.299292 
L 146.965649 634.237677 
L 159.224447 628.209111 
L 171.483245 623.593367 
L 183.742043 620.554768 
L 196.000841 616.990689 
L 208.259639 610.305698 
L 220.518437 601.134405 
L 232.777235 590.007966 
L 245.036034 574.617366 
L 257.294832 555.709897 
L 269.55363 533.592067 
L 281.812428 509.401707 
L 294.071226 479.967762 
L 306.330024 444.031632 
L 318.588822 422.178365 
L 330.84762 423.087202 
L 343.106418 431.13015 
L 355.365216 426.623006 
L 367.624014 415.668946 
L 379.882812 412.511819 
L 392.141611 391.255479 
L 404.400409 386.439733 
L 416.659207 401.442899 
L 428.918005 429.229136 
L 441.176803 450.136401 
L 453.435601 472.265804 
L 465.694399 501.22307 
L 477.953197 537.750622 
L 490.211995 576.104661 
L 502.470793 604.32361 
L 514.729591 622.416227 
L 526.98839 635.395865 
L 539.247188 645.370943 
L 551.505986 652.466925 
L 563.764784 657.179194 
L 576.023582 660.385102 
L 588.28238 662.696359 
L 600.541178 664.40742 
L 612.799976 665.613213 
L 625.058774 666.236532 
L 637.317572 666.42156 
L 649.57637 666.522424 
L 661.835169 667.036792 
L 674.093967 669.942777 
L 686.352765 672.346717 
" clip-path="url(#p54a244d09e)" style="fill: none; stroke: #c0c0c0; stroke-linecap: square"/>
   </g>
   <g id="line2d_46">
    <path d="M 73.41286 672.346716 
L 85.671658 672.295305 
L 97.930456 669.826841 
L 110.189255 658.568951 
L 122.448053 646.121196 
L 134.706851 637.916859 
L 146.965649 633.107324 
L 159.224447 629.544621 
L 171.483245 626.878874 
L 183.742043 624.915001 
L 196.000841 622.493139 
L 208.259639 618.702704 
L 220.518437 612.941835 
L 232.777235 605.463346 
L 245.036034 597.671281 
L 257.294832 588.724883 
L 269.55363 580.314377 
L 281.812428 572.492104 
L 294.071226 566.004264 
L 306.330024 560.536844 
L 318.588822 556.194763 
L 330.84762 552.365012 
L 343.106418 549.50627 
L 355.365216 548.420319 
L 367.624014 551.165456 
L 379.882812 542.896092 
L 392.141611 538.959855 
L 404.400409 539.045238 
L 416.659207 541.092134 
L 428.918005 542.16106 
L 441.176803 543.339014 
L 453.435601 547.604297 
L 465.694399 557.603453 
L 477.953197 575.967797 
L 490.211995 597.694947 
L 502.470793 615.968464 
L 514.729591 630.365309 
L 526.98839 638.910787 
L 539.247188 647.068227 
L 551.505986 653.142011 
L 563.764784 657.567418 
L 576.023582 660.949339 
L 588.28238 663.159735 
L 600.541178 664.825221 
L 612.799976 665.872302 
L 625.058774 666.621472 
L 637.317572 666.495708 
L 649.57637 666.560389 
L 661.835169 667.497023 
L 674.093967 670.499824 
L 686.352765 672.320122 
" clip-path="url(#p54a244d09e)" style="fill: none; stroke: #000000; stroke-width: 4; stroke-linecap: square"/>
   </g>
   <g id="patch_9">
    <path d="M 42.765865 686.64351 
L 42.765865 372.144315 
" style="fill: none; stroke: #000000; stroke-width: 0.8; stroke-linejoin: miter; stroke-linecap: square"/>
   </g>
   <g id="patch_10">
    <path d="M 716.99976 686.64351 
L 716.99976 372.144315 
" style="fill: none; stroke: #000000; stroke-width: 0.8; stroke-linejoin: miter; stroke-linecap: square"/>
   </g>
   <g id="patch_11">
    <path d="M 42.765865 686.64351 
L 716.99976 686.64351 
" style="fill: none; stroke: #000000; stroke-width: 0.8; stroke-linejoin: miter; stroke-linecap: square"/>
   </g>
   <g id="patch_12">
    <path d="M 42.765865 372.144315 
L 716.99976 372.144315 
" style="fill: none; stroke: #000000; stroke-width: 0.8; stroke-linejoin: miter; stroke-linecap: square"/>
   </g>
   <g id="text_39">
    <!-- 1 -->
    <g transform="translate(376.065313 366.144315)scale(0.12 -0.12)">
     <use xlink:href="#DejaVuSans-31"/>
    </g>
   </g>
  </g>
 </g>
 <defs>
  <clipPath id="p72fd4d4f2d">
   <rect x="42.765865" y="4.970745" width="674.233895" height="314.499195"/>
  </clipPath>
  <clipPath id="p54a244d09e">
   <rect x="42.765865" y="372.144315" width="674.233895" height="314.499195"/>
  </clipPath>
 </defs>
</svg>
