<?xml version="1.0" encoding="UTF-8" standalone="no"?>
<svg
   xmlns:dc="http://purl.org/dc/elements/1.1/"
   xmlns:cc="http://creativecommons.org/ns#"
   xmlns:rdf="http://www.w3.org/1999/02/22-rdf-syntax-ns#"
   xmlns:svg="http://www.w3.org/2000/svg"
   xmlns="http://www.w3.org/2000/svg"
   xmlns:sodipodi="http://sodipodi.sourceforge.net/DTD/sodipodi-0.dtd"
   xmlns:inkscape="http://www.inkscape.org/namespaces/inkscape"
   width="210mm"
   height="297mm"
   viewBox="0 0 210 297"
   version="1.1"
   id="svg8"
   inkscape:version="1.0.1 (3bc2e813f5, 2020-09-07)"
   sodipodi:docname="Fig-cp-t-DOF-rectangular-grid.svg">
  <defs
     id="defs2" />
  <sodipodi:namedview
     id="base"
     pagecolor="#ffffff"
     bordercolor="#666666"
     borderopacity="1.0"
     inkscape:pageopacity="0.0"
     inkscape:pageshadow="2"
     inkscape:zoom="0.7"
     inkscape:cx="775.7948"
     inkscape:cy="438.66973"
     inkscape:document-units="mm"
     inkscape:current-layer="layer1"
     inkscape:document-rotation="0"
     showgrid="false"
     inkscape:window-width="1380"
     inkscape:window-height="920"
     inkscape:window-x="1131"
     inkscape:window-y="20"
     inkscape:window-maximized="0" />
  <metadata
     id="metadata5">
    <rdf:RDF>
      <cc:Work
         rdf:about="">
        <dc:format>image/svg+xml</dc:format>
        <dc:type
           rdf:resource="http://purl.org/dc/dcmitype/StillImage" />
        <dc:title />
      </cc:Work>
    </rdf:RDF>
  </metadata>
  <g
     inkscape:label="Ebene 1"
     inkscape:groupmode="layer"
     id="layer1">
    <text
       class="TextShape"
       id="text186"
       style="font-size:0.12px;stroke-width:0.28222;stroke-linejoin:round"
       x="21.596512"
       y="123.37385"><tspan
         class="TextParagraph"
         font-family="'Liberation Sans', sans-serif"
         font-size="3.53px"
         font-weight="400"
         id="tspan184"
         style="stroke-width:0.0028222"><tspan
           class="TextPosition"
           x="52.236511"
           y="149.43385"
           id="tspan182"
           style="stroke-width:0.28222"><tspan
             fill="#ff8000"
             stroke="none"
             id="tspan180"
             style="stroke-width:0.0028222">f(x) = 0,000343449309889 x^1,16986107220789</tspan></tspan></tspan></text>
    <text
       class="TextShape"
       id="text194"
       style="font-size:0.12px;stroke-width:0.28222;stroke-linejoin:round"
       x="21.596512"
       y="123.37385"><tspan
         class="TextParagraph"
         font-family="'Liberation Sans', sans-serif"
         font-size="4.59px"
         font-weight="400"
         id="tspan192"
         style="stroke-width:0.0028222"><tspan
           class="TextPosition"
           x="76.76651"
           y="132.06386"
           id="tspan190"
           style="stroke-width:0.28222"><tspan
             fill="#000000"
             stroke="none"
             id="tspan188"
             style="stroke-width:0.0028222">dof vs time, incl. outliers</tspan></tspan></tspan></text>
    <path
       fill="none"
       stroke="#b3b3b3"
       stroke-linejoin="round"
       d="M 106.31563,103.36577 H 38.423857 V 41.371036 H 174.2074 v 61.994734 z"
       id="path12-3"
       style="stroke-width:0.30593"
       inkscape:export-xdpi="300"
       inkscape:export-ydpi="300" />
    <path
       fill="none"
       stroke="#b3b3b3"
       stroke-linejoin="round"
       d="m 38.423857,104.98095 v -1.62602"
       id="path14-6"
       style="stroke-width:0.30593"
       inkscape:export-xdpi="300"
       inkscape:export-ydpi="300" />
    <path
       fill="none"
       stroke="#b3b3b3"
       stroke-linejoin="round"
       d="m 38.423857,104.98095 v -1.62602"
       id="path16-7"
       style="stroke-width:0.30593"
       inkscape:export-xdpi="300"
       inkscape:export-ydpi="300" />
    <path
       fill="none"
       stroke="#b3b3b3"
       stroke-linejoin="round"
       d="m 83.681416,104.98095 v -1.62602"
       id="path18-5"
       style="stroke-width:0.30593"
       inkscape:export-xdpi="300"
       inkscape:export-ydpi="300" />
    <path
       fill="none"
       stroke="#b3b3b3"
       stroke-linejoin="round"
       d="m 83.681416,104.98095 v -1.62602"
       id="path20-3"
       style="stroke-width:0.30593"
       inkscape:export-xdpi="300"
       inkscape:export-ydpi="300" />
    <path
       fill="none"
       stroke="#b3b3b3"
       stroke-linejoin="round"
       d="m 128.939,104.98095 v -1.62602"
       id="path22-5"
       style="stroke-width:0.30593"
       inkscape:export-xdpi="300"
       inkscape:export-ydpi="300" />
    <path
       fill="none"
       stroke="#b3b3b3"
       stroke-linejoin="round"
       d="m 128.939,104.98095 v -1.62602"
       id="path24-6"
       style="stroke-width:0.30593"
       inkscape:export-xdpi="300"
       inkscape:export-ydpi="300" />
    <path
       fill="none"
       stroke="#b3b3b3"
       stroke-linejoin="round"
       d="m 174.2074,104.98095 v -1.62602"
       id="path26-2"
       style="stroke-width:0.30593"
       inkscape:export-xdpi="300"
       inkscape:export-ydpi="300" />
    <path
       fill="none"
       stroke="#b3b3b3"
       stroke-linejoin="round"
       d="m 174.2074,104.98095 v -1.62602"
       id="path28-9"
       style="stroke-width:0.30593"
       inkscape:export-xdpi="300"
       inkscape:export-ydpi="300" />
    <path
       fill="none"
       stroke="#b3b3b3"
       stroke-linejoin="round"
       d="M 38.413017,103.35493 H 174.19657"
       id="path30-1"
       style="stroke-width:0.30593"
       inkscape:export-xdpi="300"
       inkscape:export-ydpi="300" />
    <path
       fill="none"
       stroke="#b3b3b3"
       stroke-linejoin="round"
       d="m 36.786996,103.35493 h 1.626021"
       id="path32-2"
       style="stroke-width:0.30593"
       inkscape:export-xdpi="300"
       inkscape:export-ydpi="300" />
    <path
       fill="none"
       stroke="#b3b3b3"
       stroke-linejoin="round"
       d="m 36.786996,103.35493 h 1.626021"
       id="path34-7"
       style="stroke-width:0.30593"
       inkscape:export-xdpi="300"
       inkscape:export-ydpi="300" />
    <path
       fill="none"
       stroke="#b3b3b3"
       stroke-linejoin="round"
       d="m 36.786996,87.853536 h 1.626021"
       id="path36-0"
       style="stroke-width:0.30593"
       inkscape:export-xdpi="300"
       inkscape:export-ydpi="300" />
    <path
       fill="none"
       stroke="#b3b3b3"
       stroke-linejoin="round"
       d="m 36.786996,87.853536 h 1.626021"
       id="path38-9"
       style="stroke-width:0.30593"
       inkscape:export-xdpi="300"
       inkscape:export-ydpi="300" />
    <path
       fill="none"
       stroke="#b3b3b3"
       stroke-linejoin="round"
       d="m 36.786996,72.362986 h 1.626021"
       id="path40-3"
       style="stroke-width:0.30593"
       inkscape:export-xdpi="300"
       inkscape:export-ydpi="300" />
    <path
       fill="none"
       stroke="#b3b3b3"
       stroke-linejoin="round"
       d="m 36.786996,72.362986 h 1.626021"
       id="path42-6"
       style="stroke-width:0.30593"
       inkscape:export-xdpi="300"
       inkscape:export-ydpi="300" />
    <path
       fill="none"
       stroke="#b3b3b3"
       stroke-linejoin="round"
       d="m 36.786996,56.861596 h 1.626021"
       id="path44-0"
       style="stroke-width:0.30593"
       inkscape:export-xdpi="300"
       inkscape:export-ydpi="300" />
    <path
       fill="none"
       stroke="#b3b3b3"
       stroke-linejoin="round"
       d="m 36.786996,56.861596 h 1.626021"
       id="path46-6"
       style="stroke-width:0.30593"
       inkscape:export-xdpi="300"
       inkscape:export-ydpi="300" />
    <path
       fill="none"
       stroke="#b3b3b3"
       stroke-linejoin="round"
       d="m 36.786996,41.360196 h 1.626021"
       id="path48-2"
       style="stroke-width:0.30593"
       inkscape:export-xdpi="300"
       inkscape:export-ydpi="300" />
    <path
       fill="none"
       stroke="#b3b3b3"
       stroke-linejoin="round"
       d="m 36.786996,41.360196 h 1.626021"
       id="path50-6"
       style="stroke-width:0.30593"
       inkscape:export-xdpi="300"
       inkscape:export-ydpi="300" />
    <path
       fill="none"
       stroke="#b3b3b3"
       stroke-linejoin="round"
       d="M 38.413017,103.35493 V 41.360196"
       id="path52-1"
       style="stroke-width:0.30593"
       inkscape:export-xdpi="300"
       inkscape:export-ydpi="300" />
    <path
       fill="#004586"
       stroke="none"
       d="m 54.814136,99.083896 v 1.626034 h 1.626031 v -1.626034 z"
       id="path54-8"
       style="stroke-width:0.30593;stroke-linejoin:round"
       inkscape:export-xdpi="300"
       inkscape:export-ydpi="300" />
    <path
       fill="none"
       stroke="#004586"
       stroke-linejoin="round"
       d="m 54.814136,99.083896 v 1.626034 h 1.626031 v -1.626034 z"
       id="path56-7"
       style="stroke-width:0.30593"
       inkscape:export-xdpi="300"
       inkscape:export-ydpi="300" />
    <path
       fill="#004586"
       stroke="none"
       d="m 82.066236,88.037816 v 1.62601 h 1.62602 v -1.62601 z"
       id="path58-9"
       style="stroke-width:0.30593;stroke-linejoin:round"
       inkscape:export-xdpi="300"
       inkscape:export-ydpi="300" />
    <path
       fill="none"
       stroke="#004586"
       stroke-linejoin="round"
       d="m 82.066236,88.037816 v 1.62601 h 1.62602 v -1.62601 z"
       id="path60-2"
       style="stroke-width:0.30593"
       inkscape:export-xdpi="300"
       inkscape:export-ydpi="300" />
    <path
       fill="#004586"
       stroke="none"
       d="m 98.012076,79.192266 v 1.62602 h 1.62603 v -1.62602 z"
       id="path62-0"
       style="stroke-width:0.30593;stroke-linejoin:round"
       inkscape:export-xdpi="300"
       inkscape:export-ydpi="300" />
    <path
       fill="none"
       stroke="#004586"
       stroke-linejoin="round"
       d="m 98.012076,79.192266 v 1.62602 h 1.62603 v -1.62602 z"
       id="path64-2"
       style="stroke-width:0.30593"
       inkscape:export-xdpi="300"
       inkscape:export-ydpi="300" />
    <path
       fill="#004586"
       stroke="none"
       d="m 109.3075,78.097406 v 1.62603 h 1.62603 v -1.62603 z"
       id="path66-3"
       style="stroke-width:0.30593;stroke-linejoin:round"
       inkscape:export-xdpi="300"
       inkscape:export-ydpi="300" />
    <path
       fill="none"
       stroke="#004586"
       stroke-linejoin="round"
       d="m 109.3075,78.097406 v 1.62603 h 1.62603 v -1.62603 z"
       id="path68-7"
       style="stroke-width:0.30593"
       inkscape:export-xdpi="300"
       inkscape:export-ydpi="300" />
    <path
       fill="#004586"
       stroke="none"
       d="m 109.71943,44.102756 v 1.62601 h 1.62602 v -1.62601 z"
       id="path70-5"
       style="stroke-width:0.30593;stroke-linejoin:round"
       inkscape:export-xdpi="300"
       inkscape:export-ydpi="300" />
    <path
       fill="none"
       stroke="#004586"
       stroke-linejoin="round"
       d="m 109.71943,44.102756 v 1.62601 h 1.62602 v -1.62601 z"
       id="path72-9"
       style="stroke-width:0.30593"
       inkscape:export-xdpi="300"
       inkscape:export-ydpi="300" />
    <path
       fill="#004586"
       stroke="none"
       d="m 118.07717,72.655666 v 1.61518 h 1.62604 v -1.61518 z"
       id="path74-2"
       style="stroke-width:0.30593;stroke-linejoin:round"
       inkscape:export-xdpi="300"
       inkscape:export-ydpi="300" />
    <path
       fill="none"
       stroke="#004586"
       stroke-linejoin="round"
       d="m 118.07717,72.655666 v 1.61518 h 1.62604 v -1.61518 z"
       id="path76-2"
       style="stroke-width:0.30593"
       inkscape:export-xdpi="300"
       inkscape:export-ydpi="300" />
    <path
       fill="#004586"
       stroke="none"
       d="m 125.25335,70.509326 v 1.62601 h 1.62601 v -1.62601 z"
       id="path78-8"
       style="stroke-width:0.30593;stroke-linejoin:round"
       inkscape:export-xdpi="300"
       inkscape:export-ydpi="300" />
    <path
       fill="none"
       stroke="#004586"
       stroke-linejoin="round"
       d="m 125.25335,70.509326 v 1.62601 h 1.62601 v -1.62601 z"
       id="path80-9"
       style="stroke-width:0.30593"
       inkscape:export-xdpi="300"
       inkscape:export-ydpi="300" />
    <path
       fill="#004586"
       stroke="none"
       d="m 131.31297,63.777596 v 1.62601 h 1.62603 v -1.62601 z"
       id="path82-7"
       style="stroke-width:0.30593;stroke-linejoin:round"
       inkscape:export-xdpi="300"
       inkscape:export-ydpi="300" />
    <path
       fill="none"
       stroke="#004586"
       stroke-linejoin="round"
       d="m 131.31297,63.777596 v 1.62601 h 1.62603 v -1.62601 z"
       id="path84-3"
       style="stroke-width:0.30593"
       inkscape:export-xdpi="300"
       inkscape:export-ydpi="300" />
    <path
       fill="#004586"
       stroke="none"
       d="m 136.55961,63.831796 v 1.62601 h 1.62601 v -1.62601 z"
       id="path86-6"
       style="stroke-width:0.30593;stroke-linejoin:round"
       inkscape:export-xdpi="300"
       inkscape:export-ydpi="300" />
    <path
       fill="none"
       stroke="#004586"
       stroke-linejoin="round"
       d="m 136.55961,63.831796 v 1.62601 h 1.62601 v -1.62601 z"
       id="path88-1"
       style="stroke-width:0.30593"
       inkscape:export-xdpi="300"
       inkscape:export-ydpi="300" />
    <path
       fill="#004586"
       stroke="none"
       d="m 141.18835,63.777596 v 1.62601 h 1.62601 v -1.62601 z"
       id="path90-2"
       style="stroke-width:0.30593;stroke-linejoin:round"
       inkscape:export-xdpi="300"
       inkscape:export-ydpi="300" />
    <path
       fill="none"
       stroke="#004586"
       stroke-linejoin="round"
       d="m 141.18835,63.777596 v 1.62601 h 1.62601 v -1.62601 z"
       id="path92-9"
       style="stroke-width:0.30593"
       inkscape:export-xdpi="300"
       inkscape:export-ydpi="300" />
    <path
       fill="#004586"
       stroke="none"
       d="m 145.32927,54.661046 v 1.62602 h 1.62602 v -1.62602 z"
       id="path94-3"
       style="stroke-width:0.30593;stroke-linejoin:round"
       inkscape:export-xdpi="300"
       inkscape:export-ydpi="300" />
    <path
       fill="none"
       stroke="#004586"
       stroke-linejoin="round"
       d="m 145.32927,54.661046 v 1.62602 h 1.62602 v -1.62602 z"
       id="path96-1"
       style="stroke-width:0.30593"
       inkscape:export-xdpi="300"
       inkscape:export-ydpi="300" />
    <path
       fill="#004586"
       stroke="none"
       d="m 149.07996,60.493036 v 1.62602 h 1.62603 v -1.62602 z"
       id="path98-9"
       style="stroke-width:0.30593;stroke-linejoin:round"
       inkscape:export-xdpi="300"
       inkscape:export-ydpi="300" />
    <path
       fill="none"
       stroke="#004586"
       stroke-linejoin="round"
       d="m 149.07996,60.493036 v 1.62602 h 1.62603 v -1.62602 z"
       id="path100-4"
       style="stroke-width:0.30593"
       inkscape:export-xdpi="300"
       inkscape:export-ydpi="300" />
    <path
       fill="#004586"
       stroke="none"
       d="m 152.50545,59.224736 v 1.62602 h 1.62602 v -1.62602 z"
       id="path102-7"
       style="stroke-width:0.30593;stroke-linejoin:round"
       inkscape:export-xdpi="300"
       inkscape:export-ydpi="300" />
    <path
       fill="none"
       stroke="#004586"
       stroke-linejoin="round"
       d="m 152.50545,59.224736 v 1.62602 h 1.62602 v -1.62602 z"
       id="path104-8"
       style="stroke-width:0.30593"
       inkscape:export-xdpi="300"
       inkscape:export-ydpi="300" />
    <path
       fill="none"
       stroke="#ff8000"
       stroke-width="1.08402"
       stroke-linejoin="round"
       d="M 55.627158,95.745146 153.31846,56.623106"
       id="path106-4"
       inkscape:export-xdpi="300"
       inkscape:export-ydpi="300" />
    <text
       class="TextShape"
       id="text114-7"
       style="font-size:0.130081px;stroke-width:0.30593;stroke-linejoin:round"
       x="15.280181"
       y="25.360132"
       inkscape:export-xdpi="300"
       inkscape:export-ydpi="300"><tspan
         class="TextParagraph"
         font-family="'Liberation Sans', sans-serif"
         font-size="3.82656px"
         font-weight="400"
         id="tspan112-5"
         style="stroke-width:0.0030593"><tspan
           class="TextPosition"
           x="34.41301"
           y="109.56632"
           id="tspan110-9"
           style="stroke-width:0.30593"><tspan
             fill="#000000"
             stroke="none"
             id="tspan108-2"
             style="stroke-width:0.0030593">1000</tspan></tspan></tspan></text>
    <text
       class="TextShape"
       id="text122-2"
       style="font-size:0.130081px;stroke-width:0.30593;stroke-linejoin:round"
       x="15.280181"
       y="25.360132"
       inkscape:export-xdpi="300"
       inkscape:export-ydpi="300"><tspan
         class="TextParagraph"
         font-family="'Liberation Sans', sans-serif"
         font-size="3.82656px"
         font-weight="400"
         id="tspan120-8"
         style="stroke-width:0.0030593"><tspan
           class="TextPosition"
           x="78.673279"
           y="109.56632"
           id="tspan118-9"
           style="stroke-width:0.30593"><tspan
             fill="#000000"
             stroke="none"
             id="tspan116-7"
             style="stroke-width:0.0030593">10000</tspan></tspan></tspan></text>
    <text
       class="TextShape"
       id="text130-3"
       style="font-size:0.130081px;stroke-width:0.30593;stroke-linejoin:round"
       x="15.280181"
       y="25.360132"
       inkscape:export-xdpi="300"
       inkscape:export-ydpi="300"><tspan
         class="TextParagraph"
         font-family="'Liberation Sans', sans-serif"
         font-size="3.82656px"
         font-weight="400"
         id="tspan128-6"
         style="stroke-width:0.0030593"><tspan
           class="TextPosition"
           x="122.94438"
           y="109.56632"
           id="tspan126-1"
           style="stroke-width:0.30593"><tspan
             fill="#000000"
             stroke="none"
             id="tspan124-2"
             style="stroke-width:0.0030593">100000</tspan></tspan></tspan></text>
    <text
       class="TextShape"
       id="text138-9"
       style="font-size:0.130081px;stroke-width:0.30593;stroke-linejoin:round"
       x="15.280181"
       y="25.360132"
       inkscape:export-xdpi="300"
       inkscape:export-ydpi="300"><tspan
         class="TextParagraph"
         font-family="'Liberation Sans', sans-serif"
         font-size="3.82656px"
         font-weight="400"
         id="tspan136-3"
         style="stroke-width:0.0030593"><tspan
           class="TextPosition"
           x="167.20467"
           y="109.56632"
           id="tspan134-1"
           style="stroke-width:0.30593"><tspan
             fill="#000000"
             stroke="none"
             id="tspan132-9"
             style="stroke-width:0.0030593">1000000</tspan></tspan></tspan></text>
    <text
       class="TextShape"
       id="text146-4"
       style="font-size:0.130081px;stroke-width:0.30593;stroke-linejoin:round"
       x="15.280181"
       y="25.360132"
       inkscape:export-xdpi="300"
       inkscape:export-ydpi="300"><tspan
         class="TextParagraph"
         font-family="'Liberation Sans', sans-serif"
         font-size="3.82656px"
         font-weight="400"
         id="tspan144-7"
         style="stroke-width:0.0030593"><tspan
           class="TextPosition"
           x="33.697571"
           y="104.74247"
           id="tspan142-8"
           style="stroke-width:0.30593"><tspan
             fill="#000000"
             stroke="none"
             id="tspan140-4"
             style="stroke-width:0.0030593">1</tspan></tspan></tspan></text>
    <text
       class="TextShape"
       id="text154-5"
       style="font-size:0.130081px;stroke-width:0.30593;stroke-linejoin:round"
       x="15.280181"
       y="25.360132"
       inkscape:export-xdpi="300"
       inkscape:export-ydpi="300"><tspan
         class="TextParagraph"
         font-family="'Liberation Sans', sans-serif"
         font-size="3.82656px"
         font-weight="400"
         id="tspan152-0"
         style="stroke-width:0.0030593"><tspan
           class="TextPosition"
           x="31.702988"
           y="89.241081"
           id="tspan150-5"
           style="stroke-width:0.30593"><tspan
             fill="#000000"
             stroke="none"
             id="tspan148-0"
             style="stroke-width:0.0030593">10</tspan></tspan></tspan></text>
    <text
       class="TextShape"
       id="text162-3"
       style="font-size:0.130081px;stroke-width:0.30593;stroke-linejoin:round"
       x="15.280181"
       y="25.360132"
       inkscape:export-xdpi="300"
       inkscape:export-ydpi="300"><tspan
         class="TextParagraph"
         font-family="'Liberation Sans', sans-serif"
         font-size="3.82656px"
         font-weight="400"
         id="tspan160-6"
         style="stroke-width:0.0030593"><tspan
           class="TextPosition"
           x="29.697556"
           y="73.739693"
           id="tspan158-3"
           style="stroke-width:0.30593"><tspan
             fill="#000000"
             stroke="none"
             id="tspan156-6"
             style="stroke-width:0.0030593">100</tspan></tspan></tspan></text>
    <text
       class="TextShape"
       id="text170-1"
       style="font-size:0.130081px;stroke-width:0.30593;stroke-linejoin:round"
       x="15.280181"
       y="25.360132"
       inkscape:export-xdpi="300"
       inkscape:export-ydpi="300"><tspan
         class="TextParagraph"
         font-family="'Liberation Sans', sans-serif"
         font-size="3.82656px"
         font-weight="400"
         id="tspan168-0"
         style="stroke-width:0.0030593"><tspan
           class="TextPosition"
           x="27.692123"
           y="58.238293"
           id="tspan166-1"
           style="stroke-width:0.30593"><tspan
             fill="#000000"
             stroke="none"
             id="tspan164-0"
             style="stroke-width:0.0030593">1000</tspan></tspan></tspan></text>
    <text
       class="TextShape"
       id="text178-6"
       style="font-size:0.130081px;stroke-width:0.30593;stroke-linejoin:round"
       x="15.280181"
       y="25.360132"
       inkscape:export-xdpi="300"
       inkscape:export-ydpi="300"><tspan
         class="TextParagraph"
         font-family="'Liberation Sans', sans-serif"
         font-size="3.82656px"
         font-weight="400"
         id="tspan176-3"
         style="stroke-width:0.0030593"><tspan
           class="TextPosition"
           x="25.686707"
           y="42.736889"
           id="tspan174-6"
           style="stroke-width:0.30593"><tspan
             fill="#000000"
             stroke="none"
             id="tspan172-3"
             style="stroke-width:0.0030593">10000</tspan></tspan></tspan></text>
    <text
       xml:space="preserve"
       style="font-style:normal;font-weight:normal;font-size:3.39206px;line-height:1.25;font-family:sans-serif;fill:#000000;fill-opacity:1;stroke:none;stroke-width:0.0848016"
       x="-90.149315"
       y="22.033264"
       id="text543"
       transform="rotate(-90)"
       inkscape:export-xdpi="300"
       inkscape:export-ydpi="300"><tspan
         sodipodi:role="line"
         id="tspan541"
         x="-90.149315"
         y="22.033264"
         style="stroke-width:0.0848016">computation time (s)</tspan></text>
    <text
       xml:space="preserve"
       style="font-style:normal;font-weight:normal;font-size:3.39206px;line-height:1.25;font-family:sans-serif;fill:#000000;fill-opacity:1;stroke:none;stroke-width:0.0848016"
       x="89.70475"
       y="115.089"
       id="text547"
       inkscape:export-xdpi="300"
       inkscape:export-ydpi="300"><tspan
         sodipodi:role="line"
         id="tspan545"
         x="89.70475"
         y="115.089"
         style="stroke-width:0.0848016">degrees of freedom</tspan></text>
  </g>
</svg>
