X,Y,surf vx,surf vy,tau integr.,tau dir.,P integr.,P dir.,
0.0,1000.0,26.1474597073,3.77467105311,75011.0626996,57252.738054,8392150.22777,8392150.22777
320.0,1012.56504772,25.0199778901,3.61830799789,79448.8722019,70762.7547779,9254588.5772,9254588.5772
640.0,1025.12215909,23.959826417,3.43936305285,74886.5094899,84207.768154,8736339.37386,8736339.37386
960.0,1037.66340276,22.7993273158,3.08949424956,75355.9276192,78668.2830973,7904423.30291,7904423.30291
1280.0,1050.18085743,21.5855639349,3.08926725404,70910.1033495,63314.1083899,6890117.11698,6890117.11698
1600.0,1062.66661678,20.4774779275,2.9444159932,69993.3184749,58782.1542634,7543869.9732,7543869.9732
1920.0,1075.11279456,19.4086432254,3.00734050943,71870.685642,57023.4188815,8167137.56827,8167137.56827
2240.0,1087.51152949,18.4882180273,2.7968512967,72206.2710713,92333.7205792,8237907.67033,8237907.67033
2560.0,1099.85499026,17.5870829555,2.64378313832,64477.6717821,75127.2608228,7533688.45281,7533688.45281
2880.0,1112.13538047,16.6720747621,2.3337662284,69894.0154932,68982.4055867,7020350.42189,7020350.42189
3200.0,1124.34494358,15.7246608856,2.23310216211,65259.627252,66494.7172176,7014220.20463,7014220.20463
3520.0,1136.47596776,14.8377086727,1.99507194903,66715.6490701,68829.2367055,7470352.20227,7470352.20227
3840.0,1148.52079079,13.9456120287,1.96825687141,64040.7404119,60449.067498,7741019.52835,7741019.52835
4160.0,1160.4718049,13.1491612497,1.86417697833,62700.5962726,52882.4383243,6941219.61433,6941219.61433
4480.0,1172.32146159,12.4101241667,1.83644598317,65967.226731,59669.8347384,6142880.67473,6142880.67473
4800.0,1184.06227634,11.7876533506,1.66094673342,60491.4866473,68042.6313048,6519418.2096,6519418.2096
5120.0,1195.68683342,11.0931026427,1.48720294856,62346.6971422,62022.2345182,7215224.02895,7215224.02895
5440.0,1207.1877905,10.4329670655,1.41467749457,59277.2189424,59414.91683,7008419.04161,7008419.04161
5760.0,1218.55788333,9.80263437508,1.28342842401,59544.8374638,60779.1846948,6338346.12666,6338346.12666
6080.0,1229.78993031,9.20719663865,1.26491545855,57988.2203071,56724.051243,5730180.52837,5730180.52837
6400.0,1240.87683705,8.65178640779,1.17570202754,56242.6434618,49272.8083069,6197751.88685,6197751.88685
6720.0,1251.81160082,8.13700648879,1.17607402822,59279.811753,54531.6442877,6703635.42536,6703635.42536
7040.0,1262.58731498,7.70403652078,1.03842503859,52784.4686565,60219.6600435,6251462.97238,6251462.97238
7360.0,1273.19717337,7.23024492706,0.930271455961,56198.1361385,56070.9525124,5709566.72648,5709566.72648
7680.0,1283.63447456,6.77532965955,0.860411249277,52356.5307423,51360.5045507,5646082.85729,5646082.85729
8000.0,1293.89262615,6.36372684736,0.798762155111,54038.417722,51769.0287024,6114444.03403,6114444.03403
8320.0,1303.96514885,6.00269838872,0.719347014697,50879.3666058,55681.1920241,5969578.76127,5969578.76127
8640.0,1313.84568065,5.65694755902,0.613353982701,52576.2656724,53203.7046138,5444155.20503,5444155.20503
8960.0,1323.52798078,5.28646769674,0.569358796336,49883.2063864,50961.4660769,5362844.5792,5362844.5792
9280.0,1333.00593372,4.9816285165,0.567434822876,49564.6337369,50855.2753236,5573777.05511,5573777.05511
9600.0,1342.27355296,4.6914620788,0.525519675435,48466.8562253,47562.6140647,5546736.73263,5546736.73263
9920.0,1351.3249849,4.45116691647,0.52451326711,49573.4946201,50597.9447893,5023649.3589,5023649.3589
10240.0,1360.15451244,4.20350159147,0.423418294921,47855.4148799,48075.7376601,5269273.70458,5269273.70458
10560.0,1368.75655868,3.96350767963,0.442590616924,46544.7820447,47541.1158511,5299687.37944,5299687.37944
10880.0,1377.12569037,3.75924396633,0.34013899648,47011.0668952,48135.5071733,4828297.84185,4828297.84185
11200.0,1385.25662139,3.52901572149,0.35275266458,44952.6995545,46713.0063226,4914570.19737,4914570.19737
11520.0,1393.14421607,3.34027265386,0.313520961232,44574.4393195,45313.8547919,5334716.6212,5334716.6212
11840.0,1400.78349244,3.1574175821,0.331842182217,44035.5650225,42764.1439717,4906424.35232,4906424.35232
12160.0,1408.16962536,3.02269004568,0.285182660313,44124.9860998,46716.5328077,4293127.35132,4293127.35132
12480.0,1415.2979496,2.87585238323,0.225885967272,44182.4523371,45125.2657736,4957532.00103,4957532.00103
12800.0,1422.16396275,2.72447863608,0.18770223423,42689.4968778,43614.8710288,4776888.78278,4776888.78278
13120.0,1428.7633281,2.57932733805,0.182496005726,40978.3348875,42604.0966042,4202253.72533,4202253.72533
13440.0,1435.09187733,2.46722782538,0.191956578273,40935.7067576,40063.3013212,4702281.77026,4702281.77026
13760.0,1441.14561322,2.37245022444,0.161926985942,41485.7108669,42455.9206733,4568824.78502,4568824.78502
14080.0,1446.92071208,2.26541549552,0.151552652017,40102.0104905,41363.7016609,4306380.87233,4306380.87233
14400.0,1452.41352623,2.17666839314,0.152839439487,39560.0167499,38598.1511343,4777070.57611,4777070.57611
14720.0,1457.62058631,2.10970115893,0.128997249204,40615.9610806,41695.5290077,4310028.91866,4310028.91866
15040.0,1462.53860342,2.03659592953,0.0885577864593,39788.6762472,41367.9207352,4219056.56415,4219056.56415
15360.0,1467.16447123,1.96061884615,0.0801114394891,38858.8025967,40099.6309062,4303721.61457,4303721.61457
15680.0,1471.49526795,1.89684140152,0.0847470092119,37638.8545537,34708.3575645,3588923.01258,3588923.01258
16000.0,1475.52825815,1.84929449965,0.0998427793331,37966.914777,37190.083487,4095249.73368,4095249.73368
16320.0,1479.26089451,1.80998090561,0.0771607448848,38904.9704566,39387.6420277,4089228.16454,4089228.16454
16640.0,1482.69081942,1.7661629622,0.0551819733263,38320.5985559,39389.0811106,4206386.84483,4206386.84483
16960.0,1485.81586646,1.72849385875,0.0401203105332,37684.1810521,38013.0375891,4496492.56689,4496492.56689
17280.0,1488.63406178,1.69709781187,0.0322953951869,37317.6710598,38937.9936784,4236138.38409,4236138.38409
17600.0,1491.14362536,1.67019932681,0.0238226506697,36934.3451462,36179.9097262,4610787.06062,4610787.06062
17920.0,1493.3429721,1.64763562628,0.0224778619933,36651.6474999,35192.2679181,4137493.47661,4137493.47661
18240.0,1495.23071285,1.6310774669,0.0178943421607,36379.5006961,35943.9907327,4281871.51746,4281871.51746
18560.0,1496.80565526,1.61742055312,0.0154221364372,36195.2168751,34992.7188056,4049656.71032,4049656.71032
18880.0,1498.06680457,1.60675889142,0.00959519982078,36008.5278025,35785.4796802,4100952.83775,4100952.83775
19200.0,1499.01336421,1.59834121665,0.00838476380757,35903.4400986,34894.1683506,4011283.66972,4011283.66972
19520.0,1499.64473632,1.59362641068,0.00382827703992,35806.2172302,35720.154886,4025635.23876,4025635.23876
19840.0,1499.9605221,1.59063538497,0.00252413611918,35781.2942453,34860.6406343,4001133.87358,4001133.87358
20160.0,1499.9605221,1.59111324175,-0.0017962169832,35759.1072187,35680.5503634,4009937.8316,4009937.8316
20480.0,1499.64473632,1.5930708676,-0.00360739000221,35818.7375014,34884.0464221,3996847.20365,3996847.20365
20800.0,1499.01336421,1.59833232276,-0.00795138027373,35880.0666757,35741.9386494,4010090.69866,4010090.69866
21120.0,1498.06680457,1.60535526724,-0.00969536600857,36024.1914942,34961.6209223,3977230.45511,3977230.45511
21440.0,1496.80565526,1.61621488971,-0.0138843556102,36163.852527,35837.1565673,3982874.28981,3982874.28981
21760.0,1495.23071285,1.62968652647,-0.0166595960262,36401.1467114,35121.5890731,3920123.48447,3920123.48447
22080.0,1493.3429721,1.64660132585,-0.0226534557883,36620.6713053,35998.7359357,3884113.89439,3884113.89439
22400.0,1491.14362536,1.66699336872,-0.025810380862,36951.0184105,35347.3172807,3800239.55184,3800239.55184
22720.0,1488.63406178,1.692201006,-0.0321766770647,37254.8255714,37904.1833862,3806061.44611,3806061.44611
23040.0,1485.81586646,1.72353927196,-0.0366690651563,37671.9786786,39004.4005835,3935008.12994,3935008.12994
23360.0,1482.69081942,1.761351323,-0.0524022996123,38172.1563985,38292.3175175,4051512.26943,4051512.26943
23680.0,1479.26089451,1.8050391216,-0.0729404065031,38991.8467245,40130.3752207,4245419.14644,4245419.14644
24000.0,1475.52825815,1.84503963236,-0.105067962713,38871.6886688,38692.1145536,4527260.35007,4527260.35007
24320.0,1471.49526795,1.88597751648,-0.0954397052293,36995.5222643,33708.0435147,4631537.60511,4631537.60511
24640.0,1467.16447123,1.95370575455,-0.0751003154323,38949.3563278,41656.2591878,4551068.64598,4551068.64598
24960.0,1462.53860342,2.02608820584,-0.0927987821726,39577.8257043,39914.4340983,4379759.16757,4379759.16757
25280.0,1457.62058631,2.10606517114,-0.116167640515,40659.8912486,42201.8780743,4328751.29186,4328751.29186
25600.0,1452.41352623,2.17839437621,-0.161774143704,40851.3160579,40881.6954262,4430150.81911,4430150.81911
25920.0,1446.92071208,2.25741299868,-0.164633414237,39387.376851,38654.357505,4393339.59682,4393339.59682
26240.0,1441.14561322,2.37655148423,-0.162745654447,41643.1770273,43827.9656585,4522412.31031,4522412.31031
26560.0,1435.09187733,2.48023962922,-0.20307004612,41960.7678093,41570.6033252,4715888.3166,4715888.3166
26880.0,1428.7633281,2.58776174162,-0.209002839479,40520.4852835,40174.6613696,4769416.65729,4769416.65729
27200.0,1422.16396275,2.73571462762,-0.208502586516,43078.5533367,45789.2528383,4703228.42761,4703228.42761
27520.0,1415.2979496,2.86696024358,-0.254561316046,43511.4729539,43499.7327042,4774958.47469,4774958.47469
27840.0,1408.16962536,3.00094659915,-0.263328508608,42187.3684177,41396.3570215,4868875.41026,4868875.41026
28160.0,1400.78349244,3.1816487334,-0.264937313918,44882.3500323,47188.2421161,4888056.61968,4888056.61968
28480.0,1393.14421607,3.3493593047,-0.314864690738,45513.0431525,45088.2229247,5008933.37484,5008933.37484
28800.0,1385.25662139,3.52107960268,-0.335410760754,44404.093811,43354.2430445,5105492.78102,5105492.78102
29120.0,1377.12569037,3.74952577997,-0.342683958086,47094.4002582,49386.4228611,5158590.92139,5158590.92139
29440.0,1368.75655868,3.95960431879,-0.418550693403,47283.2136553,50053.2082775,5172295.35946,5172295.35946
29760.0,1360.15451244,4.17637868109,-0.44832939568,47543.2882215,46343.2520821,5248662.701,5248662.701
30080.0,1351.3249849,4.42467025072,-0.488408258177,48955.1182717,50284.0900292,5530084.58136,5530084.58136
30400.0,1342.27355296,4.67775827302,-0.519754853064,48719.9042126,49402.4406708,5370391.53953,5370391.53953
30720.0,1333.00593372,4.96099113231,-0.544635705408,50119.1014767,51122.5624068,5529985.89909,5529985.89909
31040.0,1323.52798078,5.25311950621,-0.58326924666,49652.1509174,49496.1084195,5632964.15204,5632964.15204
31360.0,1313.84568065,5.61224440695,-0.592278875383,52376.596403,53891.2484333,5791450.78215,5791450.78215
31680.0,1303.96514885,5.9617038791,-0.706538430256,50955.2915258,55661.6187236,5713415.1899,5713415.1899
32000.0,1293.89262615,6.31851791233,-0.767339543488,53873.5167797,51553.4366097,5717734.50843,5717734.50843
32320.0,1283.63447456,6.73006643527,-0.849504159212,52154.4103947,53619.5475276,6058247.79142,6058247.79142
32640.0,1273.19717337,7.14256696137,-0.932930807719,56002.0005309,54803.7223862,6115312.40021,6115312.40021
32960.0,1262.58731498,7.60319018292,-1.00748758405,53929.4552441,56646.6330326,6124517.48734,6124517.48734
33280.0,1251.81160082,8.03398158027,-1.12742062224,57150.188827,55589.864438,6074257.81822,6074257.81822
33600.0,1240.87683705,8.5336258902,-1.12332879712,56673.873078,52962.1256367,6357653.72196,6357653.72196
33920.0,1229.78993031,9.08300907338,-1.20479225896,58725.7567222,57764.6618756,6782746.55727,6782746.55727
34240.0,1218.55788333,9.64121649705,-1.25560880642,59302.325155,59128.6764438,6533048.37108,6533048.37108
34560.0,1207.1877905,10.2412108236,-1.36123403386,59358.1772489,59534.420709,6530552.89989,6530552.89989
34880.0,1195.68683342,10.8582028439,-1.44781148577,61690.0319658,60980.5966619,6612949.36101,6612949.36101
35200.0,1184.06227634,11.5339302597,-1.55669921399,59995.4610702,61464.2613681,6987741.03388,6987741.03388
35520.0,1172.32146159,12.2169676232,-1.69434730865,64415.2477062,62979.2492626,7049969.40845,7049969.40845
35840.0,1160.4718049,12.9517953109,-1.81345584274,60931.3795764,64756.3499972,7060609.82996,7060609.82996
36160.0,1148.52079079,13.6630805057,-1.98936122049,64932.2116413,73725.4467553,6950885.20362,6950885.20362
36480.0,1136.47596776,14.4613440696,-2.03283748402,65652.8606616,60484.8129526,7179904.90868,7179904.90868
36800.0,1124.34494358,15.3415459575,-2.15887270728,64732.7143986,66166.4143504,7567701.28355,7567701.28355
37120.0,1112.13538047,16.2199118482,-2.28910038712,69259.3760242,67571.4868953,7633210.48031,7633210.48031
37440.0,1099.85499026,17.1488737218,-2.45788986201,65214.6894152,69474.9965317,7605174.27992,7605174.27992
37760.0,1087.51152949,18.0554944284,-2.65186798454,69370.769246,79113.8429932,7455228.67966,7455228.67966
38080.0,1075.11279456,19.0258616429,-2.76108899585,70969.549232,65104.4055752,7662406.59145,7662406.59145
38400.0,1062.66661678,20.0767038447,-2.89247317519,69183.8311962,72585.1750758,8075076.14227,8075076.14227
38720.0,1050.18085743,21.0964408816,-3.06800952782,73360.9735478,82699.8014458,8297094.46579,8297094.46579
39040.0,1037.66340276,22.1884701014,-3.15825953795,73028.8616298,67133.0040013,8268359.12444,8268359.12444
39360.0,1025.12215909,23.3794804672,-3.27734313902,72512.7737627,73416.2699266,8251512.8318,8251512.8318
39680.0,1012.56504772,24.5654132095,-3.45394734516,76961.3448415,75362.1146954,7987242.78459,7987242.78459
40000.0,1000.0,25.7953444442,-3.63497057053,72516.3852374,77176.2319858,8472486.31363,8472486.31363
40320.0,987.434952278,26.9852283385,-3.88162241552,76882.6355013,87697.9961713,8807616.92857,8807616.92857
40640.0,974.87784091,28.2410838011,-3.99780775114,78599.7147353,71970.063742,8853318.49068,8853318.49068
40960.0,962.336597236,29.5737796295,-4.16372254172,76233.5506361,80049.6930389,8837294.70003,8837294.70003
41280.0,949.819142574,30.8734860858,-4.32599761836,80722.5080631,91100.8825978,8678006.99547,8678006.99547
41600.0,937.333383218,32.2390762373,-4.45058285221,80455.7627714,73847.8519485,8962893.48095,8962893.48095
41920.0,924.88720544,33.700846777,-4.54023222389,79550.8466534,80715.4648858,9397246.74224,9397246.74224
42240.0,912.488470512,35.1431742251,-4.74459032933,84435.4976301,82625.3309944,9418132.96209,9418132.96209
42560.0,900.145009743,36.6231912781,-4.88681754036,79417.1153184,84470.8816086,9392183.15596,9392183.15596
42880.0,887.864619525,38.0491172759,-5.15590391215,84109.6953347,95761.6363909,9203882.61151,9203882.61151
43200.0,875.655056418,39.5412855995,-5.20877174739,85198.6730279,78092.4094353,9470180.08401,9470180.08401
43520.0,863.524032241,41.1219195717,-5.37594147063,82919.5017433,84984.2878757,9911271.80498,9911271.80498
43840.0,851.479209211,42.6926118269,-5.48115797243,89041.6106647,86900.7954509,10025435.4656,10025435.4656
44160.0,839.528195096,44.268192802,-5.70209203169,83045.893935,88620.310708,9942722.27672,9942722.27672
44480.0,827.678538413,45.7966678244,-5.8509667674,88164.2509935,100470.068039,9722395.04217,9722395.04217
44800.0,815.937723658,47.3592901,-5.99161718458,89180.7049175,81636.645205,9968942.81324,9968942.81324
45120.0,804.313166581,49.0140364415,-6.01171058818,87331.7586389,89154.4677734,10505592.8882,10505592.8882
45440.0,792.812209503,50.6154525732,-6.19999304892,92746.4791436,90748.0826316,10568007.3932,10568007.3932
45760.0,781.442116675,52.2342502398,-6.24262196808,87900.0488704,92561.096384,10420982.1097,10420982.1097
46080.0,770.210069689,53.7592383344,-6.47168044385,93382.3349638,104717.532651,10090412.4291,10090412.4291
46400.0,759.123162949,55.3251029431,-6.39012689925,92194.5744952,85255.6315051,10618985.3011,10618985.3011
46720.0,748.188399182,56.9406838555,-6.47579927393,93199.466563,92196.5386276,11293255.7472,11293255.7472
47040.0,737.412685019,58.5481628997,-6.38234533421,94799.4596821,93894.3399656,10904076.1089,10904076.1089
47360.0,726.802826633,60.1497751772,-6.48112923242,93506.2991509,93461.9221496,10653116.0822,10653116.0822
47680.0,716.365525437,61.7088737224,-6.43520192598,96471.3165497,95550.9895526,10818222.1736,10818222.1736
48000.0,706.107373854,63.2650682277,-6.51369745706,94357.3437754,95055.2504044,11538061.6923,11538061.6923
48320.0,696.034851153,64.76621694,-6.49109233065,97782.3270859,96415.609393,11330119.9672,11330119.9672
48640.0,686.154319355,66.2673053404,-6.52343263545,95550.6205671,96023.8373023,11038570.9122,11038570.9122
48960.0,676.472019215,67.700856462,-6.50119149884,98870.6883157,97898.1471258,11177327.6706,11177327.6706
49280.0,666.994066283,69.1376931532,-6.4659826637,97210.6422909,97237.6390631,11978678.0552,11978678.0552
49600.0,657.726447036,70.497730832,-6.43298016331,99597.0644199,98587.0601811,11598992.3986,11598992.3986
49920.0,648.675015101,71.8629469405,-6.31668390872,99262.5498152,98071.7007492,11238474.693,11238474.693
50240.0,639.845487556,73.1491149954,-6.25489313789,99914.4588885,99695.0986179,11633719.364,11633719.364
50560.0,631.243441321,74.4554054102,-6.04370516553,101090.015319,103420.06856,12555145.554,12555145.554
50880.0,622.874309632,75.6994642646,-5.9595692977,99303.6874443,97976.9800283,11735308.5906,11735308.5906
51200.0,614.743378612,76.962218973,-5.71392195174,102999.175312,105863.650907,11608605.9621,11608605.9621
51520.0,606.855783932,78.126353851,-5.6978025911,101177.082939,108103.15026,12256508.9605,12256508.9605
51840.0,599.216507565,79.1843621543,-5.53155760675,102129.475265,98719.3667927,12122507.3169,12122507.3169
52160.0,591.830374641,80.1963364494,-5.44220359198,103292.630239,106928.55453,12020202.0731,12020202.0731
52480.0,584.702050402,81.1709469156,-5.18700290697,100711.145252,99841.3580848,12421478.911,12421478.911
52800.0,577.836037249,82.1380053506,-4.99380353651,104479.202981,107611.294144,12349330.1161,12349330.1161
53120.0,571.236671903,83.0450393121,-4.74975822768,105017.24061,104754.018561,11879703.5557,11879703.5557
53440.0,564.908122665,83.851601944,-4.59230479741,101466.893461,97612.2820276,12532693.3004,12532693.3004
53760.0,558.854386783,84.6485912778,-4.29921429089,105419.051821,110122.259474,12544515.5731,12544515.5731
54080.0,553.079287924,85.3693962452,-4.1231469293,105333.764784,105050.341334,12307810.5568,12307810.5568
54400.0,547.586473767,86.031756085,-3.83706396429,101144.216075,97906.7419235,13120746.8299,13120746.8299
54720.0,542.37941369,86.6758335462,-3.61350715712,105063.937024,108511.117007,12469429.0029,12469429.0029
55040.0,537.461396583,87.2668447825,-3.3625382311,106797.381359,106815.805723,12376651.0232,12376651.0232
55360.0,532.835528772,87.7538152278,-3.21696571547,106372.398829,107602.531393,13102301.0314,13102301.0314
55680.0,528.504732054,88.1616995214,-2.99063258436,101888.823009,100677.936651,12124915.0176,12124915.0176
56000.0,524.471741852,88.548979033,-2.75394790009,105708.864905,109057.839597,12820189.099,12820189.099
56320.0,520.739105491,88.8852903168,-2.49318889167,107033.642851,108103.432682,12722248.9025,12722248.9025
56640.0,517.309180583,89.1492508627,-2.24875960307,106299.593436,108312.675941,12772577.6064,12772577.6064
56960.0,514.184133543,89.364681825,-1.93551155253,101295.804536,95953.8019176,13426083.6941,13426083.6941
57280.0,511.365938216,89.5952814965,-1.56982709518,104895.30463,105697.096923,12602403.5005,12602403.5005
57600.0,508.856374636,89.8150245307,-1.23928021241,104893.163529,104979.910337,13608096.289,13608096.289
57920.0,506.657027896,90.0059839614,-0.963748573481,105566.160551,107004.716737,12665730.7652,12665730.7652
58240.0,504.769287152,90.1485019668,-0.76709879432,105903.731194,106512.290274,13232891.7452,13232891.7452
58560.0,503.19434474,90.2420913633,-0.613179415387,106209.913311,106978.458494,12790053.9518,12790053.9518
58880.0,501.933195428,90.3000313412,-0.499009694777,106552.136451,107140.057752,13015391.5142,13015391.5142
59200.0,500.986635786,90.3369846844,-0.387276810423,106923.596325,107403.378526,12897712.8093,12897712.8093
59520.0,500.35526368,90.3533919015,-0.26569858517,107140.392875,108662.660124,12917441.4628,12917441.4628
59840.0,500.039477898,90.3536340559,-0.111626973959,104939.055347,104719.508215,12957114.2288,12957114.2288
60160.0,500.039477898,90.3506341178,0.0651600416102,102916.727366,99397.3657391,12902839.1242,12902839.1242
60480.0,500.35526368,90.3507347794,0.236109623268,106848.585958,109115.421338,12940869.3318,12940869.3318
60800.0,500.986635786,90.337999584,0.368972628047,107138.721461,107775.4465,12946386.9527,12946386.9527
61120.0,501.933195428,90.3067684459,0.492838729238,106633.38712,107151.401511,12826625.795,12826625.795
61440.0,503.19434474,90.253962194,0.606647550411,106266.252173,107056.264499,13016709.4449,13016709.4449
61760.0,504.769287152,90.1704841245,0.760879895134,105950.814513,106718.699932,12579912.8059,12579912.8059
62080.0,506.657027896,90.0397649145,0.944777932201,105561.290206,106634.375227,13078379.8785,13078379.8785
62400.0,508.856374636,89.8630503566,1.21363833328,105049.417251,105958.802149,12166211.8423,12166211.8423
62720.0,511.365938216,89.6513195582,1.51428911451,104637.069864,104257.382749,13050659.5867,13050659.5867
63040.0,514.184133543,89.4233246058,1.88716063499,102653.375162,100022.177645,12236810.7555,12236810.7555
63360.0,517.309180583,89.2015500104,2.19236597557,104224.584221,103522.483229,12795039.2452,12795039.2452
63680.0,520.739105491,88.9523780089,2.4762037362,106985.670564,109204.114835,12778955.8581,12778955.8581
64000.0,524.471741852,88.6352952714,2.69229652924,105908.017889,108321.254721,12583557.2589,12583557.2589
64320.0,528.504732054,88.2563612608,2.96594008315,102943.63284,103031.005505,13241933.6455,13241933.6455
64640.0,532.835528772,87.8566875138,3.1466473081,104793.780328,103902.587186,12180412.0392,12180412.0392
64960.0,537.461396583,87.3831981434,3.34252607766,106778.024404,108115.126988,12793833.5486,12793833.5486
65280.0,542.37941369,86.8200356223,3.51175492515,105281.195281,106828.532944,12627247.824,12627247.824
65600.0,547.586473767,86.1698197823,3.78284285554,102470.560378,102461.798895,11970951.9781,11970951.9781
65920.0,553.079287924,85.512112443,4.01508418342,103181.924636,101629.049346,12625957.1403,12625957.1403
66240.0,558.854386783,84.7850010656,4.25692692538,105317.833344,107998.83707,12279674.9933,12279674.9933
66560.0,564.908122665,84.0081227154,4.5020957047,103199.232216,104126.678323,12155491.9835,12155491.9835
66880.0,571.236671903,83.1602118223,4.74735956076,101761.709354,98341.5364769,12788076.9404,12788076.9404
67200.0,577.836037249,82.3042071246,5.00054708882,104645.81023,107687.538765,12079079.7446,12079079.7446
67520.0,584.702050402,81.3367381665,5.19240897989,101569.81931,102314.675199,11903710.9129,11903710.9129
67840.0,591.830374641,80.3950189403,5.48143657875,102212.675829,104981.044732,12383755.7485,12383755.7485
68160.0,599.216507565,79.3865904627,5.52824821943,102087.577318,98736.285017,11950582.3041,11950582.3041
68480.0,606.855783932,78.3689514245,5.73178047771,101517.874408,108488.688983,11583764.4787,11583764.4787
68800.0,614.743378612,77.2003018271,5.64874399122,103104.478094,104280.31537,12253082.342,12253082.342
69120.0,622.874309632,75.9468243834,5.98545425385,99970.5865088,101196.537126,11994734.0526,11994734.0526
69440.0,631.243441321,74.6780920094,5.96606305463,99688.4028401,101935.367041,10887871.7194,10887871.7194
69760.0,639.845487556,73.3947485843,6.32849430137,99843.4649457,97687.6887724,11751810.5656,11751810.5656
70080.0,648.675015101,72.1337509095,6.21046999804,100045.136593,102120.76697,11997916.5784,11997916.5784
70400.0,657.726447036,70.7697071115,6.4783010611,100014.393607,100397.94574,11455972.2328,11455972.2328
70720.0,666.994066283,69.406173257,6.33983364503,96898.3620472,94136.0099209,10843400.9418,10843400.9418
71040.0,676.472019215,67.9803676856,6.5673622867,98966.695448,96174.5895865,11548714.9063,11548714.9063
71360.0,686.154319355,66.581857456,6.3689755566,95754.5460732,99171.2940625,11516901.6186,11516901.6186
71680.0,696.034851153,65.0793606879,6.52501192231,98072.4704625,97715.3974962,11075551.8385,11075551.8385
72000.0,706.107373854,63.5977534727,6.33931862306,94324.4935273,92891.8061247,10588217.4017,10588217.4017
72320.0,716.365525437,62.0615075042,6.46212578912,96586.6005274,94029.9560674,11171987.4443,11171987.4443
72640.0,726.802826633,60.5721435468,6.24525914753,93961.3933262,96403.2974335,11170085.338,11170085.338
72960.0,737.412685019,58.9924697448,6.28914586973,95068.2078732,92697.8382496,10733786.0981,10733786.0981
73280.0,748.188399182,57.4316630748,6.10138690322,93238.1125431,96171.6715061,10114126.3862,10114126.3862
73600.0,759.123162949,55.7895418253,6.17128211701,93700.6239466,97900.620914,10727051.6627,10727051.6627
73920.0,770.210069689,54.1580087288,6.12245790222,90876.3005072,82814.8136857,11054835.1065,11054835.1065
74240.0,781.442116675,52.5675125232,6.26224630274,89510.4081266,73333.1965306,10309630.9517,10309630.9517
74560.0,792.812209503,51.087648422,6.1169563892,95012.8890402,84389.619792,9635454.43934,9635454.43934
74880.0,804.313166581,49.6456170727,5.98373204899,88443.3758843,101783.910858,9998668.02516,9998668.02516
75200.0,815.937723658,48.0291839337,5.69180378438,91782.3706224,98084.4463688,10609340.0783,10609340.0783
75520.0,827.678538413,46.3381664517,5.78484165997,85793.6015154,70866.2298478,10291700.3008,10291700.3008
75840.0,839.528195096,44.7171920514,5.70894451621,86414.2043293,66505.4136176,9600487.99356,9600487.99356
76160.0,851.479209211,43.2606074774,5.75290455528,92044.8851218,81223.7796127,9020818.76125,9020818.76125
76480.0,863.524032241,41.8553096543,5.37819712418,84666.5640763,97216.0974699,9298484.47936,9298484.47936
76800.0,875.655056418,40.2948408065,5.2373516497,87700.1562458,92163.3867321,10153905.6025,10153905.6025
77120.0,887.864619525,38.6758238398,5.06967461108,82329.2076163,72244.296067,10292801.1355,10292801.1355
77440.0,900.145009743,37.1101675803,5.14910695408,82259.4736621,65973.7943012,9029411.43205,9029411.43205
77760.0,912.488470512,35.6191535005,5.03875111066,85439.1849702,63976.4670736,7850868.58814,7850868.58814
78080.0,924.88720544,34.3021817058,5.0147155246,83146.2128392,109917.579701,8870950.48585,8870950.48585
78400.0,937.333383218,33.0441638318,4.60136189133,74686.3793183,89730.160108,9561333.74109,9561333.74109
78720.0,949.819142574,31.6644414222,4.35445792226,81526.2171649,83600.2545232,10288820.3249,10288820.3249
79040.0,962.336597236,30.2523669095,3.99715411579,77109.3641279,79402.9357408,9111862.97248,9111862.97248
79360.0,974.87784091,28.8482133359,3.87126202623,79664.6377414,84505.4369517,7925229.90633,7925229.90633
79680.0,987.434952278,27.4728007198,3.70178416595,75601.4189147,64775.5657422,7425486.16376,7425486.16376
80000.0,1000.0,26.1474597073,3.77467105311,75011.0626996,56897.2307714,8392150.22777,8392150.22777
